6
75.4
6.28318 6.28318
0.0 0.0
0.00294471 6.81687 10.1319 10.8361 15.8371 16.5535 21.4712 26.5657 30.7361 39.4555 64.236 85.818 105.03 200.125 204.77 222.561 224.949 233.185
0 0 0 -2.52428e-03 -9.32930e-02 -1.40770e-01 1.26474e-03 4.67423e-02 7.05296e-02 -1.26473e-03 -4.67423e-02 -7.05296e-02 2.52429e-03 9.32930e-02 1.40770e-01 0 0 0
5.82920e-04 2.15436e-02 3.25072e-02 1.78646e-03 6.60243e-02 9.96241e-02 2.10721e-03 7.78787e-02 1.17511e-01 2.10721e-03 7.78787e-02 1.17511e-01 1.78646e-03 6.60243e-02 9.96241e-02 5.82920e-04 2.15436e-02 3.25072e-02
2.97595e-02 7.37272e-02 -4.93952e-02 4.00591e-02 8.74963e-02 -5.87051e-02 3.36375e-02 9.50819e-02 -6.36171e-02 3.36375e-02 9.50819e-02 -6.36171e-02 4.00591e-02 8.74963e-02 -5.87051e-02 2.97595e-02 7.37272e-02 -4.93952e-02
-1.02063e-01 2.93542e-02 -1.76238e-02 -1.03412e-01 2.94574e-02 -1.76680e-02 -1.04717e-01 3.04022e-02 -1.82707e-02 -1.04717e-01 3.04022e-02 -1.82707e-02 -1.03412e-01 2.94574e-02 -1.76680e-02 -1.02063e-01 2.93542e-02 -1.76238e-02
1.26457e-02 1.29560e-01 -8.60908e-02 -2.64738e-02 7.94587e-02 -5.21852e-02 2.13103e-02 2.79373e-02 -1.88971e-02 -2.13103e-02 -2.79373e-02 1.88971e-02 2.64738e-02 -7.94587e-02 5.21852e-02 -1.26457e-02 -1.29560e-01 8.60908e-02
2.28388e-03 8.44079e-02 1.27363e-01 7.43577e-04 2.74813e-02 4.14666e-02 1.48411e-03 5.48500e-02 8.27632e-02 -1.48411e-03 -5.48500e-02 -8.27632e-02 -7.43580e-04 -2.74813e-02 -4.14666e-02 -2.28388e-03 -8.44079e-02 -1.27363e-01
-2.36621e-03 -8.74506e-02 -1.31954e-01 -7.88626e-04 -2.91462e-02 -4.39787e-02 1.32315e-03 4.89011e-02 7.37870e-02 1.32315e-03 4.89011e-02 7.37870e-02 -7.88626e-04 -2.91462e-02 -4.39787e-02 -2.36621e-03 -8.74506e-02 -1.31954e-01
-1.42578e-03 -5.26943e-02 -7.95106e-02 2.03917e-03 7.53639e-02 1.13717e-01 -1.33436e-03 -4.93154e-02 -7.44121e-02 -1.33436e-03 -4.93154e-02 -7.44121e-02 2.03917e-03 7.53639e-02 1.13717e-01 -1.42578e-03 -5.26943e-02 -7.95106e-02
-1.65997e-03 -6.13493e-02 -9.25701e-02 1.02306e-03 3.78103e-02 5.70521e-02 2.04192e-03 7.54657e-02 1.13870e-01 -2.04192e-03 -7.54657e-02 -1.13870e-01 -1.02306e-03 -3.78103e-02 -5.70521e-02 1.65997e-03 6.13493e-02 9.25701e-02
-4.35499e-02 -1.18967e-01 7.96241e-02 5.07036e-02 6.71378e-03 -5.35866e-03 -1.71372e-02 8.49806e-02 -5.60122e-02 -1.71372e-02 8.49806e-02 -5.60122e-02 5.07036e-02 6.71378e-03 -5.35866e-03 -4.35499e-02 -1.18967e-01 7.96241e-02
1.54399e-01 1.29745e-02 -1.13673e-02 9.93489e-02 -2.45819e-02 1.45097e-02 2.92477e-02 2.35565e-03 -2.08564e-03 -2.92477e-02 -2.35565e-03 2.08564e-03 -9.93489e-02 2.45819e-02 -1.45097e-02 -1.54399e-01 -1.29745e-02 1.13673e-02
3.48153e-02 6.31354e-02 -4.24663e-02 -7.57639e-02 -8.61546e-02 5.84562e-02 -6.27134e-02 -7.48338e-02 5.07194e-02 6.27134e-02 7.48338e-02 -5.07194e-02 7.57639e-02 8.61546e-02 -5.84562e-02 -3.48153e-02 -6.31354e-02 4.24663e-02
1.16112e-01 1.15693e-02 -9.74949e-03 1.06899e-02 -5.40800e-02 3.56490e-02 -1.23045e-01 4.28850e-02 -2.62149e-02 -1.23045e-01 4.28850e-02 -2.62149e-02 1.06899e-02 -5.40800e-02 3.56490e-02 1.16112e-01 1.15693e-02 -9.74949e-03
-5.48524e-02 4.79464e-02 -3.07921e-02 -6.24919e-03 -1.15029e-01 7.63458e-02 6.06128e-02 6.75101e-02 -4.58281e-02 6.06128e-02 6.75101e-02 -4.58281e-02 -6.24919e-03 -1.15029e-01 7.63458e-02 -5.48524e-02 4.79464e-02 -3.07921e-02
9.21145e-02 -4.97642e-02 3.13286e-02 -9.09256e-02 4.93845e-02 -3.10983e-02 -9.25205e-02 5.01388e-02 -3.15696e-02 9.25205e-02 -5.01388e-02 3.15696e-02 9.09256e-02 -4.93845e-02 3.10983e-02 -9.21145e-02 4.97642e-02 -3.13286e-02
7.73900e-02 -4.37660e-02 2.76174e-02 -1.43722e-01 8.58960e-03 -3.11539e-03 6.68895e-02 3.48611e-02 -2.43031e-02 6.68895e-02 3.48611e-02 -2.43031e-02 -1.43722e-01 8.58960e-03 -3.11539e-03 7.73900e-02 -4.37660e-02 2.76174e-02
1.45531e-02 -2.36879e-02 1.54378e-02 2.30368e-02 8.95377e-02 -5.97528e-02 -1.77810e-02 -1.24167e-01 8.26083e-02 1.77810e-02 1.24167e-01 -8.26083e-02 -2.30368e-02 -8.95377e-02 5.97528e-02 -1.45531e-02 2.36879e-02 -1.54378e-02
4.20837e-02 -2.86473e-02 1.82309e-02 -1.02809e-01 -1.47257e-03 2.81948e-03 1.46834e-01 -2.19356e-02 1.19044e-02 -1.46834e-01 2.19356e-02 -1.19044e-02 1.02809e-01 1.47257e-03 -2.81948e-03 -4.20837e-02 2.86473e-02 -1.82309e-02
