28
75.4
6.28318 6.28318
0.0 0.0
0.000946142 1.411 1.57268 1.93809 2.81308 3.31737 4.03438 4.43338 4.79498 4.93782 5.49527 5.67218 5.89803 6.832 6.97913 9.56634 9.75695 10.3676 11.1087 14.691 15.1845 15.8965 17.4865 19.6683 21.3282 22.4936 23.3405 26.3082 26.6668 28.4621 28.817 31.0241 31.9972 33.8285 33.8707 36.0446 36.0478 36.8451 37.4916 37.841 38.279 44.7702 46.1086 54.6341 56.4046 65.3082 67.3209 75.5809 77.8332 82.9814 84.6898 90.7011 91.2133 100.102 100.14 108.196 108.27 113.838 113.864 170.28 170.281 199.674 200.279 202.28 204.336 206.282 209.712 211.146 215.088 216.539 219.811 222.156 223.934 227.291 227.447 230.335 231.555 232.612 234.33 234.735 235.556 236.362 236.694 236.816
4.96228e-04 -4.76189e-02 1.72872e-02 -5.48854e-04 -2.61293e-02 -3.46667e-02 4.58432e-04 -1.68897e-02 2.13175e-02 -5.60885e-04 -8.02891e-03 -3.17426e-02 4.62545e-04 -6.47902e-03 2.35926e-02 -5.50486e-04 -1.91415e-03 -2.99771e-02 4.75874e-04 -2.94989e-03 2.50055e-02 -5.36645e-04 1.41240e-04 -2.88274e-02 4.89408e-04 -1.77203e-03 2.59656e-02 -5.23811e-04 8.08723e-04 -2.80056e-02 5.01590e-04 -1.41168e-03 2.66917e-02 -5.12073e-04 9.76419e-04 -2.73414e-02 5.13230e-04 -1.37897e-03 2.73240e-02 -5.00091e-04 8.89443e-04 -2.67142e-02 5.26090e-04 -1.60317e-03 2.79713e-02 -4.85668e-04 4.67977e-04 -2.60219e-02 5.42947e-04 -2.33886e-03 2.87325e-02 -4.65156e-04 -7.88096e-04 -2.51668e-02 5.68835e-04 -4.48552e-03 2.97010e-02 -4.31281e-04 -4.42567e-03 -2.40630e-02 6.14665e-04 -1.07295e-02 3.09334e-02 -3.67027e-04 -1.49934e-02 -2.26930e-02 7.06944e-04 -2.90142e-02 3.22878e-02 -2.27965e-04 -4.59552e-02 -2.13242e-02 -6.16539e-04 -8.79258e-02 -5.04979e-02 1.13220e-03 -9.19431e-02 4.27381e-02 0 0 0 0 0 0
-4.36092e-03 -2.77262e-03 -2.07748e-02 -2.86399e-03 -1.23426e-03 -3.04900e-02 -1.84253e-03 -3.75870e-04 -3.42949e-02 -1.56253e-03 4.37784e-04 -4.30215e-02 -1.22485e-03 8.91042e-04 -4.64966e-02 -1.29372e-03 1.42093e-03 -5.36831e-02 -1.15981e-03 1.72391e-03 -5.65166e-02 -1.29897e-03 2.10184e-03 -6.18575e-02 -1.21569e-03 2.32798e-03 -6.38542e-02 -1.34084e-03 2.59196e-03 -6.71410e-02 -1.25928e-03 2.76228e-03 -6.81709e-02 -1.34760e-03 2.92383e-03 -6.92767e-02 -1.25104e-03 3.04606e-03 -6.92732e-02 -1.29764e-03 3.11178e-03 -6.81551e-02 -1.17732e-03 3.19305e-03 -6.71182e-02 -1.17893e-03 3.17324e-03 -6.38185e-02 -1.02061e-03 3.22698e-03 -6.18142e-02 -9.59149e-04 3.14403e-03 -5.64592e-02 -7.18796e-04 3.20247e-03 -5.36171e-02 -5.17778e-04 3.11234e-03 -4.64142e-02 0 3.26564e-03 -4.29280e-02 5.58220e-04 3.32636e-03 -3.41804e-02 1.72276e-03 3.85604e-03 -3.03567e-02 3.58476e-03 4.55574e-03 -2.06081e-02 -8.26566e-03 -5.40362e-03 -1.69908e-02 7.63262e-03 6.85789e-03 -1.67606e-02 4.51703e-04 0 -3.97308e-03 -6.00162e-04 2.98064e-04 -3.94236e-03
2.26550e-03 1.55684e-02 5.28050e-03 -2.05235e-03 2.65344e-02 -6.64442e-03 2.37840e-03 3.45122e-02 6.56892e-03 -1.66524e-03 4.22893e-02 -6.47175e-03 2.23639e-03 4.78345e-02 7.70022e-03 -1.28531e-03 5.37673e-02 -5.99779e-03 1.92720e-03 5.76863e-02 8.64745e-03 -8.41000e-04 6.21269e-02 -5.44999e-03 1.50179e-03 6.45674e-02 9.42236e-03 -3.39144e-04 6.75248e-02 -4.93068e-03 1.00535e-03 6.84468e-02 1.00297e-02 1.97549e-04 6.98609e-02 -4.48693e-03 4.78022e-04 6.92166e-02 1.04669e-02 7.39626e-04 6.90572e-02 -4.13758e-03 0 6.68502e-02 1.07279e-02 1.25219e-03 6.51408e-02 -3.88510e-03 -5.36224e-04 6.14268e-02 1.07995e-02 1.69522e-03 5.82192e-02 -3.72122e-03 -9.73199e-04 5.30503e-02 1.06427e-02 2.02375e-03 4.83230e-02 -3.63686e-03 -1.35364e-03 4.15734e-02 1.01419e-02 2.18652e-03 3.49530e-02 -3.66140e-03 -1.75942e-03 2.58615e-02 8.97358e-03 2.09136e-03 1.59684e-02 -4.00334e-03 -4.32349e-03 1.33554e-04 -7.41199e-03 -4.04282e-03 -5.11241e-04 7.55267e-03 0 4.68808e-03 0 0 4.67616e-03 3.40613e-04
1.04528e-03 -5.90209e-02 1.14985e-02 -9.12065e-04 -4.22969e-02 -2.44952e-02 8.88105e-04 -3.43608e-02 1.48163e-02 -1.34873e-03 -2.68349e-02 -1.55261e-02 9.40928e-04 -2.35994e-02 1.58197e-02 -1.31115e-03 -1.89112e-02 -8.04801e-03 1.02890e-03 -1.67030e-02 1.55978e-02 -1.17038e-03 -1.29676e-02 -1.50175e-03 1.11271e-03 -1.07270e-02 1.43791e-02 -1.01477e-03 -7.40779e-03 4.15630e-03 1.17129e-03 -4.85688e-03 1.21709e-02 -8.60373e-04 -1.83432e-03 8.86701e-03 1.19460e-03 1.06647e-03 8.95346e-03 -7.07094e-04 3.79047e-03 1.25787e-02 1.18157e-03 7.02460e-03 4.73697e-03 -5.56440e-04 9.44911e-03 1.52798e-02 1.13426e-03 1.30506e-02 -4.23910e-04 -4.17434e-04 1.52983e-02 1.70038e-02 1.03949e-03 1.95353e-02 -6.43552e-03 -3.10096e-04 2.21502e-02 1.78144e-02 8.09924e-04 2.80727e-02 -1.32008e-02 -2.77513e-04 3.29580e-02 1.77387e-02 0 4.42478e-02 -2.07845e-02 -5.18989e-04 5.78119e-02 1.65619e-02 3.15242e-03 -9.10095e-02 -4.87965e-02 -4.82986e-03 9.48630e-02 -4.06380e-02 2.09045e-03 -4.12713e-03 -7.56352e-04 -2.11064e-03 4.17350e-03 -3.19901e-04
-2.07894e-02 5.11727e-03 -4.79068e-02 -2.00308e-02 2.72749e-03 -4.49442e-02 -1.90833e-02 2.03059e-03 -5.98517e-02 -1.92696e-02 1.23060e-03 -5.28573e-02 -1.91882e-02 1.39655e-03 -6.35631e-02 -1.93294e-02 8.39078e-04 -5.16918e-02 -1.94032e-02 1.07676e-03 -5.80198e-02 -1.93192e-02 3.95259e-04 -4.13082e-02 -1.93698e-02 5.11101e-04 -4.37484e-02 -1.90963e-02 -3.42746e-04 -2.31923e-02 -1.91000e-02 -3.44273e-04 -2.29659e-02 -1.87071e-02 -1.31050e-03 -2.93463e-04 -1.86851e-02 -1.36105e-03 8.79674e-04 -1.82275e-02 -2.34852e-03 2.35500e-02 -1.82154e-02 -2.36646e-03 2.37754e-02 -1.77180e-02 -3.28374e-03 4.43246e-02 -1.77589e-02 -3.18925e-03 4.18833e-02 -1.72162e-02 -3.94736e-03 5.85830e-02 -1.73797e-02 -3.63993e-03 5.22597e-02 -1.67934e-02 -4.10505e-03 6.41212e-02 -1.72757e-02 -3.34998e-03 5.34514e-02 -1.68264e-02 -3.15407e-03 6.04768e-02 -1.83302e-02 -1.17945e-03 4.57304e-02 -1.89734e-02 9.45508e-04 4.89138e-02 -2.72384e-02 1.10377e-02 -2.35443e-02 -2.63202e-02 8.92841e-03 2.54092e-02 -9.33678e-03 8.56357e-04 -9.19926e-03 -8.98452e-03 0 9.58182e-03
-3.07555e-02 -7.09310e-03 4.24998e-03 -3.48260e-02 -6.52090e-03 1.75012e-02 -3.44314e-02 -5.37615e-03 1.99653e-02 -3.63604e-02 -4.32055e-03 3.08608e-02 -3.54980e-02 -2.89244e-03 2.91262e-02 -3.66698e-02 -1.80365e-03 3.62843e-02 -3.59898e-02 -3.76044e-04 2.98242e-02 -3.68095e-02 5.64628e-04 3.31946e-02 -3.64521e-02 1.84197e-03 2.26094e-02 -3.69811e-02 2.51318e-03 2.29088e-02 -3.69511e-02 3.51724e-03 9.51150e-03 -3.71586e-02 3.81241e-03 8.07902e-03 -3.74288e-02 4.43303e-03 -6.32479e-03 -3.72754e-02 4.26246e-03 -7.78411e-03 -3.78085e-02 4.41404e-03 -2.12076e-02 -3.72698e-02 3.72043e-03 -2.09870e-02 -3.80252e-02 3.35741e-03 -3.16220e-02 -3.70814e-02 2.13174e-03 -2.83781e-02 -3.80051e-02 1.26380e-03 -3.49069e-02 -3.65679e-02 -4.34556e-04 -2.79179e-02 -3.74969e-02 -1.70962e-03 -2.97353e-02 -3.51632e-02 -3.69504e-03 -1.90509e-02 -3.54671e-02 -5.04807e-03 -1.66813e-02 -3.09045e-02 -6.75100e-03 -3.69000e-03 -2.91605e-02 -6.44038e-03 2.49317e-03 -2.92437e-02 -6.24918e-03 -1.94450e-03 -2.71246e-02 -1.34888e-03 6.98861e-03 -2.73693e-02 -7.86710e-04 -6.05854e-03
2.45085e-03 1.58667e-02 -1.55443e-02 -1.04729e-03 3.23427e-02 -4.46777e-02 1.73452e-03 4.07514e-02 -1.22475e-02 -5.27399e-04 4.74259e-02 -3.56799e-02 1.52834e-04 4.84370e-02 -2.23993e-03 5.91758e-04 4.87707e-02 -1.82470e-02 -1.26252e-03 4.47207e-02 1.16181e-02 2.10742e-03 4.01393e-02 2.18023e-03 -2.30598e-03 3.23559e-02 2.45602e-02 3.43950e-03 2.41518e-02 1.97785e-02 -2.91197e-03 1.41305e-02 3.16425e-02 4.16203e-03 3.94345e-03 2.98575e-02 -3.04793e-03 -6.50283e-03 2.95426e-02 4.07149e-03 -1.67942e-02 3.01791e-02 -2.73574e-03 -2.57685e-02 1.77434e-02 3.17145e-03 -3.43441e-02 2.15836e-02 -2.08907e-03 -4.01815e-02 -1.20188e-03 1.62437e-03 -4.55520e-02 7.67436e-03 -1.35297e-03 -4.70220e-02 -2.23380e-02 -3.14681e-04 -4.80652e-02 -6.38920e-03 -8.84931e-04 -4.41814e-02 -3.96203e-02 -2.25744e-03 -3.95501e-02 -1.56326e-02 -6.77856e-04 -2.83796e-02 -4.73010e-02 -3.05653e-03 -1.44753e-02 -1.67484e-02 -6.34862e-03 -1.10666e-02 -4.34685e-02 4.73502e-03 1.47735e-02 -4.25630e-02 3.38899e-03 1.91701e-02 -1.50591e-02 -3.98118e-03 -1.78096e-02 -1.65142e-02
6.81286e-04 -2.63431e-03 5.73681e-02 -2.37451e-03 1.39112e-02 2.61440e-02 5.89001e-04 2.25464e-02 5.78822e-02 -1.08080e-03 2.99978e-02 2.20254e-02 3.92218e-04 3.21809e-02 4.28487e-02 2.99151e-04 3.44187e-02 6.10676e-03 -7.02872e-04 3.25342e-02 1.67522e-02 1.23160e-03 3.06612e-02 -1.56472e-02 -2.11983e-03 2.56292e-02 -1.19301e-02 1.76275e-03 2.04180e-02 -3.44434e-02 -3.20650e-03 1.32254e-02 -3.39145e-02 1.97576e-03 5.81357e-03 -4.22629e-02 -3.56562e-03 -2.16124e-03 -4.25026e-02 1.91353e-03 -1.02551e-02 -3.50223e-02 -3.08363e-03 -1.73836e-02 -3.59812e-02 1.63047e-03 -2.45050e-02 -1.41606e-02 -1.86585e-03 -2.92041e-02 -1.81685e-02 1.27693e-03 -3.38529e-02 1.38546e-02 -1.25880e-04 -3.48168e-02 3.13155e-03 1.15995e-03 -3.57467e-02 3.99074e-02 1.85605e-03 -3.17788e-02 1.93085e-02 1.54154e-03 -2.74408e-02 5.57105e-02 3.32896e-03 -1.61038e-02 2.47438e-02 1.47069e-03 -2.30935e-03 5.73673e-02 -6.43406e-04 -3.18588e-02 9.51382e-03 1.05043e-03 3.09238e-02 1.21872e-02 -6.71969e-03 9.79026e-03 2.60749e-02 7.67515e-03 -1.19852e-02 2.48667e-02
-3.54197e-03 3.07960e-02 1.94767e-02 3.01931e-03 3.30290e-02 -1.13864e-02 -3.53147e-03 2.84307e-02 2.00512e-02 3.53792e-03 2.34837e-02 -1.92887e-02 -3.57759e-03 1.35005e-02 2.11104e-02 3.22706e-03 6.21741e-03 -2.52076e-02 -3.19200e-03 -5.13719e-03 2.24657e-02 2.41450e-03 -1.17465e-02 -2.91853e-02 -2.25329e-03 -2.17690e-02 2.41777e-02 1.17683e-03 -2.56154e-02 -3.09764e-02 -8.55715e-04 -3.24134e-02 2.60974e-02 -3.36671e-04 -3.22017e-02 -3.06697e-02 7.59576e-04 -3.47200e-02 2.77783e-02 -1.88420e-03 -3.00507e-02 -2.87375e-02 2.29412e-03 -2.81821e-02 2.85933e-02 -3.19177e-03 -1.96130e-02 -2.58586e-02 3.48624e-03 -1.42086e-02 2.79563e-02 -4.03892e-03 -3.19161e-03 -2.26889e-02 4.17833e-03 4.03210e-03 2.55103e-02 -4.34345e-03 1.52599e-02 -1.97227e-02 4.29527e-03 2.17439e-02 2.10906e-02 -4.23364e-03 3.00438e-02 -1.73860e-02 3.49664e-03 3.19324e-02 1.40632e-02 -4.21882e-03 3.23509e-02 -1.66103e-02 -2.40204e-03 2.14153e-02 7.37593e-04 -2.39342e-03 2.13955e-02 1.19695e-03 -6.17722e-03 3.74038e-02 5.57375e-03 -6.32118e-03 3.77345e-02 -2.10181e-03
4.15177e-03 2.77313e-03 -3.19594e-02 5.50563e-04 5.61888e-04 -1.25370e-02 -6.23739e-04 -4.29890e-04 -8.21944e-03 -1.98579e-03 -1.70953e-03 1.50325e-02 -2.04324e-03 -1.76773e-03 1.48051e-02 -2.34415e-03 -2.64539e-03 3.68226e-02 -2.29409e-03 -2.15433e-03 2.80383e-02 -2.25629e-03 -2.74499e-03 4.47197e-02 -2.43682e-03 -1.82728e-03 2.59084e-02 -2.35503e-03 -2.17422e-03 3.60462e-02 -2.77774e-03 -9.61921e-04 9.21437e-03 -2.69955e-03 -1.17965e-03 1.49778e-02 -3.26017e-03 1.08228e-04 -1.49122e-02 -3.12222e-03 -1.70542e-04 -9.15250e-03 -3.70606e-03 9.29463e-04 -3.59861e-02 -3.40779e-03 4.03292e-04 -2.58602e-02 -3.93296e-03 1.10676e-03 -4.46742e-02 -3.34541e-03 2.60819e-04 -2.80141e-02 -3.72502e-03 5.26808e-04 -3.68000e-02 -2.59880e-03 -4.91465e-04 -1.48154e-02 -2.54981e-03 -4.13831e-04 -1.50389e-02 -3.16347e-04 -1.13605e-03 8.16961e-03 1.02033e-03 -5.17298e-04 1.25094e-02 5.34954e-03 0 3.19016e-02 9.23123e-03 6.91291e-03 -3.56128e-02 1.05689e-02 3.84002e-03 3.57048e-02 3.22837e-03 1.12228e-02 -3.98614e-02 4.73619e-03 7.75897e-03 4.05299e-02
-6.73044e-04 -1.65543e-04 1.21622e-04 4.24258e-03 -1.08149e-02 8.48935e-03 -1.63603e-03 -1.94560e-02 4.79673e-03 2.53132e-03 -2.68822e-02 1.29075e-02 -7.15399e-04 -3.14573e-02 4.63855e-03 9.35928e-04 -3.42830e-02 9.86595e-03 7.17158e-04 -3.40659e-02 0 -8.55204e-04 -3.19183e-02 2.14586e-03 2.01365e-03 -2.71417e-02 -6.54950e-03 -2.41201e-03 -2.07837e-02 -6.04789e-03 2.80051e-03 -1.27959e-02 -1.10091e-02 -3.27227e-03 -4.04424e-03 -1.06952e-02 2.87618e-03 4.95417e-03 -1.04228e-02 -3.18997e-03 1.36906e-02 -9.75550e-03 2.21747e-03 2.12306e-02 -4.32443e-03 -2.21361e-03 2.76010e-02 -4.11150e-03 9.86398e-04 3.16169e-02 4.84888e-03 -6.63257e-04 3.39421e-02 2.91497e-03 -5.10706e-04 3.33061e-02 1.28053e-02 9.39247e-04 3.09430e-02 7.29619e-03 -2.00307e-03 2.56687e-02 1.52569e-02 1.84580e-03 1.89741e-02 6.38727e-03 -3.90441e-03 1.00380e-02 9.54065e-03 6.77391e-04 1.55559e-04 1.10129e-04 1.24631e-02 1.19117e-02 -7.09107e-03 -1.27390e-02 -1.12779e-02 -7.61756e-03 3.34740e-03 4.38725e-02 5.96084e-04 -3.39349e-03 -4.37666e-02 -3.05362e-03
-5.18314e-03 1.59504e-04 -1.83698e-02 -1.28233e-03 -2.43229e-04 -3.23225e-02 -5.53646e-04 -8.39601e-04 -4.34731e-02 1.63909e-04 -1.39581e-03 -4.69967e-02 -2.85983e-04 -2.06107e-03 -4.50860e-02 -1.74340e-04 -2.72939e-03 -3.60173e-02 -1.42185e-04 -3.31206e-03 -2.27075e-02 -1.66244e-04 -3.77089e-03 -5.58927e-03 4.63590e-04 -3.95161e-03 1.16997e-02 1.86220e-04 -3.85747e-03 2.78622e-02 1.08456e-03 -3.37877e-03 3.97274e-02 4.66901e-04 -2.56970e-03 4.63279e-02 1.27159e-03 -1.42407e-03 4.63622e-02 4.08615e-04 0 3.98834e-02 8.62994e-04 1.44715e-03 2.80780e-02 0 2.93022e-03 1.20053e-02 0 4.23778e-03 -5.24663e-03 -7.02499e-04 5.25253e-03 -2.23280e-02 -1.16948e-03 5.81651e-03 -3.56304e-02 -1.39843e-03 5.93061e-03 -4.47208e-02 -1.92060e-03 5.43138e-03 -4.66635e-02 -1.07255e-03 4.57541e-03 -4.32300e-02 0 3.02364e-03 -3.22071e-02 4.49167e-03 1.42897e-03 -1.84966e-02 -1.55629e-02 1.65261e-03 6.49698e-03 1.57925e-02 -2.18003e-03 5.74375e-03 1.06661e-02 2.99541e-03 3.69465e-02 -9.28054e-03 -6.17836e-03 3.69254e-02
1.79888e-03 2.45841e-02 2.10383e-02 6.37492e-03 2.70404e-02 -2.24444e-03 2.25781e-03 2.49043e-02 2.33573e-02 7.66246e-03 2.28117e-02 -1.77046e-02 2.53901e-03 1.55757e-02 2.55659e-02 7.72794e-03 1.13243e-02 -3.04465e-02 2.99797e-03 1.82111e-03 2.80417e-02 7.20994e-03 -2.22058e-03 -3.92617e-02 3.86672e-03 -1.14732e-02 3.15471e-02 6.26157e-03 -1.33822e-02 -4.30238e-02 5.13443e-03 -2.03886e-02 3.59838e-02 5.03337e-03 -1.89066e-02 -4.19823e-02 6.57071e-03 -2.24383e-02 3.99832e-02 3.75110e-03 -1.72107e-02 -3.77705e-02 7.84595e-03 -1.70219e-02 4.14492e-02 2.66472e-03 -8.71194e-03 -3.25393e-02 8.67083e-03 -5.57665e-03 3.86279e-02 1.94922e-03 4.23036e-03 -2.78738e-02 8.88037e-03 8.67689e-03 3.09968e-02 1.60543e-03 1.77204e-02 -2.42090e-02 8.35655e-03 2.12172e-02 1.93012e-02 1.42214e-03 2.68241e-02 -2.11975e-02 6.49807e-03 2.67575e-02 4.32101e-03 1.04981e-03 2.63049e-02 -1.88990e-02 -2.46854e-03 1.95296e-02 2.12340e-02 -3.23008e-03 2.12791e-02 -1.93688e-02 -1.41578e-02 -2.76512e-02 -1.84839e-02 -1.35006e-02 -2.91609e-02 1.65548e-02
-2.41872e-02 3.21728e-03 3.82977e-02 -1.24787e-02 3.27962e-03 -3.74382e-03 -1.45537e-02 1.39108e-04 2.11004e-03 -8.58389e-03 -2.67249e-03 -3.21878e-02 -1.03785e-02 -6.38799e-03 -1.92525e-02 -7.23993e-03 -8.64404e-03 -3.75277e-02 -7.08470e-03 -1.06988e-02 -1.51311e-02 -5.77910e-03 -1.11821e-02 -1.79836e-02 -3.53615e-03 -1.07960e-02 7.09429e-03 -3.72705e-03 -9.24682e-03 1.18748e-02 -1.41065e-04 -6.50834e-03 2.85800e-02 -1.31528e-03 -3.46640e-03 3.16643e-02 2.50512e-03 7.33021e-04 3.17736e-02 1.22119e-03 4.02701e-03 2.90083e-02 4.18381e-03 8.19752e-03 1.24780e-02 3.81662e-03 1.01517e-02 7.85896e-03 5.11996e-03 1.26963e-02 -1.71591e-02 6.53063e-03 1.19716e-02 -1.44097e-02 5.84415e-03 1.18505e-02 -3.68901e-02 9.66087e-03 8.03648e-03 -1.90069e-02 7.37740e-03 5.44410e-03 -3.21375e-02 1.46223e-02 -2.96551e-04 1.54405e-03 1.23246e-02 -2.92543e-03 -4.47637e-03 2.55985e-02 -6.45937e-03 3.69470e-02 -2.05354e-02 -4.90898e-03 1.44834e-02 2.10710e-02 3.67856e-03 1.40730e-02 -4.21124e-02 4.63610e-03 -3.28318e-03 4.19525e-02 -4.26871e-03 -5.24359e-03
2.26127e-03 -1.52054e-02 5.50659e-02 3.47884e-03 -1.72546e-02 5.64111e-02 5.26712e-03 -1.68098e-02 4.38008e-02 5.09309e-03 -1.54067e-02 3.73401e-02 8.37758e-03 -1.10277e-02 4.57518e-04 5.95340e-03 -6.97237e-03 -4.34342e-03 9.19705e-03 -5.18903e-04 -4.72003e-02 6.14258e-03 3.76025e-03 -3.54964e-02 8.94917e-03 9.72296e-03 -6.79265e-02 6.95399e-03 1.19932e-02 -3.17578e-02 8.63019e-03 1.55188e-02 -4.86628e-02 8.62870e-03 1.46427e-02 5.38252e-03 8.44480e-03 1.50652e-02 -4.42271e-03 1.04706e-02 1.12909e-02 4.94597e-02 8.15712e-03 9.22926e-03 3.23888e-02 1.15010e-02 3.86073e-03 6.81282e-02 7.47294e-03 7.04074e-04 3.54334e-02 1.09564e-02 -4.56066e-03 4.66034e-02 6.10055e-03 -7.31040e-03 3.50192e-03 8.33679e-03 -1.09340e-02 -1.71729e-03 3.66706e-03 -1.21307e-02 -3.86909e-02 3.59689e-03 -1.29728e-02 -4.52503e-02 1.33715e-03 -1.23345e-02 -5.77763e-02 1.74091e-04 -1.04105e-02 -5.62153e-02 2.02961e-02 -1.70250e-02 1.26416e-02 1.97812e-02 -1.58422e-02 -1.48094e-02 -1.89453e-02 1.06156e-02 -1.58414e-02 -1.83220e-02 9.18364e-03 1.73934e-02
-5.86536e-03 -1.23780e-02 -3.05526e-02 -3.93872e-04 -3.87755e-02 1.50761e-02 -6.49272e-03 -5.13383e-02 -1.49926e-02 -5.14479e-03 -5.64478e-02 4.50460e-03 -2.63967e-03 -5.25482e-02 4.35769e-03 -1.01579e-02 -4.05093e-02 -1.44305e-02 1.04301e-03 -2.56289e-02 2.22737e-02 -1.29954e-02 -3.34839e-03 -3.35295e-02 1.67174e-03 1.38823e-02 3.73479e-02 -1.21054e-02 3.57918e-02 -4.60018e-02 -1.22582e-03 4.53854e-02 4.88833e-02 -8.01685e-03 5.69803e-02 -4.91411e-02 -6.08001e-03 5.25309e-02 5.41241e-02 -2.98143e-03 4.94185e-02 -4.47195e-02 -1.03173e-02 3.16843e-02 4.93298e-02 2.95052e-04 1.70449e-02 -3.60523e-02 -1.17367e-02 -6.23998e-03 3.35803e-02 1.67255e-04 -2.36171e-02 -2.44182e-02 -9.67596e-03 -4.16164e-02 1.12639e-02 -2.88567e-03 -5.19831e-02 -8.75803e-03 -5.40081e-03 -5.58596e-02 -9.14584e-03 -6.00980e-03 -5.24477e-02 1.07553e-02 -1.02042e-03 -3.73362e-02 -1.83290e-02 -4.73764e-03 -1.49687e-02 2.95732e-02 7.95524e-03 3.31893e-02 1.89822e-02 7.29269e-03 3.47114e-02 -1.63425e-02 4.28744e-03 5.34196e-03 -1.69159e-03 4.35636e-03 5.18364e-03 1.98299e-03
2.03814e-03 3.99900e-03 -3.61883e-02 -1.62910e-02 8.12910e-03 1.93613e-02 -1.60347e-02 1.22973e-02 3.64950e-02 -2.04234e-02 1.44126e-02 5.77703e-02 -2.12998e-02 1.43053e-02 5.09486e-02 -2.00351e-02 1.26917e-02 2.62989e-02 -2.44758e-02 8.23696e-03 2.35324e-03 -2.10904e-02 3.67321e-03 -4.02845e-02 -2.65490e-02 -3.34293e-03 -4.57714e-02 -2.29752e-02 -8.66129e-03 -6.81203e-02 -2.60019e-02 -1.51179e-02 -3.37830e-02 -2.42596e-02 -1.79495e-02 -2.78430e-02 -2.32293e-02 -2.03162e-02 2.70849e-02 -2.47436e-02 -1.80086e-02 3.33075e-02 -2.04234e-02 -1.45236e-02 6.79353e-02 -2.48226e-02 -7.30901e-03 4.62759e-02 -1.95619e-02 1.61729e-04 4.12122e-02 -2.45334e-02 8.36931e-03 -7.18510e-04 -2.09849e-02 1.48736e-02 -2.43418e-02 -2.31687e-02 1.85987e-02 -4.86968e-02 -2.25481e-02 1.92936e-02 -5.55120e-02 -1.73696e-02 1.53639e-02 -3.46766e-02 -1.69911e-02 9.73750e-03 -1.79673e-02 3.39766e-03 8.75825e-04 3.62964e-02 -1.80166e-03 6.79405e-03 -2.03821e-02 -1.02655e-03 5.01342e-03 2.09439e-02 2.32244e-02 -4.21232e-03 -5.70357e-04 2.32226e-02 -4.20830e-03 -6.63625e-04
-1.53244e-02 1.73958e-02 -3.66736e-02 -6.48703e-03 1.94205e-02 -7.23157e-02 -1.41424e-02 1.35927e-02 -2.87719e-02 -8.03112e-03 6.35385e-03 -3.13712e-02 -1.42877e-02 -3.97442e-03 3.84613e-02 -7.74456e-03 -1.19112e-02 3.67419e-02 -1.00036e-02 -1.88856e-02 8.05702e-02 -6.56665e-03 -2.10813e-02 4.53078e-02 -5.05373e-03 -2.04445e-02 4.11537e-02 -6.13391e-03 -1.57811e-02 -1.46962e-02 -1.17043e-03 -8.88792e-03 -3.71828e-02 -4.65709e-03 -1.30208e-03 -6.46104e-02 2.23760e-03 6.86029e-03 -6.43880e-02 -2.07785e-04 1.20540e-02 -3.62985e-02 5.60498e-03 1.69962e-02 -1.35040e-02 6.62350e-03 1.68384e-02 4.25411e-02 8.29187e-03 1.71180e-02 4.66750e-02 1.30428e-02 1.19039e-02 8.14646e-02 9.13356e-03 8.72028e-03 3.73143e-02 1.57236e-02 6.75646e-04 3.80988e-02 6.84104e-03 -3.61991e-03 -3.20799e-02 1.30336e-02 -1.10456e-02 -3.03432e-02 3.74444e-03 -1.31200e-02 -7.39097e-02 1.39129e-02 -1.41532e-02 -3.85813e-02 -3.20278e-02 1.12908e-02 -1.35158e-02 3.14813e-02 -1.00351e-02 -1.56259e-02 -8.01208e-03 -3.07522e-03 7.16190e-03 8.27948e-03 2.46093e-03 7.09488e-03
-1.68875e-02 -2.97508e-02 -3.91115e-02 -2.67595e-02 -3.77765e-02 2.30739e-02 -1.09509e-02 -2.87212e-02 -5.66551e-02 -2.51158e-02 -1.98796e-02 4.39248e-02 -8.74371e-03 1.41922e-03 -4.75074e-02 -1.95203e-02 1.29417e-02 6.55698e-02 -8.22806e-03 3.14559e-02 -3.00334e-02 -1.10103e-02 3.50702e-02 6.28676e-02 -8.87486e-03 4.11727e-02 -2.49222e-02 -2.29836e-03 3.27815e-02 2.96446e-02 -8.50535e-03 2.48128e-02 -2.56687e-02 4.24560e-03 8.23341e-03 -9.32892e-03 -4.60507e-03 -7.40760e-03 -9.83684e-03 7.49860e-03 -2.25001e-02 -2.80075e-02 3.35345e-03 -3.52053e-02 2.66092e-02 7.86941e-03 -3.88629e-02 -2.86847e-02 1.32990e-02 -4.03281e-02 5.91629e-02 7.04743e-03 -2.87437e-02 -3.29137e-02 2.19399e-02 -1.85002e-02 6.34374e-02 6.95711e-03 2.68505e-03 -4.77473e-02 2.67743e-02 1.60695e-02 4.45005e-02 8.86893e-03 3.35039e-02 -5.43457e-02 2.76653e-02 3.56957e-02 2.52188e-02 1.54597e-02 3.30309e-02 -3.70131e-02 -1.43879e-02 -8.55631e-03 -1.01149e-02 1.40130e-02 9.41754e-03 -9.87314e-03 -1.02306e-02 4.93400e-03 3.70338e-03 1.03541e-02 -5.21766e-03 2.87989e-03
-1.41128e-03 1.32423e-02 -1.15484e-02 1.96660e-02 1.19683e-02 -8.28370e-02 7.45858e-03 8.95617e-04 -2.54722e-02 1.53038e-02 -9.09648e-03 -2.26799e-02 1.00291e-02 -1.83170e-02 5.34425e-02 1.32979e-02 -2.16893e-02 5.85129e-02 1.61798e-02 -1.88531e-02 5.76541e-02 1.27942e-02 -1.12760e-02 1.96183e-02 1.89191e-02 5.72056e-04 -4.14264e-02 1.31964e-02 1.01523e-02 -5.04678e-02 1.84493e-02 1.91835e-02 -7.62819e-02 1.70212e-02 2.04627e-02 -6.17922e-03 1.72736e-02 1.98830e-02 7.27438e-03 2.13225e-02 1.25831e-02 7.69047e-02 1.50925e-02 5.79654e-03 5.06244e-02 2.04574e-02 -2.96160e-03 4.05849e-02 1.20327e-02 -9.52669e-03 -2.09803e-02 1.39801e-02 -1.37997e-02 -5.96267e-02 1.10635e-02 -1.65563e-02 -6.06177e-02 7.99220e-03 -1.36377e-02 -5.51574e-02 1.61273e-02 -1.09882e-02 2.12249e-02 8.40820e-03 -1.28590e-03 2.51578e-02 2.27720e-02 4.83291e-03 8.27649e-02 -9.56690e-04 1.21979e-02 1.26889e-02 -1.44603e-02 5.66390e-03 -8.96241e-04 -1.44075e-02 5.54253e-03 1.92054e-03 -1.04272e-02 -5.38291e-04 3.85257e-03 -1.05649e-02 -2.21851e-04 -3.49159e-03
-1.68374e-02 1.22984e-02 -4.86122e-02 -3.11525e-02 2.02309e-02 -1.03825e-02 -3.30941e-02 2.18849e-02 3.31087e-02 -3.04133e-02 1.58154e-02 6.31785e-02 -3.31494e-02 8.85609e-03 4.81423e-02 -2.23923e-02 -2.79729e-03 2.63687e-02 -2.68546e-02 -1.05056e-02 -3.32155e-02 -1.75133e-02 -1.99750e-02 -4.57855e-02 -1.64607e-02 -2.20791e-02 -5.95288e-02 -1.27011e-02 -2.38350e-02 -1.43481e-02 -3.13782e-03 -1.68241e-02 1.88906e-02 -5.25903e-03 -9.16547e-03 5.46015e-02 7.31381e-03 4.44509e-03 5.49521e-02 3.86981e-03 1.51425e-02 2.01365e-02 1.21936e-02 2.50009e-02 -1.27109e-02 1.42566e-02 2.71424e-02 -5.79841e-02 1.58195e-02 2.38661e-02 -4.45217e-02 2.56095e-02 1.33661e-02 -3.31709e-02 2.33680e-02 5.55733e-04 2.56548e-02 3.49138e-02 -1.29093e-02 4.59279e-02 3.27312e-02 -2.11402e-02 6.04018e-02 3.42748e-02 -2.45973e-02 2.98423e-02 3.07094e-02 -1.92129e-02 -1.32423e-02 1.49863e-02 -8.04576e-03 -5.00857e-02 -3.26496e-02 3.19903e-03 -3.22155e-02 3.14157e-02 -3.64473e-04 -3.35707e-02 1.36317e-03 -2.71272e-03 3.58027e-03 -1.22383e-03 2.39262e-03 3.84876e-03
-1.30931e-02 -2.04795e-02 -4.85925e-02 -1.18359e-02 -4.32841e-02 5.25789e-03 -1.44973e-02 -4.84182e-02 1.11553e-03 -1.80857e-02 -4.16498e-02 -1.16732e-03 -7.23062e-03 -2.67291e-02 4.74635e-02 -1.95820e-02 -1.57346e-03 -3.70165e-02 -3.03654e-03 1.73507e-02 5.01890e-02 -1.40508e-02 3.93950e-02 -6.86433e-02 -5.10455e-03 4.39894e-02 3.92346e-02 -3.12732e-03 4.49247e-02 -4.67585e-02 -8.08355e-03 2.97288e-02 3.46462e-02 6.57215e-03 1.05698e-02 5.63163e-03 -6.37380e-03 -1.10255e-02 4.94396e-03 9.32671e-03 -3.25847e-02 3.16347e-02 1.30254e-03 -4.07327e-02 -5.05323e-02 6.49855e-03 -4.71918e-02 3.50882e-02 1.14082e-02 -3.33241e-02 -7.22541e-02 4.88496e-03 -2.15970e-02 4.83623e-02 1.81853e-02 4.78207e-03 -3.74510e-02 9.04518e-03 2.25606e-02 4.92820e-02 1.80965e-02 4.16250e-02 1.74215e-03 1.46069e-02 4.81663e-02 4.73122e-03 1.20942e-02 4.26907e-02 8.51348e-03 1.12981e-02 2.46030e-02 -4.71075e-02 -3.45485e-03 2.65390e-02 1.05119e-02 3.80308e-03 -2.73389e-02 8.05435e-03 -2.40701e-04 2.14453e-03 0 2.39508e-04 -2.14179e-03 -1.28653e-04
-1.00859e-03 2.56122e-02 1.97796e-02 1.00972e-02 2.79906e-02 -3.49407e-02 -1.58840e-02 1.01238e-02 8.06090e-02 3.21351e-03 -4.67189e-03 -3.46261e-02 -1.40000e-02 -2.73597e-02 5.16785e-02 -6.76769e-03 -3.33655e-02 -6.27973e-02 -8.87040e-03 -3.71640e-02 -7.25251e-03 -1.68092e-02 -2.59815e-02 -2.54570e-02 -5.76663e-03 -9.13834e-03 -1.04331e-02 -1.93772e-02 9.13249e-03 5.74923e-02 -9.06297e-03 3.02845e-02 -1.60841e-02 -1.48434e-02 3.73431e-02 6.65810e-02 -1.72649e-02 4.29058e-02 -6.25211e-02 -8.40575e-03 2.87747e-02 1.89564e-02 -2.15007e-02 1.40109e-02 -5.57284e-02 -5.38682e-03 -1.00109e-02 9.81725e-03 -1.58865e-02 -2.81013e-02 2.37400e-02 -8.65266e-03 -3.76642e-02 4.35702e-03 -4.46628e-03 -3.86524e-02 5.99050e-02 -1.59686e-02 -2.28374e-02 -5.32793e-02 4.49975e-03 -7.62672e-03 3.39516e-02 -1.88736e-02 1.69918e-02 -7.87888e-02 1.14431e-02 2.48988e-02 3.68156e-02 -1.70691e-03 2.72165e-02 -1.74524e-02 -1.24093e-03 1.13498e-02 -9.58137e-04 -1.18589e-03 1.12234e-02 1.97627e-03 7.99679e-03 -2.44089e-03 -1.55465e-03 8.04542e-03 -2.55262e-03 1.03861e-03
1.46562e-02 5.05304e-03 1.80395e-02 4.38545e-02 1.40200e-03 -8.22196e-02 2.99987e-02 -1.09019e-02 -3.24754e-02 3.13579e-02 -1.63545e-02 -1.27238e-02 2.90310e-02 -1.76938e-02 4.54878e-02 2.21135e-02 -1.06931e-02 6.56949e-02 2.63219e-02 1.56016e-03 6.43242e-03 1.59764e-02 1.40020e-02 -1.24436e-02 1.58150e-02 2.23905e-02 -7.99330e-02 1.18075e-02 2.25000e-02 -2.34094e-02 4.33084e-03 1.48245e-02 -3.93329e-04 7.26945e-03 4.06699e-03 5.84867e-02 -5.08178e-03 -9.09262e-03 5.81514e-02 -4.36643e-03 -1.47427e-02 -1.50417e-03 -1.27117e-02 -2.04229e-02 -2.47989e-02 -1.88319e-02 -1.54601e-02 -8.09140e-02 -1.64535e-02 -1.29060e-02 -1.29947e-02 -2.60652e-02 -2.14992e-03 7.25513e-03 -1.96219e-02 4.96904e-03 6.71525e-02 -2.72795e-02 1.36701e-02 4.78953e-02 -3.17858e-02 1.73373e-02 -1.00878e-02 -3.11756e-02 1.36056e-02 -3.02721e-02 -4.69034e-02 5.60211e-03 -8.03364e-02 -1.39788e-02 -6.60909e-03 1.80741e-02 1.03835e-02 -2.53576e-04 1.57596e-02 -9.78592e-03 -1.11919e-03 1.61006e-02 -6.35290e-03 6.76395e-04 8.70098e-04 6.37992e-03 -7.38458e-04 5.70319e-04
2.74957e-04 1.15284e-02 -3.60351e-02 4.87175e-03 1.53046e-02 -5.00385e-02 -5.30723e-04 1.05045e-02 3.34106e-03 3.43741e-03 -1.58081e-03 8.04167e-02 4.75830e-03 -4.72630e-03 3.11281e-02 1.22213e-02 -1.18800e-02 3.72108e-02 1.43256e-02 -8.06036e-03 -7.27492e-02 1.66628e-02 -8.59437e-03 -4.72048e-02 2.29115e-02 -4.06433e-03 -2.03770e-02 2.16004e-02 -5.60770e-04 2.84408e-02 2.79307e-02 3.36530e-03 8.58549e-02 2.48430e-02 1.02338e-02 1.73910e-03 2.47770e-02 1.03855e-02 -1.78134e-03 2.47030e-02 1.07801e-02 -8.62326e-02 2.05198e-02 1.92162e-03 -2.91722e-02 2.36515e-02 -5.76444e-03 1.90802e-02 1.84041e-02 -1.25946e-02 4.56341e-02 1.70255e-02 -1.42627e-02 7.11994e-02 1.08008e-02 -8.61672e-03 -3.85258e-02 3.58224e-03 -2.02457e-03 -3.15754e-02 4.22504e-04 5.34521e-03 -8.03269e-02 -6.38462e-04 1.07520e-02 -2.40324e-03 6.76592e-03 1.09532e-02 5.09516e-02 1.64212e-03 8.38770e-03 3.68573e-02 -2.16320e-02 -7.71788e-04 -1.85228e-02 -2.09248e-02 -2.39650e-03 1.91845e-02 -7.74549e-03 -9.01987e-04 4.01812e-03 -7.89190e-03 -5.65640e-04 -3.78806e-03
2.96605e-03 3.26659e-02 5.61683e-02 3.27818e-03 5.06644e-02 3.48774e-03 -4.58191e-03 4.27060e-02 8.75402e-03 8.35059e-03 2.04380e-02 4.74676e-03 -1.15129e-02 -6.84712e-03 -6.67998e-02 1.58450e-03 -3.58854e-02 3.87752e-02 -8.96194e-03 -4.61191e-02 -3.40521e-02 -1.26064e-02 -4.53346e-02 5.33379e-02 -2.26553e-03 -2.46543e-02 1.22029e-03 -2.19096e-02 4.46633e-03 -2.95386e-02 -4.76061e-03 2.83543e-02 1.51169e-02 -1.69245e-02 4.75458e-02 -5.91970e-02 -1.46202e-02 4.22524e-02 6.36578e-02 -5.27735e-03 2.95414e-02 -1.24341e-02 -2.07815e-02 1.87458e-03 3.06125e-02 -2.34937e-03 -2.44617e-02 -3.25001e-03 -1.46671e-02 -4.06007e-02 -5.65291e-02 -7.75548e-03 -4.88906e-02 3.02719e-02 0 -3.24158e-02 -4.17493e-02 -9.01561e-03 -1.25841e-02 6.63476e-02 8.20002e-03 2.07839e-02 -3.28105e-03 -4.83748e-03 4.32931e-02 -4.87188e-03 3.22705e-03 5.07819e-02 7.61302e-04 9.14310e-04 3.73793e-02 -5.32230e-02 -1.53558e-03 -1.63391e-02 -1.32638e-02 -1.06440e-03 -1.74215e-02 1.18579e-02 5.23516e-03 -2.12805e-03 -9.36564e-04 5.26311e-03 -2.19225e-03 5.53509e-04
-7.19181e-03 1.36574e-02 -1.53943e-03 1.05877e-02 7.20072e-03 -5.56695e-02 -1.98172e-02 -1.45344e-02 8.92603e-02 -2.60579e-03 -2.57474e-02 -1.70667e-02 -7.75174e-03 -3.29006e-02 3.43656e-02 -1.12953e-02 -2.21351e-02 -4.45699e-02 5.80071e-04 -4.39208e-03 -5.16624e-02 -1.14092e-02 1.23365e-02 3.86789e-02 -4.44978e-04 3.13555e-02 -1.66216e-02 -1.37637e-03 3.20789e-02 8.65872e-02 -7.09035e-03 3.03562e-02 -3.49641e-02 6.10530e-03 1.14877e-02 -2.00491e-02 -6.86997e-03 -9.73103e-03 -2.07200e-02 5.72773e-03 -2.72259e-02 -3.76856e-02 4.56456e-03 -3.94030e-02 8.33958e-02 -2.28035e-04 -2.98094e-02 -1.92611e-02 1.28291e-02 -1.55982e-02 3.70206e-02 -2.50627e-03 8.81705e-03 -5.10353e-02 9.65487e-03 2.59036e-02 -4.28930e-02 9.08563e-03 2.98363e-02 3.67530e-02 2.00669e-03 2.71237e-02 -1.48751e-02 2.31677e-02 6.83746e-03 8.93749e-02 -1.26756e-02 -2.40437e-03 -5.56471e-02 7.10712e-03 -1.34629e-02 -2.97617e-03 -6.94359e-03 1.46074e-02 -4.32435e-04 6.89897e-03 -1.45049e-02 -1.94644e-03 2.54051e-03 -9.48013e-04 -1.91537e-04 -2.54436e-03 9.56872e-04 0
-1.58449e-02 -5.83709e-03 1.45355e-02 -2.72831e-02 -8.63474e-03 5.52447e-02 -2.23886e-02 -4.04411e-03 2.18430e-02 -1.79145e-02 4.31909e-03 -9.60486e-02 -2.10837e-02 6.32847e-04 -5.55410e-03 -2.06102e-02 5.90067e-04 -6.19742e-03 -1.90909e-02 -1.90426e-03 6.60403e-02 -1.69847e-02 -1.91914e-03 4.75615e-02 -1.54705e-02 4.43328e-03 -7.23105e-02 -1.10824e-02 9.75777e-04 -1.96497e-02 -7.44361e-03 3.14910e-03 -4.06890e-02 -9.15256e-04 -3.28852e-03 6.32912e-02 3.28886e-03 -2.16427e-03 6.32607e-02 5.91035e-03 3.73211e-04 -4.10591e-02 1.03376e-02 7.35286e-04 -2.00618e-02 1.27460e-02 1.82570e-03 -7.29521e-02 1.87560e-02 -2.15015e-03 4.68812e-02 2.15524e-02 -3.75047e-03 6.51985e-02 2.03628e-02 0 -6.99228e-03 2.08600e-02 -1.18931e-04 -6.37319e-03 1.42999e-02 3.98453e-03 -9.66672e-02 2.31969e-02 2.18707e-03 2.12565e-02 2.93457e-02 3.89654e-03 5.47225e-02 1.63873e-02 4.59119e-03 1.43802e-02 1.57922e-03 5.27352e-03 2.98279e-03 -1.47497e-03 -5.51301e-03 2.57531e-03 6.68447e-03 0 -2.43234e-03 -6.77087e-03 1.69494e-04 -2.17392e-03
8.60607e-03 -1.81549e-03 6.45330e-02 3.23009e-02 -3.40979e-03 -4.16857e-02 2.08249e-02 -1.15694e-02 -4.60195e-02 1.04604e-02 -6.10164e-03 -3.97247e-02 4.25951e-03 -4.42915e-03 2.39354e-02 -1.09798e-02 6.34090e-03 6.20126e-02 -1.51593e-02 1.35018e-02 -9.10289e-03 -2.42328e-02 1.87355e-02 -3.04490e-02 -3.47168e-02 1.20580e-02 -5.07018e-02 -3.29476e-02 1.73585e-03 1.09177e-02 -4.24143e-02 -1.18899e-02 6.24664e-02 -4.10307e-02 -1.55421e-02 1.40748e-02 -4.15538e-02 -1.43405e-02 -1.38135e-02 -4.47418e-02 -6.54308e-03 -6.16259e-02 -3.33303e-02 2.61504e-03 -9.48709e-03 -3.27753e-02 7.59773e-03 5.28146e-02 -2.30459e-02 1.60088e-02 3.28328e-02 -1.47862e-02 1.26446e-02 1.07911e-02 -1.32830e-02 1.16318e-02 -6.07831e-02 3.35349e-03 -2.34779e-03 -2.43702e-02 1.19300e-02 -9.47789e-03 3.86334e-02 2.25141e-02 -1.54500e-02 4.40424e-02 3.38330e-02 -6.92941e-03 3.99998e-02 6.18168e-03 3.75398e-03 -6.47268e-02 2.86689e-02 -5.11907e-03 2.79608e-02 2.75940e-02 -2.64966e-03 -2.93508e-02 4.43796e-03 9.13892e-04 -3.28367e-03 4.55923e-03 6.35318e-04 3.18167e-03
-2.64833e-04 5.39838e-03 7.82534e-03 -2.34699e-02 1.59325e-02 7.36440e-02 4.34084e-03 3.16017e-02 -7.87773e-02 7.78830e-04 2.63967e-02 3.41070e-03 -7.36456e-03 1.17439e-02 -1.75958e-03 8.28007e-03 -1.21707e-02 1.80250e-02 -2.09465e-03 -3.20823e-02 6.38888e-02 2.10743e-03 -3.27450e-02 -7.76056e-02 1.05122e-02 -2.59716e-02 -4.63454e-03 -2.21493e-03 -5.12396e-03 -1.99223e-03 1.40382e-02 1.81205e-02 1.11172e-02 5.64154e-03 3.05776e-02 7.23173e-02 2.98011e-03 3.66916e-02 -6.95806e-02 1.36415e-02 1.90319e-02 -1.00356e-02 -2.14707e-03 -5.27985e-03 1.62577e-03 1.06364e-02 -2.62569e-02 1.98749e-03 4.95787e-03 -3.92932e-02 7.43692e-02 -4.53623e-03 -2.64734e-02 -6.62874e-02 7.57997e-03 -1.05623e-02 -1.93020e-02 -7.27459e-03 1.15372e-02 3.03727e-03 6.93194e-04 2.65934e-02 -1.15511e-03 7.33734e-03 2.47180e-02 8.09849e-02 -2.61842e-02 2.21679e-02 -7.10710e-02 -5.48837e-04 6.05081e-03 -7.31676e-03 -4.98877e-03 -1.26182e-02 -1.27396e-02 -4.52878e-03 -1.36750e-02 1.17852e-02 1.66977e-04 -3.99037e-04 3.55256e-04 1.52919e-04 -3.66743e-04 -3.94251e-04
1.21074e-02 -3.69618e-02 -5.34528e-02 -1.27909e-03 -4.21288e-02 1.79173e-02 2.29464e-02 -1.65988e-02 -3.28328e-02 1.96201e-03 1.49363e-02 -1.24220e-02 1.60276e-02 3.56906e-02 7.72458e-02 1.43914e-02 4.52733e-02 -3.92581e-02 3.49899e-03 2.72447e-02 5.79619e-03 2.06380e-02 0 -1.66623e-02 5.82330e-04 -2.79811e-02 -2.91424e-02 9.48496e-03 -4.63273e-02 7.68999e-02 8.64938e-03 -3.67417e-02 -3.73215e-02 -8.38249e-03 -1.41522e-02 -5.68210e-03 8.18675e-03 1.46019e-02 -4.75393e-03 -9.98097e-03 3.98007e-02 -3.36740e-02 -6.52528e-03 3.95281e-02 8.08995e-02 -1.62757e-03 3.03823e-02 -2.65862e-02 -2.12472e-02 1.39902e-03 -1.58165e-02 -3.32353e-03 -2.76478e-02 3.55898e-03 -1.59237e-02 -4.17532e-02 -4.24392e-02 -1.31826e-02 -4.22262e-02 7.44364e-02 -2.44967e-03 -1.38160e-02 -1.35781e-02 -2.41325e-02 1.93235e-02 -3.04020e-02 2.01677e-03 4.04342e-02 2.14129e-02 -1.40400e-02 4.14015e-02 -4.95859e-02 1.06882e-02 3.65232e-03 1.41240e-02 -1.01580e-02 -4.87047e-03 1.41478e-02 -5.72129e-03 1.82453e-03 9.48503e-04 5.74983e-03 -1.89010e-03 5.73298e-04
-1.33082e-02 -9.32935e-03 -3.13640e-02 -3.21169e-02 -1.27941e-02 5.56234e-02 -2.08209e-02 -2.35235e-03 4.63521e-02 -9.75252e-03 6.66947e-03 -9.49183e-02 -7.71005e-03 3.73021e-03 1.29197e-02 -2.13071e-04 -1.39562e-03 2.83490e-02 4.56512e-03 -6.97370e-04 1.37781e-02 1.15077e-02 -5.06821e-03 3.59691e-02 1.52397e-02 2.53506e-03 -9.20204e-02 1.99692e-02 -1.59151e-03 4.09345e-03 2.52235e-02 -1.35879e-03 6.64868e-02 2.44886e-02 2.86695e-03 -1.63249e-02 2.50870e-02 1.49213e-03 1.55829e-02 2.27151e-02 4.40378e-03 -6.72548e-02 1.97994e-02 -1.20143e-03 -4.95970e-03 1.86774e-02 -5.36211e-03 9.12624e-02 1.01451e-02 -1.93807e-03 -3.66771e-02 4.04509e-03 4.97287e-04 -1.39482e-02 -1.27626e-03 1.04679e-03 -2.83361e-02 -8.18220e-03 4.81486e-03 -1.22534e-02 -6.18219e-03 -1.53251e-03 9.54385e-02 -2.25450e-02 1.60836e-03 -4.55708e-02 -3.41970e-02 -8.01573e-03 -5.52763e-02 -1.21400e-02 -1.20131e-02 3.09217e-02 -1.17324e-02 8.55404e-03 -8.25851e-03 -1.14013e-02 7.79332e-03 9.39677e-03 7.32257e-04 0 2.17136e-04 7.23456e-04 0 -2.52081e-04
1.84148e-02 -1.25241e-02 -6.22583e-02 1.54501e-02 -1.42210e-02 -2.98955e-02 1.30339e-02 -9.31909e-03 6.06156e-02 1.22640e-02 -1.83895e-03 5.04891e-02 2.40395e-02 1.25100e-02 -4.14550e-02 2.23292e-02 1.77466e-02 -5.82799e-02 2.00340e-02 1.11011e-02 1.45987e-02 2.50780e-02 -3.66370e-04 7.03263e-02 1.44566e-02 -9.35948e-03 8.86361e-03 1.31973e-02 -1.08210e-02 -7.05937e-02 9.60537e-03 -1.32604e-02 -2.97624e-02 3.02428e-04 -6.64781e-03 5.11846e-02 1.62431e-03 2.22160e-03 5.15419e-02 -1.06912e-02 1.57549e-02 -2.81315e-02 -1.58128e-02 1.68296e-02 -6.88582e-02 -1.40996e-02 8.53935e-03 1.01704e-02 -2.24275e-02 -5.72243e-03 7.09865e-02 -1.94914e-02 -1.23475e-02 1.43297e-02 -2.45236e-02 -1.27057e-02 -5.87133e-02 -2.55944e-02 -8.93791e-03 -4.14482e-02 -1.03627e-02 -2.52893e-03 5.08837e-02 -1.07410e-02 4.05152e-03 6.16376e-02 -1.65353e-02 1.67140e-02 -2.79627e-02 -2.07120e-02 1.78012e-02 -6.02178e-02 -1.74411e-03 5.02531e-03 -1.55487e-03 1.67658e-03 -4.87018e-03 -2.04540e-03 -7.19256e-03 3.46357e-04 2.71527e-03 7.28858e-03 -5.66946e-04 2.40431e-03
8.34853e-03 -1.30914e-02 -9.35914e-03 -6.67754e-03 -8.27004e-03 3.59935e-02 1.68972e-02 1.08558e-02 -6.94542e-02 3.69438e-03 2.25583e-02 -1.77527e-02 -1.86115e-03 1.62112e-02 1.02724e-01 7.38353e-03 7.65962e-03 -3.24734e-02 -6.41637e-03 -1.06374e-02 -5.30043e-02 -1.77861e-04 -2.44834e-02 1.88686e-02 -6.68405e-04 -2.22593e-02 0 -1.00612e-02 -1.00706e-02 5.32713e-02 -4.86651e-04 1.16125e-02 -2.95464e-02 -1.00096e-02 2.66709e-02 -7.93739e-02 -6.98865e-03 1.97310e-02 8.16921e-02 6.38317e-04 9.02813e-03 3.04328e-02 -1.20642e-02 -5.46904e-03 -5.35258e-02 -7.05480e-04 -2.21741e-02 -1.93256e-03 -9.23458e-04 -2.27706e-02 -2.08840e-02 -4.44511e-03 -1.51659e-02 5.20963e-02 8.60615e-03 4.85094e-03 3.27125e-02 -5.67860e-03 2.49809e-02 -1.00808e-01 4.39264e-03 2.09542e-02 1.94759e-02 1.95025e-02 4.87079e-03 6.94491e-02 -8.03341e-03 -5.15529e-03 -3.62961e-02 8.67186e-03 -1.38342e-02 7.87976e-03 8.09066e-03 -5.52919e-03 5.47409e-03 7.87117e-03 -5.02496e-03 -6.22823e-03 -1.43614e-03 6.39726e-04 0 -1.43499e-03 6.37080e-04 0
-1.10033e-03 -2.60304e-02 -2.31719e-02 0 -3.18004e-02 -1.77720e-02 -3.41739e-03 -2.28183e-02 5.94810e-02 -8.57423e-03 3.89695e-03 -7.31124e-02 4.40855e-04 1.96049e-02 7.26973e-03 -6.77391e-03 2.73045e-02 6.36940e-02 -1.02664e-02 2.79314e-02 -6.43220e-02 2.19490e-03 6.06325e-03 2.88252e-02 -1.12643e-02 -1.40858e-02 3.17212e-03 -2.04031e-03 -2.63228e-02 -4.44760e-02 2.18872e-03 -2.96679e-02 7.50795e-02 -8.54448e-03 -9.34334e-03 -4.17389e-02 6.99129e-03 1.29114e-02 -4.10713e-02 6.70837e-04 2.30988e-02 7.73816e-02 4.16621e-04 3.00528e-02 -4.20930e-02 1.13979e-02 1.37790e-02 3.94769e-03 -1.12423e-03 -8.52287e-03 2.82589e-02 7.80659e-03 -2.22806e-02 -6.68245e-02 9.10915e-03 -3.26691e-02 6.08120e-02 -2.00064e-04 -2.01580e-02 5.56841e-03 5.82538e-03 2.41789e-03 -7.34462e-02 5.67813e-03 1.76248e-02 6.10530e-02 -5.16254e-04 3.32108e-02 -1.49630e-02 2.74236e-04 2.79281e-02 -2.08727e-02 9.42560e-03 9.07826e-03 1.62782e-02 -8.82434e-03 -1.04595e-02 1.57786e-02 0 1.05468e-03 -8.31279e-04 0 -9.79314e-04 -9.17779e-04
-1.88357e-02 4.80236e-03 1.39360e-02 -1.77475e-02 1.35961e-04 1.95281e-02 -1.98833e-02 -4.30980e-03 2.09586e-02 -8.33828e-03 -6.29428e-03 -6.97396e-02 -8.44140e-03 -9.92265e-03 7.84346e-03 -8.22796e-03 -1.01849e-02 9.54860e-02 2.32576e-03 7.78642e-03 -6.28228e-02 2.27682e-03 1.34929e-02 -6.22479e-02 8.70437e-03 9.00299e-03 8.42131e-02 1.56465e-02 3.83214e-03 1.18523e-02 1.09237e-02 -2.50105e-03 -4.77766e-02 1.74756e-02 -1.17733e-02 -5.04382e-03 1.76331e-02 -1.21353e-02 3.35474e-03 1.27001e-02 -6.58244e-03 4.69425e-02 1.51979e-02 4.86206e-03 -1.20557e-02 5.56035e-03 1.62247e-02 -8.33942e-02 4.62654e-03 8.09434e-03 6.30481e-02 4.68770e-03 2.35969e-03 6.31290e-02 -1.18130e-02 -1.94991e-03 -9.56326e-02 -8.74535e-03 -9.22497e-03 -8.34672e-03 -5.73259e-03 -1.22810e-02 6.92028e-02 -2.06608e-02 -2.52401e-03 -2.04920e-02 -1.84657e-02 1.78583e-03 -1.87656e-02 -1.93366e-02 5.95251e-03 -1.27575e-02 -9.21103e-03 4.99658e-03 -5.03942e-03 -9.00774e-03 4.52991e-03 5.79136e-03 3.25535e-03 -3.43832e-04 -8.96178e-04 3.28613e-03 -4.14361e-04 7.40858e-04
1.93749e-02 3.26125e-03 -6.75630e-02 -4.88798e-03 7.44538e-03 4.34724e-02 7.05860e-03 1.57891e-02 5.65653e-02 2.65625e-02 6.73554e-03 -2.64667e-02 2.38560e-02 -5.41892e-03 -5.06132e-02 3.35831e-02 -2.08659e-02 3.56506e-02 3.57477e-02 -2.01550e-02 5.05610e-02 2.68960e-02 -4.87517e-03 -4.52283e-02 3.24892e-02 8.24300e-03 -4.16463e-02 2.09474e-02 1.72410e-02 4.41933e-02 1.27078e-02 1.47965e-02 3.37334e-02 8.88926e-03 1.06950e-02 -3.59230e-02 -1.02450e-02 -7.58075e-03 -3.63517e-02 -1.14603e-02 -1.76627e-02 3.27876e-02 -1.93066e-02 -2.10110e-02 4.33003e-02 -3.40385e-02 -4.68409e-03 -4.09546e-02 -2.85622e-02 8.70259e-03 -4.36038e-02 -3.37977e-02 1.56752e-02 5.34084e-02 -3.21913e-02 1.76690e-02 3.85458e-02 -2.57248e-02 9.71245e-03 -4.90312e-02 -2.75453e-02 -4.47754e-03 -2.59358e-02 -4.96167e-03 -2.06057e-02 5.52228e-02 6.49990e-03 -1.11479e-02 4.24579e-02 -2.18951e-02 2.52891e-03 -6.68204e-02 -1.32039e-02 1.26966e-03 -2.07773e-02 1.24150e-02 5.42826e-04 -2.12892e-02 -6.84890e-03 -7.03898e-04 3.60688e-03 6.98019e-03 4.02203e-04 3.39515e-03
9.91987e-03 1.01529e-02 -2.67766e-02 -1.40092e-02 1.60201e-02 6.87265e-02 9.49309e-03 2.58250e-02 -4.14186e-02 2.06353e-02 1.19759e-02 -2.71124e-02 7.61079e-03 -1.29730e-02 8.36580e-02 2.36592e-02 -2.81356e-02 -2.96597e-02 2.35277e-02 -2.84183e-02 -6.07446e-02 1.33081e-02 -1.65481e-02 6.16114e-02 2.66164e-02 1.05556e-02 5.74817e-03 1.00205e-02 3.27766e-02 -4.26630e-02 6.32599e-03 2.84692e-02 2.57323e-02 1.12244e-02 1.40013e-02 -2.76729e-03 -1.13427e-02 -1.37296e-02 -3.53888e-03 -5.40432e-03 -3.05865e-02 2.34078e-02 -1.16632e-02 -2.90029e-02 -4.49183e-02 -2.63996e-02 -1.10537e-02 5.81145e-03 -1.09660e-02 1.11676e-02 6.32609e-02 -2.57390e-02 3.34982e-02 -5.71528e-02 -2.47073e-02 3.05435e-02 -2.62242e-02 -4.45327e-03 5.71937e-03 8.46897e-02 -2.16549e-02 -9.63358e-03 -2.72503e-02 -1.10783e-02 -2.21832e-02 -4.31013e-02 1.65459e-02 -2.18476e-02 6.65218e-02 -1.09315e-02 -7.82890e-03 -2.71603e-02 -1.08237e-02 -4.74047e-03 -1.89135e-02 1.01158e-02 6.36663e-03 -1.88277e-02 -3.39835e-03 -7.12544e-04 2.12875e-03 3.47679e-03 5.32345e-04 2.05344e-03
-2.52893e-02 2.52216e-02 4.77727e-02 -8.27532e-03 1.80943e-02 -3.20041e-03 -2.16484e-02 -4.03095e-03 -1.26615e-02 -1.04986e-02 -2.52180e-02 2.57147e-02 -7.58772e-03 -2.48892e-02 -2.98728e-02 -1.24221e-02 -1.36767e-02 -8.32289e-03 5.91055e-03 6.09521e-03 6.24061e-02 -3.66456e-04 2.48520e-02 -4.59037e-02 4.79739e-03 2.73343e-02 -4.07209e-02 1.93829e-02 6.35288e-03 9.22171e-02 7.05410e-03 -8.10464e-03 -2.33930e-02 1.66728e-02 -2.06394e-02 -8.43496e-02 1.97849e-02 -2.77888e-02 8.15791e-02 7.91166e-03 -1.00747e-02 2.23290e-02 1.59280e-02 1.42899e-02 -9.19900e-02 6.36226e-03 2.37394e-02 4.27122e-02 1.39202e-03 2.08123e-02 4.78520e-02 3.58041e-03 1.14481e-02 -6.18282e-02 -1.21240e-02 -1.43618e-02 7.57518e-03 -6.50442e-03 -2.73778e-02 2.78851e-02 -1.14944e-02 -2.29304e-02 -2.73768e-02 -2.11658e-02 -5.13962e-03 1.30694e-02 -8.12054e-03 1.77388e-02 5.05189e-03 -2.70190e-02 2.91951e-02 -4.44470e-02 -1.49254e-02 1.89290e-03 -1.15915e-02 -1.44780e-02 8.65128e-04 1.22618e-02 4.72819e-03 -9.46213e-04 -1.08156e-03 4.76383e-03 -1.02808e-03 8.18464e-04
-4.54028e-03 3.31401e-03 2.21019e-02 4.89812e-03 2.32502e-03 -1.88823e-02 -5.04266e-04 -3.28900e-03 -2.39234e-02 -7.40743e-03 -5.32797e-03 4.47504e-02 -5.32549e-03 -1.51192e-04 -1.19622e-03 -8.32398e-03 6.70516e-03 -6.55392e-02 -8.54951e-03 1.98783e-03 4.82695e-02 -6.89293e-03 -5.02083e-04 5.05393e-02 -9.81987e-03 2.85381e-03 -9.15357e-02 -5.50884e-03 -3.75627e-03 1.21491e-03 -1.67405e-03 -7.20988e-03 9.98635e-02 -3.36757e-03 8.69608e-04 -6.32013e-02 9.98232e-04 4.57340e-03 -6.31236e-02 5.42232e-03 -1.40089e-03 9.99807e-02 5.55651e-03 3.64678e-03 1.32633e-03 6.38226e-03 5.04329e-03 -9.17453e-02 8.78054e-03 -3.83427e-03 5.01017e-02 1.03470e-02 -6.11713e-03 4.75659e-02 5.85424e-03 -1.03151e-03 -6.61384e-02 5.27722e-03 2.62072e-04 -1.37727e-03 9.08580e-03 1.47231e-03 4.47341e-02 -3.86223e-04 5.33468e-03 -2.35540e-02 -5.60519e-03 -7.00717e-04 -1.88156e-02 5.35900e-03 -5.19483e-03 2.15496e-02 2.49642e-03 -1.54476e-03 3.87506e-03 -2.34714e-03 1.20182e-03 4.08425e-03 1.62103e-03 0 -7.96216e-04 -1.64980e-03 0 -7.37652e-04
4.13037e-02 -3.01111e-02 -7.28465e-02 2.10814e-02 -1.94759e-02 -1.43502e-02 2.90649e-02 4.22715e-03 5.57866e-02 1.84398e-02 2.76731e-02 -9.67009e-03 1.67931e-02 3.09378e-02 -5.36525e-02 1.79543e-02 1.56333e-02 3.70322e-02 -4.64905e-03 -1.01492e-02 3.19635e-02 -1.35355e-03 -2.25459e-02 -5.34997e-02 -1.00207e-02 -3.00277e-02 -6.32243e-03 -2.52954e-02 -1.47319e-02 5.21867e-02 -1.58201e-02 1.07386e-02 -2.03974e-02 -2.97289e-02 2.99834e-02 -3.94042e-02 -2.81848e-02 2.64362e-02 4.29214e-02 -1.50282e-02 8.91938e-03 2.18230e-02 -2.72548e-02 -1.02309e-02 -5.22767e-02 -9.82546e-03 -3.04763e-02 4.08770e-03 6.13499e-04 -2.70647e-02 5.13760e-02 -5.85853e-03 -7.37068e-03 -3.25213e-02 1.65808e-02 1.87886e-02 -3.61968e-02 1.88394e-02 2.62369e-02 5.54477e-02 1.88334e-02 2.67688e-02 1.13168e-02 2.69633e-02 9.05517e-03 -5.62652e-02 2.15723e-02 -2.06036e-02 1.18232e-02 4.39527e-02 -3.61966e-02 6.83904e-02 2.01706e-02 -2.32531e-03 1.35982e-02 1.96437e-02 -1.11493e-03 -1.44932e-02 -7.56804e-03 1.05617e-03 2.10520e-03 -7.63982e-03 1.22107e-03 -1.72184e-03
4.63507e-02 3.39670e-02 -4.51911e-02 2.39425e-02 3.93718e-02 5.73602e-02 2.61670e-02 2.48967e-02 -8.99986e-04 5.31123e-02 -1.56009e-02 -1.43130e-02 2.92808e-02 -4.86894e-02 1.02577e-02 1.97216e-02 -4.23708e-02 -3.80358e-03 3.05339e-02 -1.14366e-02 -5.43333e-03 -9.21709e-03 3.53075e-02 3.80766e-03 -1.19560e-02 4.78225e-02 2.02749e-03 -1.18981e-02 3.27705e-02 6.17836e-04 -4.79136e-02 -1.30948e-02 5.64873e-04 -3.16433e-02 -4.49277e-02 -1.16079e-03 -3.16501e-02 -4.49121e-02 -1.52304e-03 -4.79223e-02 -1.30750e-02 1.05032e-04 -1.18600e-02 3.26830e-02 2.64799e-03 -1.19463e-02 4.78004e-02 2.54096e-03 -9.29620e-03 3.54892e-02 -4.09979e-04 3.06974e-02 -1.18122e-02 3.28314e-03 1.97818e-02 -4.25091e-02 -5.94591e-04 2.87978e-02 -4.75797e-02 -1.54950e-02 5.35856e-02 -1.66882e-02 1.09205e-02 2.62225e-02 2.47693e-02 2.05735e-03 2.18422e-02 4.41967e-02 -5.46182e-02 4.80644e-02 3.00301e-02 4.61778e-02 -4.65711e-03 -6.69382e-03 -2.91727e-02 -3.57272e-03 -9.18495e-03 2.86429e-02 -7.62369e-03 -1.63574e-03 4.54758e-03 -7.79119e-03 -1.25095e-03 -4.38284e-03
-5.82270e-02 3.26457e-02 5.53354e-02 -2.03169e-02 -2.71634e-04 1.51637e-02 -2.69626e-02 -3.01496e-02 -2.54625e-03 -3.82922e-03 -4.75564e-02 -1.60177e-03 2.71196e-02 -1.93084e-02 8.12330e-03 1.75433e-02 1.44285e-02 1.68510e-03 4.43252e-02 4.40666e-02 -1.06623e-03 5.36557e-02 3.49970e-02 2.86405e-03 3.06290e-02 3.37758e-04 -1.51882e-04 4.53362e-02 -3.20970e-02 -3.14724e-03 2.70831e-02 -4.60275e-02 -2.11630e-03 -3.72922e-03 -1.61635e-02 -7.75898e-04 3.72363e-03 1.61763e-02 4.77756e-04 -2.70691e-02 4.59953e-02 2.86439e-03 -4.53704e-02 3.21756e-02 1.32338e-03 -3.06137e-02 -3.72842e-04 9.66166e-04 -5.35672e-02 -3.52001e-02 1.85050e-03 -4.44051e-02 -4.38831e-02 -3.19153e-03 -1.74912e-02 -1.45482e-02 1.09367e-03 -2.67654e-02 1.84946e-02 1.07628e-02 3.84328e-03 4.75241e-02 2.35109e-03 2.68970e-02 3.03003e-02 -9.51811e-04 2.08706e-02 -1.00045e-03 1.43598e-02 6.02047e-02 -3.71889e-02 5.01051e-02 -4.15305e-02 1.52499e-02 -2.77589e-02 4.04377e-02 -1.27396e-02 -3.05023e-02 5.63144e-03 -1.35191e-03 -9.01262e-04 -5.65904e-03 1.41532e-03 -5.70265e-04
5.62866e-02 4.47660e-02 -2.45559e-02 4.43205e-02 4.19337e-02 3.61783e-02 1.89911e-02 1.47306e-03 -3.14202e-03 3.52840e-02 -3.90473e-02 -1.13146e-02 1.35704e-02 -5.35909e-02 2.33829e-03 -2.76369e-02 -8.34008e-03 -2.04151e-03 -1.30737e-02 3.40985e-02 -8.76151e-04 -3.31921e-02 5.31606e-02 3.78291e-03 -5.74777e-02 1.90102e-02 1.50224e-03 -2.20814e-02 -3.28569e-02 -1.37631e-03 -2.40527e-02 -4.97401e-02 -1.34606e-03 -2.48051e-02 -2.88146e-02 -8.20686e-04 2.48035e-02 2.88184e-02 7.32111e-04 2.40657e-02 4.97103e-02 2.03649e-03 2.20674e-02 3.28891e-02 6.28463e-04 5.74629e-02 -1.89763e-02 -2.29032e-03 3.32247e-02 -5.32354e-02 -2.04712e-03 1.29767e-02 -3.38758e-02 -4.29359e-03 2.75545e-02 8.52929e-03 -2.34982e-03 -1.33869e-02 5.31695e-02 7.44393e-03 -3.56197e-02 3.98186e-02 -6.58662e-03 -1.90978e-02 -1.22806e-03 -2.54401e-03 -4.30029e-02 -4.49606e-02 3.40721e-02 -5.72384e-02 -4.25795e-02 -2.61902e-02 9.52486e-03 -5.27765e-03 -2.57754e-02 -1.04744e-02 7.45903e-03 -2.48515e-02 -6.49114e-03 -1.90881e-03 4.31492e-03 6.65116e-03 1.54119e-03 4.21707e-03
4.25055e-02 -2.81056e-02 -3.43929e-02 -6.46861e-03 1.94155e-02 -1.76633e-02 -1.14106e-02 4.02414e-02 -8.65510e-03 -2.44746e-02 3.68962e-02 1.56992e-03 -6.25065e-02 -9.13804e-03 -3.01508e-03 -4.35428e-02 -4.22234e-02 -3.79692e-03 -3.11109e-02 -3.26446e-02 5.06933e-04 -3.92773e-02 1.06917e-03 8.29387e-04 4.66401e-03 4.50569e-02 1.59295e-03 2.88560e-02 3.29804e-02 1.42155e-03 2.25527e-02 1.19382e-03 -2.65376e-04 5.57468e-02 -4.00629e-02 -2.90602e-03 5.57518e-02 -4.00744e-02 -2.63815e-03 2.25487e-02 1.20294e-03 -4.77274e-04 2.88358e-02 3.30270e-02 3.40471e-04 4.67378e-03 4.50345e-02 2.11371e-03 -3.92791e-02 1.07318e-03 7.36322e-04 -3.11607e-02 -3.25303e-02 -2.14718e-03 -4.34382e-02 -4.24637e-02 1.77939e-03 -6.23645e-02 -9.46424e-03 4.55563e-03 -2.44567e-02 3.68550e-02 2.52559e-03 -1.10137e-02 3.93297e-02 1.25042e-02 -5.77164e-03 1.78143e-02 1.94970e-02 4.37177e-02 -3.08902e-02 3.02337e-02 4.01134e-02 -1.90715e-02 3.17727e-02 3.88652e-02 -1.62042e-02 -3.47740e-02 -1.96037e-03 1.36046e-03 -5.77419e-04 -1.93519e-03 1.30261e-03 7.65229e-04
-5.51256e-02 -4.69811e-02 9.97363e-03 -4.76749e-02 -3.55296e-02 -2.06145e-02 9.58173e-04 2.27400e-02 5.41252e-03 4.28150e-03 4.49946e-02 1.07189e-02 1.08553e-02 2.99734e-02 0 5.74329e-02 -2.96144e-02 -1.24662e-03 4.54821e-02 -5.11970e-02 -1.21282e-03 1.43538e-02 -1.28214e-02 -1.34140e-03 2.73566e-02 3.12219e-02 5.37060e-04 -3.08799e-03 5.25080e-02 2.47682e-03 -4.98509e-02 1.88520e-03 8.45513e-04 -3.19124e-02 -4.14332e-02 -1.32872e-03 -3.19070e-02 -4.14454e-02 -1.04531e-03 -4.98445e-02 1.87052e-03 1.18619e-03 -3.09385e-03 5.25215e-02 2.16457e-03 2.73676e-02 3.11965e-02 1.12598e-03 1.43732e-02 -1.28661e-02 -3.04217e-04 4.54130e-02 -5.10383e-02 -4.89706e-03 5.73915e-02 -2.95193e-02 -3.45494e-03 1.08933e-02 2.98862e-02 2.09752e-03 3.94986e-03 4.57565e-02 -6.96301e-03 7.91587e-04 2.31227e-02 -3.46924e-03 -4.69272e-02 -3.72474e-02 1.92531e-02 -5.55360e-02 -4.60384e-02 -1.19060e-02 -2.41925e-02 7.41425e-04 2.56516e-02 -2.51344e-02 2.90531e-03 -2.45693e-02 5.88904e-03 2.32995e-03 -4.51361e-03 6.05761e-03 1.94271e-03 4.47364e-03
2.40461e-02 -2.46340e-02 -2.71849e-02 -3.35585e-02 3.38673e-02 -1.59983e-02 -4.30055e-02 4.42912e-02 -9.54688e-03 -3.08189e-02 1.32614e-02 8.98545e-04 -5.42099e-02 -3.18048e-02 -5.61805e-04 -3.03657e-02 -4.71109e-02 -2.87910e-03 2.23836e-02 5.88623e-03 1.04188e-03 2.15615e-02 3.73107e-02 2.10467e-03 3.34362e-02 3.69946e-02 8.65825e-04 6.57559e-02 -1.21378e-02 -1.60854e-03 3.35743e-02 -4.97745e-02 -2.64573e-03 -2.10527e-03 -1.93269e-02 -9.23635e-04 2.10039e-03 1.93382e-02 6.63461e-04 -3.35695e-02 4.97635e-02 2.90245e-03 -6.57504e-02 1.21251e-02 1.90341e-03 -3.34400e-02 -3.69859e-02 -1.06747e-03 -2.15278e-02 -3.73882e-02 -3.05729e-04 -2.23384e-02 -5.99011e-03 1.36896e-03 3.03125e-02 4.72329e-02 0 5.42021e-02 3.18227e-02 1.46367e-04 3.08095e-02 -1.32398e-02 -1.39922e-03 4.25466e-02 -4.32369e-02 -1.49228e-02 3.28815e-02 -3.23121e-02 -2.00959e-02 -2.50070e-02 2.68414e-02 -2.40470e-02 2.85428e-02 -2.18617e-02 3.43975e-02 -2.72000e-02 1.87770e-02 3.71940e-02 4.27154e-04 1.67584e-03 -1.82132e-03 -4.97728e-04 -1.51372e-03 -1.94141e-03
-4.02300e-02 -3.93512e-02 -2.89736e-03 -3.37080e-02 -2.16523e-02 -6.66604e-03 2.47150e-02 3.72203e-02 7.26195e-03 4.59988e-02 3.05986e-02 8.39573e-03 2.89644e-02 -7.74422e-03 -1.75329e-04 4.11811e-02 -3.70871e-02 -2.72220e-03 3.14999e-02 -2.59995e-02 -1.17715e-03 -2.69477e-02 3.45944e-02 1.60210e-03 -4.45414e-02 3.39835e-02 1.75023e-03 -2.86162e-02 -2.48905e-03 4.01118e-04 -4.30770e-02 -3.57077e-02 -6.73689e-04 -2.94766e-02 -3.03825e-02 -7.63262e-04 2.94764e-02 3.03831e-02 7.49247e-04 4.30791e-02 3.57028e-02 7.87262e-04 2.86151e-02 2.49149e-03 -4.57711e-04 4.45209e-02 -3.39362e-02 -2.84670e-03 2.69329e-02 -3.45605e-02 -2.38819e-03 -3.14799e-02 2.59536e-02 2.24262e-03 -4.11943e-02 3.71174e-02 2.02011e-03 -2.89382e-02 7.68389e-03 1.57545e-03 -4.57016e-02 -3.12814e-02 7.44941e-03 -2.44859e-02 -3.77467e-02 4.95463e-03 3.34697e-02 2.21996e-02 -6.03656e-03 4.01568e-02 3.95194e-02 -1.00676e-03 -4.60623e-02 -1.07217e-02 3.49718e-02 4.73563e-02 7.74925e-03 3.40155e-02 6.65926e-03 3.51626e-03 -6.03370e-03 -6.88609e-03 -2.99517e-03 -6.06020e-03
-1.34127e-02 1.75952e-02 2.84972e-02 4.40269e-02 -4.51664e-02 8.97275e-03 5.13797e-02 -4.15361e-02 6.49186e-03 7.83694e-03 1.95408e-02 -1.11456e-04 7.72996e-03 4.38152e-02 -7.67797e-04 4.29273e-03 2.06624e-02 1.12745e-03 -4.83509e-02 -4.26530e-02 -1.44635e-03 -5.15672e-02 -4.11584e-02 -1.61675e-03 -4.18978e-03 1.99089e-02 1.05616e-03 -2.42444e-03 4.35659e-02 2.14155e-03 2.54624e-04 2.03229e-02 8.56446e-04 5.00752e-02 -4.21099e-02 -2.77242e-03 5.00760e-02 -4.21115e-02 -2.73489e-03 2.55165e-04 2.03217e-02 8.85263e-04 -2.43263e-03 4.35847e-02 1.70464e-03 -4.19427e-03 1.99192e-02 8.17180e-04 -5.15369e-02 -4.12281e-02 0 -4.83316e-02 -4.26973e-02 -4.17792e-04 4.28084e-03 2.06897e-02 4.93496e-04 7.82394e-03 4.35993e-02 4.24253e-03 7.86712e-03 1.94714e-02 1.49784e-03 5.10336e-02 -4.07412e-02 -1.19578e-02 4.35873e-02 -4.41565e-02 -1.44647e-02 -1.44415e-02 1.99587e-02 -2.63566e-02 1.22386e-03 3.07966e-02 -4.55926e-02 2.97916e-03 2.67642e-02 4.79939e-02 -3.46107e-03 -3.09061e-03 4.41900e-03 -3.62903e-03 -2.70477e-03 -4.53572e-03
3.71054e-03 6.77949e-03 1.08090e-02 -1.43192e-02 8.06628e-03 -1.10643e-02 -4.57484e-02 -1.23676e-02 -7.55074e-03 -5.27646e-02 -3.52538e-03 -2.23263e-03 -2.47536e-02 1.75459e-02 1.11842e-03 1.07848e-02 -1.96493e-03 9.21482e-04 3.28682e-02 -7.05752e-04 1.52345e-04 4.79242e-02 -1.05273e-02 -1.01906e-03 4.42224e-02 -4.29457e-03 -8.86178e-04 8.71972e-03 1.94705e-02 6.24682e-04 -2.94662e-02 -3.38555e-03 2.98842e-04 -4.36243e-02 -5.59074e-03 5.33861e-04 -4.36227e-02 -5.59448e-03 6.20600e-04 -2.94622e-02 -3.39483e-03 5.14268e-04 8.72162e-03 1.94661e-02 7.25866e-04 4.42176e-02 -4.28354e-03 -1.14221e-03 4.79117e-02 -1.04986e-02 -1.68439e-03 3.28383e-02 -6.37030e-04 -1.44259e-03 1.07395e-02 -1.86103e-03 -1.49004e-03 -2.47498e-02 1.75372e-02 1.32170e-03 -5.26496e-02 -3.78939e-03 3.89461e-03 -4.54536e-02 -1.30449e-02 8.16637e-03 -1.38820e-02 7.06194e-03 1.22451e-02 3.31429e-03 7.68977e-03 -1.03174e-02 7.39067e-02 2.49741e-02 -4.35423e-02 7.55248e-02 2.12568e-02 4.27316e-02 -7.61770e-03 -4.75896e-03 7.70657e-03 -7.90848e-03 -4.09097e-03 -7.79668e-03
3.21517e-02 1.38605e-02 -2.89780e-02 3.33260e-03 4.27870e-02 9.53260e-03 -2.13407e-02 3.50640e-03 -2.16586e-03 6.79579e-03 -4.32934e-02 -3.90659e-03 1.78887e-02 -2.51569e-02 5.87388e-04 -1.78701e-02 3.16550e-02 1.49739e-03 -1.23648e-02 3.98221e-02 1.23551e-03 2.16885e-02 -1.32587e-02 -7.01591e-04 1.87672e-03 -4.54563e-02 -1.81914e-03 -2.09432e-02 -8.67701e-03 -1.08722e-04 1.08380e-02 4.14625e-02 1.55221e-03 1.84787e-02 2.85142e-02 9.24193e-04 -1.84771e-02 -2.85178e-02 -8.40023e-04 -1.08391e-02 -4.14598e-02 -1.61412e-03 2.09384e-02 8.68799e-03 -1.46041e-04 -1.87018e-03 4.54413e-02 2.16768e-03 -2.16782e-02 1.32349e-02 1.25333e-03 1.23382e-02 -3.97609e-02 -2.65684e-03 1.78626e-02 -3.16376e-02 -1.89993e-03 -1.78136e-02 2.49843e-02 3.41747e-03 -6.86742e-03 4.34579e-02 0 2.12390e-02 -3.27276e-03 -3.25658e-03 -3.04247e-03 -4.34535e-02 5.93629e-03 -3.32361e-02 -1.13693e-02 -2.88387e-02 -5.01798e-02 -4.30458e-02 5.64441e-02 5.23267e-02 3.81139e-02 5.80185e-02 6.49384e-03 4.98852e-03 -7.53401e-03 -6.77932e-03 -4.33270e-03 -7.68669e-03
1.31003e-02 1.57230e-02 6.09407e-03 6.05537e-02 -3.15059e-02 1.58258e-02 6.59271e-02 -2.55436e-02 6.41476e-03 1.08548e-02 2.81812e-02 -7.43434e-04 -3.01078e-02 1.23168e-02 -2.14816e-03 -4.15660e-02 -3.19521e-03 -5.42119e-04 -5.33429e-02 -2.15387e-02 -2.96092e-04 -3.74738e-02 -1.26375e-02 0 2.61166e-02 3.83334e-02 1.38683e-03 6.92747e-02 4.58475e-03 -8.33958e-04 4.79260e-02 -2.82479e-02 -2.06114e-03 1.16873e-02 -5.43989e-03 -5.14044e-04 -1.16895e-02 5.44508e-03 3.93415e-04 -4.79239e-02 2.82432e-02 2.17067e-03 -6.92647e-02 -4.60778e-03 1.36840e-03 -2.61082e-02 -3.83527e-02 -9.37850e-04 3.74684e-02 1.26498e-02 -3.01114e-04 5.33291e-02 2.15704e-02 -4.39369e-04 4.15216e-02 3.29702e-03 -1.82077e-03 2.99864e-02 -1.20379e-02 -4.32466e-03 -1.09205e-02 -2.80303e-02 -2.75702e-03 -6.55995e-02 2.47910e-02 1.10505e-02 -5.98680e-02 2.99308e-02 2.07316e-02 -1.28884e-02 -1.62099e-02 5.20561e-03 -5.10752e-02 -4.44115e-03 7.69519e-03 5.13345e-02 3.84540e-03 6.13144e-03 3.05572e-03 1.79797e-03 -3.00403e-03 -3.16892e-03 -1.53794e-03 -3.03101e-03
4.80322e-02 4.08959e-02 -1.76237e-02 3.35298e-02 3.47130e-02 1.26567e-02 -3.05107e-02 -4.20694e-02 -4.90080e-03 -4.18483e-02 -4.04934e-02 -7.36122e-03 2.50327e-04 2.41313e-02 1.50330e-03 -3.41651e-03 4.49242e-02 3.05433e-03 -1.86562e-02 0 0 2.68669e-02 -5.49436e-02 -2.80255e-03 5.40729e-02 -1.35680e-02 -1.24189e-03 3.55344e-04 5.43884e-02 2.34755e-03 -3.52049e-02 2.14324e-02 1.45667e-03 -7.04759e-03 -3.76627e-02 -1.52817e-03 -7.04619e-03 -3.76660e-02 -1.45321e-03 -3.52002e-02 2.14215e-02 1.71031e-03 3.54943e-04 5.43893e-02 2.32607e-03 5.40595e-02 -1.35373e-02 -1.95413e-03 2.68643e-02 -5.49377e-02 -2.93973e-03 -1.86444e-02 0 6.62039e-04 -3.45598e-03 4.50149e-02 9.49810e-04 2.32800e-04 2.41715e-02 5.68883e-04 -4.16087e-02 -4.10438e-02 5.41331e-03 -3.03737e-02 -4.23841e-02 2.40387e-03 3.30885e-02 3.57268e-02 -1.08711e-02 4.87241e-02 3.93065e-02 1.92646e-02 -3.00424e-02 -3.05349e-02 3.04480e-02 -3.12102e-02 -2.78522e-02 -3.18149e-02 3.02036e-03 2.72232e-03 -3.94632e-03 3.17034e-03 2.37778e-03 4.04995e-03
4.01754e-02 4.12617e-02 -8.81465e-03 3.01268e-02 2.18970e-02 7.84595e-03 -4.05481e-02 -5.51512e-02 -6.04561e-03 -6.79778e-02 -1.95314e-02 -6.04928e-03 -2.14671e-03 5.70497e-02 2.68814e-03 4.73053e-02 1.23746e-02 1.78316e-03 2.10360e-02 -4.29086e-02 -1.79867e-03 8.45256e-04 -2.00584e-02 -1.15359e-03 1.84088e-02 3.14175e-02 9.90493e-04 -3.47207e-03 3.79657e-02 1.72076e-03 -5.85506e-02 -3.64858e-02 -5.37451e-04 -4.05168e-02 -4.50508e-02 -1.19402e-03 4.05163e-02 4.50519e-02 1.16841e-03 5.85483e-02 3.64913e-02 4.10638e-04 3.47282e-03 -3.79674e-02 -1.68126e-03 -1.84095e-02 -3.14159e-02 -1.02627e-03 -8.55485e-04 2.00819e-02 6.07850e-04 -2.10194e-02 4.28703e-02 2.68610e-03 -4.72253e-02 -1.25584e-02 2.48187e-03 2.15380e-03 -5.70660e-02 -2.30946e-03 6.77351e-02 2.00888e-02 -6.88758e-03 4.03823e-02 5.55321e-02 -2.79448e-03 -2.98473e-02 -2.25391e-02 7.05619e-03 -4.05436e-02 -4.04157e-02 -1.08199e-02 -1.07152e-02 -1.82347e-02 1.36901e-02 1.12495e-02 1.70073e-02 1.47966e-02 9.28955e-04 1.12197e-03 -1.52436e-03 -9.87168e-04 -9.88241e-04 -1.57934e-03
-1.72804e-02 -1.38505e-02 -9.78574e-03 -6.07444e-02 3.56567e-02 -1.15885e-02 -5.56760e-02 2.48484e-02 -3.68229e-03 2.18229e-02 -4.84322e-02 7.82790e-04 7.31428e-02 -7.31900e-03 2.44839e-03 4.18476e-02 3.82003e-02 1.70960e-03 -7.73928e-03 6.01692e-04 -5.20330e-04 -2.50156e-02 -1.63783e-02 -6.53433e-04 -3.95418e-02 -1.93059e-02 -2.11644e-04 -4.91759e-02 1.42509e-02 1.47431e-03 -3.67707e-03 3.83569e-02 1.74545e-03 6.73610e-02 -3.20302e-02 -2.60608e-03 6.73596e-02 -3.20270e-02 -2.68079e-03 -3.67795e-03 3.83589e-02 1.69799e-03 -4.91736e-02 1.42456e-02 1.59818e-03 -3.95372e-02 -1.93163e-02 0 -2.50000e-02 -1.64141e-02 1.78585e-04 -7.71341e-03 5.42253e-04 8.59450e-04 4.18158e-02 3.82732e-02 0 7.29881e-02 -6.96342e-03 -5.80461e-03 2.17002e-02 -4.81503e-02 -5.76060e-03 -5.54591e-02 2.43499e-02 7.88657e-03 -6.02106e-02 3.44302e-02 1.68770e-02 -1.69243e-02 -1.46685e-02 9.19847e-03 3.09167e-02 -2.50522e-03 2.40791e-03 3.08008e-02 -2.23903e-03 -3.76990e-03 -1.14675e-03 -6.32138e-04 1.09482e-03 -1.18794e-03 -5.37507e-04 -1.10143e-03
2.78104e-02 3.22576e-02 -4.56790e-03 2.08617e-02 1.15699e-02 4.28901e-03 -3.68073e-02 -4.82950e-02 -5.14505e-03 -6.39711e-02 -2.33613e-03 -3.78761e-03 2.32157e-03 6.00575e-02 2.87336e-03 7.48449e-02 -2.00741e-02 0 4.53530e-02 -5.34896e-02 -2.48598e-03 -3.98443e-02 3.70325e-02 1.80046e-03 -5.75094e-02 3.37265e-02 2.16142e-03 -3.69367e-03 -3.59103e-02 -1.44731e-03 2.56231e-02 -2.00912e-02 -1.26017e-03 9.40046e-03 2.39029e-02 8.72780e-04 9.39975e-03 2.39046e-02 8.34502e-04 2.56199e-02 -2.00838e-02 -1.43198e-03 -3.69482e-03 -3.59077e-02 -1.50856e-03 -5.74955e-02 3.36946e-02 2.90061e-03 -3.98240e-02 3.69858e-02 2.88306e-03 4.53280e-02 -5.34321e-02 -3.82180e-03 7.47596e-02 -1.98782e-02 -4.53682e-03 2.30925e-03 6.00858e-02 2.21644e-03 -6.37882e-02 -2.75632e-03 5.96444e-03 -3.66668e-02 -4.86178e-02 2.34741e-03 2.07051e-02 1.19294e-02 -4.05611e-03 2.80139e-02 3.17901e-02 6.28050e-03 -3.90810e-03 -1.12314e-02 7.08126e-03 -4.18851e-03 -1.05872e-02 -7.86950e-03 3.24718e-04 5.24191e-04 -6.77585e-04 3.50696e-04 4.64511e-04 7.07518e-04
1.64975e-02 9.61646e-03 8.39959e-03 4.77038e-02 -2.94612e-02 7.63512e-03 3.77533e-02 -1.76797e-02 1.68199e-03 -3.46934e-02 4.92598e-02 -5.90534e-04 -7.98903e-02 -2.62195e-03 -2.13115e-03 -2.47384e-02 -5.35890e-02 -2.14950e-03 6.23137e-02 2.90873e-02 1.31259e-03 6.65636e-02 3.48270e-02 8.71695e-04 -3.32029e-03 -3.74500e-02 -1.68474e-03 -4.75857e-02 -1.17843e-02 1.75466e-04 -3.23980e-02 2.33740e-02 1.57448e-03 -7.10866e-03 7.48872e-03 4.88328e-04 7.10987e-03 -7.49150e-03 -4.23813e-04 3.23965e-02 -2.33705e-02 -1.65491e-03 4.75778e-02 1.18023e-02 -5.93134e-04 3.31530e-03 3.74615e-02 1.41854e-03 -6.65404e-02 -3.48803e-02 3.64689e-04 -6.22677e-02 -2.91929e-02 1.13809e-03 2.47270e-02 5.36152e-02 1.54188e-03 7.97587e-02 2.92432e-03 -4.88655e-03 3.45675e-02 -4.89706e-02 -6.12208e-03 -3.76353e-02 1.74087e-02 4.60784e-03 -4.73370e-02 2.86186e-02 1.19202e-02 -1.61870e-02 -1.03297e-02 8.15319e-03 -1.91764e-02 3.11379e-03 -3.24524e-03 1.90364e-02 -2.79228e-03 -4.21643e-03 5.17499e-04 2.83347e-04 -4.96551e-04 -5.36178e-04 -2.40436e-04 -4.99357e-04
-1.42796e-02 -1.79318e-02 1.99751e-03 -1.06756e-02 -4.50107e-03 -1.87148e-03 2.18361e-02 2.81910e-02 2.95852e-03 3.84953e-02 -3.82480e-03 1.73595e-03 -3.36074e-03 -3.75706e-02 -1.84500e-03 -5.60286e-02 2.44767e-02 6.37978e-04 -3.60769e-02 3.36629e-02 1.67641e-03 4.34656e-02 -4.78411e-02 -2.42398e-03 7.17969e-02 -1.14418e-02 -1.48339e-03 -1.21416e-03 5.94126e-02 2.54305e-03 -7.86378e-02 -2.15813e-02 4.19245e-04 -4.90148e-02 -4.97465e-02 -1.22891e-03 4.90146e-02 4.97469e-02 1.21936e-03 7.86331e-02 2.15921e-02 -6.70297e-04 1.21271e-03 -5.94092e-02 -2.62219e-03 -7.17835e-02 1.14112e-02 2.19427e-03 -4.34487e-02 4.78022e-02 3.32720e-03 3.60600e-02 -3.36241e-02 -2.57581e-03 5.59736e-02 -2.43505e-02 -3.56657e-03 3.34994e-03 3.75955e-02 1.26785e-03 -3.83972e-02 3.59927e-03 3.49802e-03 -2.17555e-02 -2.83762e-02 1.33879e-03 1.06053e-02 4.66254e-03 -1.87579e-03 1.43733e-02 1.77166e-02 2.99609e-03 1.26578e-03 5.54965e-03 -3.19266e-03 -1.39334e-03 -5.25661e-03 -3.60840e-03 -1.09435e-04 -2.19391e-04 2.75394e-04 1.20019e-04 1.95075e-04 2.88948e-04
-1.01911e-02 -4.86497e-03 -4.85169e-03 -2.62842e-02 1.67783e-02 -3.80409e-03 -1.84581e-02 9.02784e-03 -5.38161e-04 2.54204e-02 -3.11830e-02 3.10014e-04 5.10826e-02 5.31324e-03 1.25185e-03 7.75205e-03 3.86140e-02 1.49636e-03 -5.93736e-02 -3.10376e-02 -1.16086e-03 -5.34670e-02 -2.71959e-02 -5.80418e-04 3.02530e-02 5.30886e-02 1.93291e-03 8.07763e-02 -2.15031e-03 -1.37324e-03 2.28846e-02 -5.61389e-02 -2.84278e-03 -6.90010e-02 3.58329e-02 2.79336e-03 -6.89994e-02 3.58291e-02 2.88270e-03 2.28843e-02 -5.61384e-02 -2.85340e-03 8.07675e-02 -2.13013e-03 -1.84110e-03 3.02451e-02 5.31069e-02 1.50808e-03 -5.34516e-02 -2.72313e-02 2.40651e-04 -5.93385e-02 -3.11181e-02 7.09292e-04 7.75285e-03 3.86121e-02 1.54030e-03 5.10084e-02 5.48356e-03 -2.70146e-03 2.53407e-02 -3.09998e-02 -3.94138e-03 -1.84105e-02 8.91836e-03 2.00292e-03 -2.60963e-02 1.63466e-02 6.21380e-03 -1.00102e-02 -5.28056e-03 4.79344e-03 9.41044e-03 -1.94982e-03 1.98367e-03 9.32644e-03 -1.75685e-03 -2.49481e-03 -2.08837e-04 -1.15658e-04 2.03051e-04 -2.16477e-04 0 -2.04285e-04
-9.48516e-02 1.13760e-01 -4.80015e-02 -2.36834e-02 -1.07588e-02 -6.03706e-04 2.94355e-02 -3.64201e-02 4.57616e-03 2.39046e-02 2.06319e-02 1.87365e-03 -3.87223e-03 7.69730e-03 -1.60891e-04 -1.18930e-02 -1.19135e-02 -6.40213e-04 -3.13345e-03 1.48256e-03 1.20637e-04 3.97690e-03 4.59946e-03 1.76718e-04 3.09382e-03 -2.34627e-03 -1.46260e-04 -4.69583e-04 -1.13461e-03 0 -1.84270e-03 1.19682e-03 0 -8.61335e-04 4.22985e-04 0 8.61357e-04 -4.23048e-04 0 1.84256e-03 -1.19651e-03 0 4.69377e-04 1.13502e-03 0 -3.09327e-03 2.34509e-03 1.71922e-04 -3.97481e-03 -4.60391e-03 0 3.13329e-03 -1.48235e-03 -1.24652e-04 1.18796e-02 1.19433e-02 0 3.85097e-03 -7.64851e-03 -9.66944e-04 -2.38504e-02 -2.07546e-02 9.86072e-04 -2.91841e-02 3.58432e-02 8.78909e-03 2.36609e-02 1.08087e-02 -5.62391e-04 9.28025e-02 -1.09055e-01 -6.11203e-02 3.52150e-02 -3.87137e-02 1.93390e-02 -3.44031e-02 3.68497e-02 2.39000e-02 -1.18979e-04 1.38488e-04 -1.05261e-04 1.14729e-04 -1.28729e-04 -1.21155e-04
9.48434e-02 -1.13773e-01 4.79999e-02 2.36701e-02 1.07785e-02 6.03151e-04 -2.94263e-02 3.64253e-02 -4.57454e-03 -2.38601e-02 -2.06800e-02 -1.87426e-03 3.89296e-03 -7.66295e-03 1.61888e-04 1.18064e-02 1.19895e-02 6.43251e-04 3.00420e-03 -1.63149e-03 -1.25573e-04 -3.89423e-03 -4.63444e-03 -1.78829e-04 -2.72025e-03 2.72058e-03 1.56607e-04 6.20868e-04 8.68887e-04 0 1.12568e-03 -1.81254e-03 0 -1.43957e-04 7.54294e-04 0 -1.43931e-04 7.54275e-04 0 1.12564e-03 -1.81238e-03 -1.01448e-04 6.20696e-04 8.69339e-04 0 -2.71990e-03 2.71964e-03 1.79833e-04 -3.89238e-03 -4.63904e-03 0 3.00425e-03 -1.63144e-03 -1.27712e-04 1.17937e-02 1.20197e-02 0 3.87191e-03 -7.61456e-03 -9.65808e-04 -2.38071e-02 -2.08036e-02 9.80924e-04 -2.91765e-02 3.58505e-02 8.78804e-03 2.36489e-02 1.08289e-02 -5.59673e-04 9.27992e-02 -1.09074e-01 -6.11227e-02 -3.52135e-02 3.87148e-02 -1.93389e-02 -3.44034e-02 3.68526e-02 2.39012e-02 1.18969e-04 -1.38518e-04 1.05299e-04 1.14724e-04 -1.28762e-04 -1.21201e-04
-2.66822e-02 -1.85468e-02 -6.77678e-03 5.09070e-03 2.84162e-02 3.62185e-03 3.61266e-02 1.29177e-02 3.71987e-03 9.49769e-03 -4.77842e-02 -2.53111e-03 -4.00602e-02 1.25994e-02 -4.72379e-04 -3.10909e-02 5.14911e-02 2.45702e-03 3.00576e-02 -4.53673e-02 -1.91547e-03 5.06612e-02 -3.19499e-02 -2.02156e-03 -6.46899e-03 6.88501e-02 2.95407e-03 -5.80122e-02 -5.39859e-03 7.09812e-04 -2.33078e-02 -6.95898e-02 -2.54686e-03 4.79638e-02 4.50671e-02 1.08171e-03 4.79623e-02 4.50705e-02 1.00289e-03 -2.33084e-02 -6.95886e-02 -2.57564e-03 -5.80067e-02 -5.41111e-03 1.00047e-03 -6.46399e-03 6.88386e-02 3.22114e-03 5.06497e-02 -3.19237e-02 -2.63078e-03 3.00351e-02 -4.53154e-02 -3.11890e-03 -3.10780e-02 5.14615e-02 3.14498e-03 -3.99941e-02 1.24475e-02 3.05308e-03 9.50870e-03 -4.78095e-02 -1.94425e-03 3.59828e-02 1.32480e-02 -3.94493e-03 4.99739e-03 2.86306e-02 -1.35306e-03 -2.64398e-02 -1.91038e-02 6.15087e-03 2.67998e-03 0 5.15840e-04 2.65865e-03 0 -6.21820e-04 0 0 0 0 0 0
-4.04249e-03 1.47346e-02 -2.35730e-03 1.14116e-02 -2.20191e-02 7.72236e-04 1.01565e-03 1.70623e-02 2.21737e-04 -2.62688e-02 1.82168e-02 -3.06578e-04 -1.49212e-02 -4.73745e-02 -1.79303e-03 3.30116e-02 1.52697e-02 9.07434e-04 3.90567e-02 5.23996e-02 1.83574e-03 -2.11345e-02 -5.79386e-02 -2.40001e-03 -5.87210e-02 -2.31684e-02 -1.23010e-04 -7.61867e-03 8.18558e-02 3.72484e-03 6.02686e-02 -2.67934e-02 -2.19581e-03 4.01724e-02 -6.98200e-02 -3.77936e-03 -4.01731e-02 6.98215e-02 3.74438e-03 -6.02653e-02 2.67858e-02 2.37350e-03 7.62073e-03 -8.18605e-02 -3.61510e-03 5.87126e-02 2.31878e-02 -3.28225e-04 2.11233e-02 5.79644e-02 1.80136e-03 -3.90451e-02 -5.24263e-02 -1.21606e-03 -3.29791e-02 -1.53444e-02 8.26076e-04 1.49200e-02 4.73773e-02 1.72987e-03 2.62095e-02 -1.80805e-02 -2.85482e-03 -1.03415e-03 -1.70198e-02 -1.20832e-03 -1.13391e-02 2.18528e-02 3.08927e-03 3.92765e-03 -1.44708e-02 -3.76518e-03 1.31842e-03 -2.85879e-03 1.04071e-03 -1.27393e-03 2.75659e-03 1.33129e-03 0 0 0 0 0 0
-4.53695e-02 -3.21106e-02 -1.15413e-02 1.24668e-02 4.86303e-02 6.72899e-03 5.78644e-02 1.88206e-02 5.82430e-03 5.43217e-03 -7.14817e-02 -4.20879e-03 -6.05332e-02 1.99477e-02 -5.97772e-04 -2.68596e-02 6.15691e-02 3.02391e-03 4.69810e-02 -5.02503e-02 -2.22044e-03 3.79281e-02 -2.59695e-02 -1.63981e-03 -2.76922e-02 4.89444e-02 2.42894e-03 -3.32765e-02 -5.22153e-03 3.27350e-04 1.71208e-02 -2.05435e-02 -1.16665e-03 2.14868e-02 6.52247e-03 -1.16836e-04 -2.14866e-02 -6.52291e-03 1.27080e-04 -1.71193e-02 2.05401e-02 1.24574e-03 3.32738e-02 5.22770e-03 -4.70635e-04 2.76847e-02 -4.89273e-02 -2.82674e-03 -3.79210e-02 2.59531e-02 2.02002e-03 -4.69501e-02 5.01793e-02 3.86858e-03 2.68546e-02 -6.15577e-02 -3.28876e-03 6.04362e-02 -1.97248e-02 -4.57606e-03 -5.47061e-03 7.15700e-02 2.15943e-03 -5.76362e-02 -1.93450e-02 6.34617e-03 -1.22846e-02 -4.90488e-02 2.98449e-03 4.49574e-02 3.30572e-02 -1.04276e-02 4.34613e-03 -1.14681e-04 8.21553e-04 -4.31214e-03 0 9.90465e-04 0 0 0 0 0 0
-9.53096e-03 2.25660e-02 -4.48541e-03 2.22952e-02 -3.73269e-02 1.93369e-03 4.06966e-03 3.67470e-02 7.78029e-04 -4.47286e-02 2.02099e-02 -1.10391e-03 -2.27049e-02 -7.60524e-02 -2.88333e-03 4.94456e-02 3.88075e-02 2.08275e-03 4.52067e-02 5.48115e-02 1.86956e-03 -3.08922e-02 -7.56858e-02 -3.08111e-03 -4.79864e-02 4.15472e-03 8.87334e-04 9.33701e-03 5.09103e-02 2.09185e-03 2.84916e-02 -3.69815e-02 -2.08340e-03 -8.17389e-03 8.12725e-03 4.96832e-04 -8.17364e-03 8.12668e-03 5.10121e-04 2.84899e-02 -3.69777e-02 -2.17205e-03 9.33426e-03 5.09166e-02 1.94541e-03 -4.79792e-02 4.13823e-03 1.26992e-03 -3.08773e-02 -7.57202e-02 -2.28404e-03 4.51933e-02 5.48421e-02 1.15959e-03 4.93955e-02 3.89226e-02 -5.87421e-04 -2.27037e-02 -7.60551e-02 -2.81890e-03 -4.46232e-02 1.99680e-02 4.51095e-03 4.09694e-03 3.66843e-02 2.23276e-03 2.21469e-02 -3.69864e-02 -5.96921e-03 -9.31999e-03 2.20813e-02 6.76271e-03 2.26822e-03 -4.62866e-03 1.67848e-03 2.19634e-03 -4.46353e-03 -2.15398e-03 0 0 0 0 0 0
-5.42303e-02 -3.99527e-02 -1.38106e-02 2.19117e-02 5.93850e-02 9.12639e-03 6.07498e-02 1.52493e-02 5.85223e-03 -1.14366e-02 -6.56292e-02 -4.67521e-03 -5.28164e-02 2.16606e-02 -2.46327e-04 8.17547e-03 2.66502e-02 1.49304e-03 3.50114e-02 -1.59735e-02 -8.47544e-04 -2.19721e-02 1.03283e-02 6.50575e-04 -2.75330e-02 -2.91363e-02 -8.26560e-04 4.12516e-02 -2.02333e-04 -6.67257e-04 3.65032e-02 6.06168e-02 1.94208e-03 -4.68604e-02 -4.20746e-02 -9.71343e-04 -4.68590e-02 -4.20778e-02 -8.96766e-04 3.65026e-02 6.06181e-02 1.91232e-03 4.12473e-02 -1.92430e-04 -8.97099e-04 -2.75298e-02 -2.91439e-02 -6.51824e-04 -2.19644e-02 1.03105e-02 1.06277e-03 3.49927e-02 -1.59307e-02 -1.84012e-03 8.15683e-03 2.66930e-02 4.99046e-04 -5.27352e-02 2.14740e-02 4.08461e-03 -1.13594e-02 -6.58065e-02 -5.60448e-04 6.05127e-02 1.57940e-02 -6.78905e-03 2.16505e-02 5.99850e-02 -4.80009e-03 -5.37398e-02 -4.10797e-02 1.23442e-02 4.80524e-03 0 8.61130e-04 4.76965e-03 0 -1.03671e-03 0 0 0 0 0 0
2.28534e-02 -1.75121e-02 8.03164e-03 -3.65751e-02 3.66237e-02 -4.86980e-03 -1.20757e-02 -5.61881e-02 -1.85818e-03 5.80358e-02 -2.24785e-03 2.72600e-03 1.91448e-02 7.34763e-02 2.70040e-03 -5.38315e-02 -5.03408e-02 -2.60221e-03 -1.41465e-02 -1.53001e-02 -4.29892e-04 3.51964e-02 2.86402e-02 9.04692e-04 -1.37940e-02 -2.67950e-02 -9.62954e-04 -3.11303e-02 4.40447e-02 2.42756e-03 4.05079e-02 -1.08493e-02 -1.16554e-03 4.22475e-02 -6.49606e-02 -3.59873e-03 -4.22478e-02 6.49612e-02 3.58405e-03 -4.05056e-02 1.08440e-02 1.28866e-03 3.11283e-02 -4.40401e-02 -2.53550e-03 1.37915e-02 2.68007e-02 8.28949e-04 -3.51840e-02 -2.86686e-02 -2.44539e-04 1.41451e-02 1.53032e-02 3.58085e-04 5.37775e-02 5.04649e-02 -2.77064e-04 -1.91487e-02 -7.34672e-02 -2.91278e-03 -5.78894e-02 1.91153e-03 5.07951e-03 1.20883e-02 5.61592e-02 2.52934e-03 3.63081e-02 -3.60103e-02 -9.36641e-03 -2.25085e-02 1.67198e-02 1.03574e-02 -3.33390e-03 5.20429e-03 -1.97944e-03 3.24907e-03 -5.00943e-03 -2.54300e-03 0 0 0 0 0 0
5.37388e-02 4.61307e-02 1.34531e-02 -2.74145e-02 -6.85620e-02 -1.03434e-02 -4.76311e-02 3.00212e-03 -4.09138e-03 2.37308e-02 3.89411e-02 3.68424e-03 2.05195e-02 -2.68901e-02 -6.77021e-04 -3.54711e-02 3.09461e-02 1.19402e-03 4.76741e-03 -2.75067e-02 -1.09638e-03 5.53694e-02 -3.58948e-02 -2.20644e-03 -9.02983e-03 7.40475e-02 3.23072e-03 -5.45650e-02 -1.94282e-02 0 1.02340e-02 -3.49339e-02 -1.65989e-03 2.99969e-02 2.90200e-02 7.02000e-04 -2.99964e-02 -2.90212e-02 -6.73607e-04 -1.02326e-02 3.49307e-02 1.73426e-03 5.45598e-02 1.94401e-02 -3.24240e-04 9.02500e-03 -7.40364e-02 -3.48847e-03 -5.53552e-02 3.58622e-02 2.96213e-03 -4.76074e-03 2.74913e-02 1.45205e-03 3.54410e-02 -3.08770e-02 -2.79980e-03 -2.04871e-02 2.68156e-02 2.40613e-03 -2.36390e-02 -3.91519e-02 1.20789e-03 4.74397e-02 -2.56238e-03 -6.11429e-03 2.71187e-02 6.92415e-02 -5.42859e-03 -5.32719e-02 -4.72033e-02 1.14387e-02 -4.14170e-03 -8.38309e-04 -5.05875e-04 4.12121e-03 8.85380e-04 -5.86585e-04 0 0 0 0 0 0
4.46471e-02 3.98766e-03 1.32726e-02 -5.65243e-02 1.11022e-02 -1.03357e-02 -1.56379e-02 -5.59475e-02 -2.06080e-03 6.94469e-02 1.02207e-02 3.94368e-03 -1.06025e-02 4.07725e-02 9.18682e-04 -5.23700e-02 -1.10081e-02 -6.92418e-04 4.40066e-02 5.65124e-03 0 2.30477e-02 -3.74521e-02 -1.94516e-03 -6.79805e-02 -5.31699e-03 7.34921e-04 3.31293e-03 5.63792e-02 2.42264e-03 6.15642e-02 -1.56941e-02 -1.75238e-03 -3.24941e-02 -1.30183e-02 0 -3.24932e-02 -1.30204e-02 0 6.15613e-02 -1.56874e-02 -1.90911e-03 3.31085e-03 5.63840e-02 2.31179e-03 -6.79689e-02 -5.34374e-03 1.35560e-03 2.30440e-02 -3.74435e-02 -2.14639e-03 4.39816e-02 5.70877e-03 -1.24797e-03 -5.23251e-02 -1.11113e-02 1.70301e-03 -1.05637e-02 4.06833e-02 2.98803e-03 6.92670e-02 1.06339e-02 -5.64683e-03 -1.56401e-02 -5.59427e-02 -2.17361e-03 -5.60798e-02 1.00812e-02 1.33605e-02 4.41255e-02 5.18613e-03 -1.45423e-02 -4.46041e-03 4.39566e-03 -1.91002e-03 -4.37870e-03 4.20795e-03 2.44651e-03 0 0 0 0 0 0
-3.68115e-02 -4.78688e-02 -8.48777e-03 1.45713e-02 7.74558e-02 7.89442e-03 2.33244e-02 -4.33345e-02 9.77480e-04 -1.02849e-02 4.58757e-03 -5.91196e-04 1.08293e-02 2.87876e-02 1.29195e-03 2.59709e-02 -7.02597e-02 -3.14550e-03 -2.14467e-02 6.66507e-02 2.82734e-03 -2.78928e-02 -7.75417e-03 0 1.13717e-02 -3.64760e-02 -1.69007e-03 -3.91891e-03 5.36199e-02 2.39173e-03 -1.77712e-02 -6.49669e-02 -2.47145e-03 2.71565e-02 3.40631e-02 9.78491e-04 2.71557e-02 3.40649e-02 9.38287e-04 -1.77710e-02 -6.49674e-02 -2.46045e-03 -3.91921e-03 5.36205e-02 2.37599e-03 1.13681e-02 -3.64679e-02 -1.87941e-03 -2.78856e-02 -7.77058e-03 3.78979e-04 -2.14299e-02 6.66123e-02 3.71881e-03 2.59571e-02 -7.02280e-02 -3.88170e-03 1.08197e-02 2.88095e-02 7.83711e-04 -1.02482e-02 4.50315e-03 1.36801e-03 2.32016e-02 -4.30523e-02 -5.57230e-03 1.43905e-02 7.78711e-02 -1.74500e-03 -3.65452e-02 -4.84806e-02 5.71221e-03 2.03346e-03 2.75882e-03 -3.67865e-04 2.05025e-03 2.72025e-03 5.27350e-04 0 0 0 0 0 0
5.01902e-02 1.56497e-02 1.43702e-02 -6.76031e-02 -2.03328e-03 -1.29898e-02 3.35845e-03 -4.06752e-02 0 6.28559e-02 -2.60227e-03 2.85809e-03 -5.06965e-02 1.40305e-02 -7.80364e-04 -1.81094e-02 2.35943e-02 1.11796e-03 6.97165e-02 1.26083e-02 1.66149e-04 -3.47523e-02 -3.58919e-02 -1.25401e-03 -4.26498e-02 -1.40744e-02 0 6.53993e-02 4.86488e-03 -8.40543e-04 -1.36456e-02 2.17245e-02 1.15778e-03 -5.84240e-02 2.65103e-02 2.22527e-03 5.84235e-02 -2.65092e-02 -2.25079e-03 1.36443e-02 -2.17216e-02 -1.22604e-03 -6.53927e-02 -4.88005e-03 1.19270e-03 4.26437e-02 1.40885e-02 -3.56443e-04 3.47389e-02 3.59228e-02 5.36925e-04 -6.96816e-02 -1.26883e-02 1.69073e-03 1.81005e-02 -2.35739e-02 -1.59355e-03 5.06091e-02 -1.38297e-02 -3.88087e-03 -6.27006e-02 2.24551e-03 5.42190e-03 -3.28680e-03 4.05106e-02 3.72140e-03 6.70727e-02 3.25170e-03 -1.52880e-02 -4.96424e-02 -1.69083e-02 1.48398e-02 -4.20904e-03 3.38650e-03 -1.55766e-03 4.14232e-03 -3.23323e-03 -1.99953e-03 0 0 0 0 0 0
2.11855e-02 4.08686e-02 4.38966e-03 -2.29595e-03 -7.32269e-02 -4.94013e-03 -8.00794e-03 6.77394e-02 1.00030e-03 1.18030e-03 -4.42712e-02 -1.94132e-03 -1.44610e-02 5.18954e-03 0 -1.51007e-02 4.50689e-02 2.05118e-03 5.64798e-03 -7.07671e-02 -2.93264e-03 1.25480e-03 6.68464e-02 2.91643e-03 1.17201e-03 -4.63018e-02 -1.99235e-03 1.97012e-02 1.93243e-03 -2.41113e-04 8.16012e-03 4.67659e-02 1.85736e-03 -5.03312e-03 -6.82117e-02 -2.85885e-03 5.03259e-03 6.82129e-02 2.83054e-03 -8.16029e-03 -4.67655e-02 -1.86656e-03 -1.96995e-02 -1.93631e-03 3.31193e-04 -1.17109e-03 4.62997e-02 2.04155e-03 -1.25257e-03 -6.68515e-02 -2.79723e-03 -5.63965e-03 7.07480e-02 3.37659e-03 1.50942e-02 -4.50540e-02 -2.39831e-03 1.44407e-02 -5.14303e-03 -1.03330e-03 -1.18074e-03 4.42722e-02 1.91807e-03 7.93051e-03 -6.75615e-02 -5.12841e-03 2.22752e-03 7.33841e-02 1.29211e-03 -2.10723e-02 -4.11287e-02 1.64919e-03 -6.77627e-04 -3.27979e-03 7.18311e-04 7.09327e-04 3.20697e-03 9.71795e-04 0 0 0 0 0 0
4.75158e-02 1.82102e-02 1.35445e-02 -7.27893e-02 -2.10061e-03 -1.37022e-02 2.87198e-02 -2.78230e-02 2.73623e-03 4.03865e-02 -1.52835e-02 1.03667e-03 -7.03680e-02 -3.07477e-03 -1.68893e-03 3.20779e-02 2.58169e-02 1.43151e-03 3.96825e-02 2.05488e-02 5.97893e-04 -7.04215e-02 -3.70077e-03 5.87464e-04 3.35947e-02 -1.73702e-02 -1.19249e-03 3.70027e-02 -2.70725e-02 -1.78620e-03 -7.14688e-02 4.78676e-03 1.45299e-03 3.45032e-02 2.02058e-02 2.46999e-04 3.45023e-02 2.02078e-02 2.00053e-04 -7.14653e-02 4.77870e-03 1.64003e-03 3.69999e-02 -2.70661e-02 -1.93448e-03 3.35877e-02 -1.73542e-02 -1.56376e-03 -7.04000e-02 -3.75012e-03 1.73274e-03 3.96654e-02 2.05881e-02 -3.13661e-04 3.20434e-02 2.58961e-02 -4.05988e-04 -7.02603e-02 -3.32209e-03 4.05092e-03 4.02947e-02 -1.50726e-02 -3.85788e-03 2.85523e-02 -2.74384e-02 -6.19149e-03 -7.22287e-02 -3.38840e-03 1.61856e-02 4.70048e-02 1.93840e-02 -1.36975e-02 -3.55782e-03 2.82147e-03 -1.26472e-03 -3.50343e-03 2.69654e-03 1.63491e-03 0 0 0 0 0 0
-1.33809e-02 -3.30099e-02 -2.58599e-03 -2.16026e-03 6.38790e-02 3.34992e-03 1.61834e-03 -7.35330e-02 -1.78840e-03 -1.42176e-03 6.86454e-02 3.15909e-03 9.05510e-03 -4.69156e-02 -1.64624e-03 9.03935e-03 9.53490e-03 4.12441e-04 3.15206e-03 2.57490e-02 1.02627e-03 8.90867e-03 -5.62446e-02 -2.57460e-03 1.36000e-03 7.49251e-02 3.16810e-03 -6.01151e-03 -7.04836e-02 -2.95915e-03 -1.02372e-03 5.13066e-02 2.22091e-03 -9.75833e-03 -2.00736e-02 -6.88397e-04 -9.75809e-03 -2.00742e-02 -6.75417e-04 -1.02338e-03 5.13058e-02 2.23878e-03 -6.01020e-03 -7.04866e-02 -2.88941e-03 1.36130e-03 7.49221e-02 3.23738e-03 8.90808e-03 -5.62432e-02 -2.60637e-03 3.15296e-03 2.57470e-02 1.07431e-03 9.03295e-03 9.54962e-03 0 9.03470e-03 -4.68687e-02 -2.73397e-03 -1.42829e-03 6.86604e-02 2.81051e-03 1.56555e-03 -7.34118e-02 -4.60278e-03 -2.18110e-03 6.39269e-02 2.23833e-03 -1.33280e-02 -3.31316e-02 2.37081e-04 2.19083e-04 2.90989e-03 -6.85914e-04 2.49295e-04 2.84049e-03 9.24898e-04 0 0 0 0 0 0
-4.23930e-02 -1.77835e-02 -1.21341e-02 7.35622e-02 -1.17634e-03 1.34729e-02 -5.14885e-02 1.68403e-02 -5.06227e-03 -7.48439e-03 2.04286e-02 8.38628e-04 6.18111e-02 1.41190e-02 1.82124e-03 -6.77040e-02 -1.08217e-02 -8.52080e-04 2.09389e-02 -1.84304e-02 -8.19672e-04 4.13696e-02 -2.02296e-02 -1.35409e-03 -7.25072e-02 -3.63957e-04 1.00975e-03 4.66411e-02 1.78876e-02 0 1.44599e-02 1.94007e-02 5.73023e-04 -6.50037e-02 1.29826e-02 1.75730e-03 6.50029e-02 -1.29808e-02 -1.79980e-03 -1.44596e-02 -1.94015e-02 -5.56448e-04 -4.66361e-02 -1.78991e-02 2.37626e-04 7.24947e-02 3.92724e-04 -1.67730e-03 -4.13586e-02 2.02043e-02 1.93975e-03 -2.09252e-02 1.83989e-02 1.55241e-03 6.76420e-02 1.09640e-02 -2.45194e-03 -6.17223e-02 -1.43230e-02 2.91274e-03 7.47757e-03 -2.04130e-02 -1.20176e-03 5.12357e-02 -1.62596e-02 -8.41515e-03 -7.30044e-02 -1.05121e-04 1.62681e-02 4.19377e-02 1.88294e-02 -1.21382e-02 2.88695e-03 -2.40686e-03 1.01931e-03 -2.84289e-03 2.30564e-03 1.32983e-03 0 0 0 0 0 0
3.62869e-02 1.61598e-02 1.04601e-02 -7.01465e-02 4.50255e-03 -1.25551e-02 6.75644e-02 -7.37806e-03 6.72280e-03 -2.79584e-02 -1.84962e-02 -2.43355e-03 -2.88760e-02 -1.80052e-02 -1.23113e-03 6.78643e-02 -6.48217e-03 0 -6.76254e-02 5.98654e-03 5.70831e-04 2.77275e-02 2.00596e-02 5.98986e-04 2.83827e-02 1.55700e-02 2.51547e-04 -6.77699e-02 9.43356e-03 1.50855e-03 6.78518e-02 -8.87243e-03 -1.56413e-03 -2.78553e-02 -1.74118e-02 -2.44559e-04 -2.78547e-02 -1.74133e-02 -2.11067e-04 6.78484e-02 -8.86462e-03 -1.74530e-03 -6.77636e-02 9.41903e-03 1.84582e-03 2.83784e-02 1.55797e-02 0 2.77180e-02 2.00815e-02 0 -6.75896e-02 5.90438e-03 2.47761e-03 6.78056e-02 -6.34728e-03 -3.11392e-03 -2.88386e-02 -1.80909e-02 7.58342e-04 -2.78775e-02 -1.86820e-02 1.87890e-03 6.72534e-02 -6.66370e-03 -9.85646e-03 -6.96201e-02 3.29319e-03 1.55125e-02 3.58960e-02 1.70579e-02 -1.03827e-02 -2.26872e-03 2.02923e-03 -8.04600e-04 -2.23374e-03 1.94887e-03 1.06045e-03 0 0 0 0 0 0
8.37244e-03 2.48387e-02 1.53007e-03 3.90446e-03 -5.12272e-02 -2.18939e-03 1.71902e-04 6.67918e-02 1.82320e-03 3.74805e-03 -7.50260e-02 -3.36403e-03 -3.80973e-03 7.29728e-02 2.74781e-03 -3.43869e-03 -5.81093e-02 -2.59288e-03 -2.37871e-03 3.81722e-02 1.62208e-03 -8.95256e-03 -1.03652e-02 -3.43508e-04 -2.44215e-03 -1.84318e-02 -7.43805e-04 -5.19799e-03 4.29604e-02 1.94998e-03 -4.78335e-03 -6.42369e-02 -2.67212e-03 2.50431e-03 7.36970e-02 3.13950e-03 -2.50390e-03 -7.36980e-02 -3.11743e-03 4.78357e-03 6.42364e-02 2.68402e-03 5.19804e-03 -4.29605e-02 -1.94712e-03 2.44232e-03 1.84314e-02 7.52918e-04 8.95013e-03 1.03707e-02 2.14166e-04 2.37620e-03 -3.81664e-02 -1.75633e-03 3.43294e-03 5.81225e-02 2.28636e-03 3.79221e-03 -7.29326e-02 -3.68145e-03 -3.75034e-03 7.50312e-02 3.24219e-03 -2.11256e-04 -6.67014e-02 -3.92148e-03 -3.90105e-03 5.12194e-02 2.37116e-03 -8.34936e-03 -2.48917e-02 -2.99048e-04 0 -2.28797e-03 5.49815e-04 0 2.23229e-03 7.42545e-04 0 0 0 0 0 0
-2.98427e-02 -1.40947e-02 -8.66660e-03 6.29659e-02 -6.36726e-03 1.10978e-02 -7.47806e-02 -5.69982e-04 -7.52390e-03 5.73338e-02 1.27489e-02 3.52737e-03 -1.56519e-02 1.42728e-02 1.54000e-04 -3.16417e-02 1.64880e-02 6.19028e-04 6.63459e-02 6.59627e-03 0 -7.29227e-02 -3.01221e-03 6.52296e-04 4.95751e-02 -1.14319e-02 -1.18473e-03 -5.19758e-03 -1.81882e-02 -7.08656e-04 -4.09777e-02 -1.14203e-02 2.28122e-04 7.03580e-02 -7.98986e-03 -1.63811e-03 -7.03570e-02 7.98765e-03 1.68957e-03 4.09758e-02 1.14244e-02 -3.24679e-04 5.19674e-03 1.81902e-02 6.63838e-04 -4.95662e-02 1.14115e-02 1.65903e-03 7.29008e-02 3.06256e-03 -1.82102e-03 -6.63125e-02 -6.67309e-03 1.84961e-03 3.16160e-02 -1.64291e-02 -1.98574e-03 1.56237e-02 -1.42079e-02 -1.65976e-03 -5.71820e-02 -1.30974e-02 4.56158e-03 7.44474e-02 1.33541e-03 -1.02407e-02 -6.24961e-02 5.28788e-03 1.39531e-02 2.95201e-02 1.48358e-02 -8.53347e-03 1.72314e-03 -1.64383e-03 6.12155e-04 -1.69636e-03 1.58232e-03 8.15297e-04 0 0 0 0 0 0
-2.28587e-02 -1.02155e-02 -6.73540e-03 5.29511e-02 -9.81026e-03 9.07666e-03 -7.23602e-02 -1.72487e-03 -7.24295e-03 7.40393e-02 7.71939e-04 3.71696e-03 -5.51438e-02 1.18621e-02 -7.43842e-04 2.20055e-02 1.03758e-02 5.80752e-04 1.74921e-02 1.57079e-02 5.57545e-04 -5.20770e-02 7.51942e-03 8.97268e-04 7.22963e-02 5.68017e-03 -7.84123e-04 -7.31001e-02 -4.82752e-03 9.75303e-04 5.35219e-02 -8.57841e-03 -1.30276e-03 -1.98039e-02 -1.34059e-02 -2.16661e-04 -1.98035e-02 -1.34068e-02 -1.95755e-04 5.35193e-02 -8.57233e-03 -1.44388e-03 -7.30931e-02 -4.84367e-03 1.34999e-03 7.22841e-02 5.70830e-03 -1.43692e-03 -5.20619e-02 7.48472e-03 1.70245e-03 1.74843e-02 1.57258e-02 1.40836e-04 2.19851e-02 1.04228e-02 -5.09684e-04 -5.50582e-02 1.16653e-02 3.82452e-03 7.38495e-02 1.20809e-03 -6.40545e-03 -7.20411e-02 -2.45796e-03 9.77111e-03 5.25583e-02 -8.90806e-03 -1.18621e-02 -2.26071e-02 -1.07936e-02 6.68293e-03 1.25160e-03 -1.39461e-03 4.75606e-04 1.23067e-03 -1.34653e-03 -6.40272e-04 0 0 0 0 0 0
6.50770e-03 1.73196e-02 1.33087e-03 0 -3.52143e-02 -1.94898e-03 5.34205e-03 5.04593e-02 1.92193e-03 -2.53698e-04 -6.32832e-02 -3.00704e-03 2.38847e-03 7.12238e-02 2.81286e-03 0 -7.57082e-02 -3.38001e-03 -1.36238e-03 7.42291e-02 3.11472e-03 0 -6.89412e-02 -3.00964e-03 -4.04502e-03 5.86746e-02 2.56548e-03 -1.00633e-03 -4.47020e-02 -1.91833e-03 -4.46993e-03 2.83487e-02 1.29668e-03 -2.96897e-03 -9.25684e-03 -3.45051e-04 -2.96890e-03 -9.25700e-03 -3.41291e-04 -4.46961e-03 2.83479e-02 1.31390e-03 -1.00591e-03 -4.47030e-02 -1.89616e-03 -4.04358e-03 5.86713e-02 2.64235e-03 0 -6.89444e-02 -2.93412e-03 -1.35830e-03 7.42197e-02 3.33259e-03 0 -7.57183e-02 -3.14613e-03 2.39637e-03 7.12056e-02 3.23430e-03 -2.43027e-04 -6.33077e-02 -2.43811e-03 5.34774e-03 5.04462e-02 2.22533e-03 0 -3.52515e-02 -1.08720e-03 6.48125e-03 1.73804e-02 0 0 -1.46622e-03 3.43627e-04 0 -1.43136e-03 -4.65410e-04 0 0 0 0 0 0
1.67526e-02 8.06901e-03 4.96056e-03 -4.07121e-02 7.87434e-03 -6.96629e-03 6.17435e-02 5.56557e-03 6.26725e-03 -7.43981e-02 2.72378e-03 -3.53193e-03 7.54779e-02 -1.96735e-03 1.53066e-03 -6.52311e-02 -5.17908e-03 -5.25302e-04 4.44687e-02 -8.73256e-03 -5.90647e-04 -1.70087e-02 -9.98770e-03 -2.53721e-04 -1.32737e-02 -1.04563e-02 -2.56415e-04 4.13861e-02 -8.61777e-03 -1.04549e-03 -6.30237e-02 -6.03543e-03 8.43186e-04 7.47650e-02 -1.91597e-03 -1.45617e-03 -7.47639e-02 1.91351e-03 1.51339e-03 6.30207e-02 6.04220e-03 -1.00051e-03 -4.13823e-02 8.60899e-03 1.24917e-03 1.32717e-02 1.04610e-02 1.46972e-04 1.70034e-02 9.99994e-03 0 -4.44455e-02 8.67928e-03 1.82726e-03 6.51740e-02 5.31026e-03 -2.51922e-03 -7.53644e-02 1.70672e-03 4.51816e-03 7.42093e-02 -2.29001e-03 -6.53524e-03 -6.14746e-02 -6.18341e-03 8.07209e-03 4.04100e-02 -7.18051e-03 -9.13649e-03 -1.65682e-02 -8.49267e-03 4.87192e-03 -8.59108e-04 9.86432e-04 -3.22255e-04 8.44852e-04 -9.53682e-04 -4.37809e-04 0 0 0 0 0 0
-1.08177e-02 -5.34469e-03 -3.22293e-03 2.73818e-02 -5.86428e-03 4.66086e-03 -4.44800e-02 -5.32769e-03 -4.54501e-03 5.92886e-02 -4.70233e-03 2.68288e-03 -7.00932e-02 -2.68560e-03 -1.58423e-03 7.62249e-02 -1.41732e-03 2.69490e-04 -7.67908e-02 9.34075e-04 4.37941e-04 7.21008e-02 2.38904e-03 -6.81569e-04 -6.21440e-02 4.36724e-03 1.07046e-03 4.78763e-02 5.50939e-03 -5.38388e-04 -3.01422e-02 6.62657e-03 8.11691e-04 1.02958e-02 7.05848e-03 1.15906e-04 1.02956e-02 7.05890e-03 1.06164e-04 -3.01407e-02 6.62321e-03 8.89871e-04 4.78717e-02 5.51990e-03 -7.82235e-04 -6.21334e-02 4.34288e-03 1.63578e-03 7.20795e-02 2.43786e-03 -1.81469e-03 -7.67518e-02 8.44429e-04 2.51853e-03 7.61591e-02 -1.26597e-03 -3.24322e-03 -6.99891e-02 -2.92491e-03 3.96986e-03 5.91389e-02 -4.35860e-03 -5.29452e-03 -4.42872e-02 -5.77049e-03 5.73173e-03 2.71787e-02 -5.39764e-03 -6.16944e-03 -1.06981e-02 -5.61945e-03 3.15407e-03 5.29979e-04 -6.40481e-04 2.00646e-04 5.21064e-04 -6.20001e-04 -2.74671e-04 0 0 0 0 0 0
2.89780e-03 8.58647e-03 5.73975e-04 6.19392e-04 -1.81249e-02 -8.76675e-04 2.44713e-03 2.70661e-02 9.97614e-04 5.94411e-04 -3.57780e-02 -1.66035e-03 2.30651e-03 4.40092e-02 1.75632e-03 1.69451e-04 -5.13573e-02 -2.29389e-03 2.27225e-03 5.81425e-02 2.42013e-03 -4.41676e-04 -6.37054e-02 -2.77853e-03 2.20222e-03 6.85252e-02 2.89487e-03 -1.07851e-03 -7.19921e-02 -3.10115e-03 1.99974e-03 7.44928e-02 3.16420e-03 -1.62103e-03 -7.56701e-02 -3.23931e-03 1.62069e-03 7.56709e-02 3.22077e-03 -2.00004e-03 -7.44921e-02 -3.18015e-03 1.07779e-03 7.19938e-02 3.06239e-03 -2.20284e-03 -6.85238e-02 -2.92759e-03 4.40109e-04 6.37090e-02 2.69488e-03 -2.27384e-03 -5.81388e-02 -2.50486e-03 -1.72363e-04 5.13640e-02 2.13852e-03 -2.31013e-03 -4.40009e-02 -1.94922e-03 -5.98438e-04 3.57873e-02 1.44558e-03 -2.45172e-03 -2.70556e-02 -1.24246e-03 -6.22540e-04 1.81321e-02 7.08836e-04 -2.88813e-03 -8.60868e-03 0 0 -7.50519e-04 1.77438e-04 0 7.32507e-04 2.40585e-04 0 0 0 0 0 0
5.22194e-03 2.48241e-03 1.56777e-03 -1.37076e-02 3.46314e-03 -2.30738e-03 2.31073e-02 2.63686e-03 2.35676e-03 -3.26458e-02 4.05613e-03 -1.40561e-03 4.16342e-02 2.01150e-03 9.54704e-04 -5.01192e-02 3.95542e-03 0 5.75501e-02 1.12449e-03 -2.53584e-04 -6.41328e-02 3.49648e-03 8.53087e-04 6.94068e-02 1.24456e-04 -9.82867e-04 -7.35640e-02 2.78842e-03 1.31540e-03 7.62982e-02 -9.07324e-04 -1.37374e-03 -7.77183e-02 1.90050e-03 1.50984e-03 7.77172e-02 -1.89794e-03 -1.56917e-03 -7.62946e-02 8.99035e-04 1.56612e-03 7.35571e-02 -2.77255e-03 -1.68361e-03 -6.93951e-02 -1.51418e-04 1.60861e-03 6.41140e-02 -3.45345e-03 -1.85176e-03 -5.75210e-02 -1.19133e-03 1.80490e-03 5.00761e-02 -3.85650e-03 -2.25582e-03 -4.15724e-02 -2.15328e-03 2.33588e-03 3.25638e-02 -3.86759e-03 -2.97009e-03 -2.30072e-02 -2.86700e-03 2.98454e-03 1.36060e-02 -3.22980e-03 -3.10805e-03 -5.16360e-03 -2.61644e-03 1.54287e-03 -2.50797e-04 3.28423e-04 0 2.46381e-04 -3.18278e-04 -1.36317e-04 0 0 0 0 0 0
