20
75.4
6.28318 6.28318
0.0 0.0
0.00289683 1.50771 1.94253 2.47808 2.9508 3.79382 4.14386 4.96937 4.97983 5.26266 5.54761 6.50381 6.62546 9.62924 9.87871 12.367 15.067 16.9666 17.5684 21.147 23.2296 26.1245 26.7205 30.5134 31.2682 33.1532 33.7066 35.6801 35.7223 46.6369 51.4195 63.5713 66.0097 72.1856 77.7164 80.5296 80.7253 85.6718 96.6733 99.264 109.815 111.221 115.495 163.403 163.421 200.013 200.548 205.487 206.135 213.468 214.288 220.491 223.399 226.402 230.203 231.548 233.452 235.275 236.091 236.287
3.13784e-02 -1.61676e-02 -8.42424e-02 2.37664e-02 3.77319e-02 -5.61097e-02 1.50177e-02 -2.07146e-02 -4.23166e-02 1.22936e-02 3.40098e-02 -2.67920e-02 7.17917e-03 -2.38914e-02 -2.23836e-02 7.05609e-03 3.13199e-02 -1.35606e-02 3.84500e-03 -2.62480e-02 -1.40598e-02 5.20446e-03 2.92283e-02 -9.05853e-03 3.20005e-03 -2.81530e-02 -1.26728e-02 5.72151e-03 2.74719e-02 -1.06761e-02 4.92153e-03 -2.97875e-02 -1.74096e-02 8.92024e-03 2.59511e-02 -1.92442e-02 1.00173e-02 -3.11555e-02 -3.08967e-02 1.66062e-02 2.47604e-02 -3.94523e-02 2.13319e-02 -3.19623e-02 -6.04996e-02 3.27948e-02 2.43776e-02 -8.16886e-02 9.79426e-04 7.63400e-02 9.20435e-03 -4.36906e-03 -7.67736e-02 -4.39888e-04 0 0 0 0 0 0
8.76892e-03 2.93784e-02 1.00914e-02 5.65856e-03 3.91545e-02 8.10552e-03 4.11928e-03 5.21354e-02 7.20418e-03 2.89418e-03 6.09147e-02 6.43602e-03 2.80252e-03 7.05586e-02 6.27659e-03 2.44831e-03 7.64177e-02 5.89771e-03 2.84873e-03 8.14921e-02 5.82798e-03 2.72281e-03 8.35572e-02 5.40999e-03 3.11490e-03 8.35620e-02 5.11646e-03 2.84758e-03 8.15793e-02 4.44350e-03 2.89465e-03 7.65382e-02 3.73662e-03 2.13574e-03 7.08117e-02 2.62800e-03 1.37472e-03 6.12937e-02 1.26161e-03 -4.54220e-04 5.27864e-02 -5.95379e-04 -2.88802e-03 4.01595e-02 -3.10968e-03 -6.66160e-03 3.09493e-02 -6.29145e-03 4.99571e-03 2.56093e-02 1.90182e-03 -3.19534e-03 2.59306e-02 1.34455e-03 2.38831e-03 3.75238e-03 1.02593e-03 -2.11722e-03 4.00822e-03 -5.37104e-04
-1.16245e-02 -1.56645e-02 2.26640e-03 -1.23591e-02 6.19789e-03 2.36175e-02 -2.38220e-02 -1.93074e-02 3.44789e-02 -2.36037e-02 7.90511e-03 4.90979e-02 -3.13042e-02 -2.03893e-02 5.46386e-02 -3.03753e-02 9.83373e-03 6.37999e-02 -3.47236e-02 -1.98251e-02 6.53117e-02 -3.35994e-02 1.18669e-02 6.96614e-02 -3.46476e-02 -1.81395e-02 6.77714e-02 -3.35473e-02 1.38486e-02 6.74328e-02 -3.12643e-02 -1.56168e-02 6.21968e-02 -3.00503e-02 1.55070e-02 5.68996e-02 -2.43108e-02 -1.23362e-02 4.78229e-02 -2.25732e-02 1.64428e-02 3.67307e-02 -1.28633e-02 -8.23480e-03 2.27084e-02 -1.05175e-02 1.60267e-02 4.26252e-03 -2.92656e-02 3.76818e-02 3.06560e-02 -3.19478e-02 -3.91008e-02 2.58197e-02 -3.32375e-03 8.56656e-04 5.39547e-03 -3.39884e-03 -1.29299e-03 5.26007e-03
3.66955e-02 -1.49168e-02 -8.88159e-02 3.02973e-02 2.94623e-02 -6.63048e-02 2.02961e-02 -6.68317e-03 -5.48867e-02 2.01647e-02 2.53205e-02 -3.95464e-02 1.03245e-02 2.46275e-03 -3.27383e-02 1.25681e-02 2.17127e-02 -1.99061e-02 2.64684e-03 1.05592e-02 -1.39206e-02 5.45179e-03 1.65068e-02 -2.15694e-03 -4.30074e-03 1.64450e-02 4.23253e-03 -1.96746e-03 8.88956e-03 1.51456e-02 -1.11157e-02 1.98673e-02 2.25252e-02 -1.02716e-02 -9.48028e-04 3.28337e-02 -1.85291e-02 2.15045e-02 4.24958e-02 -2.09516e-02 -1.20823e-02 5.37047e-02 -2.84663e-02 2.29542e-02 6.96064e-02 -3.80319e-02 -2.33433e-02 8.64059e-02 -1.40835e-02 -6.68632e-02 4.66699e-03 9.42262e-03 -6.65671e-02 -1.30714e-02 -2.69021e-03 -2.07862e-03 4.12682e-03 2.55727e-03 -1.72695e-03 -4.36652e-03
-4.19110e-02 -4.41429e-02 5.67116e-03 -3.91520e-02 -6.75853e-02 -8.50813e-03 -3.22706e-02 -4.83764e-02 -1.56710e-02 -3.26090e-02 -6.52415e-02 -2.53081e-02 -2.86126e-02 -3.49330e-02 -2.85448e-02 -2.94996e-02 -4.63112e-02 -3.41406e-02 -2.68964e-02 -8.75309e-03 -3.41856e-02 -2.74283e-02 -1.68938e-02 -3.62846e-02 -2.60287e-02 2.31731e-02 -3.37608e-02 -2.60730e-02 1.48164e-02 -3.27010e-02 -2.60598e-02 5.21622e-02 -2.79380e-02 -2.59903e-02 4.01384e-02 -2.38162e-02 -2.78846e-02 7.00062e-02 -1.67891e-02 -2.87614e-02 5.20839e-02 -9.34320e-03 -3.43224e-02 7.06752e-02 2.00597e-04 -3.87660e-02 4.58895e-02 1.13421e-02 -1.47899e-02 2.57618e-02 1.94647e-04 -1.65453e-02 -2.44924e-02 -2.97075e-03 -1.02131e-02 8.15761e-03 -5.40262e-03 -1.07316e-02 -6.68649e-03 -6.33761e-03
2.16318e-02 -2.71639e-02 1.18041e-02 2.55473e-02 -4.15592e-02 1.16930e-02 2.59997e-02 -4.22168e-02 1.16255e-02 2.69387e-02 -4.92944e-02 1.17849e-02 2.60961e-02 -4.07677e-02 1.22573e-02 2.61695e-02 -3.80594e-02 1.28096e-02 2.58337e-02 -2.10994e-02 1.38385e-02 2.60478e-02 -1.20044e-02 1.45491e-02 2.67552e-02 8.24679e-03 1.58247e-02 2.71768e-02 1.73519e-02 1.62605e-02 2.86951e-02 3.42424e-02 1.73637e-02 2.88125e-02 3.69971e-02 1.71555e-02 3.02478e-02 4.54363e-02 1.77518e-02 2.88198e-02 3.85170e-02 1.67107e-02 2.83226e-02 3.78892e-02 1.66973e-02 2.34156e-02 2.39007e-02 1.50205e-02 3.52512e-02 1.32690e-02 7.92115e-03 3.42087e-02 -1.65749e-02 6.04136e-03 2.77566e-02 1.22984e-02 1.32298e-02 2.67766e-02 -1.57587e-02 1.14626e-02
-1.09669e-03 -3.46762e-02 1.98926e-02 -6.85404e-03 -8.87152e-03 2.43416e-02 -6.63622e-03 -1.79352e-02 2.55738e-02 -9.77079e-03 6.77330e-03 2.40715e-02 -5.69885e-03 2.49939e-03 2.15724e-02 -7.59741e-03 2.05847e-02 1.61605e-02 -1.05261e-03 1.93908e-02 1.18691e-02 -2.78310e-03 2.63914e-02 4.07251e-03 4.62844e-03 2.64360e-02 -7.45051e-04 2.44972e-03 2.06050e-02 -9.34985e-03 9.08038e-03 2.18695e-02 -1.34864e-02 5.95316e-03 4.78106e-03 -2.11138e-02 1.03232e-02 9.04104e-03 -2.30754e-02 5.48552e-03 -1.50063e-02 -2.76488e-02 6.32737e-03 -6.20573e-03 -2.52913e-02 -1.22896e-03 -3.19015e-02 -2.40862e-02 1.66200e-02 -5.37163e-02 -5.29935e-02 -2.05450e-02 -5.86481e-02 4.59159e-02 -6.25802e-03 -1.38729e-02 -2.94880e-02 5.14953e-03 -1.78602e-02 2.74893e-02
5.59725e-03 3.02339e-03 -2.25806e-02 1.04263e-02 -3.85039e-03 -1.00085e-02 2.77344e-04 -7.82391e-03 -2.97201e-03 2.84568e-03 -6.75610e-03 8.78944e-03 -5.60248e-03 -1.28963e-02 1.44489e-02 -3.95632e-03 -4.77583e-03 2.29910e-02 -8.83782e-03 -1.09744e-02 2.59420e-02 -7.94855e-03 1.39124e-03 2.95830e-02 -8.15545e-03 -4.53192e-03 2.92099e-02 -8.16719e-03 8.22420e-03 2.71513e-02 -3.71543e-03 2.12017e-03 2.34254e-02 -4.75581e-03 1.13418e-02 1.59756e-02 3.26986e-03 5.38705e-03 9.55431e-03 8.33461e-04 8.09634e-03 -1.96923e-03 1.07125e-02 4.34029e-03 -9.49256e-03 5.47238e-03 -5.51298e-04 -2.28058e-02 4.46505e-03 -4.83100e-03 -3.78181e-02 4.95554e-03 9.21035e-03 -3.69337e-02 1.26775e-02 6.28761e-03 -4.27888e-02 1.23971e-02 -1.74133e-03 -4.32945e-02
1.48497e-03 2.13502e-02 -1.89964e-02 -1.43563e-03 4.03300e-02 -1.01729e-02 -9.41440e-04 9.88114e-03 -6.17117e-03 -9.59539e-04 1.70936e-02 -2.72037e-03 -7.96576e-04 -9.44074e-03 -2.31071e-03 -5.67005e-04 -8.95674e-03 -1.33044e-03 -8.88207e-04 -2.46707e-02 -1.81170e-03 -8.27892e-04 -2.53131e-02 -1.64067e-03 -9.40622e-04 -2.53150e-02 -1.54826e-03 -8.36551e-04 -2.47048e-02 -1.29833e-03 0 -9.07044e-03 1.94958e-04 1.28371e-04 -9.68826e-03 1.10583e-03 2.13334e-03 1.65095e-02 4.83694e-03 1.59890e-03 8.94031e-03 7.35668e-03 4.19064e-03 3.85390e-02 1.51407e-02 0 1.88524e-02 2.15286e-02 7.56285e-03 -9.35090e-04 -2.23288e-02 -7.70723e-03 -3.19815e-03 2.20684e-02 1.33581e-02 3.85137e-02 -2.17156e-02 -1.07439e-02 3.63231e-02 2.64294e-02
7.54031e-03 -3.50329e-03 1.22714e-02 3.45572e-03 7.64971e-03 7.47046e-03 3.40439e-03 2.56428e-02 4.97361e-03 2.61143e-03 2.70931e-02 2.16004e-03 4.17740e-03 3.54243e-02 9.89946e-04 4.13245e-03 2.43853e-02 -1.14149e-03 5.19372e-03 2.27917e-02 -1.90807e-03 4.73598e-03 2.96863e-03 -3.60123e-03 4.53392e-03 -2.81583e-03 -3.96557e-03 3.60538e-03 -2.26783e-02 -4.77211e-03 2.43258e-03 -2.42778e-02 -4.20665e-03 1.70085e-03 -3.54731e-02 -3.47570e-03 7.12597e-04 -2.72657e-02 -1.26388e-03 1.59212e-03 -2.62380e-02 1.70577e-03 2.88295e-03 -8.74717e-03 6.43766e-03 7.71177e-03 1.40515e-03 1.25806e-02 -7.73934e-03 6.46037e-03 -4.27479e-03 -8.15084e-03 -5.32004e-03 -5.01681e-03 -8.65613e-03 4.62386e-02 1.61017e-03 -1.18559e-02 -4.53615e-02 -4.15950e-03
3.17783e-04 2.02760e-02 -1.37340e-02 -1.37101e-03 3.00676e-02 -1.06369e-02 -9.32502e-04 1.89722e-02 -9.17255e-03 1.46908e-04 1.52587e-02 -7.11087e-03 0 1.67265e-04 -6.46809e-03 7.83801e-04 -7.55525e-03 -4.72493e-03 -6.18688e-04 -1.80215e-02 -4.06740e-03 0 -2.17913e-02 -1.99859e-03 -1.55097e-03 -2.18149e-02 -7.48050e-04 -6.53157e-04 -1.83882e-02 1.77405e-03 -1.32769e-03 -8.01494e-03 3.74420e-03 0 -6.52000e-04 6.43756e-03 8.82832e-04 1.42202e-02 8.96768e-03 2.20870e-03 1.75620e-02 1.14737e-02 3.41088e-03 2.83289e-02 1.43152e-02 1.03210e-03 1.83676e-02 1.61681e-02 1.19885e-02 1.03528e-02 1.43684e-02 -1.11770e-02 1.28799e-02 -1.29050e-02 3.84359e-02 -2.51784e-02 -1.08983e-02 -4.01402e-02 -2.36129e-02 7.82505e-03
1.39809e-02 2.67596e-02 -3.73608e-02 2.26155e-02 1.10574e-02 -1.94796e-02 1.56533e-02 -2.62513e-02 -9.54453e-03 1.95328e-02 -2.93155e-02 5.29688e-03 1.04634e-02 -5.89594e-02 1.19721e-02 1.21597e-02 -3.42715e-02 2.32571e-02 6.08148e-03 -4.68522e-02 2.67978e-02 7.73818e-03 -2.90563e-04 3.31401e-02 7.59450e-03 -4.40352e-03 3.28810e-02 9.20574e-03 4.25876e-02 3.24314e-02 1.44103e-02 3.01579e-02 2.73154e-02 1.44834e-02 5.61232e-02 1.92208e-02 2.14996e-02 2.69915e-02 8.84353e-03 1.74816e-02 2.60886e-02 -6.24776e-03 2.18774e-02 -1.00738e-02 -2.08106e-02 1.22507e-02 -2.27729e-02 -4.04807e-02 2.33384e-02 -3.00174e-02 -3.86305e-02 2.55371e-02 3.29269e-02 -3.46658e-02 -3.00282e-02 3.85071e-03 7.36588e-03 -3.02551e-02 -2.64707e-03 6.95661e-03
-5.92681e-03 1.00925e-02 -5.94255e-03 -1.43792e-02 6.35176e-02 1.69683e-02 -1.82017e-02 1.85070e-02 2.61755e-02 -1.95519e-02 4.59582e-02 3.25372e-02 -1.40679e-02 -6.86117e-03 3.03617e-02 -1.55039e-02 1.02149e-03 2.37132e-02 -5.01213e-03 -3.39209e-02 1.56058e-02 -7.72035e-03 -3.27428e-02 2.09334e-03 5.43507e-03 -3.26791e-02 -6.21407e-03 2.71069e-03 -3.19634e-02 -1.97557e-02 1.56410e-02 2.90526e-03 -2.34659e-02 1.36898e-02 -3.96301e-03 -3.10434e-02 2.28411e-02 4.82027e-02 -2.66063e-02 1.95584e-02 2.03314e-02 -2.37291e-02 1.88333e-02 6.39891e-02 -8.93697e-03 6.58787e-03 8.83169e-03 7.13452e-03 5.80359e-02 -3.68838e-02 -2.43883e-02 -6.05652e-02 -3.55259e-02 1.98274e-02 1.14545e-03 4.12343e-04 2.57805e-02 -1.00116e-03 3.71864e-03 -2.55203e-02
-1.80381e-02 -1.66290e-02 -2.44964e-02 -7.10339e-03 -3.10258e-02 1.27577e-03 -1.15326e-02 -8.01099e-02 1.23650e-02 -1.14987e-02 -5.10079e-02 2.23748e-02 -1.17063e-02 -4.80913e-02 2.37616e-02 -1.33189e-02 1.72517e-02 2.27895e-02 -3.28172e-03 4.55252e-02 1.86819e-02 -4.15097e-03 8.07100e-02 9.08890e-03 9.79019e-03 8.07275e-02 1.07967e-03 6.51962e-03 4.71685e-02 -1.28433e-02 1.45853e-02 1.90040e-02 -2.05058e-02 8.43941e-03 -4.54307e-02 -2.96523e-02 8.02354e-03 -4.84765e-02 -2.86410e-02 5.99090e-03 -7.85349e-02 -2.23577e-02 4.93538e-03 -3.10393e-02 -5.18512e-03 1.67314e-02 -2.07810e-02 2.21401e-02 9.17366e-03 -1.74203e-02 1.37193e-02 -1.03020e-02 -1.48835e-02 -1.57541e-02 2.11585e-02 1.01829e-02 1.00074e-02 -2.03556e-02 1.28026e-02 -8.55955e-03
-6.74619e-03 2.66249e-02 3.85462e-02 -1.56940e-02 5.99601e-02 3.61916e-02 8.08252e-03 -9.00084e-03 3.11804e-02 1.80637e-03 1.32190e-02 1.26885e-02 2.67558e-02 -7.33289e-02 -1.79967e-03 2.05930e-02 -1.82375e-02 -2.08278e-02 3.49944e-02 -7.62958e-02 -3.28914e-02 3.46421e-02 2.04066e-02 -3.64380e-02 3.32992e-02 -1.80370e-02 -3.88594e-02 4.03562e-02 7.71982e-02 -2.32232e-02 2.19017e-02 1.92282e-02 -1.84680e-02 3.17953e-02 7.09379e-02 7.28731e-03 8.27691e-04 -1.47983e-02 1.09237e-02 8.55198e-03 4.43846e-03 3.20268e-02 -1.99817e-02 -6.27861e-02 2.84602e-02 -8.74904e-03 -3.07120e-02 3.49348e-02 -4.77676e-02 -6.44532e-03 2.83082e-02 -4.73276e-02 6.15102e-03 2.91016e-02 3.58499e-04 3.67613e-03 -8.99157e-03 1.41477e-04 -2.53622e-03 -9.38288e-03
-1.56791e-02 -1.19036e-02 1.87880e-02 -7.28177e-03 -5.26607e-02 1.03728e-02 -2.99039e-03 -5.74154e-02 7.92132e-03 -1.43479e-02 2.71425e-02 2.26530e-03 -5.69949e-03 -2.54380e-02 -2.74360e-03 -1.16965e-02 1.12244e-01 -4.36962e-03 -6.27677e-03 -3.08760e-02 -1.46230e-02 -4.98314e-03 9.76011e-02 -1.06614e-02 -1.17079e-02 -9.49112e-02 -2.27872e-02 -4.05156e-03 3.28262e-02 -1.06106e-02 -1.94502e-02 -1.09724e-01 -1.83508e-02 -3.90563e-03 2.59154e-02 4.91030e-04 -1.62095e-02 -2.61490e-02 -1.09139e-03 9.72706e-04 5.60379e-02 1.50675e-02 -3.64946e-03 5.13232e-02 1.69225e-02 -1.48960e-02 1.05159e-02 2.02002e-02 2.10592e-02 -2.63517e-02 -1.66071e-02 2.29123e-02 2.66973e-02 -1.32657e-02 1.78347e-03 5.09561e-04 2.67225e-03 1.73203e-03 -9.63154e-04 2.57948e-03
2.93402e-02 5.62242e-03 -4.86924e-02 4.19019e-02 -8.79086e-03 -4.09705e-03 -7.62819e-04 -1.63176e-02 2.29091e-02 -2.47420e-03 4.90180e-02 5.84865e-02 -1.78269e-02 -3.22592e-03 6.76025e-02 -2.19831e-02 3.33624e-02 6.44073e-02 -6.18397e-03 -3.57500e-02 4.81003e-02 -1.66298e-02 -3.10119e-02 9.89868e-03 1.44774e-02 -3.06070e-02 -1.37799e-02 3.89482e-03 -2.97827e-02 -5.22280e-02 2.45304e-02 3.95620e-02 -5.98140e-02 1.78554e-02 4.04064e-03 -6.75512e-02 6.13110e-03 5.56699e-02 -5.18925e-02 -2.72852e-04 -1.33311e-02 -2.47766e-02 -4.24291e-02 -6.30130e-03 3.14644e-03 -2.90913e-02 1.50123e-03 4.91411e-02 -4.76651e-02 7.25460e-03 3.24205e-02 4.81955e-02 7.92998e-03 -3.14640e-02 -3.21758e-03 -1.48327e-03 -5.60299e-03 3.08215e-03 -2.39378e-03 5.35878e-03
-6.21007e-03 9.71347e-03 1.32705e-03 -1.43706e-02 4.70187e-03 -2.83510e-02 -2.32470e-02 7.86681e-02 -3.58482e-02 -1.98260e-02 4.03050e-02 -3.06230e-02 -3.25191e-02 -1.37446e-02 -2.28125e-02 -2.92068e-02 -3.56416e-02 -5.42128e-03 -4.51519e-02 -9.74851e-02 1.73462e-03 -4.18402e-02 7.08893e-03 1.68866e-02 -4.23053e-02 -6.22408e-03 1.60481e-02 -3.82744e-02 9.93997e-02 1.41359e-02 -2.66350e-02 3.79830e-02 -7.83852e-04 -3.13850e-02 1.87219e-02 -2.07675e-02 -2.24451e-02 -3.46732e-02 -3.53457e-02 -2.85012e-02 -7.17477e-02 -4.53226e-02 -1.45384e-02 -1.01459e-04 -2.86535e-02 -6.87591e-03 -9.34791e-03 1.26427e-04 1.50952e-02 -2.28388e-02 -2.19729e-03 1.66555e-02 2.18292e-02 6.16235e-04 1.39258e-02 6.10391e-03 8.53214e-03 1.34304e-02 -8.07807e-03 7.63885e-03
2.28129e-02 5.66893e-02 -8.30329e-03 1.37331e-02 8.91235e-02 -1.16133e-03 2.45206e-02 -1.99566e-02 4.67829e-03 2.06163e-02 -9.36410e-03 5.24370e-03 2.02388e-02 -1.08361e-01 4.06698e-03 1.34359e-02 -1.97560e-02 3.93106e-03 7.98500e-03 -1.17979e-02 4.03016e-03 4.67448e-03 6.01986e-02 4.13072e-03 -4.61106e-04 6.04198e-02 3.46674e-03 -8.76795e-03 -1.06160e-02 -5.44196e-03 -1.47591e-02 -1.81256e-02 -6.31713e-03 -2.77032e-02 -1.05326e-01 -1.75266e-02 -2.11941e-02 -7.17741e-03 -6.28560e-03 -2.58276e-02 -1.74601e-02 -7.03507e-03 -7.51057e-03 8.90125e-02 1.23817e-02 -1.88539e-02 5.66491e-02 1.54422e-02 5.22858e-03 3.02889e-02 -8.87241e-03 -3.14958e-03 2.92277e-02 1.26212e-02 -1.18718e-02 -7.84933e-03 -5.08168e-03 1.12752e-02 -9.23029e-03 4.00588e-03
1.69842e-02 3.82224e-03 -2.78469e-02 1.65298e-02 1.78652e-02 -1.12544e-02 -1.51472e-02 9.17873e-02 -1.74277e-03 8.18063e-03 -7.40170e-02 2.07707e-02 -1.49891e-02 3.02224e-02 3.34573e-02 -1.04423e-02 -1.07195e-01 3.19729e-02 -4.09490e-03 4.33630e-02 3.32307e-02 -9.77644e-03 2.30339e-02 9.36946e-03 1.13946e-02 2.32909e-02 -6.45157e-03 7.24426e-03 4.67954e-02 -2.75518e-02 3.10662e-03 -1.02808e-01 -4.52005e-02 1.71997e-02 3.30617e-02 -2.94712e-02 -1.32142e-02 -7.00814e-02 -2.98471e-02 2.14822e-02 8.95688e-02 1.31659e-02 -1.52972e-02 1.74192e-02 1.34769e-02 -1.67992e-02 1.47331e-03 2.81805e-02 -6.55844e-03 -1.52246e-02 2.50926e-03 5.49535e-03 -1.52089e-02 -4.42619e-03 -4.43359e-04 1.55567e-04 -9.91169e-04 4.48756e-04 0 1.00090e-03
-7.27016e-03 4.45467e-02 -3.45070e-03 -2.03153e-02 6.66503e-02 -2.72758e-02 6.18979e-03 -1.39395e-02 -3.51338e-02 1.16743e-02 -8.20274e-02 -3.89256e-02 -7.53976e-03 -4.35884e-02 -2.80422e-02 -5.54911e-03 2.46773e-02 -4.26882e-04 -2.82840e-02 7.08611e-02 1.65487e-02 -2.57638e-02 4.29435e-02 3.11852e-02 -2.88225e-02 -4.46179e-02 2.56699e-02 -3.32128e-02 -7.02378e-02 7.66125e-03 -7.24890e-03 -2.39834e-02 -3.49190e-03 -4.36920e-03 4.71769e-02 -2.23252e-02 1.75175e-02 8.52477e-02 -2.83893e-02 7.29739e-03 1.77685e-02 -3.31366e-02 -2.47789e-02 -6.11320e-02 -3.53245e-02 -1.03335e-02 -4.31491e-02 -8.97444e-03 -2.11736e-02 -2.56327e-02 1.72889e-02 -1.94163e-02 2.46730e-02 2.04576e-02 9.69029e-03 5.78377e-03 4.03641e-03 9.24711e-03 -6.90343e-03 3.23727e-03
3.62809e-03 -3.24735e-02 3.73268e-02 1.86640e-03 -3.61644e-02 7.87438e-03 1.19564e-02 8.54617e-02 -1.25931e-02 3.22982e-02 -7.74105e-02 -2.21093e-02 2.29971e-02 3.84950e-02 -1.50995e-02 3.09140e-02 4.99114e-03 5.48179e-03 1.54377e-02 -3.69281e-02 1.60624e-02 2.12565e-02 8.02590e-02 3.74210e-02 1.54629e-02 -8.55978e-02 2.69741e-02 1.78965e-02 3.34610e-02 2.04960e-02 3.04681e-02 -7.77522e-03 4.67767e-03 2.03319e-02 -3.78037e-02 -1.99053e-02 3.76968e-02 7.71376e-02 -1.23747e-02 6.04269e-03 -8.38324e-02 -2.32565e-02 4.34090e-03 3.46745e-02 1.23363e-02 5.71285e-03 2.72081e-02 4.10860e-02 -9.24951e-03 2.29883e-02 8.04290e-03 -1.08600e-02 -2.31161e-02 5.13890e-03 -8.76152e-03 -4.56588e-03 -5.29709e-03 -8.39972e-03 5.79156e-03 -4.64470e-03
-1.64326e-02 -3.47936e-02 1.51060e-02 -1.57841e-02 -5.54095e-02 -7.35578e-03 -3.15929e-02 8.12904e-02 -1.55082e-02 -2.78173e-02 7.54706e-02 -9.82857e-03 -1.66223e-02 -6.83466e-02 -1.12140e-02 -1.38000e-02 -2.32316e-02 -4.86026e-03 -8.39970e-03 -5.66105e-02 -5.51856e-03 -1.55223e-03 7.98411e-02 5.54488e-03 7.12188e-03 7.96040e-02 4.49817e-03 4.42059e-03 -5.73015e-02 -1.65647e-03 1.21306e-02 -2.45600e-02 1.84999e-03 1.17826e-02 -7.02018e-02 2.48718e-03 3.29521e-02 7.15265e-02 1.90875e-02 3.70982e-02 7.63120e-02 2.54352e-02 1.18625e-02 -5.68565e-02 2.84420e-04 1.40406e-02 -3.36834e-02 -1.94192e-02 -1.14694e-02 -7.14336e-03 8.23927e-03 1.09811e-02 -6.83419e-03 -9.11968e-03 1.56828e-03 1.75644e-03 0 -1.44219e-03 1.85307e-03 1.81394e-04
-1.05047e-02 4.72254e-03 3.12359e-02 -1.58898e-02 2.97615e-03 -5.94490e-03 3.80462e-02 -8.98097e-02 -2.61962e-02 2.32779e-02 1.41851e-02 -4.82301e-02 1.39008e-02 8.08071e-02 -4.11463e-02 2.51783e-02 1.63383e-02 -2.10965e-03 -1.28557e-02 -6.09780e-02 2.23328e-02 -6.08189e-03 -5.19123e-02 5.38798e-02 -2.69497e-03 4.50467e-02 5.99870e-02 -8.68418e-03 5.84433e-02 2.98549e-02 2.39909e-02 -1.76553e-02 -4.25082e-03 8.43088e-03 -7.57825e-02 -5.10095e-02 2.24466e-02 -9.61216e-03 -4.97290e-02 4.43105e-02 8.95215e-02 -1.49006e-02 -1.60320e-02 -1.09601e-03 -6.20139e-03 -1.09442e-02 -7.85832e-03 3.04434e-02 -1.96326e-02 -1.08590e-02 1.42892e-02 -1.88928e-02 1.03206e-02 1.56232e-02 -1.01273e-03 1.70729e-04 -1.69742e-03 -1.01470e-03 1.14149e-04 -1.70098e-03
-2.15845e-02 9.14993e-03 -1.14202e-02 -2.67690e-02 6.57340e-03 -3.41640e-02 -3.07294e-02 6.04279e-02 -3.90128e-02 -7.99300e-03 -8.96130e-02 -2.08465e-02 -3.15284e-02 -3.07677e-02 -2.49096e-03 -2.72932e-02 1.11052e-01 2.63193e-02 -1.78661e-02 -2.40387e-02 1.91811e-02 -1.53955e-02 -1.87650e-02 6.01016e-03 1.40802e-02 -1.88882e-02 -8.38185e-03 1.62359e-02 -2.26284e-02 -2.21206e-02 3.50605e-02 1.11307e-01 -1.23134e-02 2.93025e-02 -3.29536e-02 -1.52269e-03 1.65402e-03 -9.18561e-02 9.41623e-03 3.46839e-02 5.27791e-02 4.61434e-02 2.70113e-02 3.63448e-04 3.46010e-02 2.21180e-02 6.12409e-03 1.23822e-02 8.97568e-03 8.04503e-03 -5.00375e-03 -8.41664e-03 7.95872e-03 6.01178e-03 -4.50036e-03 -2.06390e-03 -2.55137e-03 4.33482e-03 -2.67513e-03 2.25287e-03
-3.86088e-03 -3.27558e-02 5.35725e-02 -9.32082e-03 -4.30891e-02 1.90306e-03 1.98959e-02 2.71133e-02 -2.46069e-02 1.39343e-02 8.13266e-02 -3.82503e-02 2.23725e-02 -9.62461e-02 -3.66414e-02 2.77256e-02 1.71043e-03 -1.28368e-04 -2.03212e-03 5.81540e-02 2.56400e-02 2.81760e-03 -2.75790e-02 4.89236e-02 4.51338e-03 2.09671e-02 5.19814e-02 -6.18127e-03 -6.06259e-02 1.81584e-02 2.75400e-02 -3.60368e-03 -4.63092e-04 2.91680e-02 9.82898e-02 -2.43881e-02 8.41552e-03 -7.66619e-02 -4.82016e-02 1.80709e-02 -2.51325e-02 -2.78977e-02 -6.31173e-03 4.30537e-02 7.32898e-03 -1.80943e-03 2.59721e-02 5.72716e-02 -2.21465e-03 4.72734e-03 4.53494e-03 -2.55769e-03 -5.09296e-03 3.91638e-03 -4.97861e-03 -2.48648e-03 -3.22101e-03 -4.77961e-03 3.21051e-03 -2.86217e-03
4.85310e-02 -2.54482e-02 4.26491e-02 4.91638e-02 -1.31570e-02 4.67394e-02 4.79619e-02 5.64421e-02 3.75484e-02 5.34049e-02 -4.41265e-02 1.76557e-02 5.52774e-02 -1.82278e-02 9.20042e-03 4.26002e-02 4.70467e-02 -4.41787e-03 2.57209e-02 -4.18022e-02 -7.89284e-03 1.59637e-02 5.59452e-03 -4.21949e-03 -1.55546e-02 6.11748e-03 4.95720e-03 -2.85983e-02 -4.05722e-02 2.70428e-03 -3.92463e-02 4.89682e-02 1.04656e-02 -5.63698e-02 -1.30447e-02 -1.11702e-02 -5.62649e-02 -3.77465e-02 -2.28127e-02 -4.37582e-02 6.38987e-02 -2.99684e-02 -4.97542e-02 -3.74656e-03 -4.78042e-02 -4.99952e-02 -1.64675e-02 -4.52893e-02 -9.92827e-03 -2.53342e-02 -2.18216e-04 8.14242e-03 -2.57901e-02 -3.00197e-03 9.71070e-03 4.53232e-03 5.83791e-03 -9.34656e-03 5.89209e-03 -5.18130e-03
-3.86913e-03 1.26089e-02 -7.85102e-03 -3.66900e-03 1.35528e-02 -6.45365e-03 6.73323e-03 -3.87128e-02 -5.68175e-03 5.96317e-03 -3.29971e-02 -6.25446e-03 -7.71800e-03 9.74967e-02 4.54695e-04 -1.99593e-03 -9.22713e-03 7.38096e-03 -5.01641e-03 -1.24269e-01 4.52009e-03 -2.78070e-03 8.31852e-02 9.08974e-03 8.59533e-03 8.32728e-02 1.39499e-03 -3.61297e-03 -1.22769e-01 -2.00804e-02 1.38204e-03 -8.34596e-03 -8.48783e-03 1.44775e-02 9.60110e-02 1.17339e-02 -8.26942e-03 -3.30257e-02 2.09588e-03 -9.43242e-03 -3.85574e-02 8.14667e-04 4.57379e-03 1.23491e-02 8.08514e-03 4.70171e-03 1.12259e-02 9.35231e-03 7.27544e-03 5.29892e-03 -4.26183e-03 -6.90814e-03 5.21577e-03 4.92412e-03 -1.30848e-03 -8.65508e-04 -5.11049e-04 1.24291e-03 -1.01156e-03 3.92817e-04
-1.90570e-03 2.27120e-03 -5.85632e-04 -1.00214e-03 1.37381e-03 3.01074e-03 7.74593e-03 -4.89059e-02 4.33765e-03 -6.48679e-03 5.88179e-02 -2.57855e-03 1.02838e-03 3.72115e-02 -7.43709e-03 5.85174e-03 -1.17985e-01 -1.17998e-02 -4.56309e-03 3.77378e-02 2.30000e-03 -1.25799e-03 1.11276e-01 1.70389e-02 -9.06343e-03 -1.12175e-01 2.96434e-03 -7.18495e-03 -3.73197e-02 -2.42772e-03 1.40894e-02 1.17839e-01 3.05416e-03 -1.52780e-03 -3.59666e-02 -1.20464e-02 -1.05478e-02 -5.74369e-02 -9.90113e-03 1.11072e-02 4.73190e-02 1.03986e-02 -1.10835e-03 -1.66726e-03 2.81921e-03 -2.05635e-03 -2.04188e-03 -8.57274e-04 -2.49071e-04 -3.32215e-03 -3.98806e-04 0 3.35516e-03 0 2.79607e-04 2.10357e-04 1.07576e-04 2.63841e-04 -2.41104e-04 0
1.21475e-02 -1.52868e-02 6.77982e-02 -2.83648e-03 -1.55713e-02 -2.59409e-02 5.65188e-02 -1.77006e-02 -6.27066e-02 5.46731e-02 2.94372e-02 -4.92063e-02 -5.17319e-03 -4.13036e-03 -5.47651e-03 7.06042e-03 -1.67126e-02 7.08071e-02 -1.64643e-02 8.63807e-03 8.47613e-02 -3.20675e-02 -7.07405e-03 2.56492e-02 3.16103e-02 -6.01532e-03 -2.64736e-02 1.73957e-02 1.80273e-02 -8.30817e-02 -7.89487e-03 -7.17552e-03 -7.23118e-02 4.84958e-03 -5.13362e-03 4.89299e-03 -5.27098e-02 2.67665e-02 5.27464e-02 -5.78863e-02 -2.14484e-02 6.02407e-02 1.63379e-03 -1.88588e-02 2.37722e-02 -1.28837e-02 -5.78796e-03 -6.91257e-02 1.01941e-02 5.15473e-03 -1.75865e-02 -9.88807e-03 3.60601e-03 1.81383e-02 3.79133e-03 1.02709e-03 3.40045e-03 -3.69585e-03 1.70616e-03 -3.22829e-03
7.14187e-02 -1.14292e-02 5.30438e-02 5.09763e-02 3.65565e-02 4.92981e-02 4.87906e-02 -4.87376e-03 4.17930e-02 2.14227e-02 -1.31844e-02 -5.30233e-03 -1.66335e-03 -6.87225e-03 -1.54349e-02 -2.62784e-02 -9.60727e-04 -3.35046e-02 -7.04187e-02 -1.70675e-03 -2.13271e-02 -7.77738e-02 0 -1.24639e-02 -7.75335e-02 6.92372e-03 -1.20306e-02 -7.00358e-02 9.25621e-03 -2.06365e-02 -2.60012e-02 6.97618e-03 -3.30047e-02 -1.11410e-03 8.85130e-03 -1.44446e-02 2.23103e-02 1.22239e-02 -3.70192e-03 4.88280e-02 -3.80531e-03 4.18603e-02 4.80959e-02 -4.59004e-02 4.41043e-02 7.18074e-02 -3.00214e-04 5.37448e-02 2.59326e-02 1.50988e-02 -9.56311e-04 2.48244e-02 -1.66255e-02 -2.95454e-03 -5.43454e-03 -1.98533e-03 -3.85187e-03 -5.26650e-03 2.82529e-03 -3.54886e-03
-2.58712e-02 1.07798e-02 -6.36873e-02 -2.43493e-03 4.06227e-03 5.05379e-02 -3.62869e-02 1.25436e-02 7.21889e-02 -4.33889e-02 -8.56661e-03 3.90752e-03 4.17145e-02 -8.54554e-04 -5.45707e-02 4.30944e-02 1.10418e-02 -6.61362e-02 -1.97713e-02 1.76509e-04 -1.64272e-02 -1.08576e-03 -8.71574e-03 7.76448e-02 -8.17273e-04 -1.02958e-03 7.81289e-02 -1.96637e-02 3.25820e-03 -1.62331e-02 4.25119e-02 -5.63447e-03 -6.71866e-02 4.19115e-02 4.78555e-03 -5.42155e-02 -4.27053e-02 1.10041e-02 5.14023e-03 -3.73867e-02 -1.89392e-02 7.02059e-02 -2.93260e-03 -1.01848e-02 4.96405e-02 -2.62788e-02 -8.88831e-04 -6.44222e-02 -1.23760e-03 7.85541e-03 -2.34594e-02 -1.67786e-03 -4.74827e-03 -2.42533e-02 3.45746e-03 1.94909e-04 3.78130e-03 3.41897e-03 -9.07090e-04 3.71189e-03
-5.58236e-02 3.46193e-02 -7.54340e-02 8.82845e-03 -8.23654e-02 -2.07376e-02 7.20671e-03 1.74887e-02 -1.35919e-02 3.44913e-02 1.38516e-02 2.29626e-02 5.38106e-02 0 2.29072e-02 5.42475e-02 -4.16082e-04 1.72487e-02 4.18600e-02 -2.30243e-03 1.43357e-02 2.09911e-02 -2.37684e-03 -2.91465e-03 -2.11181e-02 -1.25865e-03 2.68566e-03 -4.18557e-02 2.42733e-03 -1.43278e-02 -5.40692e-02 5.52023e-03 -1.69272e-02 -5.35861e-02 6.51980e-03 -2.25024e-02 -3.33443e-02 1.89837e-02 -2.08944e-02 -6.03321e-03 1.61057e-02 1.57079e-02 -1.46224e-02 -8.35006e-02 1.02901e-02 5.77639e-02 2.09283e-02 7.89328e-02 4.90396e-02 1.75848e-02 -1.11190e-02 -4.77470e-02 1.94182e-02 1.34497e-02 -3.94149e-03 -1.43527e-03 -2.89830e-03 3.81948e-03 -2.05762e-03 2.67829e-03
1.02094e-02 -5.24359e-02 6.58392e-02 -6.51955e-02 9.48573e-02 -8.77904e-04 -4.05501e-02 -1.59339e-02 -5.15180e-03 -4.15527e-02 -8.97453e-03 -1.02375e-02 -2.01778e-02 5.40750e-03 -1.11828e-02 -1.45018e-04 1.71935e-03 8.50143e-03 2.86638e-02 3.22586e-04 6.84621e-03 4.00873e-02 -1.48434e-03 1.70082e-02 4.00187e-02 -3.44868e-03 1.68844e-02 2.85418e-02 -3.16946e-03 6.62625e-03 -3.01383e-04 -2.75696e-03 8.21948e-03 -2.04557e-02 -2.54779e-03 -1.16839e-02 -4.07832e-02 1.30529e-02 -8.85006e-03 -3.93217e-02 1.92335e-02 -2.93669e-03 -7.16262e-02 -8.92369e-02 -1.24735e-02 1.35408e-02 4.29338e-02 7.18463e-02 4.48833e-02 2.03429e-02 -3.24311e-02 4.35024e-02 -1.91880e-02 -3.49210e-02 -8.81308e-04 -1.46535e-03 4.71566e-04 -7.79388e-04 1.45237e-03 6.55346e-04
3.34910e-02 3.50552e-02 -5.74040e-03 5.14723e-02 -4.51552e-02 -2.86279e-02 7.51032e-03 -1.62863e-03 -1.81089e-02 7.11317e-04 -6.75906e-04 1.50787e-02 -3.25279e-02 -2.93227e-03 2.49911e-02 -4.53596e-02 -5.81377e-04 -1.88462e-02 -8.22285e-03 1.79968e-03 -4.16211e-02 7.50556e-03 2.15250e-03 -1.34193e-02 -7.39648e-03 9.70162e-04 1.36160e-02 8.14576e-03 -4.00656e-03 4.14821e-02 4.51266e-02 -6.08987e-03 1.84260e-02 3.23546e-02 -2.03077e-03 -2.53037e-02 -6.90557e-04 1.27024e-03 -1.50413e-02 -7.68455e-03 -3.35933e-03 1.77947e-02 -5.46111e-02 -4.46995e-02 2.29682e-02 -3.09984e-02 3.63016e-02 1.02350e-02 -2.43724e-02 2.29788e-02 -8.37922e-02 2.55435e-02 1.05465e-02 8.59039e-02 7.25020e-03 -2.46700e-03 1.05704e-02 -7.35778e-03 -6.12903e-04 -1.07643e-02
1.12319e-02 3.58518e-02 -5.05135e-02 5.91866e-02 -3.80414e-02 6.16906e-02 2.56007e-02 9.54672e-03 5.90477e-02 -1.20163e-02 -1.05287e-03 -4.83223e-02 -1.90143e-02 -5.62720e-03 -6.71102e-02 -1.89236e-02 7.90490e-04 -1.38876e-02 -7.04536e-02 1.59652e-03 2.90541e-02 -5.43641e-02 -1.02913e-04 2.67015e-02 5.43419e-02 -5.33922e-04 -2.67416e-02 7.05207e-02 3.24555e-04 -2.89331e-02 1.88718e-02 -2.27337e-03 1.37942e-02 1.82833e-02 -1.53012e-02 6.57920e-02 1.17024e-02 -7.93315e-03 4.77563e-02 -2.46166e-02 1.86276e-02 -5.72730e-02 -6.14168e-02 -2.58037e-02 -6.57121e-02 -8.93398e-03 2.99318e-02 5.46570e-02 2.33225e-02 9.65833e-04 1.69366e-03 -2.31913e-02 2.78909e-03 -1.45715e-03 -1.54683e-03 -1.49056e-04 -1.67232e-03 1.52540e-03 -4.64610e-04 1.63367e-03
-1.08259e-02 -1.96321e-02 1.33552e-02 -8.60101e-03 7.42104e-03 1.28436e-02 3.02827e-02 3.38662e-03 -3.99057e-03 3.23693e-02 3.82660e-03 -5.52148e-03 5.27441e-03 -6.96661e-04 9.35273e-03 -2.21125e-03 -2.41834e-03 1.57782e-02 -7.44735e-03 -6.64704e-04 8.06365e-03 -1.98673e-02 2.29998e-03 -2.60711e-02 -1.98648e-02 2.37194e-03 -2.60666e-02 -7.41838e-03 1.64875e-04 8.11591e-03 -2.10687e-03 5.69657e-04 1.59664e-02 5.26908e-03 -8.49242e-04 9.34311e-03 3.20489e-02 -5.34486e-03 -6.09917e-03 2.99912e-02 -4.95626e-03 -4.51607e-03 -9.15213e-03 -8.35628e-03 1.18499e-02 -9.49357e-03 1.85081e-02 1.57576e-02 -6.22910e-02 1.69326e-02 -8.88228e-02 -6.29278e-02 -1.29679e-03 -8.99710e-02 8.80275e-03 -2.95203e-03 1.27753e-02 8.93062e-03 7.08684e-04 1.30059e-02
-3.79216e-02 -1.45290e-03 -3.36190e-02 -4.18070e-02 2.24423e-02 2.14101e-02 -3.61751e-02 1.89534e-03 2.91295e-02 -2.76193e-02 -7.71407e-04 -1.41368e-02 4.36201e-02 3.55462e-03 -4.27879e-02 6.57833e-02 1.83106e-03 1.72730e-02 8.79303e-03 -2.41030e-03 5.55715e-02 -1.20156e-02 -2.66651e-03 1.98447e-02 1.18880e-02 -9.87069e-04 -2.00748e-02 -8.69593e-03 5.19020e-03 -5.53964e-02 -6.54207e-02 8.54899e-03 -1.66192e-02 -4.34545e-02 1.18724e-03 4.30866e-02 2.74368e-02 -4.45474e-03 1.38076e-02 3.63466e-02 3.01217e-03 -2.88204e-02 4.33590e-02 2.19882e-02 -1.86115e-02 3.75814e-02 -8.28684e-03 3.30055e-02 -6.15574e-02 3.10627e-03 -4.77278e-02 6.14149e-02 -7.18565e-03 4.74708e-02 5.12846e-03 -2.07899e-03 7.78774e-03 -5.22641e-03 -7.25095e-04 -7.96437e-03
4.89188e-02 2.64505e-02 -3.44662e-03 6.10185e-02 -2.09503e-02 3.51728e-02 3.93159e-03 -2.85758e-03 2.92297e-02 -4.72556e-02 -4.59138e-03 -6.72839e-02 -8.40200e-02 -3.55427e-03 -5.31509e-02 -4.67169e-02 -7.61704e-04 3.00397e-02 3.67592e-02 1.29843e-03 1.46811e-02 6.20463e-02 -1.04749e-03 7.78786e-03 6.19343e-02 -4.25170e-03 7.58603e-03 3.65154e-02 -5.67977e-03 1.42415e-02 -4.66821e-02 2.36056e-04 3.01026e-02 -8.33363e-02 1.60183e-02 -5.19180e-02 -4.65272e-02 1.62607e-02 -6.59705e-02 3.99269e-03 -1.10838e-03 2.93399e-02 6.21724e-02 1.20851e-02 3.72537e-02 4.69767e-02 -2.91455e-02 -6.94848e-03 -2.03283e-02 5.88852e-04 -5.75678e-03 -2.02947e-02 1.55156e-03 -5.69614e-03 8.18163e-04 -4.25122e-04 1.38914e-03 8.39643e-04 1.89777e-04 1.42787e-03
6.04933e-02 1.68014e-03 4.75034e-02 3.75169e-02 -1.56564e-02 -6.28183e-02 -2.58526e-02 -1.00149e-02 -3.53528e-02 -1.95344e-02 -4.94149e-03 5.40472e-02 -5.30067e-03 0 3.87763e-02 -2.16959e-02 3.70291e-03 -6.46682e-02 -6.23742e-03 2.76244e-03 -6.02366e-02 3.30418e-02 -5.63893e-03 7.34053e-02 3.30321e-02 -5.91525e-03 7.33879e-02 -6.15057e-03 5.24872e-03 -6.00800e-02 -2.16175e-02 5.94775e-03 -6.45268e-02 -5.46374e-03 -4.57932e-03 3.84822e-02 -1.93801e-02 -5.25287e-04 5.43254e-02 -2.49390e-02 1.61390e-02 -3.37055e-02 3.87889e-02 2.07600e-02 -6.05245e-02 6.00217e-02 -1.18206e-02 4.66530e-02 -3.01362e-02 -5.18694e-03 -9.70124e-03 -2.96601e-02 8.44375e-03 -8.84268e-03 1.04953e-03 -8.76319e-04 2.01537e-03 1.09906e-03 5.41754e-04 2.10469e-03
-7.53989e-02 -1.82407e-02 -2.70864e-02 -5.33249e-02 1.75105e-02 2.11200e-02 5.72132e-02 1.25867e-02 -6.49193e-03 8.02144e-02 7.19667e-03 2.59234e-02 2.01938e-02 -1.79672e-03 4.28809e-02 -3.36570e-02 -4.27625e-04 -4.01487e-02 -7.31048e-02 1.98611e-03 -3.29487e-02 -4.53496e-02 1.55876e-03 9.94498e-03 4.53914e-02 -3.62883e-04 -9.86965e-03 7.29211e-02 -7.24463e-03 3.26174e-02 3.33698e-02 -7.79408e-03 3.96308e-02 -2.00819e-02 4.99939e-03 -4.26792e-02 -7.94060e-02 1.59463e-02 -2.44657e-02 -5.62279e-02 1.56196e-02 8.26857e-03 5.45049e-02 1.62704e-02 -1.89922e-02 7.38295e-02 -2.66875e-02 2.42565e-02 -2.13756e-02 -3.01891e-03 -3.74200e-03 2.10975e-02 -4.94237e-03 3.24054e-03 4.40764e-04 -5.43360e-04 1.04471e-03 -4.72885e-04 -3.76190e-04 -1.10263e-03
-4.28846e-02 3.03849e-03 -3.34772e-02 -1.63603e-02 7.67735e-03 6.13831e-02 5.08407e-02 9.15876e-03 1.85487e-02 2.55625e-02 4.05106e-03 -6.23101e-02 -6.69090e-02 -3.35374e-03 -6.72312e-03 -4.47215e-02 -3.44071e-03 5.34299e-02 7.38843e-02 3.58908e-04 -1.24687e-02 6.49457e-02 5.18060e-04 -3.50901e-02 -6.49057e-02 6.28928e-04 3.51624e-02 -7.37345e-02 3.92769e-03 1.27387e-02 4.46077e-02 1.82642e-04 -5.36351e-02 6.64840e-02 -8.81203e-03 5.95683e-03 -2.54917e-02 -2.02310e-03 6.24378e-02 -4.99995e-02 1.49224e-02 -1.70319e-02 1.71229e-02 1.41539e-02 -6.00080e-02 4.28451e-02 -4.16897e-03 3.34060e-02 -1.49465e-02 -5.34366e-03 -1.94132e-03 1.45303e-02 -6.57061e-03 1.19087e-03 2.63186e-04 -3.92919e-04 6.59082e-04 -2.86971e-04 -2.87972e-04 -7.01969e-04
6.20762e-02 8.67813e-03 2.84370e-02 3.33372e-02 -1.21903e-02 -4.07082e-02 -6.98015e-02 -1.23132e-02 8.61307e-04 -6.47850e-02 -5.69190e-03 9.13370e-03 4.59228e-02 4.22611e-03 -3.59882e-02 7.30915e-02 4.28249e-04 2.78904e-02 9.30205e-04 -3.43564e-03 5.69827e-02 -4.80587e-02 4.11689e-03 -5.39005e-02 -4.79922e-02 6.02086e-03 -5.37805e-02 9.17273e-04 -3.80582e-03 5.69594e-02 7.27622e-02 -8.99923e-03 2.72966e-02 4.56752e-02 -2.86402e-03 -3.64348e-02 -6.42721e-02 8.99118e-03 1.00586e-02 -6.87800e-02 1.69296e-02 2.70324e-03 3.42817e-02 1.48492e-02 -3.90051e-02 6.11978e-02 -1.64669e-02 2.68532e-02 -1.62554e-02 -4.15688e-03 -1.78559e-03 -1.59192e-02 5.46755e-03 -1.17938e-03 2.41780e-04 -4.06883e-04 6.69928e-04 2.66540e-04 3.01921e-04 7.14573e-04
-1.72694e-02 1.49028e-01 5.00556e-02 -2.28712e-02 -3.21095e-02 1.38146e-02 -9.32657e-03 -2.76861e-03 -2.10521e-02 1.71544e-04 1.57785e-03 -8.14835e-04 4.01338e-03 0 1.01245e-02 3.85825e-03 0 -9.39596e-04 0 0 -3.30862e-03 -2.68289e-03 0 1.23117e-03 -2.67918e-03 0 1.23785e-03 0 3.24128e-04 -3.29381e-03 3.84971e-03 -1.97077e-04 -9.54976e-04 3.95845e-03 -1.55996e-03 1.00255e-02 0 -1.47136e-03 -1.00690e-03 -9.01932e-03 6.02660e-03 -2.04981e-02 -2.06444e-02 3.16363e-02 1.78298e-02 -2.78044e-02 -1.52563e-01 3.10591e-02 2.32698e-02 5.28780e-02 -1.61130e-02 1.96087e-02 -5.19302e-02 -2.27147e-02 0 -2.32733e-04 1.76492e-04 0 2.13277e-04 2.04585e-04
-1.73512e-02 1.49019e-01 5.01365e-02 -2.29335e-02 -3.21116e-02 1.35090e-02 -9.34297e-03 -2.75736e-03 -2.09841e-02 4.38672e-04 1.58290e-03 -1.75306e-04 4.68723e-03 0 9.80189e-03 3.45059e-03 0 -1.76930e-03 -2.36713e-03 0 -2.29557e-03 -2.71230e-03 0 9.38514e-04 2.71127e-03 0 -9.40395e-04 2.35687e-03 -3.73386e-04 2.27707e-03 -3.44514e-03 0 1.77916e-03 -4.63075e-03 1.58550e-03 -9.70006e-03 -3.28360e-04 1.57508e-03 3.74221e-04 9.03679e-03 -6.00811e-03 2.04321e-02 2.07052e-02 -3.16811e-02 -1.75271e-02 2.78858e-02 1.52558e-01 -3.11410e-02 -2.32738e-02 -5.28841e-02 1.61150e-02 1.96122e-02 -5.19361e-02 -2.27173e-02 0 2.32776e-04 -1.76443e-04 0 2.13325e-04 2.04541e-04
-4.00030e-02 6.76661e-03 2.32754e-02 1.19519e-02 3.29506e-03 -6.80203e-02 2.76934e-02 5.64166e-03 4.50207e-02 1.62328e-02 -1.14041e-03 6.75245e-02 1.02248e-02 1.25062e-03 -7.54629e-02 -5.00681e-02 4.75892e-04 -2.77955e-02 -4.67378e-02 -2.29157e-03 7.01456e-02 6.27799e-02 6.40894e-04 -2.82572e-02 6.27067e-02 -1.45630e-03 -2.83893e-02 -4.67721e-02 -3.27469e-03 7.00837e-02 -4.98579e-02 6.49233e-03 -2.74165e-02 1.04434e-02 7.50902e-03 -7.50687e-02 1.59771e-02 -8.46208e-03 6.70633e-02 2.70369e-02 -1.31504e-02 4.38370e-02 1.19916e-02 4.43290e-03 -6.79486e-02 -4.04781e-02 -6.83344e-03 2.24187e-02 3.91415e-03 6.41477e-03 -1.96989e-03 3.46743e-03 -6.37373e-03 -2.77541e-03 0 0 0 0 0 0
5.33971e-02 -5.01336e-04 -1.86663e-02 -2.73442e-02 -9.48748e-03 3.79285e-02 -6.51732e-02 -8.97393e-03 -8.10656e-03 2.34936e-02 5.20906e-03 -6.06961e-02 6.17486e-02 2.21596e-03 2.94297e-02 -4.13422e-03 -4.62689e-03 7.49273e-02 -4.62109e-02 2.66156e-03 -5.54849e-02 -2.15155e-02 5.69890e-03 -7.32943e-02 2.15385e-02 -5.04089e-03 7.33357e-02 4.60408e-02 -7.53131e-03 5.51781e-02 4.13061e-03 4.52378e-03 -7.49338e-02 -6.13158e-02 1.01730e-02 -2.86493e-02 -2.33403e-02 -8.18567e-04 6.09726e-02 6.43558e-02 -1.44269e-02 6.63261e-03 2.67844e-02 -6.53666e-03 -3.89378e-02 -5.33840e-02 8.75707e-04 1.86899e-02 4.54044e-03 5.69221e-03 -1.81155e-03 -4.14172e-03 5.72199e-03 2.53050e-03 0 0 0 0 0 0
3.45732e-02 -7.70334e-03 -2.61282e-02 -9.24941e-03 -1.30786e-03 8.77924e-02 -4.07537e-03 -3.38351e-03 -7.68203e-02 -2.97076e-02 -1.30284e-03 -3.85472e-02 -3.41053e-02 -2.54643e-03 8.02751e-02 5.07311e-02 3.47194e-03 -4.58271e-02 2.49674e-02 -1.75042e-04 -4.44219e-03 -2.08547e-02 -3.81848e-03 6.43797e-02 2.08205e-02 2.83985e-03 -6.44413e-02 -2.49384e-02 1.00534e-03 4.49449e-03 -5.05672e-02 1.21875e-03 4.61226e-02 3.41970e-02 5.16992e-03 -8.01098e-02 2.93762e-02 -8.18506e-03 3.79495e-02 3.49402e-03 -1.32593e-02 7.57721e-02 9.52040e-03 9.06536e-03 -8.73038e-02 -3.51390e-02 -8.49542e-03 2.51079e-02 3.28792e-03 6.12441e-03 -1.84960e-03 -2.86238e-03 6.05792e-03 2.61694e-03 0 0 0 0 0 0
-6.76202e-02 -4.27269e-03 1.97563e-02 4.75271e-02 1.56199e-02 -2.61254e-02 7.77196e-02 9.73704e-03 -6.26745e-03 -6.04426e-02 -7.87028e-03 3.54744e-02 -7.13311e-02 -2.61070e-03 -1.83607e-03 5.81320e-02 3.23168e-03 -2.85527e-02 6.09488e-02 -1.02042e-03 4.36915e-03 -5.57565e-02 3.68546e-04 9.42180e-03 -5.56880e-02 2.32968e-03 9.54533e-03 6.08526e-02 -3.77376e-03 4.19573e-03 5.78912e-02 -3.66027e-03 -2.89868e-02 -7.09684e-02 7.77153e-03 -1.18212e-03 -5.99042e-02 7.54413e-03 3.64453e-02 7.68816e-02 -1.42528e-02 -7.77851e-03 4.64404e-02 -1.54878e-02 -2.80848e-02 -6.72456e-02 6.45240e-03 2.04318e-02 5.08580e-03 5.52189e-03 -1.81964e-03 4.69763e-03 -5.59033e-03 -2.51957e-03 0 0 0 0 0 0
-7.05144e-02 -7.73312e-03 1.94314e-02 6.47831e-02 1.98908e-02 -9.85545e-03 5.59453e-02 6.14952e-03 -1.77671e-02 -8.05468e-02 -7.90972e-03 -7.41501e-03 -1.47262e-02 -4.70121e-04 2.42341e-02 6.71725e-02 -7.75715e-04 4.22342e-02 -2.24234e-02 1.85951e-03 -4.43864e-02 -4.72043e-02 5.19878e-03 -5.96623e-02 4.71898e-02 -5.61285e-03 5.96362e-02 2.23039e-02 -5.28087e-03 4.41709e-02 -6.68785e-02 9.19393e-03 -4.17040e-02 1.47639e-02 1.54837e-03 -2.41662e-02 7.97690e-02 -1.43555e-02 6.01258e-03 -5.54599e-02 7.74772e-03 1.86425e-02 -6.32865e-02 2.29530e-02 1.25541e-02 6.98908e-02 -1.01190e-02 -2.05559e-02 -4.76718e-03 -4.62894e-03 1.59554e-03 4.44087e-03 -4.71253e-03 -2.18394e-03 0 0 0 0 0 0
1.98301e-02 -6.11673e-03 -2.10409e-02 -3.47703e-03 1.10313e-03 8.42929e-02 1.63690e-02 -7.10019e-04 -9.40408e-02 -3.48117e-02 -3.72497e-03 2.36705e-02 -1.40522e-02 -9.12675e-04 2.54556e-02 1.70867e-02 4.01940e-03 -7.24429e-02 -3.98278e-02 -3.22654e-03 7.85410e-02 4.22807e-02 9.01268e-04 -2.81644e-02 4.22387e-02 -3.00874e-04 -2.82401e-02 -3.98507e-02 -3.88178e-03 7.84997e-02 1.70830e-02 3.91343e-03 -7.24496e-02 -1.40661e-02 -1.31030e-03 2.54305e-02 -3.45719e-02 3.13951e-03 2.41029e-02 1.67902e-02 1.13507e-02 -9.32811e-02 -3.91427e-03 -1.14141e-02 8.35045e-02 2.02992e-02 7.31230e-03 -2.01950e-02 -1.76871e-03 -4.02808e-03 1.17596e-03 -1.48961e-03 3.96205e-03 1.67924e-03 0 0 0 0 0 0
-6.89725e-02 -9.17396e-03 1.99840e-02 7.69987e-02 2.24183e-02 1.55152e-03 1.38980e-02 3.05154e-04 -2.10583e-02 -6.59271e-02 -5.11589e-03 -3.94254e-02 5.69151e-02 2.17589e-03 3.50975e-02 5.06192e-03 -2.94551e-03 5.44545e-02 -7.63362e-02 2.51486e-03 -4.02993e-02 4.90072e-02 -5.80287e-04 -5.46185e-03 4.89525e-02 -2.14731e-03 -5.56056e-03 -7.61492e-02 7.86714e-03 -3.99622e-02 5.01596e-03 -4.26121e-03 5.43716e-02 5.64720e-02 -1.05077e-02 3.42985e-02 -6.52389e-02 1.45862e-02 -3.81844e-02 1.39352e-02 1.37118e-03 -2.09912e-02 7.52468e-02 -2.77329e-02 -1.60738e-03 -6.82549e-02 1.13685e-02 2.12779e-02 4.33727e-03 3.97776e-03 -1.42775e-03 4.05653e-03 -4.05922e-03 -1.93398e-03 0 0 0 0 0 0
-2.48671e-03 5.46521e-03 1.26364e-02 -9.87099e-03 -4.92040e-03 -7.19572e-02 -1.52495e-02 5.83680e-04 9.50757e-02 3.09783e-02 4.43631e-03 -6.69545e-02 -3.09575e-02 -2.48072e-03 4.53930e-02 3.29512e-02 0 1.21707e-02 3.29612e-02 2.24942e-03 -5.59828e-02 -4.77646e-02 -3.20364e-03 6.83435e-02 4.77252e-02 2.07481e-03 -6.84146e-02 -3.29699e-02 -2.49895e-03 5.59671e-02 -3.28140e-02 3.87116e-03 -1.19233e-02 3.09087e-02 1.08214e-03 -4.54811e-02 -3.08878e-02 -1.84748e-03 6.71175e-02 1.56693e-02 1.14331e-02 -9.43188e-02 9.19003e-03 -1.45737e-02 7.07293e-02 2.91584e-03 6.81962e-03 -1.18626e-02 -3.62064e-04 -2.01278e-03 5.21756e-04 2.23577e-04 -1.95178e-03 -7.71473e-04 0 0 0 0 0 0
6.39606e-02 8.88448e-03 -2.10951e-02 -8.12972e-02 -2.27165e-02 -3.90532e-03 3.46865e-02 5.96901e-03 1.10925e-02 1.78124e-02 0 5.51698e-02 -7.93190e-02 -2.76231e-03 -3.65098e-02 6.27234e-02 1.59277e-03 -2.05266e-03 1.32744e-02 -1.01596e-04 -3.72751e-03 -5.69415e-02 5.50222e-03 -6.40782e-02 5.69051e-02 -6.54272e-03 6.40127e-02 -1.32655e-02 3.54901e-04 3.74347e-03 -6.24694e-02 5.67850e-03 2.51066e-03 7.87746e-02 -1.28222e-02 3.55282e-02 -1.75270e-02 8.16029e-03 -5.46553e-02 -3.41388e-02 9.70835e-03 -1.01050e-02 7.95039e-02 -2.86218e-02 6.71646e-04 -6.32801e-02 1.05944e-02 2.23220e-02 3.85451e-03 3.56240e-03 -1.30595e-03 -3.60327e-03 3.62986e-03 1.75898e-03 0 0 0 0 0 0
4.04957e-02 8.76601e-03 -8.18672e-03 -6.34882e-02 -1.88014e-02 -4.83660e-02 4.68787e-02 8.64842e-03 6.37961e-02 -1.74683e-02 -1.09360e-03 -3.37785e-02 -5.42108e-02 -3.52792e-03 4.99092e-02 8.22928e-02 1.83372e-03 -4.59213e-03 -7.14555e-02 7.50048e-04 -5.92780e-03 4.20894e-02 0 -1.48777e-02 4.20514e-02 -1.07417e-03 -1.49462e-02 -7.13082e-02 4.96692e-03 -5.66219e-03 8.19856e-02 -6.95883e-03 -5.14595e-03 -5.40525e-02 1.00443e-03 5.01946e-02 -1.72020e-02 6.52968e-03 -3.32983e-02 4.58846e-02 -1.98126e-02 6.20034e-02 -6.18156e-02 2.90814e-02 -4.53500e-02 3.98240e-02 -1.04641e-02 -9.39797e-03 -2.32236e-03 -1.26681e-03 6.01099e-04 -2.23131e-03 1.33981e-03 7.65283e-04 0 0 0 0 0 0
-3.70494e-02 -3.19447e-03 1.82795e-02 4.69105e-02 1.17624e-02 -2.75536e-02 -5.18614e-02 -6.57535e-03 4.42253e-02 3.27521e-02 5.20214e-03 -8.49356e-02 1.58329e-03 -1.87699e-03 7.86042e-02 -1.30831e-02 3.59511e-03 -8.13070e-02 2.31835e-02 -3.27727e-03 6.46586e-02 -7.07009e-03 6.91058e-04 -8.98862e-03 -7.06160e-03 9.33959e-04 -8.97332e-03 2.30720e-02 -6.47120e-03 6.44575e-02 -1.29453e-02 7.54109e-03 -8.10585e-02 1.36579e-03 -8.10348e-03 7.82120e-02 3.26828e-02 3.21974e-03 -8.50604e-02 -5.14721e-02 4.56944e-03 4.49273e-02 4.60997e-02 -1.14482e-02 -2.90156e-02 -3.68175e-02 3.44565e-03 1.86977e-02 2.20893e-03 2.68293e-03 -9.11253e-04 2.02108e-03 -2.69456e-03 -1.24997e-03 0 0 0 0 0 0
-4.29349e-02 -7.69822e-03 1.36230e-02 6.74406e-02 1.90735e-02 3.05207e-02 -8.30650e-02 -1.28475e-02 -3.03043e-02 7.40640e-02 6.59735e-03 2.11815e-02 -2.60918e-02 -4.83605e-04 -3.38851e-02 -8.24252e-03 4.64897e-04 -1.19406e-02 6.46418e-02 -4.33973e-04 -1.71806e-03 -8.34688e-02 3.52813e-03 -2.38710e-02 8.34068e-02 -5.30119e-03 2.37593e-02 -6.45225e-02 3.84794e-03 1.93310e-03 8.20256e-03 -1.60923e-03 1.18685e-02 2.58465e-02 -6.53870e-03 3.34428e-02 -7.33329e-02 1.43315e-02 -1.98633e-02 8.18377e-02 -2.22860e-02 2.80913e-02 -6.58176e-02 2.73889e-02 -2.75941e-02 4.23552e-02 -8.89554e-03 -1.46682e-02 -2.47736e-03 -1.86464e-03 7.76465e-04 2.34515e-03 -1.92026e-03 -1.01487e-03 0 0 0 0 0 0
3.16711e-02 5.52072e-03 -1.11646e-02 -5.11986e-02 -1.43651e-02 -2.15482e-02 7.85071e-02 1.17606e-02 1.58414e-02 -8.63300e-02 -7.51161e-03 -2.76906e-02 8.33669e-02 3.15333e-03 2.90453e-02 -7.36995e-02 -7.01905e-04 -1.61894e-02 4.27623e-02 -1.47459e-03 2.42931e-02 -2.11216e-02 1.54294e-04 5.48516e-03 -2.11051e-02 6.27872e-04 5.51500e-03 4.26546e-02 -4.55724e-03 2.40990e-02 -7.34009e-02 7.84588e-03 -1.56510e-02 8.28182e-02 -1.25551e-02 2.80559e-02 -8.54771e-02 1.69045e-02 -2.61527e-02 7.74297e-02 -1.90809e-02 1.38988e-02 -4.99815e-02 2.04757e-02 -1.93536e-02 3.12594e-02 -6.26575e-03 -1.19070e-02 -1.82791e-03 -1.43608e-03 5.95606e-04 -1.72627e-03 1.47366e-03 7.78884e-04 0 0 0 0 0 0
2.57510e-03 1.71591e-03 1.69145e-03 -8.01524e-03 -2.95477e-03 -2.36208e-02 1.35955e-02 2.68624e-03 3.11383e-02 -2.19294e-02 -7.67144e-04 -5.66470e-02 2.87581e-02 -1.90706e-04 6.16779e-02 -3.48962e-02 3.09164e-03 -7.98284e-02 3.89356e-02 -4.29168e-03 8.24397e-02 -4.11074e-02 6.55181e-03 -8.88643e-02 4.10739e-02 -7.50977e-03 8.88040e-02 -3.87785e-02 8.79048e-03 -8.21564e-02 3.46769e-02 -9.37012e-03 7.94329e-02 -2.84315e-02 9.53979e-03 -6.10890e-02 2.15749e-02 -9.38266e-03 5.60077e-02 -1.32395e-02 7.50583e-03 -3.04963e-02 7.68701e-03 -6.44162e-03 2.30289e-02 -2.44219e-03 2.08916e-03 -1.45177e-03 1.43512e-04 -2.70880e-04 0 -1.61839e-04 -2.53776e-04 0 0 0 0 0 0 0
-1.95660e-02 -2.30850e-03 9.49832e-03 2.90242e-02 7.53094e-03 -5.01393e-03 -5.00211e-02 -6.84672e-03 1.77274e-02 5.56561e-02 5.72083e-03 -2.11877e-02 -6.90296e-02 -3.92374e-03 3.02775e-02 7.23237e-02 3.00173e-03 -3.34645e-02 -7.92394e-02 -1.28094e-03 3.83938e-02 8.03423e-02 5.20080e-04 -3.96036e-02 -8.02845e-02 1.13538e-03 3.97078e-02 7.91261e-02 -1.96335e-03 -3.85982e-02 -7.20860e-02 3.80348e-03 3.38932e-02 6.87218e-02 -4.88644e-03 -3.08324e-02 -5.52161e-02 6.87467e-03 2.19810e-02 4.95014e-02 -8.03095e-03 -1.86645e-02 -2.84522e-02 8.84209e-03 6.04523e-03 1.93996e-02 -2.45418e-03 -9.79831e-03 -1.13504e-03 -1.23002e-03 4.45669e-04 1.04874e-03 -1.24036e-03 -6.01272e-04 0 0 0 0 0 0
