11
12.0107 12.0107 12.0107 1.0079 1.0079 32.0650 1.0079 1.0079 32.0650 1.0079 1.0079 
6.28318 6.28318
0.0 0.0
0.00345938 9.44813 9.55216 10.313 11.2591 11.6128 17.9952 18.1043 35.7875 62.842 83.5491 153.47 156.673 166.773 170.126 188.123 198.216 214.105 238.287 248.026 253.325 264.606 276.128 276.812 281.47 288.877 318.297 539.669 540.385 542.482 553.373 554.2 555.733
5.07057e-02 1.13714e-01 9.91685e-02 9.40134e-03 2.10837e-02 1.83868e-02 5.07058e-02 1.13714e-01 9.91685e-02 -1.99064e-02 4.11530e-02 -1.43401e-01 -2.23232e-02 -1.35858e-01 6.08096e-02 0 0 0 8.23251e-02 2.70560e-01 5.63702e-02 7.99045e-02 9.32607e-02 2.60913e-01 0 0 0 7.99045e-02 9.32607e-02 2.60913e-01 8.23251e-02 2.70560e-01 5.63702e-02
9.73979e-02 -3.56786e-02 -8.88861e-03 8.71394e-02 -2.26405e-02 -1.85938e-02 9.76802e-02 -1.50065e-02 -3.27372e-02 7.95397e-02 -2.06660e-02 -1.69722e-02 7.95397e-02 -2.06660e-02 -1.69722e-02 8.27048e-02 -4.48131e-02 9.09836e-03 1.05545e-01 -3.80587e-02 -1.04836e-02 1.05608e-01 -3.79176e-02 -1.03605e-02 8.33395e-02 1.67152e-03 -4.45289e-02 1.05832e-01 -1.70186e-02 -3.47566e-02 1.05895e-01 -1.68775e-02 -3.46335e-02
-2.20259e-03 -6.56666e-02 7.64245e-02 -9.21389e-04 -6.74909e-02 7.78614e-02 4.00381e-04 -6.63429e-02 7.58691e-02 -9.97501e-04 -6.74614e-02 7.74688e-02 -8.39629e-04 -6.71074e-02 7.77775e-02 1.98649e-03 -6.22572e-02 7.03731e-02 -3.80699e-03 -6.49374e-02 7.67030e-02 -3.92380e-03 -6.51994e-02 7.64744e-02 -3.66632e-03 -6.07884e-02 7.15793e-02 2.00928e-03 -6.67409e-02 7.52084e-02 2.12613e-03 -6.64789e-02 7.54370e-02
-8.53449e-03 -1.91397e-02 -1.66914e-02 -4.70320e-02 -1.05475e-01 -9.19834e-02 -8.53449e-03 -1.91397e-02 -1.66914e-02 -7.37059e-02 -8.72627e-02 -2.39167e-01 -7.59040e-02 -2.48257e-01 -5.34350e-02 -2.91455e-02 -6.53626e-02 -5.70018e-02 3.51815e-02 8.22389e-02 -5.04437e-02 -1.06327e-02 -2.71851e-02 9.84554e-02 -2.91455e-02 -6.53626e-02 -5.70018e-02 3.35309e-02 -3.86597e-02 8.90318e-02 -8.98209e-03 9.37135e-02 -4.10201e-02
-2.66593e-02 -5.97870e-02 -5.21394e-02 0 0 0 2.66593e-02 5.97870e-02 5.21394e-02 -5.71676e-02 1.48533e-02 1.21984e-02 5.71677e-02 -1.48533e-02 -1.21984e-02 -3.48873e-02 -7.82391e-02 -6.82313e-02 -7.15057e-02 -8.59334e-02 -3.47481e-02 4.08777e-03 -6.52599e-02 -9.71055e-02 3.48873e-02 7.82392e-02 6.82313e-02 7.09572e-02 4.57617e-02 8.10924e-02 -3.53930e-03 1.05432e-01 5.07612e-02
-1.45161e-04 3.37932e-02 -3.86756e-02 3.34922e-02 -8.70194e-03 -7.14656e-03 -1.06363e-03 -3.34791e-02 3.89335e-02 5.88134e-02 -1.52809e-02 -1.25496e-02 5.88134e-02 -1.52809e-02 -1.25496e-02 4.12612e-02 6.19735e-02 -9.21607e-02 -2.50245e-02 4.04642e-02 -3.36819e-02 -2.49936e-02 4.05335e-02 -3.36215e-02 3.92833e-02 -8.29006e-02 7.49742e-02 -2.59496e-02 -2.72974e-02 4.44917e-02 -2.59187e-02 -2.72281e-02 4.45521e-02
-4.32345e-02 -9.69589e-02 -8.45565e-02 0 0 0 4.32345e-02 9.69589e-02 8.45565e-02 -9.02622e-02 2.34518e-02 1.92599e-02 9.02621e-02 -2.34521e-02 -1.92601e-02 1.83731e-02 4.12040e-02 3.59335e-02 -7.28185e-02 -2.72135e-01 -3.84676e-02 -8.10923e-02 -7.30300e-02 -2.62546e-01 -1.83731e-02 -4.12040e-02 -3.59334e-02 7.01391e-02 7.58758e-02 2.64883e-01 8.37718e-02 2.69289e-01 3.61304e-02
4.65547e-03 1.04405e-02 9.10500e-03 5.24663e-02 1.17662e-01 1.02612e-01 4.65553e-03 1.04406e-02 9.10513e-03 8.42562e-02 9.60766e-02 2.77879e-01 8.68726e-02 2.87702e-01 5.68091e-02 -2.66093e-02 -5.96748e-02 -5.20416e-02 -8.01090e-02 -1.87965e-02 3.76985e-02 7.02590e-02 -3.29348e-03 -5.69629e-02 -2.66094e-02 -5.96749e-02 -5.20416e-02 -7.93665e-02 3.55823e-02 -2.50354e-02 6.95167e-02 -5.76718e-02 5.77153e-03
1.29406e-02 4.15225e-02 -5.42295e-02 9.44059e-04 6.91464e-02 -7.97712e-02 -1.17193e-02 4.79297e-02 -4.89676e-02 2.05453e-03 6.87125e-02 -7.40386e-02 -2.48788e-04 6.35470e-02 -7.85434e-02 -8.23371e-02 -1.77874e-02 6.24960e-02 4.34716e-02 2.46470e-02 -5.86760e-02 4.67211e-02 3.19344e-02 -5.23208e-02 8.12710e-02 -6.02960e-02 2.75854e-02 -4.23830e-02 5.50854e-02 -3.33078e-02 -4.56325e-02 4.77980e-02 -3.96630e-02
-8.25714e-02 -6.26229e-03 4.94003e-02 -9.60073e-04 -7.03194e-02 8.11244e-02 8.18172e-02 -4.89737e-02 1.43231e-02 -3.99723e-03 -6.92735e-02 6.56173e-02 2.29841e-03 -5.51547e-02 7.79301e-02 -7.71842e-02 4.87022e-02 -1.63807e-02 -1.16588e-01 -3.67383e-03 5.80908e-02 -1.14312e-01 1.43073e-03 6.25424e-02 7.79638e-02 8.39169e-03 -4.94861e-02 1.15741e-01 -5.83417e-02 1.34538e-02 1.13465e-01 -6.34462e-02 9.00215e-03
6.37034e-02 4.84325e-02 -8.81085e-02 1.33948e-01 -3.48024e-02 -2.85818e-02 6.19352e-02 -8.10759e-02 6.12998e-02 2.08553e-01 -5.41863e-02 -4.45010e-02 2.08553e-01 -5.41863e-02 -4.45010e-02 -6.11977e-02 1.20246e-02 1.75027e-02 7.01173e-02 2.72169e-02 -8.67550e-02 7.79346e-02 4.47483e-02 -7.14661e-02 -6.10923e-02 1.97488e-02 8.59152e-03 6.86149e-02 -8.28248e-02 4.01954e-02 7.64322e-02 -6.52934e-02 5.54843e-02
1.41308e-02 3.16900e-02 2.76364e-02 1.71973e-02 3.85670e-02 3.36338e-02 1.41308e-02 3.16900e-02 2.76364e-02 -6.94261e-02 1.02600e-01 -4.50294e-01 -7.67019e-02 -4.30310e-01 1.64502e-01 -2.97802e-03 -6.67859e-03 -5.82431e-03 -8.88471e-02 -3.03162e-01 1.31860e-01 -1.48305e-02 7.06521e-02 -3.34629e-01 -2.97802e-03 -6.67859e-03 -5.82431e-03 -8.34998e-02 8.84938e-02 -3.19976e-01 -2.01778e-02 -3.21004e-01 1.17208e-01
-7.54598e-02 1.00447e-01 -7.65964e-02 -1.66456e-02 4.32485e-03 3.55183e-03 -7.76594e-02 -6.06631e-02 1.09269e-01 6.59438e-02 -1.71335e-02 -1.40711e-02 6.59438e-02 -1.71335e-02 -1.40711e-02 4.01238e-02 -4.01929e-02 2.55726e-02 -1.63368e-01 1.48912e-01 -7.16148e-02 -1.69563e-01 1.35019e-01 -8.37308e-02 4.09338e-02 1.91326e-02 -4.28687e-02 -1.66054e-01 -4.78187e-02 1.55345e-01 -1.72249e-01 -6.17118e-02 1.43229e-01
3.10519e-02 6.96378e-02 6.07302e-02 0 0 0 -3.10519e-02 -6.96378e-02 -6.07302e-02 1.35831e-01 -3.52915e-02 -2.89835e-02 -1.35831e-01 3.52915e-02 2.89835e-02 -4.34234e-03 -9.73824e-03 -8.49259e-03 -5.08149e-02 -3.73854e-01 1.89351e-01 -5.44995e-02 1.37673e-01 -3.95321e-01 4.34234e-03 9.73824e-03 8.49259e-03 4.38687e-02 -1.34911e-01 3.97589e-01 6.14457e-02 3.71092e-01 -1.91619e-01
-1.20645e-01 7.24373e-02 -2.13753e-02 1.80290e-04 1.32051e-02 -1.52342e-02 1.21763e-01 9.45490e-03 -7.31002e-02 -7.73256e-03 2.01911e-02 -6.08241e-02 8.78980e-03 5.72446e-02 -2.85102e-02 3.39097e-02 -3.15042e-02 1.87867e-02 -2.59834e-01 1.29712e-01 -1.98590e-03 -2.65350e-01 1.17342e-01 -1.27736e-02 -3.45272e-02 -1.37229e-02 3.33898e-02 2.61339e-01 -1.95023e-02 -1.25158e-01 2.66855e-01 -7.13224e-03 -1.14371e-01
5.65834e-02 3.60361e-02 -7.02533e-02 -1.24108e-01 3.22459e-02 2.64822e-02 5.52028e-02 -6.50804e-02 4.64004e-02 -3.58392e-01 9.31174e-02 7.64736e-02 -3.58392e-01 9.31174e-02 7.64736e-02 0 6.59823e-04 -7.33182e-04 2.27024e-01 4.73020e-02 -1.24378e-01 2.08789e-01 6.40646e-03 -1.60043e-01 0 -6.31440e-04 7.56492e-04 2.24753e-01 -1.19049e-01 6.75339e-02 2.06517e-01 -1.59945e-01 3.18694e-02
-2.92342e-02 -6.55613e-02 -5.71751e-02 3.98327e-02 8.93299e-02 7.79034e-02 -2.92342e-02 -6.55613e-02 -5.71751e-02 -2.98279e-02 1.56464e-01 -3.30305e-01 -3.61195e-02 -3.04360e-01 2.01328e-01 3.28286e-03 7.36224e-03 6.42051e-03 -1.10087e-01 2.38218e-01 -1.16137e-01 1.50071e-01 -1.48548e-01 1.94337e-01 3.28286e-03 7.36224e-03 6.42051e-03 -1.14429e-01 -7.98256e-02 2.50776e-01 1.54413e-01 1.69496e-01 -1.72576e-01
3.62097e-02 6.08803e-02 -8.83243e-02 -1.51976e-03 -1.11313e-01 1.28417e-01 -3.42972e-02 7.91994e-02 -7.32795e-02 1.90308e-02 -1.47856e-01 2.69223e-01 -2.43979e-02 -2.45250e-01 1.84286e-01 3.87852e-04 -6.83328e-03 7.63724e-03 5.81241e-02 1.34202e-01 -1.23292e-01 3.41834e-02 8.05121e-02 -1.70114e-01 -5.71040e-04 -6.58414e-03 7.84185e-03 -5.48767e-02 1.03652e-01 -1.51110e-01 -3.09360e-02 1.57342e-01 -1.04288e-01
-1.75509e-03 -3.93602e-03 -3.43254e-03 0 0 0 1.75509e-03 3.93601e-03 3.43254e-03 -1.95846e-02 5.08846e-03 4.17895e-03 1.95846e-02 -5.08846e-03 -4.17895e-03 -2.95424e-03 -6.62526e-03 -5.77780e-03 4.69955e-01 -1.22626e-01 -1.01896e-01 -4.70835e-01 1.20653e-01 1.00176e-01 2.95424e-03 6.62526e-03 5.77780e-03 -4.69940e-01 1.23779e-01 1.00567e-01 4.70819e-01 -1.21806e-01 -9.88458e-02
1.46537e-02 3.28627e-02 2.86591e-02 0 0 0 -1.46537e-02 -3.28627e-02 -2.86591e-02 -6.44463e-01 1.67444e-01 1.37515e-01 6.44463e-01 -1.67444e-01 -1.37515e-01 -3.02744e-04 -6.78942e-04 -5.92096e-04 -6.43394e-03 -2.75511e-02 5.89723e-02 1.59962e-02 4.89956e-02 -4.02707e-02 3.02744e-04 6.78942e-04 5.92096e-04 5.31325e-03 -5.45323e-02 3.57237e-02 -1.48755e-02 3.30877e-02 -5.44253e-02
6.48946e-03 1.45535e-02 1.26919e-02 -2.37801e-02 -5.33299e-02 -4.65083e-02 6.48946e-03 1.45535e-02 1.26919e-02 -6.74990e-03 -8.61765e-02 7.32989e-02 -4.74883e-03 6.03892e-02 -9.57877e-02 2.28095e-03 5.11532e-03 4.46100e-03 -4.46469e-01 8.94319e-02 1.19982e-01 4.44186e-01 -9.45524e-02 -1.24447e-01 2.28095e-03 5.11532e-03 4.46100e-03 -4.45824e-01 1.36690e-01 6.54625e-02 4.43541e-01 -1.41810e-01 -6.99280e-02
-6.92936e-02 1.65487e-02 1.64545e-02 -7.44461e-02 1.93426e-02 1.58853e-02 -6.92540e-02 1.94487e-02 1.31088e-02 3.98135e-01 -1.03443e-01 -8.49539e-02 3.98135e-01 -1.03443e-01 -8.49539e-02 7.76196e-03 -2.40660e-03 -1.20917e-03 3.14175e-01 -7.67566e-02 -6.26321e-02 3.10209e-01 -8.56527e-02 -7.03902e-02 7.77257e-03 -1.62958e-03 -2.10559e-03 3.14178e-01 -7.65754e-02 -6.28412e-02 3.10211e-01 -8.54714e-02 -7.05993e-02
1.02331e-02 -4.93743e-02 5.13840e-02 4.23960e-03 -1.10153e-03 -9.04645e-04 1.15042e-02 4.37265e-02 -5.60223e-02 6.96476e-02 -1.80958e-02 -1.48614e-02 6.96476e-02 -1.80958e-02 -1.48614e-02 -4.96282e-03 2.78445e-03 -6.55334e-04 6.86428e-02 4.53656e-01 -5.79946e-02 -1.28751e-01 1.09741e-02 -4.44051e-01 -5.00349e-03 -1.95008e-04 2.78194e-03 6.25341e-02 6.23044e-03 4.58180e-01 -1.34860e-01 -4.36451e-01 7.21240e-02
-1.34767e-02 -3.53763e-02 4.74559e-02 -2.76298e-04 -2.02371e-02 2.33466e-02 1.24189e-02 -4.21045e-02 4.19303e-02 -6.27940e-02 1.46860e-02 -3.12165e-01 6.71745e-02 3.06157e-01 -5.79774e-02 -2.18579e-03 1.36082e-03 -4.42808e-04 1.65384e-01 3.73229e-01 -7.53401e-02 -8.15254e-03 -1.59495e-02 -4.14737e-01 2.20737e-03 2.19393e-04 -1.38022e-03 -1.59968e-01 2.34951e-02 -3.82343e-01 1.35690e-02 4.12673e-01 -4.29459e-02
1.72216e-02 -4.24505e-02 3.98714e-02 1.00713e-03 7.37657e-02 -8.51002e-02 -1.82549e-02 -3.32330e-02 4.74414e-02 1.13006e-01 2.71940e-02 4.96486e-01 -1.19378e-01 -4.93956e-01 4.19978e-02 -3.79308e-03 3.09661e-03 -1.61137e-03 -7.20132e-02 2.28806e-01 1.76267e-02 -1.68536e-01 1.23411e-02 -1.71149e-01 3.85052e-03 1.11065e-03 -3.24236e-03 7.44436e-02 -5.07899e-02 -2.22996e-01 1.70967e-01 1.65675e-01 -3.42202e-02
1.18602e-01 -3.30224e-02 -2.27762e-02 -3.08211e-04 -2.25745e-02 2.60433e-02 -1.18662e-01 2.86235e-02 2.78510e-02 -4.28891e-02 -3.34010e-03 -1.96932e-01 4.55044e-02 1.94894e-01 -2.40551e-02 -1.00391e-02 4.44129e-03 0 -3.39633e-01 9.30896e-02 6.96585e-02 -3.40722e-01 9.06462e-02 6.75277e-02 1.00890e-02 -7.88407e-04 -4.25456e-03 3.39727e-01 -8.61482e-02 -7.76665e-02 3.40817e-01 -8.37048e-02 -7.55356e-02
1.00281e-01 -1.93190e-02 -2.91217e-02 -1.64008e-01 4.26126e-02 3.49960e-02 1.00097e-01 -3.27432e-02 -1.36348e-02 3.10247e-01 -8.06083e-02 -6.62004e-02 3.10247e-01 -8.06083e-02 -6.62004e-02 -5.31019e-03 3.42016e-03 -1.20666e-03 -1.89774e-01 4.42657e-03 3.73504e-02 -1.68098e-01 5.30359e-02 7.97419e-02 -5.36571e-03 -6.46343e-04 3.48468e-03 -1.89290e-01 3.98208e-02 -3.48241e-03 -1.67615e-01 8.84302e-02 3.89091e-02
5.75048e-04 -2.42604e-02 2.75247e-02 -4.15717e-04 -3.04487e-02 3.51273e-02 -1.23110e-03 -2.37911e-02 2.79101e-02 1.18995e-01 4.40586e-01 2.11921e-02 -1.14102e-01 -8.21627e-02 -4.34690e-01 -4.32373e-04 3.58538e-04 -1.90051e-04 -8.58346e-02 -6.68772e-02 -3.42594e-01 9.80120e-02 3.45422e-01 1.69666e-02 4.39072e-04 1.32119e-04 -3.75999e-04 8.96671e-02 3.47590e-01 1.87472e-02 -9.41794e-02 -6.47090e-02 -3.40813e-01
1.49356e-03 3.39034e-02 -3.96399e-02 -2.74365e-03 7.12850e-04 5.85444e-04 5.60506e-04 -3.44371e-02 3.92016e-02 -3.40087e-03 8.83683e-04 7.25683e-04 -3.40090e-03 8.83605e-04 7.25615e-04 4.62674e-04 -5.51140e-04 3.95409e-04 1.17034e-01 8.99289e-02 4.58246e-01 -1.29543e-01 -4.63051e-01 -2.40000e-02 4.74399e-04 3.07670e-04 -5.95362e-04 1.22155e-01 4.64971e-01 2.55765e-02 -1.24422e-01 -8.80092e-02 -4.56670e-01
-1.86727e-03 -2.49304e-02 2.95419e-02 5.43198e-04 3.97858e-02 -4.58991e-02 1.17572e-03 -2.57211e-02 2.88926e-02 -1.31244e-01 -4.84325e-01 -2.53379e-02 1.25892e-01 9.23352e-02 4.77559e-01 -2.26406e-04 4.65657e-04 -4.18194e-04 -7.99724e-02 -5.98099e-02 -3.03192e-01 8.38277e-02 3.07533e-01 1.71627e-02 2.37476e-04 3.45131e-04 -5.17177e-04 8.33563e-02 3.07655e-01 1.72633e-02 -8.04438e-02 -5.96874e-02 -3.03091e-01
1.58104e-02 3.54568e-02 3.09214e-02 1.92262e-02 4.31172e-02 3.76019e-02 1.58104e-02 3.54568e-02 3.09214e-02 -1.15783e-01 -4.17361e-01 -3.44171e-02 -1.11340e-01 -9.19913e-02 -4.09782e-01 0 -1.30891e-04 -1.14148e-04 -8.50738e-02 -7.87867e-02 -3.38639e-01 -1.02469e-01 -3.41802e-01 -2.81509e-02 0 -1.30891e-04 -1.14148e-04 -8.87135e-02 -3.45376e-01 -3.10861e-02 -9.88293e-02 -7.52127e-02 -3.35704e-01
-2.15056e-02 -4.82292e-02 -4.20600e-02 0 0 0 2.15056e-02 4.82292e-02 4.20600e-02 1.09234e-02 -2.83819e-03 -2.33085e-03 -1.09235e-02 2.83811e-03 2.33078e-03 0 1.70123e-04 1.48362e-04 1.18926e-01 1.05050e-01 4.42311e-01 1.28592e-01 4.50041e-01 4.17758e-02 0 -1.70123e-04 -1.48362e-04 -1.23654e-01 -4.51324e-01 -4.28296e-02 -1.23864e-01 -1.03767e-01 -4.41257e-01
1.45769e-02 3.26905e-02 2.85089e-02 -2.40477e-02 -5.39301e-02 -4.70317e-02 1.45769e-02 3.26905e-02 2.85090e-02 1.35248e-01 4.80448e-01 4.88229e-02 1.30258e-01 1.14983e-01 4.70444e-01 0 -1.05883e-04 0 -8.38022e-02 -6.97181e-02 -2.84518e-01 -7.78726e-02 -2.92858e-01 -3.16802e-02 0 -1.05883e-04 0 -8.68170e-02 -2.90534e-01 -2.97716e-02 -7.48578e-02 -7.20421e-02 -2.86426e-01
6
9
