16
14.0107 14.0107 14.0107 14.0107 14.0107 14.0107 14.0107 14.0107 14.0107 14.0107 14.0107 14.0107 32.0650 32.0650 196.9664 196.9664
6.28318 6.28318
0.0 0.0
0.000928688 1.85869 2.35957 2.64367 3.4481 4.25551 4.84123 5.00245 5.24552 5.39879 5.81415 8.04731 11.295 14.1755 15.4033 17.3954 22.6537 24.737 27.2466 28.6089 32.3769 33.9626 34.7373 40.118 44.1874 56.9113 61.5294 71.1472 78.3636 81.8374 84.5333 87.7998 101.035 107.242 113.55 163.351 170.224 200.611 204.063 207.433 215.017 217.087 224.149 227.513 230.32 233.961 235.226 235.841
3.72599e-02 -3.04546e-02 -6.98391e-02 1.68904e-02 -5.79755e-02 -3.28271e-02 2.34518e-02 -1.16310e-02 -4.37582e-02 6.90843e-03 -4.46774e-02 -1.39813e-02 1.67882e-02 -3.13735e-03 -3.11876e-02 2.76227e-03 -3.99615e-02 -6.17471e-03 1.49290e-02 -1.88268e-03 -2.77097e-02 2.93791e-03 -4.18423e-02 -6.54986e-03 1.72321e-02 -7.06215e-03 -3.21138e-02 7.64835e-03 -5.07154e-02 -1.55119e-02 2.47674e-02 -2.02801e-02 -4.64245e-02 1.89955e-02 -6.95594e-02 -3.70338e-02 4.49773e-02 -4.12300e-02 -8.44226e-02 2.03029e-02 5.17621e-02 -3.62474e-02 0 0 0 0 0 0
-8.70805e-03 -2.24405e-02 4.31266e-02 -1.33161e-02 -2.99932e-02 3.91889e-02 -1.97665e-02 -5.11957e-02 4.57914e-02 -2.28553e-02 -5.74879e-02 4.40919e-02 -2.46657e-02 -7.05980e-02 4.87152e-02 -2.56522e-02 -7.27466e-02 4.59704e-02 -2.36882e-02 -7.62618e-02 4.59723e-02 -2.31125e-02 -7.33520e-02 4.05806e-02 -1.87966e-02 -6.75986e-02 3.49583e-02 -1.79055e-02 -6.05267e-02 2.65619e-02 -1.33654e-02 -4.77515e-02 1.54746e-02 -1.41329e-02 -3.97788e-02 4.81115e-03 -1.15481e-02 -2.19777e-02 -1.31835e-02 -1.97340e-02 -3.39310e-02 2.26067e-02 2.97457e-03 -4.56151e-03 4.33754e-03 -6.30889e-03 -4.37707e-03 7.81313e-04
-3.73448e-02 3.06107e-02 8.46073e-02 -1.56604e-02 5.96739e-02 4.35562e-02 -1.17887e-02 2.28477e-02 4.79121e-02 -3.36241e-04 4.52414e-02 1.63786e-02 6.82396e-03 2.25073e-02 1.87859e-02 1.06597e-02 3.34333e-02 -4.29095e-03 2.04465e-02 2.04641e-02 -5.52378e-03 1.86499e-02 1.75188e-02 -1.99114e-02 3.07753e-02 1.25601e-02 -2.57494e-02 2.55708e-02 -5.34600e-03 -3.13844e-02 4.02434e-02 -2.81750e-03 -4.37853e-02 3.54270e-02 -3.67032e-02 -4.21059e-02 5.71220e-02 -2.49475e-02 -7.11474e-02 -1.97117e-02 -5.95911e-02 4.66641e-02 1.96746e-03 -4.02004e-04 -5.71971e-03 2.21092e-03 9.31883e-04 5.36911e-03
-2.21475e-02 4.19819e-02 -1.08775e-02 -3.07450e-02 3.17267e-02 1.56377e-02 -3.33106e-02 5.94242e-02 1.22648e-02 -4.56585e-02 3.49108e-02 3.69611e-02 -4.11312e-02 6.11296e-02 2.70878e-02 -5.43162e-02 2.66395e-02 4.82299e-02 -4.33790e-02 5.04526e-02 3.27241e-02 -5.57861e-02 1.00941e-02 4.84104e-02 -3.90609e-02 3.10033e-02 2.75852e-02 -4.91819e-02 -1.14604e-02 3.53903e-02 -2.73893e-02 5.72572e-03 8.91009e-03 -3.41437e-02 -3.51041e-02 5.20507e-03 -3.26402e-03 -1.99608e-02 -3.47763e-02 -3.63031e-02 7.76314e-02 -4.36934e-03 -8.42592e-03 2.51979e-03 1.13366e-03 -6.89162e-03 9.33067e-03 4.21555e-03
4.19781e-02 -3.87569e-02 0 2.59811e-02 -5.91232e-02 4.10355e-02 2.36993e-02 -1.55140e-02 3.49632e-02 1.41088e-02 -3.42595e-02 6.55488e-02 1.96307e-02 1.18467e-02 4.95937e-02 1.34215e-02 -4.99994e-03 6.95539e-02 2.32859e-02 3.78359e-02 4.77062e-02 1.85101e-02 2.16479e-02 5.77607e-02 3.03766e-02 5.42775e-02 3.47509e-02 2.59014e-02 3.64208e-02 3.64124e-02 3.84689e-02 5.13877e-02 1.79739e-02 3.44249e-02 2.95696e-02 1.40648e-02 5.29165e-02 1.69881e-02 8.89353e-03 1.54527e-02 1.93704e-02 6.74780e-03 1.61455e-02 8.84842e-03 1.62690e-02 1.30732e-02 2.02690e-03 1.53885e-02
-1.52709e-02 -4.66818e-02 -1.00994e-02 -2.37520e-02 -5.77682e-02 7.90718e-03 -2.35580e-02 -3.73706e-02 4.36321e-03 -2.55289e-02 -4.09356e-02 1.55153e-02 -2.02089e-02 -1.28012e-02 4.62394e-03 -1.89945e-02 -9.93352e-03 8.82140e-03 -1.23379e-02 1.98623e-02 -6.24668e-03 -1.13255e-02 2.28055e-02 -5.82614e-03 -5.99758e-03 4.53238e-02 -1.97078e-02 -6.84323e-03 4.16540e-02 -1.91191e-02 -3.00395e-03 5.04643e-02 -2.71918e-02 -4.28935e-03 3.83756e-02 -2.45100e-02 2.32975e-03 3.34252e-02 -2.58169e-02 -2.80629e-02 -1.90651e-02 -7.27894e-03 -1.19685e-02 3.09624e-02 -2.11882e-02 -2.87532e-02 -2.28431e-02 -4.87559e-03
1.01880e-02 3.27487e-02 1.43938e-02 1.99038e-03 1.89451e-02 5.92071e-03 2.55310e-03 -4.34790e-03 9.48677e-03 -3.00421e-04 -1.06011e-02 0 -1.06761e-03 -3.53630e-02 7.23791e-03 1.75805e-03 -2.74704e-02 -5.42499e-03 0 -4.63135e-02 2.55725e-03 6.79527e-03 -2.26759e-02 -1.34720e-02 2.43699e-03 -3.34052e-02 -5.66034e-03 9.72813e-03 1.55726e-03 -2.20587e-02 7.20410e-04 -3.30964e-03 -1.24467e-02 4.42373e-03 3.45879e-02 -2.33810e-02 -1.31967e-02 3.21398e-02 -5.98467e-03 6.66867e-03 4.09505e-02 1.55724e-02 1.51299e-02 2.24808e-02 -3.50658e-02 5.61474e-03 3.88340e-02 1.71215e-02
5.60384e-03 1.71292e-02 1.14215e-03 1.39167e-02 2.93014e-02 -6.22027e-03 2.74420e-03 1.03565e-02 2.38017e-03 4.38304e-03 1.37948e-02 2.54156e-03 -3.47193e-03 5.97135e-04 1.06761e-02 -4.55778e-03 -2.29274e-03 1.42881e-02 -7.16749e-03 -7.16106e-03 1.76907e-02 -8.65017e-03 -1.21021e-02 2.05768e-02 -5.98180e-03 -6.99691e-03 1.64153e-02 -7.24549e-03 -1.16678e-02 1.59488e-02 -1.35366e-03 1.20053e-03 3.83857e-03 -3.01023e-03 -4.57540e-03 -5.62214e-04 4.47605e-03 1.26704e-02 -2.22597e-02 4.77125e-03 -2.13626e-02 -2.48672e-02 4.93613e-03 3.23520e-02 6.41205e-03 2.65243e-02 5.61433e-03 -5.15309e-02
4.31737e-03 -1.28596e-02 -1.25011e-02 -3.24963e-04 -1.79585e-02 6.30925e-03 -5.30992e-03 -1.37384e-03 6.03662e-03 -8.26094e-03 -6.96138e-03 2.03695e-02 -7.82659e-03 1.13722e-02 1.50702e-02 -9.72333e-03 6.05479e-03 2.28971e-02 -5.80839e-03 2.05994e-02 1.51815e-02 -7.42506e-03 1.53665e-02 1.61697e-02 -1.64239e-03 2.08585e-02 9.78218e-03 -3.27898e-03 1.62744e-02 4.70024e-03 3.27292e-03 9.66806e-03 3.74985e-03 1.52599e-03 9.48067e-03 -6.28033e-03 1.01230e-02 -1.16084e-02 4.82316e-03 -9.17820e-03 2.72403e-03 -1.82259e-02 2.98449e-02 -3.63808e-02 -4.19519e-02 5.36339e-03 -9.72967e-03 -2.31056e-02
-4.83414e-03 1.86046e-02 -7.44408e-03 4.44875e-03 3.23056e-02 -1.62350e-02 4.72772e-03 2.98248e-02 -1.60606e-02 4.47025e-03 2.94569e-02 -1.75688e-02 -7.35209e-04 1.59804e-02 -1.09631e-02 -4.48721e-03 6.47420e-03 -6.47109e-03 -9.70474e-03 -9.53628e-03 2.55540e-03 -1.24786e-02 -1.86329e-02 7.81288e-03 -1.46070e-02 -2.70989e-02 1.30479e-02 -1.46519e-02 -2.72123e-02 1.34058e-02 -1.43046e-02 -2.27735e-02 1.04392e-02 -1.39862e-02 -1.18871e-02 3.17545e-03 -1.61052e-02 5.61294e-03 -1.04207e-02 1.38941e-02 9.31781e-03 8.44419e-03 2.04862e-02 1.95869e-02 -9.45819e-03 2.42673e-02 -4.69648e-02 2.53469e-02
-1.36792e-02 -2.01484e-02 -1.07637e-02 -5.08249e-03 -7.29147e-03 -1.28505e-02 2.40289e-03 1.07694e-02 -1.92802e-02 7.55402e-03 2.08904e-02 -2.05491e-02 9.20569e-03 3.24123e-02 -2.44396e-02 7.27413e-03 2.65391e-02 -1.70718e-02 4.11302e-03 2.59394e-02 -1.45979e-02 -1.84364e-03 4.33381e-03 1.86553e-03 -4.77320e-03 -1.40902e-03 6.77444e-03 -9.27896e-03 -2.69192e-02 2.47752e-02 -7.68089e-03 -2.42421e-02 2.22879e-02 -8.27126e-03 -3.80258e-02 2.93540e-02 -4.33530e-03 -1.09101e-02 2.46659e-03 -3.97661e-03 -3.00796e-02 -5.54994e-03 4.76803e-02 1.46974e-02 1.26188e-02 -3.65183e-02 1.12811e-02 -7.51445e-04
1.98831e-02 -2.38263e-02 -3.02367e-02 5.19327e-02 2.56709e-02 -3.99497e-02 3.77832e-02 3.49809e-02 -3.47602e-02 4.12063e-02 4.37262e-02 -1.71765e-02 1.46401e-02 3.41563e-02 2.94177e-04 4.16031e-03 7.10864e-03 3.57121e-02 -1.21619e-02 0 4.80918e-02 -2.07246e-02 -2.86208e-02 7.26736e-02 -1.59156e-02 -1.17533e-02 6.10749e-02 -1.86504e-02 -1.74703e-02 5.34055e-02 -9.85572e-04 1.14633e-02 2.20994e-02 -6.28389e-03 1.75082e-02 -1.05815e-02 1.62370e-02 7.53743e-03 -2.24417e-02 6.18402e-02 -6.92146e-02 -1.04004e-02 -1.93189e-02 -2.02607e-03 -1.88747e-02 -1.26869e-02 7.67146e-03 8.87371e-03
3.07725e-03 -2.60584e-02 8.15762e-03 -1.64193e-02 -5.29070e-02 5.60653e-02 2.51889e-02 4.51681e-02 2.06466e-02 2.10396e-02 3.44697e-02 2.62323e-02 5.45026e-02 8.15666e-02 -5.11264e-03 3.95080e-02 4.13898e-02 -4.27702e-03 4.71528e-02 5.68207e-04 6.16453e-03 3.59545e-02 -3.44387e-02 5.47875e-03 3.27209e-02 -9.56344e-02 3.55017e-02 4.00860e-02 -5.48995e-02 6.85755e-03 2.85900e-02 -7.29955e-02 2.58340e-02 3.52906e-02 3.01830e-02 -1.98542e-02 -2.96380e-03 2.34256e-02 1.85195e-02 -4.25711e-02 3.70801e-02 -3.24030e-03 -1.16244e-02 4.02914e-03 -7.87545e-03 -9.90839e-03 -7.12705e-03 -9.58859e-03
1.19370e-02 -3.23790e-02 1.68673e-02 -7.56240e-03 -6.08687e-02 6.12625e-03 -2.58735e-02 -1.03564e-01 1.98380e-02 5.43698e-03 -3.49624e-02 -9.96555e-03 5.37852e-04 -3.45838e-03 -1.81218e-02 3.21913e-02 8.43651e-02 -4.68026e-02 7.32730e-03 8.25642e-02 -3.27106e-02 1.62232e-03 6.80716e-02 -9.15950e-03 -2.31727e-02 7.73581e-03 3.28926e-02 -3.53747e-02 -4.27472e-02 5.95012e-02 -2.61468e-02 -5.46742e-02 5.69022e-02 -3.18678e-02 -3.16008e-02 1.31861e-02 -1.52339e-02 -9.95777e-03 -2.35252e-02 5.18920e-03 -1.33883e-02 1.86854e-02 -8.21403e-03 4.28550e-03 -1.10210e-02 1.74902e-02 9.95841e-03 4.71292e-03
-1.88204e-02 -1.55029e-03 4.37398e-02 -2.54923e-02 -1.37435e-02 1.87780e-02 2.52317e-02 2.95173e-02 -1.45652e-02 -1.17590e-02 -4.51613e-02 -3.71174e-03 4.77751e-02 6.20211e-02 -6.87142e-02 -8.06532e-03 -8.06727e-02 3.54255e-03 3.19238e-02 6.09327e-02 -7.43261e-02 -1.58987e-02 -9.98946e-02 3.94660e-02 2.64417e-03 5.76608e-02 -4.59193e-02 -1.80593e-02 -5.62074e-02 5.05096e-02 -1.65717e-02 6.22101e-02 -2.18240e-02 -1.80725e-02 7.28579e-03 2.06774e-02 -1.70218e-02 7.95128e-03 1.83149e-02 -1.96332e-02 -2.11510e-02 2.95286e-02 -1.34054e-03 -1.38137e-03 -4.56402e-03 1.00272e-02 5.18975e-03 0
1.99162e-02 -2.09733e-02 -2.90911e-02 3.81783e-02 1.51013e-02 0 3.47275e-03 4.83327e-02 1.00401e-02 -4.60374e-02 -4.52432e-02 8.75826e-02 -1.71752e-02 4.55903e-02 4.36800e-02 -4.69297e-02 -2.58310e-02 6.22561e-02 1.71683e-02 7.26312e-02 -1.68871e-02 4.95872e-04 3.05863e-02 -4.40676e-02 2.53730e-02 5.35575e-03 -5.25149e-02 1.68908e-02 -1.73942e-02 -6.37515e-02 -7.81493e-04 -9.70909e-02 -5.28856e-03 6.44941e-03 -2.36998e-02 -1.51738e-02 -5.38676e-02 -3.11383e-03 1.74280e-02 4.39187e-02 -3.44861e-02 -1.18471e-02 -1.94752e-03 4.54454e-03 -2.30670e-03 2.39386e-03 3.11806e-03 3.12466e-03
1.47554e-03 7.86842e-02 4.45687e-03 2.21876e-02 1.00361e-01 -1.85506e-02 7.18169e-04 5.25404e-03 1.21509e-02 -1.69074e-02 -4.26892e-02 1.40146e-02 -8.93660e-03 -9.12352e-02 2.75104e-02 1.72727e-02 -3.51259e-02 -5.16445e-03 4.37729e-02 4.45299e-02 -4.59458e-02 4.19026e-02 2.25761e-02 -9.23453e-03 2.77989e-02 2.77265e-02 2.33803e-03 1.20499e-02 -7.60578e-02 9.24066e-02 2.01377e-02 -2.35616e-02 5.73105e-02 2.00857e-02 2.19113e-02 1.40341e-02 3.31174e-02 1.81924e-02 6.28804e-03 5.46689e-03 2.32134e-02 -2.12926e-02 -4.19230e-03 1.48576e-04 -4.67200e-03 -1.60026e-02 -9.66262e-03 -3.63362e-03
1.14992e-02 2.20215e-02 -2.71481e-02 2.21268e-02 4.04526e-02 -2.25623e-02 -8.06983e-02 -9.92017e-02 5.15808e-02 -3.02921e-02 4.07002e-03 2.87827e-02 -2.42958e-02 3.26753e-02 1.85905e-02 -2.42732e-03 8.50422e-02 -2.25368e-02 1.06359e-02 4.41843e-02 -1.47810e-02 -2.73937e-02 -8.78253e-02 3.07916e-02 7.27374e-03 -5.81409e-02 -4.96313e-03 1.04879e-02 -5.12783e-02 -1.36926e-02 1.53064e-02 6.64457e-02 -8.43103e-02 2.17251e-02 2.96013e-02 -2.49700e-02 -4.86265e-03 9.93247e-03 2.02269e-02 2.89485e-02 2.14126e-03 -2.14476e-02 3.80593e-03 -2.64323e-03 5.08161e-03 -2.99486e-03 -1.48875e-03 1.44989e-03
2.51867e-02 -2.03163e-02 -5.41339e-04 1.96500e-02 -2.62885e-02 2.93417e-02 1.94824e-03 -3.18862e-02 3.90355e-02 7.84492e-02 1.26045e-01 -3.10381e-02 -3.67601e-03 -4.38290e-02 6.02235e-02 1.28128e-02 6.35146e-03 2.40014e-02 1.12241e-02 -1.73205e-02 2.81799e-02 4.53994e-03 -2.35852e-02 8.33067e-03 4.11138e-02 1.09313e-01 -8.40349e-02 1.40978e-03 -6.70659e-02 1.48225e-02 -1.65394e-03 -7.36739e-03 -2.51077e-02 -4.52925e-03 -4.14072e-02 1.53159e-02 -4.45990e-02 -6.56778e-03 1.26598e-02 -3.06952e-04 1.53054e-02 -6.78932e-03 -3.16413e-03 2.96003e-03 -5.62063e-03 -3.00068e-03 -1.68152e-03 -1.15264e-03
-1.79387e-02 3.24320e-02 1.04635e-02 -2.00099e-02 1.90167e-02 -4.00342e-02 -4.38693e-02 -9.91753e-02 -7.09478e-03 2.34646e-02 3.00143e-02 -6.57444e-02 0 2.81514e-02 -4.64199e-02 -2.89164e-02 -5.94522e-02 4.94693e-02 -7.78312e-03 4.94015e-02 3.21164e-03 -2.88999e-02 -4.00638e-02 6.60589e-02 1.93218e-02 3.57563e-02 4.25268e-03 2.54315e-02 6.06553e-02 -4.86689e-02 3.11148e-02 -1.17198e-01 5.75103e-02 3.89998e-02 2.44698e-02 -3.23700e-02 1.54603e-02 9.46956e-03 5.72917e-03 -1.07534e-02 7.31068e-03 4.35829e-03 2.01730e-04 3.84298e-04 1.91872e-03 -3.22226e-04 -5.61324e-04 0
4.11899e-02 5.15171e-02 2.72386e-02 4.55430e-02 5.35364e-02 2.72760e-02 1.02737e-02 -3.66032e-02 6.04410e-02 -6.32264e-04 -6.03646e-02 4.93741e-02 7.53238e-02 6.21599e-02 -3.11916e-02 5.65144e-02 2.32813e-02 -3.54559e-02 1.22954e-02 -6.67146e-02 1.92431e-02 1.42172e-02 -3.96613e-02 2.54579e-02 -1.43085e-03 5.07344e-02 -1.25364e-02 -2.24915e-03 8.18283e-02 -2.38765e-02 -2.50246e-02 -9.14614e-03 3.83232e-02 -3.63592e-02 -5.92622e-02 4.73685e-02 -1.94674e-02 -1.89819e-02 -1.43672e-02 2.01280e-02 1.47656e-02 -1.70034e-02 -3.40606e-03 3.19249e-03 -5.79914e-03 -1.05300e-02 -6.22912e-03 -2.93889e-03
-1.08852e-02 -2.05074e-03 -2.11676e-02 -8.45055e-03 5.56093e-03 -1.86717e-02 -6.36541e-02 -5.69516e-02 1.88074e-02 -2.90816e-02 1.33108e-02 6.96751e-03 1.74081e-02 1.18880e-01 -4.64073e-02 -4.33900e-02 -4.84472e-02 2.54066e-02 -2.78227e-02 -1.06171e-01 4.03576e-02 2.95649e-02 7.31278e-02 -7.57796e-02 1.19058e-02 2.01058e-02 -3.35284e-02 8.10905e-04 -7.51078e-02 6.15186e-02 5.67357e-03 1.10118e-02 1.25188e-02 9.42759e-03 2.00819e-02 9.65278e-03 2.57234e-02 1.35635e-02 5.99373e-03 8.69220e-03 -6.28723e-03 -5.02861e-03 -4.97096e-04 -9.25788e-04 -3.99073e-04 2.65940e-03 1.65290e-03 1.71675e-03
-3.04757e-02 -2.23396e-02 -2.49366e-02 -2.73353e-02 -1.30403e-02 -2.11140e-02 -6.90799e-03 5.37237e-02 -4.21335e-02 -6.04161e-02 -5.58483e-02 2.15046e-02 -3.60383e-02 -1.64566e-02 2.74225e-04 1.52053e-02 1.05347e-01 -6.50376e-02 -3.66089e-02 -6.82140e-02 3.72497e-02 -2.68629e-02 -5.92296e-02 4.37269e-02 2.73338e-02 9.54337e-02 -5.62453e-02 9.63694e-03 -2.63852e-02 1.25262e-02 2.48774e-02 -6.56974e-02 3.17186e-02 3.34055e-02 3.00719e-02 -2.25636e-02 1.83060e-02 1.48571e-02 1.11199e-02 -5.35807e-03 -1.41922e-02 6.28292e-03 2.09761e-04 -5.90469e-04 1.18002e-03 5.93397e-03 3.57779e-03 2.10440e-03
7.70730e-03 5.27689e-02 5.33115e-02 6.61091e-04 2.00715e-02 -2.41267e-02 5.86859e-02 -2.26593e-02 -4.36771e-02 3.18317e-02 -8.44038e-02 -2.29793e-02 2.49928e-02 4.65682e-03 -3.93504e-02 3.05904e-02 2.34516e-02 3.70383e-02 -3.07558e-02 5.18143e-03 8.35119e-02 -1.12076e-02 8.03436e-02 3.43126e-02 1.91625e-02 2.12794e-02 3.30301e-02 -7.01550e-03 -6.22546e-02 -7.14991e-03 3.39228e-02 6.10322e-03 -8.79902e-02 3.20009e-02 -2.85058e-04 -6.91344e-02 -5.37268e-02 -1.00149e-02 9.91867e-03 -1.32534e-02 1.00143e-02 1.20523e-02 2.16021e-03 0 2.95485e-03 -4.85489e-03 -3.19265e-03 -2.74377e-03
4.28508e-02 1.67577e-03 2.11191e-02 3.25497e-02 -5.20475e-03 5.13077e-02 2.23928e-02 8.04660e-03 4.81652e-02 1.87861e-02 1.73255e-02 1.12750e-02 2.20138e-02 2.15855e-03 -7.26625e-04 2.45242e-03 -1.66511e-02 -2.91463e-02 -1.86001e-02 -8.61592e-03 -3.23134e-02 -2.59433e-02 -5.59736e-04 -2.05114e-02 -5.36777e-02 2.82942e-02 -2.08002e-02 -6.32519e-02 -9.65942e-03 8.04375e-03 -4.39889e-02 -3.67623e-02 1.22287e-02 -3.77373e-02 1.33783e-01 -1.33568e-01 -3.51382e-03 4.23799e-03 -3.35511e-02 1.71965e-02 5.80786e-03 -7.74443e-03 8.77672e-03 -7.74208e-03 1.43783e-02 -3.67137e-03 -2.11859e-03 -1.44642e-03
7.11679e-02 4.63958e-02 8.58122e-02 2.06457e-02 -3.28904e-02 2.35435e-02 6.43601e-02 -9.98933e-03 -1.63158e-02 3.79463e-02 -2.19544e-02 -1.90466e-02 -4.01610e-02 1.68465e-02 -3.61683e-03 -5.09581e-02 3.91094e-02 1.01735e-02 -6.08871e-02 2.13582e-02 9.23305e-03 -7.39956e-02 -1.18370e-02 -4.44204e-02 -2.44488e-02 -3.19916e-02 -6.38190e-02 -7.85594e-03 -3.13362e-02 -3.12103e-02 -2.31203e-02 -1.81439e-02 1.56441e-03 6.72750e-03 -1.01245e-02 7.47055e-02 6.45222e-02 2.90906e-02 2.36272e-02 2.22957e-02 1.08754e-02 1.05079e-02 -2.16687e-03 5.59837e-04 -3.16565e-03 -6.30115e-03 -3.92295e-03 -4.34256e-03
-3.16904e-02 5.42664e-03 1.74791e-03 1.89772e-03 1.76103e-02 -8.34393e-02 2.46210e-02 -4.19893e-02 -7.00659e-02 4.33039e-02 -2.71296e-02 2.24321e-02 -3.85323e-03 2.21080e-02 5.52090e-02 1.17014e-02 4.73868e-02 7.12891e-02 6.42660e-02 6.55641e-03 4.65316e-02 3.88182e-02 -4.15940e-02 -3.97815e-02 2.67486e-02 -2.30560e-02 -5.88658e-02 1.76296e-02 1.31941e-03 -7.53816e-03 -7.51344e-02 1.77761e-02 4.02257e-02 -8.52948e-02 5.33128e-02 1.69253e-03 -6.65364e-04 4.83674e-03 -3.69236e-02 -3.48948e-02 3.07153e-03 2.16641e-02 2.58309e-03 -4.41922e-03 4.39695e-03 8.80802e-04 4.21342e-04 -4.23471e-04
-4.62762e-02 -9.46886e-02 -6.95453e-02 9.51367e-02 8.96160e-02 -1.65485e-02 3.10319e-02 -1.80519e-02 4.15245e-02 3.79983e-02 -1.82008e-02 1.70654e-02 4.93401e-02 -1.01427e-02 -3.69879e-03 3.04275e-02 -1.34357e-02 -8.49618e-03 -3.50511e-02 1.40227e-02 2.32661e-03 -5.03485e-02 1.73347e-02 -3.91488e-03 -4.02322e-02 1.10641e-04 -1.22979e-02 -4.15280e-02 -2.31830e-02 -3.37900e-02 -1.46801e-02 -2.68182e-02 -3.25045e-02 1.41044e-02 -1.06756e-02 2.56922e-02 3.49781e-02 1.67477e-02 2.18415e-02 -7.09544e-02 1.75866e-03 7.94446e-03 -9.47671e-04 7.38673e-04 -1.46055e-03 4.69470e-03 2.96161e-03 3.32067e-03
2.35710e-02 -4.67305e-02 1.78629e-02 7.54778e-02 1.53590e-02 -5.29025e-02 1.35356e-02 -1.70274e-02 -2.72381e-02 8.36768e-03 8.87258e-03 2.37712e-02 -3.59965e-02 3.08609e-02 3.04240e-02 -5.09706e-02 4.81677e-03 -2.63958e-02 2.00602e-04 -2.61521e-02 -4.82946e-02 1.31063e-02 -1.85717e-02 -1.70223e-02 -2.08500e-02 8.05010e-03 1.43301e-02 -1.36844e-03 3.25695e-02 4.74716e-02 5.23264e-02 1.34815e-02 2.07358e-02 3.86110e-02 -5.97157e-03 -3.92564e-02 -1.20114e-02 -4.97363e-02 2.14651e-02 1.20705e-02 3.62302e-02 9.95516e-02 -1.55755e-03 6.42706e-03 -3.27225e-03 -6.73851e-03 -4.18759e-03 -1.24737e-02
-4.51681e-03 -3.65338e-02 -1.79994e-02 1.66525e-02 1.17540e-02 6.14784e-03 -2.14184e-02 1.46046e-02 1.73341e-02 -2.70999e-02 4.95278e-03 -1.54018e-02 2.59409e-03 -1.39989e-02 -2.74879e-02 9.56529e-03 -1.02316e-02 -7.35713e-03 -1.06931e-02 6.82260e-03 9.69114e-03 -1.49424e-03 1.70460e-02 2.52657e-02 2.97973e-02 3.41214e-04 1.11826e-02 2.11557e-02 -1.38288e-02 -2.01680e-02 -8.98441e-03 -4.14104e-03 -1.10924e-02 -1.05039e-02 -2.25423e-02 4.09179e-02 -2.86018e-02 1.04682e-01 -6.20024e-02 4.14241e-02 2.84480e-02 7.33751e-02 3.80455e-03 -1.50823e-02 7.93441e-03 -5.54673e-03 -3.40583e-03 -1.05806e-02
-3.89439e-02 4.84210e-03 -3.39374e-02 -6.11919e-02 -1.02282e-02 2.93287e-03 -4.23131e-02 1.61101e-02 4.45145e-03 -2.06602e-02 8.70401e-03 3.46806e-03 5.42098e-02 -2.71241e-02 -5.74682e-03 7.03788e-02 -1.43055e-02 2.33700e-02 2.16398e-02 1.63827e-02 3.85425e-02 -2.23773e-04 1.49682e-02 1.47874e-02 -7.86655e-03 3.38598e-03 -6.60213e-03 -3.59753e-02 -3.06685e-02 -4.91603e-02 -6.15652e-02 -2.30552e-02 -3.28975e-02 -3.60629e-02 2.74889e-02 4.25192e-03 4.99518e-02 -4.93673e-02 4.60349e-02 6.47572e-02 2.15636e-02 5.85448e-02 -2.33424e-03 8.65047e-03 -4.78938e-03 -5.08628e-03 -3.14436e-03 -9.68785e-03
1.13400e-02 -5.08004e-02 -1.63860e-02 5.21953e-02 3.55566e-02 5.97546e-02 8.89819e-03 2.03587e-02 5.64356e-02 -3.03920e-02 -2.30828e-02 -7.47206e-02 -4.39128e-02 -2.17735e-02 -8.42734e-02 -2.68970e-02 1.50875e-02 1.14050e-02 -3.44086e-02 2.62995e-02 3.85203e-02 -1.37658e-02 7.04496e-03 1.12434e-02 8.94596e-02 -3.12343e-02 -2.47279e-02 9.52124e-02 -1.13222e-02 5.49366e-03 -2.18247e-02 3.52015e-02 4.72906e-02 -5.45262e-02 4.58554e-02 -3.87009e-03 -5.38132e-03 -5.65734e-02 -1.81042e-03 -4.24090e-03 5.78484e-03 4.54610e-03 -6.70962e-04 4.86157e-03 -1.80246e-03 0 0 -5.11704e-04
-7.92090e-02 9.81435e-03 -6.25159e-02 -7.05448e-02 1.82833e-02 4.51920e-02 3.34130e-02 -1.08482e-02 3.14890e-02 5.15659e-02 -3.05036e-02 -6.03422e-03 3.45647e-02 -1.17454e-02 7.36684e-04 2.30197e-02 1.79525e-02 3.87936e-02 -2.55108e-02 2.74562e-02 3.00648e-02 -6.41212e-02 -3.00623e-02 -7.43376e-02 -5.03496e-02 -3.40244e-02 -6.69202e-02 1.02044e-02 3.89818e-02 6.30550e-02 7.03064e-02 3.06050e-02 5.44223e-02 5.32214e-02 -1.53461e-02 -1.88304e-02 -2.73393e-02 -8.44877e-04 -1.23922e-02 3.58939e-02 5.01455e-03 7.76259e-03 2.86059e-04 -1.00742e-03 6.00184e-04 -7.23769e-04 -4.26341e-04 -2.34867e-03
-1.03363e-02 2.73799e-02 2.89086e-03 -2.41607e-02 -2.09710e-02 -4.65057e-02 -2.99235e-03 -1.32453e-02 -2.69765e-02 3.39851e-02 2.86133e-02 8.52491e-02 7.18382e-02 4.31741e-03 5.94720e-02 1.68427e-02 -4.66248e-02 -7.38382e-02 -1.07405e-01 8.84363e-03 -4.33227e-02 -8.32331e-02 4.21321e-02 3.30168e-02 6.72599e-02 -1.88545e-02 -3.40081e-03 8.82566e-02 -2.14395e-02 -7.49987e-03 -1.97034e-03 2.15768e-02 2.83994e-02 -2.78387e-02 2.61433e-02 1.40639e-02 -8.67437e-03 -1.64447e-02 -1.16381e-02 -5.48827e-04 -2.66517e-03 2.11739e-03 0 4.61331e-04 0 0 0 0
8.48897e-02 -1.06743e-02 5.91982e-02 5.68776e-02 -2.55147e-02 -5.66953e-02 -8.98356e-02 3.74720e-02 -2.83853e-02 -8.70143e-02 3.98557e-02 -6.09175e-04 5.72708e-02 -3.92195e-02 -2.63144e-02 8.90426e-02 -1.40191e-02 3.41284e-02 -1.65306e-03 3.54352e-02 5.76022e-02 -4.92346e-02 -1.00716e-02 -4.04534e-02 -3.54587e-02 -2.63555e-02 -5.38291e-02 -1.30088e-03 1.63811e-02 2.64025e-02 3.02189e-02 1.56750e-02 2.85817e-02 2.58899e-02 -5.38500e-03 -7.13529e-03 -9.91693e-03 -1.64855e-03 -4.35573e-03 -2.64463e-02 -3.53399e-03 -5.73821e-04 0 -2.21407e-04 1.30313e-04 1.92976e-04 0 1.20896e-03
8.30871e-02 1.40055e-01 -1.53015e-01 1.94471e-02 -5.53767e-02 7.02836e-03 1.09041e-02 7.58197e-03 3.30148e-02 1.20466e-03 1.90219e-03 -4.86538e-04 -5.41205e-03 -5.21674e-03 -1.44175e-02 -5.74024e-03 2.44901e-03 8.67088e-04 1.12600e-03 1.69806e-03 3.85430e-03 3.99858e-03 -1.75771e-03 -9.62078e-04 7.35320e-04 -2.47061e-04 -2.67199e-04 -1.37274e-03 1.18874e-03 1.22076e-03 -9.60349e-04 -2.02706e-04 -4.35181e-04 -8.93068e-04 -2.30144e-03 -2.52380e-03 5.99446e-04 8.42879e-04 8.95255e-04 -4.80427e-02 -4.06075e-02 5.62876e-02 0 0 0 1.77408e-04 0 -3.35166e-04
1.77370e-03 1.94950e-03 -3.23735e-03 6.69278e-04 1.97748e-04 2.98549e-03 1.32577e-03 -7.26909e-04 -3.76396e-04 -1.92712e-03 -1.68116e-03 -5.03549e-03 -7.63323e-03 3.91761e-03 2.13479e-03 2.90214e-03 1.03865e-03 4.08969e-03 2.22132e-02 -9.61833e-03 -5.22236e-03 1.15081e-03 6.95314e-03 9.87384e-03 -4.37998e-02 1.48550e-02 8.52707e-03 -2.09891e-02 -3.68185e-02 -5.23857e-02 3.94896e-02 -5.92955e-03 1.66621e-04 8.27152e-02 1.34607e-01 1.52291e-01 -3.40145e-02 -4.77440e-02 -5.15324e-02 -8.13111e-04 -7.13377e-04 9.87911e-04 1.26023e-04 1.51220e-04 1.39480e-04 0 0 0
7.13045e-02 -2.65363e-02 -1.94448e-02 -3.11986e-02 5.08417e-02 6.02035e-02 -6.35320e-02 1.02440e-02 -5.09713e-02 1.13656e-02 -4.98884e-02 -8.04175e-02 3.77148e-02 2.31163e-02 7.51099e-02 2.60995e-02 3.24786e-02 7.04333e-02 -5.17911e-03 -4.27036e-02 -7.93771e-02 -5.44298e-02 -9.66341e-03 -3.88682e-02 -1.93101e-02 3.98239e-02 6.02762e-02 6.24091e-02 -7.17085e-03 5.02481e-03 2.82547e-02 -2.08391e-02 -3.11739e-02 -5.42446e-02 6.66306e-03 7.79359e-03 4.12484e-03 1.60112e-03 2.32419e-03 -8.21958e-03 -4.65241e-03 6.94482e-03 0 0 0 0 0 0
2.80487e-04 -3.43487e-03 1.80514e-02 -1.01609e-02 -1.97658e-02 -6.51200e-02 -4.04712e-02 4.41753e-02 5.60568e-02 5.37384e-02 -9.75505e-03 3.05954e-02 7.96913e-02 -5.86244e-02 -5.39884e-02 -7.89729e-02 5.25717e-02 3.83745e-02 -7.91560e-02 2.23311e-02 -2.80831e-03 5.66416e-02 -6.18734e-02 -7.08558e-02 4.01495e-02 2.70386e-02 5.75003e-02 -1.11769e-02 2.67409e-02 3.46467e-02 -3.11753e-03 -3.65474e-02 -5.51162e-02 -8.39197e-03 2.32940e-02 2.88177e-02 -6.28746e-04 -4.66334e-03 -4.92366e-03 1.05831e-03 1.88981e-03 -2.36725e-03 0 0 0 0 0 0
-7.93419e-02 3.43701e-02 1.52917e-02 4.97552e-02 -5.64363e-02 -4.42535e-02 6.32546e-02 -1.11848e-02 4.65515e-02 -4.48658e-02 3.53025e-02 2.37945e-02 -4.06587e-02 -3.86460e-03 -3.76551e-02 3.66455e-02 -1.00607e-03 2.27002e-02 4.25991e-02 -1.71721e-02 -8.34598e-03 -5.71918e-02 -8.33692e-03 -3.94374e-02 -6.18448e-02 4.15329e-02 4.85348e-02 8.67807e-02 -8.95558e-03 9.30743e-03 6.92962e-02 -3.25773e-02 -4.58165e-02 -9.77707e-02 1.23808e-02 1.46579e-02 6.52307e-03 2.70582e-03 3.89268e-03 7.90299e-03 3.95137e-03 -6.11760e-03 0 0 0 0 0 0
-3.65595e-02 1.97780e-02 -1.31590e-02 4.23775e-02 1.26952e-04 7.20584e-02 5.34823e-02 -5.76098e-02 -7.11062e-02 -8.70081e-02 3.46832e-02 -1.25832e-02 -9.16634e-03 2.06304e-02 3.42515e-02 5.71562e-02 -2.24989e-02 -2.85270e-03 -6.64926e-02 2.75298e-02 1.14413e-02 1.36754e-02 -4.32311e-02 -6.11640e-02 8.10236e-02 2.37412e-03 3.15184e-02 -3.60348e-02 5.21419e-02 6.50747e-02 -4.28666e-02 -4.10924e-02 -6.41165e-02 3.04754e-02 2.10520e-02 2.67350e-02 -2.53022e-03 -5.86700e-03 -6.61933e-03 2.38932e-03 -3.50884e-04 -1.63483e-04 0 0 0 0 0 0
6.61664e-02 -3.18521e-02 -1.58427e-02 -5.46861e-02 5.71340e-02 4.33890e-02 -1.00096e-02 -2.07017e-02 -5.64829e-02 3.02488e-02 1.31594e-02 5.27935e-02 -1.89034e-02 -3.91410e-03 -2.31225e-02 -2.66159e-02 -4.12744e-02 -8.73813e-02 8.88244e-03 5.08178e-02 9.39730e-02 3.92383e-02 -1.10450e-02 -9.04530e-04 -4.10822e-02 -7.03122e-03 -2.50348e-02 1.50850e-02 1.91312e-02 3.25778e-02 8.58476e-02 -4.10841e-02 -5.49470e-02 -9.15327e-02 2.18641e-02 2.70081e-02 4.68981e-03 4.20804e-04 1.23887e-03 -5.94898e-03 -3.04516e-03 4.72937e-03 0 0 0 0 0 0
-6.34933e-02 3.42681e-02 -1.27008e-03 7.61264e-02 -2.92303e-02 5.43511e-02 -6.78100e-03 -1.82792e-02 -5.14141e-02 -4.87107e-02 4.12821e-03 -3.50806e-02 9.03308e-02 -1.80033e-02 3.50665e-02 -5.56364e-02 2.86656e-02 1.31818e-02 -6.08993e-02 1.41229e-02 -7.53427e-03 9.01642e-02 -3.93971e-03 3.36997e-02 -4.04094e-02 -8.59510e-03 -2.84926e-02 -2.52592e-02 -3.63976e-02 -5.76097e-02 8.95537e-02 2.61895e-02 4.62676e-02 -6.28926e-02 -5.40029e-03 -7.09648e-03 3.01481e-03 4.24960e-03 5.10133e-03 4.69559e-03 1.06721e-03 -2.33850e-03 0 0 0 0 0 0
-2.24295e-02 1.13594e-02 1.35830e-02 1.84690e-02 -3.58098e-02 -5.52997e-02 -2.50007e-02 4.67099e-02 7.51634e-02 1.83644e-02 -5.49155e-02 -8.85722e-02 -1.46680e-02 4.70424e-02 7.85007e-02 2.58902e-02 -2.04394e-02 -1.92139e-02 -7.26945e-03 -2.99692e-03 -8.96788e-03 7.26396e-03 3.21540e-02 5.47501e-02 3.73041e-02 -5.50602e-02 -7.56624e-02 -5.12715e-02 5.32341e-02 6.54518e-02 5.24711e-02 -4.39791e-02 -6.02544e-02 -4.81135e-02 2.29076e-02 2.91076e-02 1.82415e-03 -1.81863e-03 -1.63443e-03 2.04637e-03 1.58408e-03 -2.21136e-03 0 0 0 0 0 0
5.87607e-02 -3.31146e-02 -3.06146e-03 -7.87632e-02 3.17981e-02 -4.99633e-02 6.75086e-02 -1.50553e-02 4.58810e-02 -3.23134e-02 2.28507e-02 1.38101e-02 -5.51092e-02 1.51467e-02 -1.28395e-02 8.47304e-02 -2.97716e-03 4.87432e-02 -7.89647e-02 -3.10361e-04 -4.33810e-02 4.10195e-02 -2.24267e-02 -1.72029e-02 4.55382e-02 -5.76204e-04 1.39853e-02 -8.04099e-02 -2.50769e-02 -5.53025e-02 8.24691e-02 2.79492e-02 4.85843e-02 -4.86756e-02 -2.51091e-03 -3.14143e-03 1.74686e-03 2.95709e-03 3.55865e-03 -4.27804e-03 -1.09374e-03 2.31864e-03 0 0 0 0 0 0
-4.10579e-02 2.40731e-02 1.56746e-03 6.09841e-02 -1.82495e-02 5.30861e-02 -8.38348e-02 1.94795e-02 -5.41800e-02 8.26243e-02 -1.25192e-02 5.09030e-02 -4.53557e-02 -8.75591e-03 -5.15016e-02 1.60896e-02 -2.44036e-03 6.19770e-03 4.63226e-02 -1.98279e-02 -9.38024e-03 -7.47703e-02 1.83084e-03 -3.01212e-02 1.01380e-01 -5.01991e-03 2.64034e-02 -9.99394e-02 4.30682e-04 -2.31263e-02 6.56491e-02 1.30232e-02 2.51168e-02 -3.73607e-02 3.44242e-03 4.62875e-03 1.06872e-03 1.32165e-03 1.68207e-03 2.91904e-03 5.70230e-04 -1.43266e-03 0 0 0 0 0 0
1.52548e-02 -8.53737e-03 -7.00624e-03 -1.75473e-02 2.10746e-02 2.25487e-02 2.85736e-02 -3.16712e-02 -3.71342e-02 -2.40518e-02 4.50370e-02 6.47680e-02 2.30792e-02 -4.81994e-02 -7.36904e-02 -1.75359e-02 5.76615e-02 8.91127e-02 1.26086e-02 -5.63523e-02 -9.03048e-02 -1.03679e-02 5.65977e-02 8.61791e-02 5.34698e-03 -5.12030e-02 -7.98650e-02 -7.81273e-03 4.07408e-02 5.76548e-02 3.25414e-03 -3.16080e-02 -4.60000e-02 -8.95605e-03 1.18564e-02 1.51714e-02 3.74905e-04 -1.67322e-03 -1.77135e-03 -1.21587e-03 -7.76999e-04 1.14794e-03 0 0 0 0 0 0
-2.66709e-02 1.58425e-02 3.13675e-03 3.97826e-02 -1.51644e-02 2.67163e-02 -6.91191e-02 2.55508e-02 -2.34910e-02 8.07820e-02 -1.87295e-02 3.71118e-02 -9.55880e-02 2.06574e-02 -3.39236e-02 9.95971e-02 -1.59794e-02 3.56689e-02 -9.72716e-02 1.08389e-02 -3.38098e-02 9.23900e-02 -1.03843e-02 2.43698e-02 -7.38202e-02 2.59604e-04 -2.47368e-02 6.14318e-02 -4.61777e-03 7.86820e-03 -3.29040e-02 -5.67133e-03 -1.12933e-02 1.80074e-02 -2.58992e-03 -3.49114e-03 -4.39835e-04 -4.87946e-04 -6.43506e-04 1.93163e-03 5.02245e-04 -1.08853e-03 0 0 0 0 0 0
15
16
