16
12.0107 12.0107 32.0650 1.0079 1.0079 32.0650 1.0079 1.0079 196.9664 196.9664 196.9666 196.9666 196.9666 196.9666 196.9666 196.9666 
6.28318 6.28318
0.0 0.0
1.88365e-06 3.04217 3.0737 3.51661 3.74396 4.17643 4.73868 4.92584 5.01433 5.15755 5.1678 5.20784 5.22287 5.33849 7.91079 10.6597 29.3392 29.9856 30.0357 30.4526 31.7395 39.6028 39.7013 40.2813 40.2892 40.5976 40.8929 48.1184 48.8065 50.2373 70.0384 85.16 99.296 147.23 147.715 181.829 182.898 196.043 240.644 243.334 272.201 278.149 284.815 299.883 540.37 540.962 554.228 554.95
-1.06560e-02 -3.06277e-02 5.59518e-02 -1.16762e-02 2.40297e-02 5.88702e-02 1.81325e-02 5.21066e-02 -9.67220e-02 -7.60559e-03 -1.53044e-01 4.54492e-02 -3.07781e-02 2.34526e-03 1.58686e-01 1.98772e-02 -4.07043e-02 -1.01756e-01 -3.03365e-02 -2.04975e-02 1.57412e-01 -1.32269e-02 1.46886e-01 6.15670e-02 0 1.76758e-04 -1.50144e-04 0 -1.45631e-04 -1.50231e-04 0 0 0 1.29703e-04 0 0 0 0 0 0 0 0 1.63133e-04 0 0 0 0 0
-1.07570e-03 -4.68540e-02 -2.13613e-02 5.13275e-03 -5.10928e-02 -3.23190e-02 1.85114e-03 -5.29591e-02 -1.06855e-03 -9.95328e-03 -3.71150e-02 -2.21116e-02 1.97099e-03 -4.93549e-02 -2.50316e-02 -2.93834e-03 -4.38054e-02 -2.47880e-02 5.33469e-03 -4.63378e-02 -4.62893e-02 1.37806e-02 -6.27125e-02 -3.10092e-02 4.99879e-04 -3.44496e-02 -1.72439e-02 -2.08507e-03 -2.81086e-02 -8.29704e-03 -1.04427e-02 -6.24298e-03 5.72463e-04 1.39914e-02 -8.44192e-03 -5.79176e-03 -4.88974e-04 -8.17164e-03 -2.36295e-03 1.73077e-02 -4.67833e-03 -9.51050e-03 -9.18579e-03 -9.22089e-03 -8.84725e-04 -1.20181e-02 -1.21768e-02 -1.33546e-03
-2.83824e-04 -3.10601e-02 7.24818e-02 1.86581e-03 -1.20531e-02 6.90756e-02 5.79614e-03 -1.07882e-02 3.32634e-02 -2.88634e-03 -6.43009e-02 6.90026e-02 -2.58288e-03 -2.34214e-02 1.02686e-01 4.05232e-03 -2.63268e-02 2.25363e-02 -1.16072e-03 -2.21826e-02 9.38362e-02 5.09972e-03 2.04477e-02 7.04625e-02 7.10467e-03 -1.16571e-02 3.12715e-02 6.34810e-03 -1.32960e-02 3.19439e-02 -8.55108e-03 -2.34678e-03 1.11535e-02 -3.12867e-03 -2.56013e-03 8.94241e-03 1.93176e-02 -5.91460e-03 4.91090e-03 2.44511e-04 -3.14394e-03 8.01628e-03 -1.40427e-02 -5.93509e-03 1.11973e-02 1.51381e-02 -3.03331e-04 4.77512e-03
-1.22358e-02 3.56655e-03 -3.85129e-03 -1.04346e-02 -1.41762e-02 -7.35850e-03 2.21824e-03 9.01737e-03 8.83719e-03 -1.40739e-02 9.59956e-03 -3.64356e-03 -2.05735e-02 7.14916e-03 -9.34450e-03 2.12972e-03 -2.00637e-02 9.83103e-04 -1.95231e-02 -1.72906e-02 -1.54292e-02 -7.91997e-03 -2.02590e-02 -7.04313e-03 -7.27601e-03 3.61185e-02 1.94144e-03 -5.42884e-03 -4.09101e-02 -4.37277e-03 -1.94949e-02 -9.24177e-03 3.79397e-03 1.46360e-02 -1.21733e-02 -5.62822e-03 -6.81112e-04 -1.28604e-02 -1.65896e-03 -1.91167e-02 5.37320e-03 5.95896e-03 1.13080e-02 1.06623e-02 -3.81259e-03 3.37642e-04 1.12645e-02 -2.65782e-04
-5.14681e-03 -1.43458e-02 7.53113e-03 9.00850e-03 -1.34727e-02 -1.74405e-02 4.21299e-03 -1.62640e-02 2.88386e-02 -2.55966e-02 -1.24285e-02 3.95023e-03 -2.13847e-04 -1.52764e-02 1.64557e-02 -1.54219e-03 -1.12691e-02 -3.38456e-02 4.83235e-03 -1.21515e-02 -2.94607e-02 2.93810e-02 -1.49989e-02 -1.37260e-02 -4.27087e-03 -1.76429e-03 3.37238e-02 6.15462e-03 4.94012e-03 -3.53904e-02 1.78652e-02 -2.95141e-04 -1.40689e-02 1.84292e-02 -6.69748e-04 -1.32151e-02 -6.01363e-03 2.78043e-03 -8.64567e-03 -1.44498e-02 -3.17115e-03 1.24712e-02 -1.88627e-02 -4.26719e-03 1.23310e-02 6.23410e-03 1.57405e-03 7.17832e-03
-2.94755e-02 -1.28906e-02 4.20396e-02 -2.90178e-02 4.71737e-03 4.16109e-02 -3.07618e-02 -2.08204e-03 1.29683e-02 -2.99413e-02 -3.55126e-02 3.99128e-02 -2.82608e-02 -9.31663e-03 6.23838e-02 -3.09386e-02 -2.92361e-03 9.33216e-03 -2.81830e-02 -9.67882e-04 6.03858e-02 -2.81102e-02 2.75623e-02 4.23356e-02 -2.35602e-02 -4.89811e-03 -2.18719e-04 -2.33861e-02 4.26381e-03 -1.48616e-03 -2.05952e-02 2.59802e-03 1.98421e-03 -2.11644e-02 2.64636e-03 2.42653e-03 -2.52080e-02 3.33263e-03 3.06641e-03 -2.13107e-02 -4.03407e-03 2.99381e-03 -2.10493e-02 -3.99488e-03 3.29474e-03 -2.49494e-02 -5.03006e-03 3.96886e-03
1.45817e-02 6.11881e-02 -2.49619e-02 -1.70388e-02 5.72615e-02 2.99332e-02 -5.14870e-03 6.46678e-02 -6.92111e-02 5.90324e-02 5.85149e-02 -1.70452e-02 3.26449e-03 6.31552e-02 -4.62605e-02 2.91133e-03 5.68003e-02 7.52908e-02 -5.93999e-03 5.74423e-02 5.07444e-02 -6.13635e-02 5.31124e-02 2.16710e-02 -9.98574e-04 -1.72907e-02 7.93903e-03 1.29385e-03 -1.68871e-02 -9.66879e-03 -1.39557e-03 -7.22506e-03 -3.13715e-03 9.69877e-03 -8.00098e-03 -7.27113e-03 8.66037e-04 -8.88921e-03 -4.86466e-03 1.14572e-03 -5.49465e-03 8.89763e-04 -1.07078e-02 -7.22438e-03 7.41294e-03 -1.48038e-03 -9.09307e-03 3.97915e-03
1.45567e-02 3.06895e-02 -1.24358e-01 1.55248e-02 -1.70215e-02 -1.27040e-01 1.95635e-02 1.23481e-03 -4.24889e-02 1.24640e-02 9.19613e-02 -1.19216e-01 1.18890e-02 2.09736e-02 -1.77941e-01 1.94918e-02 3.66048e-03 -4.26631e-02 1.23382e-02 -1.72238e-03 -1.79370e-01 1.59374e-02 -7.85110e-02 -1.28468e-01 -5.09609e-03 -2.11626e-03 1.74845e-02 -5.16976e-03 0 1.78671e-02 -7.68204e-03 4.83252e-04 1.25424e-02 -9.04251e-03 7.53186e-04 1.21131e-02 -2.27270e-03 -5.89895e-04 1.09834e-02 -7.92323e-03 -3.03820e-03 1.22832e-02 -1.00041e-02 -3.85137e-03 9.49053e-03 -2.12445e-03 6.47224e-04 8.89487e-03
0 -1.11577e-04 -1.63752e-03 4.70752e-04 -9.67714e-04 -2.55063e-03 4.25714e-04 -6.36155e-04 5.09157e-04 -7.76983e-04 1.00210e-03 -1.67165e-03 0 -2.85565e-04 -2.24825e-03 3.74903e-04 -7.20628e-04 -1.87851e-03 1.51093e-04 -7.76001e-04 -3.74450e-03 1.17806e-03 -1.89809e-03 -2.44316e-03 -1.23860e-04 6.69917e-04 3.81877e-04 0 1.31151e-04 3.69622e-04 0 1.10658e-04 3.19023e-04 -1.32473e-04 1.13795e-04 3.28062e-04 0 1.09290e-04 3.14427e-04 1.36524e-03 3.18323e-02 -2.72286e-02 -5.89869e-03 3.83949e-02 3.62113e-02 -5.93767e-04 -1.80224e-02 1.31258e-02
2.88649e-03 6.12587e-03 -1.26111e-02 1.79592e-03 1.71820e-03 -1.07538e-02 2.11685e-03 3.07962e-03 -6.40944e-03 4.33453e-03 1.19661e-02 -1.18190e-02 2.48310e-03 5.10067e-03 -1.86010e-02 3.12198e-03 3.39225e-03 -1.63691e-03 1.85124e-03 3.00696e-03 -1.45393e-02 1.48954e-04 -3.81487e-03 -1.11925e-02 -5.98332e-04 -2.67233e-03 5.73431e-03 8.19235e-04 2.54589e-04 7.50546e-04 5.10169e-03 -8.04255e-03 -3.03140e-04 -1.88534e-04 -8.86134e-03 8.32387e-03 -1.96354e-03 -1.54361e-03 6.20141e-03 -1.04268e-02 1.20170e-02 -2.98302e-02 -3.51378e-02 7.31022e-03 -2.49855e-02 1.18764e-02 1.66878e-02 -3.51991e-02
-1.93379e-03 -5.22076e-03 9.78469e-03 4.54027e-04 -9.40514e-04 5.70474e-03 -1.61327e-03 -4.20077e-03 7.82144e-03 -5.30535e-03 -8.93574e-03 8.83104e-03 -2.84203e-04 -5.06950e-03 1.49782e-02 -2.07738e-03 -1.90030e-03 -3.72426e-03 2.50566e-04 -1.74635e-03 7.74421e-03 3.88534e-03 3.57964e-03 6.44700e-03 3.59465e-04 1.09347e-03 -2.24860e-03 1.38235e-04 4.81468e-03 -1.44614e-03 1.67141e-02 -3.72327e-02 -1.86726e-02 -1.32497e-02 -4.10999e-02 2.58957e-02 -8.02283e-03 -5.23346e-03 1.22118e-02 2.75590e-03 -2.32732e-03 6.26137e-03 8.50637e-03 -1.24891e-03 5.00668e-03 -2.64522e-03 -3.35165e-03 7.47536e-03
1.77528e-03 0 -1.01160e-03 -2.53846e-04 1.32957e-03 2.53015e-03 -1.80894e-04 3.24278e-04 -5.38685e-03 4.60013e-03 -1.23684e-03 -6.04295e-04 1.56643e-03 0 -1.34081e-03 -4.44369e-04 2.06076e-03 4.75486e-03 1.32585e-03 1.74555e-03 4.31140e-03 -3.10601e-03 1.41701e-03 2.00714e-03 9.39359e-04 -5.49973e-03 -1.74102e-03 0 3.70338e-04 1.53010e-03 -3.28735e-03 -2.34060e-03 -9.63267e-03 -9.38489e-03 -1.68776e-03 -8.64022e-03 4.90952e-03 -3.33528e-03 -1.14388e-02 2.64873e-02 2.42695e-02 2.36269e-02 -1.54218e-02 1.19604e-02 -1.84047e-03 -1.78828e-02 4.37589e-02 1.10304e-02
-2.62920e-03 -8.94875e-04 1.95053e-02 -5.28232e-03 7.57028e-03 2.43633e-02 -5.77693e-03 3.98069e-03 1.83647e-03 1.24942e-03 -1.15857e-02 1.92532e-02 -2.64327e-03 6.90405e-04 2.70294e-02 -4.53108e-03 3.93956e-03 1.28584e-02 -3.70836e-03 4.92210e-03 3.53916e-02 -8.83981e-03 1.81923e-02 2.39686e-02 -6.90178e-04 -2.09813e-03 -3.50038e-03 9.75229e-04 -2.63499e-03 -9.37192e-03 1.20372e-02 7.15048e-03 2.91995e-02 3.32945e-02 4.97260e-03 2.52073e-02 -1.58680e-02 1.01424e-02 3.50030e-02 8.88787e-03 6.25984e-03 8.77479e-03 -1.92275e-03 2.88419e-03 6.53847e-04 -8.38159e-03 1.14386e-02 5.81852e-03
-1.25195e-03 -3.49688e-03 6.74460e-03 1.12936e-03 0 2.67047e-03 -1.35260e-03 -3.58682e-03 6.77544e-03 -4.66133e-03 -5.62494e-03 5.92709e-03 6.51829e-04 -3.77565e-03 1.05740e-02 -1.43716e-03 -4.41716e-04 -5.09930e-03 9.75192e-04 -4.16608e-04 3.72787e-03 4.52929e-03 3.34165e-03 3.37728e-03 1.79887e-04 3.97980e-04 -9.35372e-04 3.66101e-04 6.33715e-03 -1.61998e-03 2.38039e-02 -8.60753e-03 3.29471e-02 -1.34814e-02 5.64974e-03 -1.89564e-02 -1.25841e-02 -5.05342e-02 3.22574e-04 4.87121e-04 0 0 1.12181e-03 1.47227e-04 0 -1.89187e-04 0 2.16423e-04
5.52661e-04 3.99507e-02 -3.08837e-03 -2.67061e-03 3.92800e-02 7.43508e-03 -3.64357e-02 2.13253e-03 2.88189e-02 6.91887e-03 7.35709e-02 1.11690e-03 1.68213e-02 2.40936e-02 -3.46864e-02 3.57743e-02 6.42463e-03 -2.83307e-02 -1.83452e-02 1.94650e-02 3.71464e-02 -1.03022e-02 7.29489e-02 6.84857e-03 -2.18212e-02 8.87821e-04 -1.45218e-02 2.13384e-02 -2.81933e-04 1.42322e-02 1.72002e-02 -1.50563e-03 -1.34953e-04 1.19395e-02 -8.88574e-04 1.00571e-03 3.04842e-02 -2.58910e-03 -3.10072e-03 -1.78628e-02 -2.52482e-03 2.40818e-04 -1.04663e-02 -1.05482e-03 -1.45373e-03 -3.00417e-02 -4.56534e-03 3.26067e-03
-7.77659e-04 8.71073e-02 5.76285e-03 -2.08837e-03 8.72209e-02 3.63268e-03 -4.25977e-02 2.60490e-02 7.68935e-02 -5.18155e-03 1.43755e-01 1.00728e-02 2.66067e-02 6.24249e-02 -3.79361e-02 4.17986e-02 3.58063e-02 -7.35235e-02 -2.83944e-02 5.70103e-02 4.43672e-02 1.66916e-04 1.44106e-01 5.42964e-03 1.01534e-02 -9.26025e-03 2.71172e-03 -9.48295e-03 -9.13146e-03 -3.42725e-03 -1.47966e-02 -5.03100e-04 1.54192e-03 -2.72401e-03 -1.99710e-03 -5.51612e-04 -1.17962e-02 -1.12882e-03 1.41334e-03 1.49914e-02 5.28238e-04 -1.92340e-03 2.40486e-03 -2.10848e-03 4.91628e-04 1.14945e-02 -4.46701e-04 -1.63919e-03
-6.87501e-02 2.89673e-02 -1.84582e-02 -6.76926e-02 -2.95026e-02 -2.14106e-02 -3.92204e-02 4.12048e-02 6.49113e-03 -6.69870e-02 4.79734e-02 -1.64434e-02 -9.56945e-02 3.91229e-02 -4.28979e-02 -3.72069e-02 -4.34211e-02 2.20652e-03 -9.43476e-02 -3.81313e-02 -4.65385e-02 -6.55078e-02 -4.83487e-02 -2.14914e-02 -8.72364e-03 1.24391e-02 -7.76081e-03 -7.56056e-03 -1.13693e-02 -8.33483e-03 1.86559e-02 0 1.21764e-02 -1.48545e-02 0 7.21771e-04 1.55448e-02 1.48678e-02 -3.29618e-03 2.03026e-02 1.14497e-03 1.22104e-02 -1.63845e-02 -1.67092e-03 5.26568e-04 1.66082e-02 -1.49933e-02 -4.03660e-03
7.71509e-04 6.60242e-03 3.15922e-03 4.03600e-03 -8.35633e-03 -3.04216e-03 1.44827e-02 1.48575e-02 8.45697e-03 -2.89149e-03 6.71356e-03 2.50470e-03 -7.39705e-03 1.12531e-02 3.11541e-03 8.92786e-03 -9.91521e-03 4.67201e-03 -2.57158e-03 -8.91910e-03 -1.41643e-02 9.08596e-03 -1.67571e-02 -2.32772e-03 3.23109e-03 1.63629e-02 2.32467e-02 2.49354e-03 -1.05323e-02 1.32488e-02 1.15768e-02 -8.41901e-03 -1.05241e-02 -1.42823e-03 1.18372e-02 -1.34501e-02 -1.45713e-02 8.57703e-03 9.56462e-03 1.75328e-02 1.64834e-02 -1.77184e-02 -4.95732e-04 -1.88670e-02 -2.33163e-02 -2.27088e-02 -1.62888e-02 1.57389e-02
6.58664e-03 6.25078e-03 -1.02223e-02 -5.16657e-03 1.25202e-03 1.07815e-02 -8.54722e-03 -7.17296e-03 -3.48801e-03 2.32681e-02 2.38073e-02 -5.61260e-03 7.81148e-03 7.77618e-04 -3.31948e-02 1.49736e-02 -1.31508e-02 5.55384e-03 -9.61091e-03 -8.00943e-03 3.02764e-02 -2.21772e-02 1.65403e-02 8.05803e-03 -9.49632e-04 -1.16516e-02 -1.27450e-02 2.95778e-03 -1.99484e-02 2.04143e-02 2.19463e-02 -1.40867e-02 -1.50970e-02 -5.12191e-03 1.94425e-02 -2.23949e-02 -2.16446e-02 1.69389e-02 1.54482e-02 -1.25394e-02 -9.95414e-03 8.81551e-03 2.52028e-03 1.12703e-02 1.39339e-02 1.16113e-02 1.16635e-02 -8.97568e-03
1.91402e-03 2.60146e-03 -9.69401e-04 -9.33647e-04 2.58515e-03 1.61394e-03 1.27410e-03 1.65990e-04 1.43293e-03 3.95556e-03 5.58619e-03 -3.30015e-04 2.19212e-03 1.79139e-03 -4.14006e-03 -3.09837e-04 4.59174e-04 -1.20969e-03 -1.03726e-03 1.45265e-03 4.87004e-03 -3.07723e-03 5.68787e-03 1.30016e-03 5.79272e-03 -1.82601e-02 1.47842e-02 -4.47382e-03 -1.81996e-02 -1.83925e-02 1.45044e-02 3.41317e-03 2.10812e-02 -2.64706e-02 -5.66969e-03 9.10399e-04 1.47052e-02 2.07027e-02 -3.43799e-03 -1.51526e-02 1.98451e-03 -1.81719e-02 2.47328e-02 -2.30087e-03 -3.06135e-04 -1.39088e-02 1.88498e-02 3.54756e-03
7.35298e-02 -3.20652e-02 1.98826e-02 7.22644e-02 3.22632e-02 2.36324e-02 4.32440e-02 -4.43392e-02 -6.51725e-03 7.19679e-02 -5.29953e-02 1.77384e-02 1.02731e-01 -4.28953e-02 4.72083e-02 4.22007e-02 4.58779e-02 -1.23014e-03 1.00997e-01 4.09804e-02 5.24809e-02 6.94687e-02 5.34873e-02 2.36677e-02 2.76336e-03 1.76071e-02 -1.22939e-02 4.65775e-03 -1.48402e-02 -1.26738e-02 2.71663e-03 2.97105e-03 1.33107e-02 -2.05703e-02 -5.38928e-03 -3.19152e-03 6.30809e-04 1.44202e-02 1.63131e-03 4.52897e-03 -2.76269e-03 1.39258e-02 -2.22580e-02 3.75619e-03 -3.36654e-03 2.13749e-03 -1.60957e-02 1.13432e-03
-8.67877e-03 2.24377e-02 -3.84503e-04 -7.18436e-03 -2.27399e-02 -4.01013e-03 1.09692e-02 3.28116e-02 1.45652e-02 -6.78969e-03 3.55400e-02 1.14154e-03 -2.90280e-02 3.03193e-02 -1.83901e-02 1.12403e-02 -3.27052e-02 1.05193e-02 -2.70755e-02 -2.85388e-02 -2.50820e-02 -2.87587e-03 -3.76196e-02 -3.59015e-03 2.06572e-02 1.09093e-02 0 1.98922e-02 -9.13095e-03 -3.45194e-04 5.02454e-03 2.96405e-02 -9.08789e-03 -1.01114e-02 -8.22691e-03 1.20174e-02 -1.63389e-02 -8.75339e-03 -4.17273e-03 7.33042e-03 -3.04159e-02 -9.91156e-03 -1.07233e-02 9.04064e-03 1.21976e-02 -1.87475e-02 6.91005e-03 -4.41826e-03
1.13621e-02 6.09855e-03 -2.19962e-02 -1.20321e-02 1.98750e-03 2.22817e-02 -1.80406e-02 -1.85035e-02 -1.05758e-02 4.60385e-02 3.99605e-02 -1.27117e-02 1.48446e-02 -5.12413e-03 -6.65500e-02 1.93332e-02 -2.07152e-02 9.14542e-03 -1.61310e-02 -1.44241e-02 6.42401e-02 -4.77964e-02 3.45323e-02 1.66254e-02 -2.04466e-02 -1.09414e-02 -3.33203e-04 2.18702e-02 -1.02653e-02 -1.26491e-04 5.17371e-03 3.15025e-02 -9.48902e-03 -1.09928e-02 -9.14740e-03 1.19896e-02 -1.75171e-02 -8.90986e-03 -3.85465e-03 -6.78034e-03 2.90255e-02 9.29575e-03 1.05270e-02 -9.03107e-03 -1.08692e-02 1.79860e-02 -6.18370e-03 3.60536e-03
-2.37657e-04 0 5.34837e-04 6.72900e-04 -4.21757e-04 -8.47013e-04 4.98982e-04 8.35295e-04 1.58200e-04 -1.48404e-03 -1.12651e-03 2.05756e-04 -5.12909e-04 4.39975e-04 1.79253e-03 3.75129e-04 1.28999e-04 1.79292e-04 4.94516e-04 0 -2.49587e-03 1.83725e-03 -1.83691e-03 -6.72590e-04 -4.66493e-03 -1.13094e-02 2.36635e-02 8.32512e-04 -3.58456e-04 -1.50990e-03 -8.46036e-04 -1.88347e-04 -1.21927e-03 -1.17926e-03 1.64351e-03 4.28866e-04 1.19590e-03 -1.09667e-03 2.32758e-03 8.68809e-03 -1.42125e-03 2.42146e-02 1.55057e-02 3.48837e-02 -1.44365e-02 -1.96443e-02 -2.20892e-02 -3.38514e-02
5.92329e-04 4.94155e-04 -6.91027e-04 -1.39863e-04 -1.19342e-04 3.85371e-04 4.30249e-04 0 1.76461e-04 1.48333e-03 1.70283e-03 -4.23202e-04 4.12968e-04 3.02978e-04 -2.11589e-03 5.13498e-04 -7.36491e-04 0 -3.87506e-04 -5.90263e-04 1.33308e-03 -1.22276e-03 7.89522e-04 2.10497e-04 2.70000e-04 -7.34264e-04 1.24109e-03 -4.93851e-03 8.48892e-03 2.43786e-02 8.98861e-03 3.50274e-03 2.35132e-02 1.77341e-02 -3.33471e-02 -1.42476e-02 -2.18868e-02 2.13219e-02 -3.40468e-02 1.84947e-04 -1.24360e-04 1.53151e-03 7.09961e-04 2.28234e-03 -1.19633e-03 -1.17371e-03 -1.41943e-03 -1.59587e-03
1.75880e-03 -1.87706e-03 -5.81549e-03 -1.12779e-03 -1.97924e-03 5.75579e-03 -1.08248e-02 -7.88765e-03 -6.85074e-03 1.02592e-02 4.48842e-03 -3.71574e-03 3.87434e-03 -5.20378e-03 -1.59583e-02 1.12608e-02 -7.36921e-03 5.82285e-03 -2.60299e-03 -6.31351e-03 1.60147e-02 -9.95349e-03 4.62572e-03 4.32694e-03 -2.61700e-02 9.60245e-03 7.93956e-03 2.50436e-02 1.11781e-02 -6.06135e-03 -1.83453e-02 -3.96746e-03 8.79067e-03 -5.72737e-03 -1.39383e-02 -2.25186e-02 -2.40164e-04 7.95166e-03 1.95203e-02 1.94855e-02 -3.06760e-03 -9.68163e-03 7.56090e-03 -1.42980e-02 2.26208e-02 -1.70892e-03 8.98802e-03 -2.04690e-02
-1.86803e-02 2.14676e-02 -4.04184e-03 -1.80109e-02 -2.16920e-02 -5.93712e-03 -3.65665e-03 2.88196e-02 9.65508e-03 -1.57141e-02 3.56201e-02 -2.23408e-03 -3.74282e-02 2.80548e-02 -2.37403e-02 -1.88525e-03 -3.03112e-02 6.83650e-03 -3.66443e-02 -2.71526e-02 -2.54975e-02 -1.51749e-02 -3.52982e-02 -5.75801e-03 2.31651e-02 -1.09413e-02 -8.26125e-03 2.40053e-02 1.33367e-02 -6.84173e-03 -1.86612e-02 -4.64251e-03 8.41805e-03 -5.08049e-03 -1.33345e-02 -2.24034e-02 1.20668e-03 7.26078e-03 2.01567e-02 -1.83059e-02 3.49134e-03 8.56888e-03 -6.31384e-03 1.25368e-02 -2.06876e-02 2.99065e-03 -7.49011e-03 1.94724e-02
-4.61893e-02 -2.60333e-02 7.27961e-02 4.70034e-02 -1.60471e-02 -7.50623e-02 7.88268e-04 4.10048e-02 8.67178e-03 -1.64953e-01 -1.50055e-01 4.04937e-02 -4.67106e-02 5.25275e-03 2.23309e-01 -2.48097e-03 4.20131e-02 -4.32844e-03 4.62636e-02 3.12560e-02 -2.21100e-01 1.70369e-01 -1.38092e-01 -5.60100e-02 8.64805e-03 -4.25636e-03 -7.83434e-03 -8.69657e-03 -5.76091e-03 6.89599e-03 7.11249e-03 1.89301e-02 -7.94115e-03 1.99912e-04 -1.41925e-02 -1.14663e-02 5.24855e-03 -3.91403e-03 1.52955e-02 -8.17911e-03 1.77481e-02 8.79292e-03 9.95568e-04 -1.47400e-02 1.08462e-02 -5.12563e-03 -3.47157e-03 -1.50848e-02
-3.85278e-03 -1.68634e-02 -2.65465e-03 -4.82209e-03 1.70430e-02 -3.59999e-04 -1.27463e-02 -2.28882e-02 -1.10686e-02 -6.95609e-03 -2.76721e-02 -4.20470e-03 1.00860e-02 -2.16804e-02 1.28938e-02 -1.37617e-02 2.32435e-02 -8.61056e-03 8.99055e-03 2.04028e-02 1.65796e-02 -9.12175e-03 2.86321e-02 -8.69436e-04 -1.85817e-02 -6.47506e-04 7.32673e-03 -1.86955e-02 -1.34735e-03 6.51780e-03 8.93446e-03 2.33922e-02 -1.00336e-02 2.06875e-03 -1.91508e-02 -1.65558e-02 1.03659e-02 -5.40992e-03 2.15074e-02 1.04392e-02 -2.22707e-02 -1.13304e-02 2.86405e-04 2.02055e-02 -1.58549e-02 1.04649e-02 5.18223e-03 2.15713e-02
4.50081e-02 2.72007e-02 -6.52693e-02 -4.58956e-02 1.85558e-02 6.77322e-02 2.21797e-02 -2.85519e-02 2.62269e-03 1.53209e-01 1.43471e-01 -3.56005e-02 4.09496e-02 1.48008e-03 -2.01848e-01 -2.12150e-02 -2.86305e-02 -5.81339e-03 -4.04163e-02 -2.14522e-02 2.01007e-01 -1.58508e-01 1.33337e-01 5.04781e-02 2.19231e-02 6.91841e-03 -1.36238e-03 -2.23180e-02 5.43004e-03 1.44737e-03 5.98024e-03 1.36815e-02 -6.23837e-03 3.39798e-03 -1.26255e-02 -1.17871e-02 1.04463e-02 -3.87960e-03 1.48789e-02 -6.85611e-03 1.28976e-02 7.04191e-03 -2.06553e-03 -1.32656e-02 1.11736e-02 -1.05833e-02 -4.02487e-03 -1.48544e-02
-8.05280e-02 -5.68371e-02 -2.69179e-02 -8.26223e-02 5.62858e-02 -2.08582e-02 -4.95369e-02 -6.25815e-02 -3.07399e-02 -1.11457e-01 -1.07449e-01 -3.72974e-02 -5.14897e-02 -5.90731e-02 4.94632e-02 -5.17506e-02 6.35645e-02 -2.38684e-02 -5.35637e-02 5.14132e-02 5.53137e-02 -1.15405e-01 1.06429e-01 -2.58065e-02 2.03027e-02 8.23485e-03 5.84115e-03 2.06954e-02 -7.92760e-03 5.10434e-03 -1.32548e-03 -7.33660e-04 5.92244e-04 -1.69819e-03 1.25749e-03 1.35198e-03 -3.51918e-03 7.43588e-04 -1.61368e-03 -1.39873e-03 6.22153e-04 6.78202e-04 -1.44823e-03 -1.32929e-03 1.22995e-03 -3.53905e-03 -9.51568e-04 -1.59084e-03
-1.87703e-02 -1.66137e-02 5.83794e-03 1.94647e-02 -1.52135e-02 -7.52382e-03 -1.02457e-01 -3.24642e-02 -4.10367e-02 -3.55133e-02 -4.68142e-02 3.26976e-04 4.60932e-03 -2.73972e-02 2.14155e-02 1.03703e-01 -3.28367e-02 3.75141e-02 -3.52955e-03 -2.51211e-02 -2.42834e-02 3.73914e-02 -4.52144e-02 -5.24116e-03 1.49836e-02 7.46113e-03 5.72322e-03 -1.53234e-02 7.41811e-03 -4.98870e-03 5.15776e-04 1.68257e-04 -1.78559e-04 8.54418e-04 -5.19737e-04 -5.52335e-04 1.73005e-03 -3.48558e-04 6.48252e-04 -5.43811e-04 1.32073e-04 2.08324e-04 -7.34220e-04 -5.49110e-04 4.94868e-04 -1.74254e-03 -4.56613e-04 -6.39042e-04
1.05075e-01 3.57379e-02 3.15357e-02 1.06410e-01 -3.49292e-02 2.77344e-02 -8.28254e-02 4.84138e-03 -2.69047e-02 1.85438e-01 1.18975e-01 5.41472e-02 1.43985e-01 -1.08925e-02 -1.01202e-01 -8.26561e-02 -5.03688e-03 -2.74313e-02 1.43269e-01 2.71042e-02 -9.91722e-02 1.89901e-01 -1.17036e-01 4.14531e-02 6.13839e-03 4.20067e-03 3.11089e-03 6.31397e-03 -4.26336e-03 2.67464e-03 0 0 0 -2.74134e-04 1.57927e-04 1.63501e-04 -5.45571e-04 1.09795e-04 -1.88263e-04 -1.01746e-04 0 0 -2.35461e-04 -1.66344e-04 1.45022e-04 -5.52797e-04 -1.45176e-04 -1.86789e-04
-1.52146e-03 -1.28600e-01 -5.02835e-02 6.49474e-03 -1.33078e-01 3.61718e-02 -2.37285e-02 5.81394e-02 2.49684e-02 1.42627e-01 -2.44738e-02 -1.76925e-02 -3.33122e-02 -1.66941e-01 -2.70699e-01 2.14596e-02 6.13169e-02 -1.85304e-02 4.02020e-02 -1.93629e-01 2.51424e-01 -1.41618e-01 -3.14215e-02 1.46280e-02 0 -6.79138e-04 -3.67698e-04 1.23508e-04 -7.10270e-04 2.93073e-04 0 0 0 0 0 0 0 0 0 0 0 0 0 0 0 0 0 0
-6.10475e-02 4.08791e-02 8.15752e-02 -5.92972e-02 -5.17212e-02 7.66172e-02 2.48144e-02 -3.50716e-02 -2.77587e-02 1.01516e-01 3.69167e-01 1.48764e-01 -1.59755e-01 2.16748e-02 -2.72819e-01 2.34300e-02 3.87826e-02 -2.37954e-02 -1.59365e-01 1.61437e-03 -2.73787e-01 1.15587e-01 -3.78922e-01 1.08536e-01 0 1.91330e-04 1.26147e-04 0 -2.03783e-04 1.04940e-04 0 0 0 0 0 0 0 0 0 0 0 0 0 0 0 0 0 0
2.40176e-02 1.30946e-01 9.84703e-03 2.89675e-02 -1.30249e-01 -4.20678e-03 -9.12370e-04 -3.36680e-02 -1.18907e-02 -1.65379e-01 -7.97842e-02 -4.48426e-02 -1.50615e-01 3.09946e-01 2.97619e-01 -2.20614e-03 3.46900e-02 -8.21157e-03 -1.38198e-01 -3.45529e-01 2.62397e-01 -1.68335e-01 7.78910e-02 -3.63661e-02 2.33255e-04 4.63017e-04 2.66185e-04 2.51130e-04 -4.79688e-04 2.15671e-04 0 0 0 0 0 0 0 0 0 0 0 0 0 0 0 0 0 0
1.03394e-01 5.81630e-03 -4.50363e-02 -1.03444e-01 -2.96058e-03 4.51896e-02 -1.18358e-02 9.04209e-03 1.54934e-02 1.87773e-01 -3.97953e-01 -7.49696e-02 2.04372e-01 3.01989e-02 2.95820e-01 1.14553e-02 1.10938e-02 -1.44109e-02 -2.05979e-01 5.39808e-02 -2.91254e-01 -1.72522e-01 -4.10466e-01 3.14787e-02 0 1.25413e-04 0 0 1.31532e-04 0 0 0 0 0 0 0 0 0 0 0 0 0 0 0 0 0 0 0
-6.01445e-02 1.66724e-02 -1.27638e-01 5.97323e-02 5.14613e-03 1.28810e-01 1.60525e-03 -2.33814e-03 8.69452e-03 -2.60315e-01 -2.00354e-01 -2.03183e-01 -2.72735e-01 1.69921e-01 2.02247e-02 -1.53349e-03 -1.45203e-03 -8.89737e-03 2.66096e-01 1.81265e-01 -1.33850e-03 2.68091e-01 -2.11034e-01 1.81054e-01 0 -1.98502e-04 -1.15189e-04 0 -2.11346e-04 0 0 0 0 0 0 0 0 0 0 0 0 0 0 0 0 0 0 0
-2.81942e-03 -6.31718e-03 -1.59865e-02 -3.08813e-03 7.88319e-03 -1.52164e-02 -2.99807e-03 -3.65121e-03 7.98945e-03 4.71259e-01 -3.31918e-01 3.76548e-02 -3.39200e-01 1.61228e-01 -1.22198e-01 -3.11811e-03 2.65912e-03 8.32935e-03 -3.33208e-01 -1.59905e-01 -1.39470e-01 4.58558e-01 3.43502e-01 7.40027e-02 0 0 0 0 0 0 0 0 0 0 0 0 0 0 0 0 0 0 0 0 0 0 0 0
-1.22991e-03 1.02552e-03 -3.79658e-02 1.26706e-03 -3.00783e-03 3.78621e-02 4.33443e-03 6.69306e-03 -3.20965e-03 -4.12077e-01 8.32199e-02 -1.16346e-01 4.68487e-01 -2.58214e-01 -1.29505e-02 -4.57644e-03 6.14193e-03 3.89883e-03 -4.58345e-01 -2.75552e-01 -1.57407e-02 4.08804e-01 8.56833e-02 1.25421e-01 0 0 0 0 0 0 0 0 0 0 0 0 0 0 0 0 0 0 0 0 0 0 0 0
4.98609e-02 -5.94102e-04 4.19479e-02 4.98932e-02 -2.03086e-03 4.18733e-02 -1.67649e-03 6.75962e-04 -6.24363e-04 -3.89295e-01 -2.70705e-01 -5.09774e-02 -1.43493e-01 1.42912e-02 -4.43976e-01 -1.65111e-03 -6.67791e-04 -6.96383e-04 -1.43751e-01 2.80033e-02 -4.43257e-01 -3.99339e-01 2.59769e-01 -2.24447e-02 0 0 0 0 0 0 0 0 0 0 0 0 0 0 0 0 0 0 0 0 0 0 0 0
1.49232e-02 -5.85412e-02 -5.37539e-02 -1.25908e-02 -6.44729e-02 4.71334e-02 -5.37751e-03 6.00324e-03 7.08395e-04 3.54538e-02 4.51804e-01 -2.39052e-02 -5.42786e-02 7.11453e-02 4.49634e-01 5.14486e-03 6.24154e-03 0 5.06006e-02 1.20913e-01 -4.39267e-01 -5.24029e-02 4.44923e-01 7.21336e-02 0 0 0 0 0 0 0 0 0 0 0 0 0 0 0 0 0 0 0 0 0 0 0 0
-6.74610e-02 9.87449e-02 1.80281e-02 -6.36564e-02 -1.02589e-01 7.20650e-03 8.92558e-03 -8.22966e-03 -2.81046e-03 1.15767e-01 -3.10061e-01 2.37140e-02 4.01639e-01 -1.73633e-01 -1.23419e-01 8.60408e-03 8.81475e-03 -1.89390e-03 3.94574e-01 2.00893e-01 -1.03339e-01 1.04039e-01 3.09932e-01 5.70688e-02 0 0 0 0 0 0 0 0 0 0 0 0 0 0 0 0 0 0 0 0 0 0 0 0
-1.45024e-01 3.09059e-02 -3.89062e-02 1.43833e-01 3.19988e-02 4.22875e-02 7.78314e-03 -4.47263e-03 3.55013e-04 3.55419e-01 -5.06562e-02 3.82793e-02 2.06415e-01 -1.54514e-01 1.28983e-01 -7.60977e-03 -4.69882e-03 -8.47925e-04 -2.00706e-01 -1.47460e-01 -1.45208e-01 -3.53323e-01 -5.96237e-02 -4.42104e-02 0 -1.14747e-04 0 0 -1.19560e-04 0 0 0 0 0 0 0 0 0 0 0 0 0 0 0 0 0 0 0
-1.06690e-02 -3.47300e-02 -3.67451e-02 -1.20393e-02 3.80335e-02 -3.28224e-02 -2.28424e-04 8.24145e-04 5.25902e-04 -8.39446e-02 -3.48461e-02 4.95056e-01 2.17832e-01 3.97481e-01 -7.46484e-02 -1.96093e-04 -8.83609e-04 4.33929e-04 2.32432e-01 -3.78591e-01 -1.16366e-01 -8.41732e-02 -2.16210e-02 4.95651e-01 0 0 0 0 0 0 0 0 0 0 0 0 0 0 0 0 0 0 0 0 0 0 0 0
1.76280e-02 3.48873e-02 3.65469e-02 -1.90068e-02 3.79257e-02 -3.26395e-02 2.28380e-04 -7.48362e-04 -4.15126e-04 7.99522e-02 3.10633e-02 -4.54113e-01 -2.45904e-01 -4.26632e-01 7.58082e-02 -1.99227e-04 -7.96869e-04 3.32112e-04 2.61707e-01 -4.06571e-01 -1.20649e-01 -8.01663e-02 -2.08495e-02 4.54791e-01 0 0 0 0 0 0 0 0 0 0 0 0 0 0 0 0 0 0 0 0 0 0 0 0
-2.71010e-02 -4.20916e-02 4.48128e-02 -2.85757e-02 3.59919e-02 4.90110e-02 2.32925e-04 3.20644e-04 0 7.95588e-02 4.69028e-02 -4.40094e-01 2.35958e-01 4.18610e-01 -9.57700e-02 2.44913e-04 -3.12810e-04 0 2.51359e-01 -3.96730e-01 -1.39622e-01 8.03733e-02 3.58900e-03 -4.42409e-01 0 0 0 0 0 0 0 0 0 0 0 0 0 0 0 0 0 0 0 0 0 0 0 0
-2.80496e-02 -3.66670e-02 5.07954e-02 2.93089e-02 -2.99271e-02 -5.43788e-02 0 0 -3.02753e-04 9.83332e-02 4.86010e-02 -4.72701e-01 2.19292e-01 3.85123e-01 -8.96277e-02 0 0 3.07724e-04 -2.33470e-01 3.64768e-01 1.29966e-01 -9.91377e-02 -6.10580e-03 4.75000e-01 0 0 0 0 0 0 0 0 0 0 0 0 0 0 0 0 0 0 0 0 0 0 0 0
11
12
13
14
15
16
