6
12.0107 12.0107 12.0107 12.0107 32.0650 32.0650
6.28318 6.28318
0.0 0.0
1.88365e-06 1.88365e-06 0.000254894 0.000484825 0.00254417 20.8262 20.8262 62.6843 62.6843 63.9505 129.6 134.597 134.597 185.918 185.918 202.443 331.451 376.442
6.77377e-02 -7.12951e-02 -1.08131e-02 6.67810e-02 -6.79768e-02 -1.01829e-02 6.56600e-02 -6.40885e-02 -9.44456e-03 6.47033e-02 -6.07702e-02 -8.81441e-03 6.91374e-02 -7.61501e-02 -1.17350e-02 6.33036e-02 -5.59152e-02 -7.89245e-03
1.92168e-02 -4.23255e-02 -6.33055e-03 8.63515e-03 -7.81585e-03 5.76982e-03 -3.76397e-03 3.26212e-02 1.99486e-02 -1.43456e-02 6.71308e-02 3.20489e-02 3.46985e-02 -9.28159e-02 -2.40344e-02 -2.98274e-02 1.17621e-01 4.97528e-02
7.04193e-03 2.53547e-04 9.84794e-02 8.48696e-03 -3.63904e-03 9.49086e-02 1.01802e-02 -8.20021e-03 9.07245e-02 1.16252e-02 -1.20928e-02 8.71537e-02 4.92772e-03 5.94871e-03 1.03704e-01 1.37394e-02 -1.77880e-02 8.19294e-02
1.12149e-03 1.83879e-02 -5.28179e-02 4.71805e-04 5.25605e-03 -1.64012e-02 -2.89467e-04 -1.01313e-02 2.62705e-02 -9.39150e-04 -2.32631e-02 6.26873e-02 2.07203e-03 3.76008e-02 -1.06099e-01 -1.88969e-03 -4.24761e-02 1.15968e-01
-6.48056e-02 -7.23675e-02 2.74567e-03 -6.59420e-02 -6.83700e-02 3.36410e-03 -6.72737e-02 -6.36859e-02 4.08875e-03 -6.84101e-02 -5.96884e-02 4.70718e-03 -6.31428e-02 -7.82162e-02 1.84086e-03 -7.00729e-02 -5.38398e-02 5.61199e-03
2.09886e-02 -6.88925e-02 -2.29656e-02 3.81782e-02 -1.25315e-01 -4.17743e-02 3.81782e-02 -1.25315e-01 -4.17743e-02 2.09886e-02 -6.88925e-02 -2.29656e-02 -2.21623e-02 7.27451e-02 2.42498e-02 -2.21623e-02 7.27451e-02 2.42498e-02
-1.66112e-03 -2.43548e-02 7.15417e-02 -3.02157e-03 -4.43012e-02 1.30134e-01 -3.02157e-03 -4.43012e-02 1.30134e-01 -1.66112e-03 -2.43548e-02 7.15417e-02 1.75401e-03 2.57167e-02 -7.55423e-02 1.75401e-03 2.57167e-02 -7.55423e-02
4.43953e-02 -1.54643e-01 -2.77076e-02 2.83278e-02 -9.86751e-02 -1.76797e-02 -2.83278e-02 9.86751e-02 1.76797e-02 -4.43953e-02 1.54643e-01 2.77076e-02 -1.06885e-02 3.72315e-02 6.67080e-03 1.06885e-02 -3.72315e-02 -6.67080e-03
-9.83512e-03 -3.14718e-02 1.59894e-01 -6.27560e-03 -2.00816e-02 1.02025e-01 6.27560e-03 2.00816e-02 -1.02025e-01 9.83512e-03 3.14718e-02 -1.59894e-01 2.36787e-03 7.57706e-03 -3.84956e-02 -2.36787e-03 -7.57706e-03 3.84956e-02
5.67963e-02 1.51451e-02 6.47455e-03 2.62997e-02 7.01300e-03 2.99807e-03 -2.62997e-02 -7.01300e-03 -2.99807e-03 -5.67963e-02 -1.51451e-02 -6.47455e-03 1.13650e-01 3.03054e-02 1.29556e-02 -1.13650e-01 -3.03054e-02 -1.29556e-02
-8.17063e-02 -2.17875e-02 -9.31420e-03 -1.25233e-01 -3.33943e-02 -1.42761e-02 -1.25233e-01 -3.33943e-02 -1.42761e-02 -8.17063e-02 -2.17875e-02 -9.31420e-03 7.75141e-02 2.06697e-02 8.83631e-03 7.75141e-02 2.06697e-02 8.83631e-03
-4.30853e-02 1.58395e-01 7.44114e-03 3.08113e-02 -1.13272e-01 -5.32134e-03 3.08113e-02 -1.13272e-01 -5.32134e-03 -4.30853e-02 1.58395e-01 7.44114e-03 4.59750e-03 -1.69018e-02 -7.94022e-04 4.59750e-03 -1.69018e-02 -7.94022e-04
1.54362e-02 1.18639e-02 -1.63161e-01 -1.10388e-02 -8.48415e-03 1.16680e-01 -1.10388e-02 -8.48415e-03 1.16680e-01 1.54362e-02 1.18639e-02 -1.63161e-01 -1.64715e-03 -1.26596e-03 1.74105e-02 -1.64715e-03 -1.26596e-03 1.74105e-02
2.74426e-02 -1.02162e-01 -1.75786e-03 -4.51223e-02 1.67979e-01 2.89034e-03 4.51223e-02 -1.67979e-01 -2.89034e-03 -2.74426e-02 1.02162e-01 1.75786e-03 -2.09888e-03 7.81360e-03 1.34445e-04 2.09888e-03 -7.81360e-03 -1.34445e-04
-1.07351e-02 -4.69286e-03 1.05148e-01 1.76510e-02 7.71619e-03 -1.72888e-01 -1.76510e-02 -7.71619e-03 1.72888e-01 1.07351e-02 4.69286e-03 -1.05148e-01 8.21042e-04 3.58921e-04 -8.04194e-03 -8.21042e-04 -3.58921e-04 8.04194e-03
-1.51234e-01 -4.03274e-02 -1.72400e-02 -1.08324e-01 -2.88854e-02 -1.23486e-02 1.08324e-01 2.88854e-02 1.23486e-02 1.51234e-01 4.03274e-02 1.72400e-02 3.76994e-02 1.00528e-02 4.29758e-03 -3.76994e-02 -1.00528e-02 -4.29758e-03
1.53300e-01 4.08785e-02 1.74756e-02 -1.20389e-01 -3.21024e-02 -1.37238e-02 -1.20389e-01 -3.21024e-02 -1.37238e-02 1.53300e-01 4.08785e-02 1.74756e-02 -1.23278e-02 -3.28728e-03 -1.40532e-03 -1.23278e-02 -3.28728e-03 -1.40532e-03
-1.10917e-01 -2.95768e-02 -1.26441e-02 1.61165e-01 4.29758e-02 1.83722e-02 -1.61165e-01 -4.29758e-02 -1.83722e-02 1.10917e-01 2.95768e-02 1.26441e-02 6.79307e-03 1.81142e-03 7.74383e-04 -6.79307e-03 -1.81142e-03 -7.74383e-04
5
6
