14
75.4
6.28318 6.28318
0.0 0.0
1.88365e-06 2.49151 4.00404 4.99861 5.7952 8.05509 9.81418 11.0782 12.0333 12.5288 14.4361 15.9556 19.8111 20.7563 23.2595 28.0104 28.9417 30.31 34.4071 34.9185 38.8565 51.5747 61.2785 67.0048 81.6434 86.4618 100.245 107.098 113.056 162.765 169.996 200.46 204.161 207.352 215.199 217.13 224.218 227.703 230.342 233.966 235.383 235.78
5.30593e-02 -6.18031e-02 -7.10910e-02 4.78134e-02 -1.07812e-01 -4.85982e-02 3.39486e-02 -4.73245e-02 -4.31769e-02 3.15405e-02 -9.47569e-02 -2.50448e-02 2.13557e-02 -3.57067e-02 -2.53994e-02 2.10354e-02 -8.44658e-02 -1.03925e-02 1.31997e-02 -2.66761e-02 -1.43324e-02 1.42021e-02 -7.65466e-02 -1.22495e-03 7.80065e-03 -1.97936e-02 -7.27466e-03 9.57838e-03 -7.05754e-02 4.79634e-03 4.01291e-03 -1.46687e-02 -2.41124e-03 6.16555e-03 -6.61806e-02 9.24450e-03 0 0 0 0 0 0
2.31750e-02 -3.70101e-02 -7.20419e-02 2.18972e-02 -4.83255e-02 -6.05353e-02 1.83166e-02 1.56563e-02 -5.85684e-02 1.82491e-02 1.24705e-02 -5.09479e-02 1.37924e-02 6.37286e-02 -5.27724e-02 1.39310e-02 5.88933e-02 -4.62495e-02 8.43217e-03 9.08232e-02 -4.78730e-02 8.91654e-03 7.74041e-02 -4.00032e-02 3.05748e-03 8.82953e-02 -3.92141e-02 4.16036e-03 6.42664e-02 -2.90941e-02 -1.39992e-03 5.73027e-02 -2.55243e-02 2.16283e-04 2.59176e-02 -1.39007e-02 -5.60085e-03 4.67309e-03 -7.52168e-03 8.00561e-03 3.83085e-03 -2.20148e-03
5.39568e-03 -2.69181e-02 -3.96505e-02 4.21507e-03 -3.06078e-02 -4.72369e-03 -2.13848e-02 3.70576e-02 4.86246e-03 -2.32660e-02 3.95838e-03 3.40091e-02 -4.18433e-02 7.62901e-02 3.58358e-02 -4.23509e-02 1.23210e-02 5.73819e-02 -5.04728e-02 8.36740e-02 5.19103e-02 -4.89748e-02 -7.84553e-03 6.50823e-02 -4.58724e-02 6.23006e-02 5.31839e-02 -4.28129e-02 -4.78924e-02 5.82466e-02 -3.06860e-02 2.50686e-02 4.08427e-02 -2.70175e-02 -9.27772e-02 3.97960e-02 -7.12422e-03 1.51459e-03 1.45171e-02 -1.11559e-02 3.22377e-03 5.35071e-03
3.04832e-02 -3.59561e-02 8.53067e-03 2.68745e-02 -6.63413e-02 2.52922e-02 1.24603e-02 -6.62778e-02 3.02730e-02 1.21163e-02 -6.89949e-02 4.32500e-02 2.95908e-03 -5.67248e-02 4.56665e-02 3.17377e-03 -2.26086e-02 4.92122e-02 -8.47219e-04 -9.63055e-03 4.90066e-02 -2.00060e-03 4.95090e-02 4.18244e-02 -1.72723e-04 4.10322e-02 4.20915e-02 -2.55145e-03 1.04075e-01 2.75094e-02 4.90719e-03 5.83903e-02 3.18158e-02 2.19960e-03 1.12962e-01 1.46030e-02 1.43070e-02 1.90200e-02 2.57233e-02 -6.83657e-03 -1.57322e-02 8.38289e-03
4.61509e-02 2.47346e-02 3.97926e-02 4.54687e-02 1.44617e-02 3.72212e-02 5.15817e-02 2.71494e-02 3.53672e-02 5.14289e-02 1.95558e-02 2.94563e-02 5.87681e-02 4.48026e-02 2.50038e-02 5.84994e-02 2.21057e-02 2.03123e-02 6.36009e-02 4.71172e-02 1.51837e-02 6.40353e-02 3.61144e-03 1.63220e-02 6.47696e-02 2.95991e-02 1.17710e-02 6.62347e-02 -2.83090e-02 2.04428e-02 6.11453e-02 6.49920e-03 1.61324e-02 6.32135e-02 -5.47989e-02 3.13870e-02 5.02079e-02 1.71549e-03 2.59338e-02 3.31385e-02 1.70587e-02 9.85558e-03
4.73963e-02 1.24793e-02 -6.79183e-02 4.84445e-02 2.24409e-02 -5.07602e-02 3.29307e-02 3.34650e-02 -4.51960e-02 3.43556e-02 6.14422e-02 -2.70182e-02 1.28759e-02 1.26118e-02 -1.55721e-02 1.33796e-02 4.16474e-02 3.97806e-03 -5.93273e-03 -4.69827e-02 2.21747e-02 -6.36049e-03 4.30758e-03 3.42643e-02 -1.72694e-02 -8.43465e-02 5.20285e-02 -1.99708e-02 1.21641e-02 4.67353e-02 -2.07465e-02 -5.77051e-02 5.87327e-02 -2.57121e-02 7.29788e-02 3.66537e-02 -1.85670e-02 -2.29350e-03 4.66467e-02 4.76474e-02 2.86063e-02 -3.16683e-02
-1.51217e-02 -8.44474e-02 1.72362e-02 -1.37712e-02 -7.26870e-02 1.46953e-02 -6.99801e-03 -4.95435e-02 1.27558e-02 -3.10868e-03 2.55791e-02 4.20476e-03 9.03205e-04 1.56302e-02 3.53065e-03 1.75900e-03 9.63135e-02 -8.29226e-03 4.77556e-03 1.25150e-02 6.71076e-04 4.03038e-03 6.17838e-02 -7.62205e-03 8.19934e-03 -6.26657e-02 9.56241e-03 6.68747e-03 -1.30902e-02 2.03048e-03 9.54569e-03 -1.03264e-01 1.61364e-02 6.30957e-03 -1.78303e-02 3.65121e-03 6.10394e-03 -5.54535e-02 1.04205e-02 -3.83733e-03 -7.98838e-02 3.79803e-02
-1.93113e-02 3.57525e-02 5.22143e-02 -1.81846e-02 3.82190e-02 1.02365e-02 8.65561e-03 -5.57893e-02 -3.69292e-04 1.02393e-02 -2.88020e-02 -2.82844e-02 2.32599e-02 -6.67679e-02 -3.06471e-02 2.37827e-02 -4.89706e-03 -3.88465e-02 1.38424e-02 8.70661e-03 -3.65694e-02 1.35984e-02 4.31906e-02 -2.02216e-02 -1.25174e-02 5.64674e-02 -1.15868e-02 -1.01276e-02 1.04313e-02 2.62430e-02 -3.81217e-02 1.79505e-02 3.65659e-02 -3.30769e-02 -7.81902e-02 7.91813e-02 -6.12924e-02 -2.93821e-02 8.19482e-02 0 -8.93543e-03 -2.07205e-02
2.53395e-02 4.30611e-02 -3.52338e-02 2.17479e-02 1.41452e-02 -1.35096e-02 -2.28300e-03 -3.03548e-02 -5.59226e-03 -2.79310e-03 -3.32959e-02 1.39458e-02 -1.64829e-02 -4.52335e-02 1.98435e-02 -1.60879e-02 6.71894e-03 2.24114e-02 -1.62516e-02 5.61743e-03 2.25183e-02 -1.73831e-02 6.36185e-02 6.98631e-03 -2.98970e-03 1.84985e-02 7.87256e-03 -4.07958e-03 3.42513e-02 -1.41260e-02 1.87941e-02 -4.23421e-02 -1.06861e-02 1.78594e-02 -4.46748e-02 -3.28365e-02 4.39090e-02 -1.03221e-01 -3.31462e-02 -1.32782e-02 4.64473e-02 -7.14560e-02
1.33430e-03 -2.71616e-02 -5.34044e-03 8.77664e-03 4.36264e-02 -6.30860e-03 1.33385e-03 -2.14075e-02 -4.38370e-03 3.49132e-03 2.38954e-02 -8.85035e-04 -4.22703e-03 -2.05461e-02 5.07222e-03 -4.07141e-03 -2.71780e-03 9.04625e-03 -6.83341e-03 -4.73228e-03 1.03536e-02 -6.76171e-03 -1.05784e-02 1.03835e-02 -3.48295e-03 2.41721e-02 3.76412e-03 -2.57350e-03 -1.21270e-02 1.28420e-03 4.88168e-03 3.62402e-02 -1.00326e-02 6.84380e-03 -2.75457e-02 -1.10777e-02 1.68591e-02 3.26937e-02 -2.59720e-02 6.83586e-02 -1.06627e-01 -9.80947e-02
3.71275e-04 2.90379e-02 7.97534e-03 -6.12210e-03 -3.66080e-02 1.08405e-02 -5.34815e-03 -6.36859e-02 1.06905e-02 -2.79094e-03 -2.28899e-02 5.54802e-03 3.37301e-03 2.77317e-03 1.87274e-03 4.53472e-03 7.78243e-02 -9.81701e-03 7.88922e-03 4.13977e-02 -6.39601e-03 8.22836e-03 4.26831e-02 -7.45780e-03 1.00531e-02 -3.96937e-02 4.54924e-03 1.07186e-02 -5.10468e-02 9.19141e-03 7.34166e-03 -5.14362e-02 1.08310e-02 5.63730e-03 6.39216e-04 7.74798e-03 -4.00961e-03 9.41428e-02 -4.85351e-03 -7.21547e-02 2.90866e-02 -7.42436e-02
-1.03526e-02 -1.39066e-02 -1.10019e-03 -1.25760e-02 -3.74250e-02 2.14531e-02 -1.34052e-02 6.23746e-02 2.36565e-02 -1.61356e-02 -1.22718e-02 2.51219e-02 1.78375e-03 9.66674e-02 1.15183e-02 1.32337e-03 -4.71371e-02 4.76860e-03 2.27768e-02 2.17079e-02 -1.14659e-02 2.48316e-02 -7.60973e-02 -1.38675e-02 2.81457e-02 -1.39756e-02 -2.41948e-02 2.80641e-02 8.16948e-03 -1.75114e-02 7.94656e-03 8.86313e-03 -8.87148e-03 6.65610e-03 7.65803e-02 1.22753e-02 -2.74356e-02 -5.53421e-02 5.03103e-02 -5.04371e-02 -2.75946e-02 -7.48730e-02
-1.60924e-02 -1.12741e-02 8.72491e-03 -1.80654e-02 -5.11669e-02 -6.97366e-03 7.80668e-03 -2.75844e-02 -1.45449e-02 1.71137e-02 1.16333e-01 -3.44722e-02 1.72212e-02 -6.89477e-03 -2.41887e-02 1.94761e-02 5.53231e-02 -1.70199e-02 5.06504e-03 -1.04868e-01 9.87991e-03 5.81605e-03 -5.06513e-02 2.60892e-02 -6.77200e-03 0 2.52717e-02 -6.42258e-03 2.92180e-02 2.61010e-02 1.00002e-03 1.18191e-01 9.00372e-03 7.51455e-03 -4.86864e-02 1.45362e-02 3.93202e-02 -1.65301e-02 -4.08715e-03 -6.37239e-02 3.47755e-03 -1.21578e-02
2.48878e-02 -3.46759e-02 -7.00136e-02 2.39537e-02 -2.59404e-02 3.22924e-03 -2.52473e-02 5.52021e-02 2.21429e-02 -2.61610e-02 4.87772e-02 5.53820e-02 -3.04105e-02 -3.01525e-02 6.21806e-02 -2.98155e-02 1.23437e-03 3.25032e-02 1.16522e-02 -8.93129e-02 2.59194e-02 9.00028e-03 5.99232e-02 -4.04763e-02 3.91514e-02 -3.39297e-03 -4.42129e-02 3.72772e-02 4.90432e-02 -5.90075e-02 1.73145e-02 -5.51637e-03 -4.17829e-02 2.15065e-02 -8.52048e-02 1.84045e-02 -5.14953e-02 3.16173e-02 2.82927e-02 1.42971e-03 9.48168e-03 -3.82362e-03
-3.51690e-02 -1.33224e-02 1.28810e-02 -3.24495e-02 -1.27839e-02 -6.90263e-03 6.42785e-03 1.19281e-01 -1.74925e-02 3.29692e-03 -8.57955e-03 -3.34089e-02 1.95905e-02 2.36562e-03 -3.75112e-02 2.12542e-02 -1.03377e-01 -1.69898e-02 5.78327e-03 -3.40360e-02 -1.55099e-02 6.75779e-03 7.38943e-02 5.48266e-03 -1.36748e-02 2.67013e-02 2.45970e-02 -1.22528e-02 6.33070e-02 3.59584e-02 4.38467e-03 -8.82470e-02 5.71523e-02 3.20531e-03 -3.42714e-02 2.13286e-02 5.06659e-02 3.05637e-02 -9.00573e-03 -3.66413e-02 -2.49971e-02 -9.15602e-03
-3.01211e-02 -2.13445e-02 -5.71393e-02 -2.48201e-02 1.15990e-02 -3.22748e-02 -3.59909e-02 -1.07214e-02 -2.47515e-02 -2.60363e-02 9.77801e-02 -1.20263e-02 -2.84417e-02 -1.08334e-01 9.06217e-03 -2.10828e-02 -3.61931e-02 9.08766e-03 -7.24968e-04 3.98266e-02 -1.12499e-03 7.09107e-03 4.14498e-03 -1.96001e-03 2.63292e-02 8.25505e-02 -1.47888e-02 3.84122e-02 -1.05053e-01 1.78390e-02 3.77263e-02 -2.63611e-02 1.05156e-02 3.79642e-02 7.84019e-02 1.43098e-02 2.78212e-02 -4.90597e-03 3.73948e-02 -1.70810e-02 1.47231e-03 8.00466e-03
-3.96126e-02 -7.81512e-03 -4.96818e-02 -3.38464e-02 4.13679e-02 -2.73358e-02 -4.48166e-02 6.35769e-02 -1.98894e-02 -4.97068e-02 -1.21152e-01 -2.48247e-04 -2.73355e-02 -2.56747e-02 -9.20121e-03 -1.93443e-02 6.34962e-02 -2.27921e-02 2.14145e-03 -2.55467e-03 -1.52867e-02 9.68881e-03 3.02411e-02 -1.07098e-02 1.97483e-02 -9.49256e-02 1.27917e-02 2.49201e-02 -2.09524e-02 2.29487e-02 2.25055e-02 1.00039e-01 1.07024e-02 3.17381e-02 -7.77011e-03 3.57584e-02 4.84804e-02 -2.71786e-03 3.26707e-02 7.31375e-03 -6.87991e-03 6.49251e-03
-3.30055e-02 1.09306e-02 -3.06366e-02 -2.88128e-02 4.47371e-02 -3.70456e-02 -4.18431e-02 -1.19158e-01 -3.16510e-02 -3.25699e-02 -7.89799e-04 -1.62088e-02 -3.57031e-02 7.44762e-02 -1.41079e-02 -2.99431e-02 -1.85065e-02 7.45383e-03 -9.66736e-03 9.09541e-03 3.87248e-03 -2.02441e-04 -8.10712e-02 9.99278e-03 2.41272e-02 6.08976e-03 -5.16992e-03 2.79148e-02 1.16777e-01 -1.77014e-02 3.80065e-02 -6.30446e-02 1.55234e-02 4.21486e-02 -3.63021e-02 3.29815e-02 2.93034e-02 2.28121e-02 3.27438e-02 1.25616e-02 7.06249e-03 1.07774e-02
2.96431e-03 -5.76542e-03 -1.12401e-02 2.60197e-03 2.60755e-04 9.57219e-03 -5.74629e-03 6.08819e-02 1.31237e-02 -1.27776e-02 -7.45711e-02 1.51413e-02 4.06094e-03 -3.30953e-02 5.03507e-03 5.51319e-03 1.36946e-01 -2.75622e-02 7.72659e-03 -7.31046e-02 -3.92820e-03 7.72284e-03 -1.01297e-01 7.55246e-03 -9.70498e-03 1.32006e-01 -2.06989e-02 -6.15459e-03 9.38786e-03 6.16400e-03 -4.90463e-03 -7.49322e-02 1.99582e-02 -8.68316e-03 1.90461e-02 -1.15598e-03 4.97604e-03 3.66588e-03 -4.29011e-03 3.77082e-03 -1.53375e-03 -1.72933e-03
-3.54713e-03 1.16857e-02 9.38382e-04 -4.40634e-03 1.39476e-02 -5.05108e-03 -1.35727e-02 -6.32771e-02 -2.99271e-03 -1.25131e-02 -3.45956e-02 2.04834e-03 -9.14340e-03 1.33452e-01 -1.01889e-02 -9.67413e-03 -2.37460e-02 -2.84544e-04 1.54070e-03 -1.42563e-01 1.06991e-02 -8.14362e-04 9.39099e-02 -2.02465e-02 -1.80773e-03 6.60506e-02 -1.37220e-02 5.15656e-03 -9.92484e-02 1.88662e-02 1.09642e-03 1.01385e-02 3.89335e-03 1.39416e-03 3.67728e-02 9.23806e-04 1.00556e-02 -5.78655e-03 6.25353e-03 1.31372e-02 4.52067e-03 1.32018e-03
-3.02903e-02 2.16694e-02 6.01705e-02 -2.58245e-02 1.77709e-03 -4.48699e-02 4.82698e-02 3.41329e-02 -6.92926e-02 4.78999e-02 -4.07617e-02 -6.17518e-02 -4.16044e-03 -5.42161e-03 -3.73377e-02 -2.61191e-03 2.50974e-02 5.47835e-02 -4.63445e-02 -1.32066e-02 8.26981e-02 -4.34280e-02 1.31717e-02 6.82382e-02 2.90559e-02 1.62974e-02 3.75754e-02 3.15242e-02 -1.37445e-02 -4.46636e-02 6.63946e-02 -6.14632e-03 -6.29556e-02 6.55103e-02 -5.54223e-04 -2.79471e-02 -4.79681e-02 7.56616e-04 1.86484e-02 -1.82984e-02 -1.65008e-02 3.45068e-03
5.26885e-02 3.77506e-02 1.02230e-01 2.73502e-02 -8.52590e-02 9.87389e-03 2.97190e-02 2.70202e-02 -7.60948e-03 7.24446e-03 1.39670e-02 -1.70741e-02 -6.00905e-02 -7.44771e-03 -7.91736e-03 -7.49298e-02 5.14304e-03 -9.92355e-03 -6.97804e-02 -1.86532e-03 -1.94450e-02 -6.72229e-02 -1.09986e-02 -5.74509e-02 -2.61051e-02 -9.97777e-03 -6.53567e-02 -1.00515e-02 -7.31071e-03 -3.39317e-02 -9.29093e-03 -3.36098e-03 -1.14420e-02 1.00097e-02 7.02498e-03 4.21938e-02 6.00200e-02 9.60555e-03 4.48471e-02 2.83830e-02 6.78585e-03 -9.63930e-03
-2.85785e-02 1.22660e-02 2.84642e-02 -1.18710e-02 2.53592e-02 -7.35656e-02 4.32086e-02 0 -8.20835e-02 5.09767e-02 -1.17113e-02 1.11053e-02 -2.69131e-02 3.03633e-04 5.63779e-02 -2.22558e-02 1.56097e-02 9.00800e-02 5.15506e-02 7.36925e-03 5.74658e-02 4.79786e-02 -7.76475e-03 -5.55801e-02 4.40702e-02 -5.48830e-03 -6.72289e-02 2.87513e-02 5.33318e-04 -1.13351e-04 -8.00726e-02 2.12757e-03 3.76512e-02 -8.87945e-02 2.13743e-03 2.88421e-02 1.90780e-02 -2.82952e-03 -2.19568e-02 -2.27480e-02 -1.57705e-02 7.63532e-03
-9.02144e-03 6.01470e-02 6.57380e-02 -5.06444e-02 -1.24438e-01 -3.64414e-02 -6.18036e-02 1.35122e-02 -3.59929e-02 -6.39968e-02 1.21215e-02 -4.73251e-03 -4.22823e-02 -8.55533e-03 2.20307e-03 -2.15798e-02 -2.58761e-03 -5.68865e-03 4.65761e-02 -6.30172e-04 -1.20078e-02 6.25878e-02 1.77788e-03 1.93359e-02 3.84013e-02 6.20731e-03 3.75450e-02 3.27606e-02 1.03339e-02 5.53461e-02 2.09763e-02 7.90258e-03 4.31638e-02 1.27345e-03 -3.12907e-03 -2.16024e-02 -3.79977e-02 -7.02550e-03 -3.41891e-02 5.91612e-02 1.94006e-02 -1.41859e-02
-5.51713e-02 1.92622e-02 -3.56614e-02 -7.61497e-02 -6.70059e-02 2.38386e-02 -4.69115e-02 3.77588e-04 3.03424e-02 -2.09614e-02 8.28546e-04 -1.87131e-02 7.51621e-02 -5.38207e-03 -3.31040e-02 8.44411e-02 1.67244e-03 3.76877e-02 -1.25257e-03 8.25890e-03 6.94791e-02 -1.99630e-02 5.98843e-03 3.03470e-02 1.56608e-02 -3.22354e-04 -1.28369e-02 -2.74774e-03 -1.30575e-02 -8.33652e-02 -7.07519e-02 -1.16555e-02 -5.66421e-02 -6.12187e-02 2.39884e-03 2.97621e-02 3.69005e-02 4.69872e-03 2.01164e-02 4.35729e-02 2.15360e-02 -1.16756e-02
3.95913e-02 -2.91624e-02 -1.71060e-02 3.32941e-02 2.23568e-02 7.86829e-02 3.19208e-04 2.95342e-03 6.10584e-02 -2.11024e-02 -3.74215e-03 -8.71858e-02 -3.93751e-02 -5.46404e-03 -9.75376e-02 -3.79440e-02 -4.17789e-04 7.24782e-03 -4.75018e-02 1.32432e-03 3.64379e-02 -1.74032e-02 1.54210e-03 1.50987e-02 1.03705e-01 1.07895e-03 -1.59268e-02 1.04605e-01 5.46404e-03 1.73681e-02 -2.51734e-02 7.83723e-03 5.53961e-02 -5.43255e-02 1.87449e-03 2.12220e-02 -1.12395e-02 -5.74271e-03 -3.26256e-02 -6.02596e-03 3.22361e-03 -7.34573e-04
-7.92106e-02 4.17282e-03 -5.68644e-02 -7.39220e-02 -3.47311e-02 4.44278e-02 4.56735e-02 -3.94065e-03 3.39078e-02 6.77892e-02 -4.36447e-03 -8.46268e-03 2.93826e-02 3.52234e-04 4.24190e-03 5.17226e-03 6.24397e-03 4.22758e-02 -3.45689e-02 3.57661e-03 2.75201e-02 -4.73427e-02 -1.29198e-02 -8.80988e-02 -3.38569e-02 -1.26857e-02 -7.87370e-02 -1.60387e-03 1.09751e-02 7.58865e-02 5.80798e-02 1.37200e-02 7.45620e-02 5.64962e-02 0 -1.48675e-02 -2.39116e-02 -3.58244e-03 -1.63316e-02 2.74229e-02 1.67633e-02 -8.43062e-03
2.18875e-02 -1.75084e-02 -6.47738e-03 1.06021e-02 7.14560e-03 5.32955e-02 -4.00329e-03 3.05033e-03 2.85857e-02 -2.03123e-02 -5.76791e-03 -9.45483e-02 -6.41841e-02 -6.18684e-03 -6.74030e-02 -3.24279e-02 8.65050e-03 8.36100e-02 1.03809e-01 7.85597e-03 5.41486e-02 9.32338e-02 -2.91490e-03 -3.45165e-02 -6.95839e-02 -1.82570e-03 -1.47973e-03 -9.11206e-02 -2.08901e-03 2.65119e-03 7.30076e-03 -4.95943e-03 -3.28523e-02 3.13567e-02 -2.83107e-03 -2.35525e-02 5.56433e-03 3.29427e-03 1.89383e-02 3.89923e-04 4.40491e-03 -1.86691e-03
7.58332e-02 2.14820e-03 5.11540e-02 5.72378e-02 2.13449e-02 -5.27107e-02 -9.78283e-02 5.16029e-03 -2.68209e-02 -9.30324e-02 3.82495e-03 2.34234e-04 7.19097e-02 -4.21671e-03 -2.88919e-02 9.04778e-02 3.19646e-03 4.18971e-02 -1.67991e-02 8.55540e-03 6.77358e-02 -4.60304e-02 -7.14286e-03 -5.22489e-02 -2.56823e-02 -1.06815e-02 -6.90240e-02 -6.50624e-03 4.45456e-03 3.32720e-02 2.60471e-02 7.25446e-03 4.08012e-02 2.93348e-02 4.62785e-04 -4.51962e-03 -9.55599e-03 -1.52584e-03 -7.10607e-03 -1.91794e-02 -1.36735e-02 6.71752e-03
6.93064e-03 2.02799e-01 -9.40826e-02 4.46139e-02 -3.98260e-02 -7.87473e-03 7.85250e-03 -5.83535e-04 3.94184e-02 5.85220e-04 2.12523e-03 1.35339e-04 -3.47246e-03 -1.44054e-03 -1.79621e-02 -7.00776e-03 0 1.00351e-03 5.23999e-04 5.31882e-04 4.82367e-03 4.90235e-03 0 -1.06049e-03 8.79207e-04 0 -2.22565e-04 -1.89812e-03 1.81589e-04 1.52266e-03 -9.87105e-04 -1.45822e-04 -7.12018e-04 -2.63688e-04 -6.31033e-04 -3.83358e-03 4.02168e-04 2.44020e-04 1.40800e-03 -2.35475e-02 -7.18801e-02 3.32468e-02
6.62926e-04 3.81797e-03 -2.41500e-03 6.19087e-04 -7.00626e-04 2.97484e-03 1.54714e-03 0 -2.49598e-04 -1.05906e-03 -3.40997e-04 -5.60841e-03 -8.77021e-03 1.69681e-04 2.12743e-03 2.22409e-03 4.67017e-04 4.66021e-03 2.49007e-02 -1.79549e-04 -4.96696e-03 -1.24470e-03 1.76277e-03 1.19287e-02 -4.78941e-02 -3.92898e-04 6.79704e-03 -8.23871e-03 -1.06197e-02 -6.64491e-02 4.13988e-02 1.93870e-03 3.66429e-03 4.33408e-02 3.59417e-02 2.12250e-01 -2.04442e-02 -1.26320e-02 -7.29914e-02 -4.17646e-04 -1.35953e-03 6.29818e-04
7.87829e-02 1.70255e-02 -1.77057e-02 -5.29132e-02 6.87199e-03 6.67309e-02 -6.77735e-02 3.01167e-03 -5.29921e-02 3.59327e-02 -9.23407e-03 -8.89885e-02 3.21647e-02 5.69431e-03 8.20145e-02 5.24418e-03 9.90537e-03 8.02449e-02 5.34020e-03 -1.00815e-02 -8.84215e-02 -4.12681e-02 -7.78549e-03 -4.81332e-02 -2.86706e-02 8.48714e-03 6.72070e-02 5.72651e-02 3.83862e-03 1.22604e-02 3.28951e-02 -3.70470e-03 -3.21983e-02 -5.25196e-02 -1.84087e-03 1.28912e-03 3.37656e-03 6.64068e-04 3.28690e-03 -5.34161e-03 -1.03968e-02 4.91249e-03
-3.15927e-03 -1.08982e-02 1.68337e-02 3.02875e-03 1.71287e-03 -7.02840e-02 -5.07556e-02 3.47260e-03 6.16377e-02 4.89280e-02 7.08306e-04 3.57661e-02 9.55735e-02 -5.86690e-03 -6.06523e-02 -9.21086e-02 5.24360e-03 3.98585e-02 -8.46820e-02 -1.61116e-03 -3.32638e-03 7.81442e-02 -9.72840e-03 -7.81131e-02 3.19679e-02 1.03606e-02 6.65343e-02 -2.42945e-02 5.53912e-03 3.99333e-02 6.44288e-03 -9.66500e-03 -6.38273e-02 -1.09127e-02 5.19522e-03 3.51941e-02 3.81713e-04 -1.10982e-03 -6.93884e-03 4.19783e-04 3.53840e-03 -1.63756e-03
-8.21234e-02 -1.13731e-02 1.43442e-02 6.67244e-02 -8.81512e-03 -4.95865e-02 5.91884e-02 -2.18095e-03 4.76585e-02 -5.38137e-02 4.73533e-03 2.34513e-02 -3.40855e-02 -2.89397e-03 -3.89838e-02 3.42316e-02 2.99813e-03 2.98482e-02 4.57968e-02 -5.11031e-04 -1.15026e-02 -5.17911e-02 -7.92975e-03 -4.98612e-02 -7.43776e-02 5.15818e-03 5.31735e-02 8.76388e-02 5.82704e-03 1.90033e-02 8.07746e-02 -3.64277e-03 -4.34405e-02 -1.02445e-01 -3.92024e-03 4.50886e-04 5.73572e-03 1.27239e-03 6.47346e-03 4.91292e-03 8.61587e-03 -4.08568e-03
4.19475e-02 -6.20158e-03 1.11569e-02 -3.90034e-02 6.99122e-03 -7.29732e-02 -7.37204e-02 5.28738e-03 7.55731e-02 9.46311e-02 -2.70502e-03 1.52757e-02 1.99865e-02 -3.17296e-03 -3.91256e-02 -6.54642e-02 1.65453e-04 -7.36325e-04 6.90792e-02 -1.05161e-04 -6.92246e-03 -2.36148e-02 9.37031e-03 6.97917e-02 -7.62810e-02 -8.28504e-03 -4.30104e-02 5.10587e-02 -9.58863e-03 -7.24044e-02 3.12053e-02 1.35557e-02 7.97066e-02 -2.69574e-02 -7.11542e-03 -3.80253e-02 1.00282e-03 1.51795e-03 9.12385e-03 -2.25987e-03 -7.27130e-04 3.87166e-04
7.15998e-02 8.33071e-03 -1.61688e-02 -7.29976e-02 8.58841e-03 5.12866e-02 1.18586e-03 -1.79167e-03 -6.22527e-02 2.10827e-02 3.26932e-03 5.92705e-02 -1.65859e-02 -1.51080e-03 -2.62167e-02 -7.55533e-03 -1.16078e-02 -9.90993e-02 -1.34128e-02 1.24385e-02 1.06768e-01 4.19285e-02 6.89205e-04 -2.48935e-03 -3.27484e-02 -5.16901e-03 -2.95653e-02 5.20075e-03 6.62641e-03 4.20517e-02 9.59642e-02 -4.81198e-03 -5.41852e-02 -9.49860e-02 -7.62343e-04 1.84635e-02 4.34438e-03 5.11150e-04 2.10906e-03 -3.76386e-03 -6.77539e-03 3.21160e-03
-7.17510e-02 2.06247e-03 6.17687e-04 8.13405e-02 -1.09380e-02 5.28521e-02 3.74144e-03 -9.91012e-04 -5.40500e-02 -4.84686e-02 -1.21988e-03 -4.04991e-02 8.80054e-02 1.96110e-03 4.20169e-02 -5.96098e-02 1.87893e-03 1.27081e-02 -6.37853e-02 -2.11570e-03 -1.00854e-02 8.72326e-02 7.81124e-03 4.40262e-02 -3.26546e-02 -6.18910e-03 -3.75606e-02 -1.48277e-02 -1.10861e-02 -6.86245e-02 7.95985e-02 1.31815e-02 6.57945e-02 -6.11790e-02 -5.48213e-03 -1.93730e-02 1.77885e-03 1.22118e-03 7.10389e-03 3.63756e-03 3.65577e-03 -1.76654e-03
2.45606e-02 5.63141e-03 -1.33780e-02 -3.18306e-02 2.75604e-03 6.03733e-02 4.34930e-02 -4.71474e-03 -8.18652e-02 -4.02773e-02 8.72428e-03 9.77066e-02 3.22799e-02 -7.65794e-03 -8.65381e-02 -3.08514e-02 2.57200e-03 2.33778e-02 2.38007e-03 1.08104e-03 8.32658e-03 7.88292e-03 -8.51685e-03 -6.19338e-02 -5.51140e-02 1.02812e-02 8.32511e-02 6.58605e-02 -9.23015e-03 -7.46474e-02 -6.28861e-02 7.83407e-03 6.54089e-02 5.18971e-02 -2.42235e-03 -2.79556e-02 -2.18076e-03 2.44067e-04 2.03122e-03 -1.06002e-03 -3.02180e-03 1.41955e-03
6.73059e-02 -1.51309e-03 -4.72989e-03 -8.48867e-02 1.06223e-02 -4.95511e-02 6.43693e-02 -2.95030e-03 4.89051e-02 -3.51754e-02 2.70497e-03 1.53122e-02 -5.91382e-02 -3.32469e-04 -1.46765e-02 8.15790e-02 6.20961e-03 5.69395e-02 -7.20390e-02 -7.15398e-03 -5.29509e-02 4.46036e-02 -1.43813e-03 -1.63028e-02 4.54808e-02 3.86937e-03 1.76604e-02 -7.04340e-02 -1.33202e-02 -7.14857e-02 7.12410e-02 1.32351e-02 6.81822e-02 -4.73770e-02 -3.82819e-03 -1.23239e-02 8.69864e-04 8.28088e-04 4.89585e-03 -3.29290e-03 -3.50350e-03 1.68701e-03
-4.98620e-02 1.95221e-03 3.65781e-03 6.61458e-02 -8.23622e-03 5.24466e-02 -8.60072e-02 3.98366e-03 -5.48893e-02 8.19491e-02 3.93836e-04 5.11062e-02 -3.77732e-02 -3.72391e-03 -5.27696e-02 1.51889e-02 1.16577e-04 1.70039e-03 5.04037e-02 1.98563e-04 -3.35576e-03 -7.03829e-02 -7.40501e-03 -4.29582e-02 9.58726e-02 8.78983e-03 4.23933e-02 -9.37395e-02 -9.29625e-03 -4.00900e-02 5.75941e-02 8.63820e-03 4.18398e-02 -3.62937e-02 -1.77321e-03 -2.12319e-03 5.82294e-04 4.24396e-04 2.47474e-03 2.44317e-03 2.36328e-03 -1.14179e-03
1.13448e-02 2.34867e-03 -6.48952e-03 -1.67970e-02 1.43082e-03 3.04038e-02 2.69918e-02 -2.90333e-03 -4.58376e-02 -2.74312e-02 6.74380e-03 7.75063e-02 2.87513e-02 -7.85636e-03 -8.71131e-02 -2.75910e-02 1.18006e-02 1.03312e-01 2.59932e-02 -1.24029e-02 -1.05009e-01 -2.46247e-02 1.32229e-02 9.92685e-02 2.09827e-02 -1.26406e-02 -9.26719e-02 -1.97937e-02 9.59236e-03 6.71619e-02 1.35605e-02 -7.88647e-03 -5.39178e-02 -1.22858e-02 2.24686e-03 1.71121e-02 8.22619e-04 -3.30744e-04 -2.23783e-03 -4.28665e-04 -1.28895e-03 6.05171e-04
-3.36559e-02 4.27909e-04 4.97921e-03 4.62777e-02 -5.50284e-03 2.38445e-02 -7.78251e-02 4.38291e-03 -1.95911e-02 8.58199e-02 -1.06077e-03 3.25502e-02 -9.92001e-02 -7.50602e-04 -2.97845e-02 1.01281e-01 3.35303e-03 3.17646e-02 -9.66117e-02 -4.86452e-03 -3.12673e-02 9.22952e-02 5.08414e-03 2.29023e-02 -7.12955e-02 -5.60907e-03 -2.50646e-02 6.16454e-02 3.47434e-03 9.03416e-03 -3.09777e-02 -3.20700e-03 -1.32364e-02 1.93714e-02 3.70726e-04 -2.49118e-03 -3.47888e-04 -1.29293e-04 -7.12155e-04 1.60800e-03 1.83895e-03 -8.82798e-04
