24
14.0107 14.0107 32.0650 32.0650 196.9664 196.9664 196.9666 196.9666 196.9666 196.9666 196.9666 196.9666 196.9666 196.9666 196.9666 196.9666 196.9666 196.9666 196.9666 196.9666 196.9666 196.9666 196.9666 196.9666
6.28318 6.28318
0.0 0.0
1.88365e-06 2.89655 3.0278 3.45659 3.59114 3.84172 4.65213 4.84722 4.91531 5.08384 5.16593 5.18205 5.50358 8.54362 10.6632 11.1198 12.6309 12.6823 13.5508 13.6848 18.225 18.3757 18.6978 18.9346 22.258 22.8888 29.1732 33.8277 33.9679 34.5397 34.6215 34.9074 35.8133 37.8307 37.9474 38.2826 38.6467 39.0328 39.1507 40.9903 41.0647 45.6732 45.8015 47.15 47.1562 47.2787 47.309 50.436 50.4814 50.6229 50.6497 50.7941 50.8518 54.099 54.2715 54.4301 54.4667 56.789 56.8263 58.4472 58.4604 60.3486 60.3764 60.5239 60.5522 63.6725 69.1727 85.4113 101.917 159.598 168.72 218.43
-1.69319e-03 4.48551e-02 -2.04841e-02 -9.89938e-04 -2.93218e-02 -3.96625e-02 5.26656e-03 -6.78788e-02 9.94654e-02 4.51659e-03 1.12438e-02 1.19933e-01 0 0 0 0 0 0 0 0 0 0 0 0 0 0 0 0 0 0 0 0 0 0 0 0 0 0 0 0 0 0 0 0 0 0 0 0 0 0 0 0 0 0 0 0 0 0 0 0 0 0 0 0 0 0 0 0 0 0 0 0
-5.02311e-04 2.86092e-02 2.61340e-03 -9.77220e-04 2.63394e-02 3.24679e-03 -1.12845e-03 2.57459e-02 4.88385e-03 5.28407e-04 2.62829e-02 6.88159e-03 -7.35196e-04 2.58121e-02 2.87322e-03 -4.74759e-04 2.39897e-02 3.51331e-03 7.85710e-03 1.69803e-02 -3.95608e-04 -6.11886e-03 1.68565e-02 4.36226e-03 2.34236e-03 1.82033e-02 1.72750e-03 -9.00487e-03 1.75187e-02 5.77194e-03 6.35011e-03 1.88094e-02 -9.06479e-04 -1.15892e-03 2.01091e-02 2.45207e-03 -8.45215e-03 2.62020e-03 4.70451e-03 8.44456e-03 7.89284e-03 -3.22193e-03 6.59249e-03 1.03956e-02 -1.27316e-03 3.54428e-03 4.98417e-03 -9.09419e-04 -6.83450e-03 7.53564e-03 4.04873e-03 -2.55259e-03 9.58334e-03 2.34248e-03 -4.16843e-03 8.56557e-03 2.18517e-03 6.80709e-03 3.81174e-03 -2.52092e-03 -9.05524e-03 7.25662e-03 4.48501e-03 -2.92805e-03 4.57196e-03 1.59545e-03 7.33350e-04 9.62067e-03 9.59756e-04 7.30347e-03 7.41075e-03 -1.66797e-03
-4.04456e-03 1.14392e-02 -3.06398e-02 -3.98185e-03 -1.89815e-03 -3.38978e-02 -2.64840e-03 -8.03222e-03 -9.70538e-03 -2.52943e-03 4.83254e-03 -6.04714e-03 -3.76378e-03 3.75421e-03 -2.62211e-02 -3.32484e-03 2.81980e-03 -2.41528e-02 -3.53613e-03 2.21305e-03 -1.78157e-02 -5.90548e-03 2.31686e-03 -1.52628e-02 -1.27464e-02 3.06769e-03 -1.49940e-02 -5.72100e-03 2.22757e-03 -1.87122e-02 -4.85384e-03 2.04272e-03 -1.68751e-02 -1.42389e-02 6.92413e-04 -1.58434e-02 2.25317e-03 1.25992e-03 -6.05479e-03 4.86576e-03 2.41514e-03 -9.62865e-03 -1.31252e-02 -1.57686e-03 -5.19538e-03 -3.61141e-03 0 -4.08635e-03 -9.49563e-03 -4.84874e-04 -6.61084e-03 3.95634e-03 2.64931e-03 -1.36307e-02 -1.34474e-02 2.71380e-03 -5.04041e-03 3.25162e-03 2.42830e-04 -6.44807e-03 2.20584e-03 2.28946e-04 -8.38185e-03 -4.43367e-03 9.02759e-04 -4.00563e-03 3.72195e-03 7.07687e-04 -1.27182e-02 -7.51750e-03 1.76433e-03 -6.96850e-03
-3.40406e-03 4.00688e-03 -8.53170e-04 -3.98026e-03 -6.25181e-03 -1.91634e-03 3.47949e-03 8.03072e-03 2.36092e-03 4.48795e-03 -1.15619e-02 1.68464e-03 -2.37715e-03 2.20099e-02 1.22786e-03 -1.59718e-03 -2.42904e-02 -2.33630e-03 -9.10503e-03 -1.84791e-02 3.07744e-03 3.69773e-03 -1.86315e-02 -5.01989e-03 -3.76444e-03 -2.19476e-02 -7.31896e-04 -8.75911e-03 1.60803e-02 6.48947e-03 2.91751e-03 1.75740e-02 -2.98673e-03 -3.33981e-03 2.08958e-02 1.97823e-03 -7.99555e-03 2.52575e-03 6.07040e-03 5.49485e-03 6.72713e-03 -5.09984e-03 2.98430e-03 1.31692e-02 -2.26570e-03 9.91442e-04 6.33704e-03 -1.44827e-03 -7.39965e-03 9.34741e-03 5.17787e-03 -3.28971e-03 7.84954e-03 2.03895e-03 2.52205e-03 -1.28685e-02 -2.98507e-03 -8.47244e-03 -4.72614e-03 4.61681e-03 6.53569e-03 -7.69947e-03 -5.74803e-03 8.59655e-04 -6.92809e-03 -1.97254e-03 -2.85010e-03 -9.87779e-03 0 -8.54785e-03 -1.05457e-02 3.44316e-03
-1.61783e-03 -1.12635e-03 3.29964e-03 2.33881e-03 -1.03502e-03 -6.20983e-03 5.05922e-03 -2.69400e-03 1.17280e-02 -1.31443e-03 0 -1.19969e-02 2.40742e-03 -2.73510e-03 2.33409e-02 -1.02591e-03 7.65486e-04 -2.54194e-02 -1.93336e-03 1.00935e-03 -2.10746e-02 -2.81905e-03 1.22222e-03 -1.73490e-02 -1.01550e-02 2.87185e-03 -1.74266e-02 3.82467e-03 -1.57878e-03 1.91347e-02 3.23442e-03 -1.24270e-03 1.59192e-02 1.08782e-02 8.40611e-04 1.56603e-02 -2.91177e-03 -1.89796e-03 8.35711e-03 -4.73244e-03 -2.39550e-03 9.64392e-03 1.04630e-02 2.34375e-03 6.19306e-03 2.25667e-03 1.26180e-04 5.35996e-03 7.06737e-03 9.79669e-04 8.62034e-03 -4.03161e-03 -2.76282e-03 1.39947e-02 -1.06753e-02 3.09153e-03 -7.38231e-03 4.80428e-03 -6.00444e-04 -9.82366e-03 5.06691e-03 -6.21868e-04 -1.06253e-02 -1.84327e-03 9.41619e-04 -6.46786e-03 5.57117e-03 -5.48488e-04 -1.54446e-02 -5.79721e-03 1.91670e-03 -1.01344e-02
-1.51146e-02 -2.96055e-03 7.19690e-03 -1.49308e-02 8.74102e-04 7.66117e-03 -1.59630e-02 4.79853e-04 2.85761e-03 -1.62371e-02 0 1.28327e-03 -1.50239e-02 -3.46284e-03 6.38329e-03 -1.52588e-02 2.01762e-03 4.76049e-03 -1.46423e-02 1.68947e-03 4.01805e-03 -1.52452e-02 1.73065e-03 4.57951e-03 -1.49754e-02 1.93294e-03 4.48697e-03 -1.43758e-02 -3.00140e-03 5.40157e-03 -1.50013e-02 -3.10599e-03 5.91606e-03 -1.43192e-02 -3.22863e-03 5.72782e-03 -1.44025e-02 -2.21736e-03 5.06037e-03 -1.49366e-02 -2.43819e-03 5.91553e-03 -1.43307e-02 -2.86936e-03 5.50969e-03 -1.47067e-02 -2.54254e-03 5.50228e-03 -1.42031e-02 -2.69551e-03 5.13120e-03 -1.47105e-02 -2.48749e-03 5.51057e-03 -1.49571e-02 1.63899e-03 4.69375e-03 -1.42682e-02 9.53593e-04 4.20862e-03 -1.47315e-02 1.10341e-03 4.86084e-03 -1.48793e-02 1.27931e-03 4.72920e-03 -1.45457e-02 1.16874e-03 4.32806e-03 -1.46371e-02 1.48433e-03 4.27933e-03
5.52449e-04 -1.10706e-02 -1.60342e-03 8.98891e-04 -7.64850e-03 -1.55602e-03 -1.25997e-03 -1.18635e-02 -2.71776e-03 -2.02746e-03 -5.90331e-03 -3.12257e-03 -1.30161e-04 -1.36469e-02 -4.14679e-03 4.67538e-04 -6.81899e-04 1.28221e-03 -8.18094e-04 1.07379e-03 -2.66781e-03 1.42476e-03 1.61594e-03 4.15762e-03 2.11145e-04 5.58375e-03 7.50912e-04 5.40932e-03 -6.59360e-03 1.79483e-02 -5.44777e-03 -2.80856e-03 -1.87339e-02 -9.73703e-04 1.78878e-02 4.19538e-04 5.27819e-03 -1.60656e-02 1.71932e-02 -5.71835e-03 -1.98238e-02 -2.55531e-02 -5.06300e-03 2.49163e-02 -1.52612e-02 -3.27036e-03 2.13069e-03 -1.11832e-02 3.39880e-03 1.05643e-02 1.37690e-02 1.32567e-03 -2.27815e-02 9.97692e-04 9.06900e-04 6.90269e-03 3.64865e-03 -7.06709e-04 -2.98645e-04 -2.62082e-03 1.62660e-03 -1.38440e-03 5.19960e-03 8.78495e-04 2.86254e-03 2.73530e-03 2.59753e-04 -1.84229e-03 3.16236e-04 -5.86569e-04 4.44891e-03 -1.76287e-03
0 -5.98539e-03 1.74602e-03 -6.50951e-04 -7.89447e-03 2.73438e-03 2.85866e-03 5.20932e-04 -2.04469e-03 1.27149e-03 -9.30311e-03 3.35075e-03 1.28217e-03 2.74608e-03 1.33225e-03 -9.01722e-04 -1.33254e-02 1.86700e-03 -6.43275e-03 -5.90464e-03 -1.83461e-02 2.65083e-03 -3.18518e-03 1.82182e-02 -4.00357e-03 1.76589e-02 4.89447e-04 2.16275e-03 3.23805e-03 -4.12810e-03 1.35429e-03 2.46148e-03 2.63250e-03 3.32835e-03 -8.72827e-04 -1.15551e-03 9.16178e-04 7.38138e-03 -5.83755e-03 -5.96185e-04 6.79165e-03 2.96683e-03 2.78291e-03 -4.24706e-04 3.53316e-04 1.21883e-03 4.08754e-03 -6.34944e-04 2.70165e-03 2.30135e-03 -5.08001e-03 2.01235e-04 6.96064e-03 -1.57979e-03 -1.13747e-03 2.38632e-02 1.79243e-02 -4.35455e-03 -1.55117e-02 -1.59394e-02 5.37597e-03 -2.02670e-02 2.53323e-02 6.11636e-04 1.56183e-03 1.32439e-02 -3.43538e-04 -2.23170e-02 -1.48597e-03 -6.46844e-03 1.05399e-02 -1.13441e-02
-1.06987e-03 -6.33826e-04 1.64670e-03 1.62204e-03 5.07929e-04 -2.39671e-03 -4.88149e-03 -1.37241e-02 1.18777e-02 5.31541e-03 -5.53911e-03 -1.71492e-02 -8.37629e-03 1.69537e-03 -7.33227e-03 8.85073e-03 -8.28661e-04 7.03682e-03 1.20154e-02 -1.34976e-03 -5.40092e-03 1.07734e-02 -8.68046e-04 2.11480e-03 1.92299e-02 3.40360e-03 -3.01543e-03 -1.14530e-02 0 2.16352e-03 -1.02288e-02 0 2.05926e-03 -2.05141e-02 -5.48927e-04 4.17571e-03 -3.14634e-03 -2.33575e-03 1.51983e-02 4.82110e-04 -9.02953e-04 9.09424e-03 -1.95733e-02 -2.78939e-03 1.44050e-02 -8.97554e-03 -2.55551e-03 1.59751e-02 -1.54592e-02 -2.52687e-03 1.44928e-02 -1.00176e-03 -5.92739e-04 6.37716e-03 1.83822e-02 1.78181e-03 -8.24830e-03 5.85619e-03 -6.84587e-03 -1.62055e-02 2.19394e-03 -6.31518e-03 -2.63894e-03 1.01614e-02 -3.25892e-03 -1.07141e-02 3.58898e-03 -6.19422e-03 -5.76586e-03 1.55234e-02 -8.55074e-04 -1.44122e-02
-4.70957e-04 1.00598e-02 1.24169e-03 -1.11837e-03 7.66047e-03 2.13632e-03 1.41824e-04 1.07914e-02 1.15858e-03 1.19814e-03 6.47286e-03 4.06243e-03 0 1.05136e-02 2.52836e-03 -7.92634e-04 2.29876e-03 1.80068e-04 5.18168e-03 -2.48567e-03 -3.45743e-03 -5.05949e-03 -2.47674e-03 2.51341e-03 1.31980e-04 -2.05647e-04 -4.67075e-04 -1.42835e-02 -3.53810e-03 2.43124e-03 1.26557e-02 -2.10197e-03 -3.28178e-03 2.05701e-03 -2.86881e-03 -1.01431e-03 -1.61868e-02 -2.70490e-02 -2.23772e-03 1.52294e-02 -1.64326e-02 -7.02698e-03 1.46938e-02 -1.79992e-02 -7.60200e-03 7.89188e-03 -2.50891e-02 -7.37323e-03 -9.22738e-03 -2.14119e-02 -2.58763e-03 -5.00039e-03 -1.31649e-02 -1.79060e-03 -4.35974e-03 -6.35892e-03 2.12172e-03 5.60439e-03 -1.33578e-02 -3.75524e-03 -6.86281e-03 -1.04730e-02 3.48954e-03 -2.82105e-03 -1.14864e-02 1.22271e-03 7.66460e-04 -8.70916e-03 -8.93441e-04 4.23157e-03 -8.44060e-03 -2.90677e-03
-2.57395e-03 -5.32913e-03 1.00775e-02 -2.46281e-03 -3.51953e-03 1.05206e-02 -1.65876e-03 1.00348e-03 4.86964e-03 0 -8.13500e-03 1.17205e-04 -3.56065e-03 4.22437e-03 6.09377e-03 -9.23844e-04 -1.02810e-02 8.03974e-03 -1.19240e-02 2.86528e-04 -2.38430e-04 1.05579e-02 1.00557e-03 -2.00977e-03 9.07224e-03 2.51727e-03 -2.99638e-03 -7.01705e-03 5.74065e-04 -1.38891e-03 1.35098e-03 7.45309e-04 -6.83128e-04 4.75978e-03 -4.33694e-04 -2.81329e-03 -1.33915e-02 -4.78191e-03 -1.18902e-02 -5.02694e-03 -1.89283e-03 -6.13282e-03 8.68120e-03 -4.43397e-03 -1.08041e-02 -1.06717e-03 -5.08878e-03 -1.21172e-02 -2.47686e-03 -4.57039e-03 -1.13012e-02 -1.08890e-02 -9.31923e-04 -4.56671e-03 1.89154e-02 1.54477e-02 -1.44409e-02 -2.07738e-02 1.77507e-02 -1.34408e-02 4.14227e-03 1.11576e-02 -9.72282e-03 4.65012e-03 1.90058e-02 -1.59004e-02 -1.20531e-02 7.19924e-03 -5.63375e-03 -5.17259e-03 1.57533e-02 -1.28018e-02
3.00049e-03 2.54706e-03 -1.03576e-02 2.37150e-03 -5.23610e-03 -1.09023e-02 6.29478e-03 3.12590e-04 -4.78187e-03 5.47090e-03 -4.36468e-03 7.84377e-04 4.05432e-03 7.16990e-03 -7.47833e-03 2.84842e-03 -9.55696e-03 -6.55967e-03 -9.73669e-03 1.57228e-04 2.14294e-03 9.18386e-03 6.80652e-04 -1.15311e-04 -8.34899e-03 1.01422e-03 2.65705e-03 -3.67122e-03 0 1.47115e-03 7.89806e-03 5.55276e-04 1.82740e-04 -7.40261e-03 -9.23034e-04 3.08372e-03 4.82106e-03 -1.06764e-02 1.42300e-02 2.06140e-02 -5.47732e-03 6.66419e-03 -1.92199e-03 -8.92195e-03 1.22156e-02 7.38342e-03 -1.09627e-02 1.39744e-02 -6.30908e-03 -9.72095e-03 1.34807e-02 1.11682e-02 -3.74667e-03 5.11061e-03 -3.02797e-04 1.34548e-02 1.00452e-02 -3.89818e-03 1.70269e-02 1.34402e-02 2.07355e-02 1.10179e-02 5.49729e-03 5.80145e-03 1.74836e-02 1.19481e-02 6.32380e-03 7.55499e-03 5.00660e-03 -1.18065e-02 1.41407e-02 1.23279e-02
3.78134e-03 2.24815e-03 -6.12624e-03 -4.10371e-03 0 9.50257e-03 2.79983e-03 2.44412e-02 -3.06414e-02 -5.44580e-03 8.32015e-03 3.90969e-02 9.95907e-03 -8.34012e-04 -8.01590e-03 -1.07329e-02 2.33665e-04 9.54211e-03 -9.59294e-03 -5.97961e-04 9.96291e-04 -1.04456e-02 -5.60196e-04 2.25582e-03 4.59202e-04 3.01503e-04 -1.02885e-03 1.08095e-02 -6.21134e-04 -1.16295e-03 9.09952e-03 -5.37295e-04 -2.58386e-03 1.34383e-03 0 6.70159e-04 1.86315e-02 -5.55195e-04 1.10684e-02 1.81659e-02 -1.46175e-03 3.33067e-03 1.06623e-04 2.96475e-04 9.08137e-03 1.05541e-02 -7.35968e-04 1.08096e-02 6.53404e-03 -4.48064e-04 1.04145e-02 1.86796e-02 -1.35142e-03 2.38179e-03 7.03944e-04 -7.25911e-04 -1.14608e-02 -1.85580e-02 -2.60291e-03 -1.39457e-02 -2.16804e-02 -2.92919e-03 -5.39245e-03 -1.12161e-02 -2.52639e-03 -1.37848e-02 -2.02498e-02 -2.44930e-03 -3.76626e-03 -4.42584e-03 -1.69131e-03 -1.28764e-02
-1.02023e-02 -2.57117e-02 1.82278e-02 1.05837e-02 -1.36717e-02 -3.10030e-02 1.08257e-02 -7.20233e-02 8.40060e-02 -9.29560e-03 -2.25017e-02 -1.08853e-01 1.49408e-03 3.20212e-03 1.40912e-03 -1.31768e-03 2.60225e-03 -8.76951e-04 -3.40635e-03 1.95239e-03 5.73012e-03 -6.38446e-03 1.80980e-03 5.13002e-03 -1.55551e-03 8.33240e-04 1.84529e-03 2.72659e-03 2.81261e-03 -3.84048e-03 6.30338e-03 2.84697e-03 -3.41208e-03 2.52802e-03 1.66646e-03 -9.82407e-04 5.82014e-03 1.48611e-03 3.21425e-04 1.16014e-02 4.98297e-04 -1.42117e-03 2.96873e-03 3.97677e-04 6.89309e-04 6.36599e-03 -1.51322e-03 1.85053e-03 1.42505e-03 -8.93893e-04 7.73310e-04 6.35603e-03 2.01316e-03 -1.65163e-03 -7.81851e-04 6.27838e-04 -8.86701e-04 -8.01038e-03 1.73613e-03 -7.40587e-04 -1.23343e-02 -1.33945e-03 2.40241e-03 -6.01854e-03 -1.96301e-03 -2.63916e-03 -7.57798e-03 7.42360e-04 2.44371e-03 -8.32727e-04 -1.08104e-03 -1.21646e-03
3.63634e-03 1.05355e-01 4.82278e-02 -3.75988e-03 1.15391e-01 6.73533e-02 -3.80296e-02 4.66463e-02 6.42747e-02 3.21608e-02 6.37899e-02 -2.39752e-02 -1.98724e-03 -2.19539e-03 6.57152e-03 -6.20808e-04 -3.30092e-03 -1.40739e-04 -3.22199e-03 -3.62268e-03 -1.68160e-03 1.31391e-03 -3.44286e-03 -1.72520e-03 -1.35317e-03 -2.88370e-03 -5.48797e-04 3.27606e-03 -2.23113e-03 -6.17222e-03 6.97375e-04 -2.21976e-03 -4.80625e-03 -6.72640e-04 -4.27098e-03 -1.10460e-03 1.04644e-02 6.30348e-03 5.86823e-04 -1.19588e-03 -6.23408e-03 -6.98323e-03 -6.33676e-03 0 1.02644e-03 -7.83415e-04 -4.68729e-04 1.55268e-03 0 -1.52787e-03 8.11746e-04 2.51086e-03 -4.75254e-03 -2.37199e-03 -5.69134e-04 -1.38139e-03 -5.63460e-04 -4.68018e-03 6.47075e-04 -1.16316e-03 7.44689e-03 -2.18282e-03 8.90563e-04 1.45208e-03 1.62538e-03 1.07023e-03 -3.32589e-04 -4.13259e-03 -1.14441e-03 -3.52095e-03 -1.90731e-04 -3.73601e-04
9.24829e-03 -1.01676e-01 1.22770e-01 1.10757e-02 -2.52523e-02 1.36519e-01 -1.46534e-03 -8.03147e-03 1.77812e-02 -1.98906e-02 -3.31209e-02 2.75307e-02 -3.63762e-03 1.94199e-03 9.46549e-03 -4.28995e-03 -1.06367e-03 1.18086e-02 1.64142e-03 4.56594e-04 -9.69684e-03 2.42965e-03 1.48049e-04 -7.75761e-03 -2.13442e-03 3.43352e-03 -1.02667e-03 -1.08274e-03 2.61737e-03 -8.27648e-03 2.74161e-03 2.81912e-03 -7.00261e-03 -1.82690e-03 -6.98542e-04 -9.66271e-04 4.52481e-03 6.00365e-03 -1.32667e-03 9.80617e-03 -3.18939e-03 -6.32893e-03 -7.27235e-03 2.59024e-03 2.57632e-04 1.91811e-03 -2.98369e-03 3.17209e-03 -4.45410e-03 -1.62231e-03 3.82205e-04 1.36304e-03 1.00413e-03 -3.50645e-03 -9.05522e-03 -1.66747e-03 9.70551e-04 1.18371e-02 -8.87590e-03 -4.80591e-04 3.74434e-03 8.12337e-03 -9.48492e-03 -2.32026e-04 2.08893e-03 3.19720e-03 1.67496e-03 3.86160e-03 -3.48045e-03 -3.54930e-03 2.30949e-03 1.06530e-03
-6.71430e-03 4.43068e-03 -2.42842e-02 -5.19469e-03 -1.32736e-02 -3.16812e-02 5.14968e-03 3.96441e-04 -7.80929e-03 -2.60301e-03 -6.66917e-03 -1.39305e-03 -2.61797e-03 9.02929e-03 7.26998e-03 -7.55791e-04 -3.44813e-03 2.44204e-03 9.70703e-04 -8.74850e-04 -3.39255e-04 1.45508e-03 -2.24808e-03 -1.38674e-03 -1.78302e-03 -3.94225e-03 0 1.00285e-03 3.17545e-03 -1.92612e-03 3.07462e-03 6.79714e-03 -4.34652e-03 -6.14440e-03 9.53880e-03 4.24198e-04 2.47537e-02 2.83600e-02 5.64488e-03 -1.87007e-02 -1.24565e-02 -1.72610e-02 1.87796e-02 -2.51587e-02 1.02859e-02 -7.32472e-03 2.64631e-03 -1.75071e-03 -9.22445e-03 -1.18769e-02 3.70292e-03 -4.35281e-03 -1.44155e-02 1.37116e-03 7.48625e-03 1.05242e-02 4.69996e-03 1.10313e-02 -1.05740e-02 2.03277e-03 -8.04089e-03 4.69002e-03 -6.54030e-03 -2.70806e-03 -1.37767e-03 -1.00127e-03 -2.03499e-03 5.79013e-03 1.04165e-03 -3.44412e-03 4.37248e-03 1.67698e-03
-2.65513e-03 3.12171e-02 -1.54235e-02 -4.75986e-03 1.75207e-02 -1.47427e-02 -5.96977e-03 4.11208e-03 7.80389e-03 7.40642e-03 9.12744e-03 -1.15616e-02 1.59993e-03 -4.02494e-03 -4.74452e-03 -2.53817e-03 -9.48482e-03 8.00638e-03 7.81375e-04 -3.27703e-03 -2.46612e-03 3.57905e-03 -6.77167e-03 -4.96138e-03 -5.83055e-03 -1.01656e-02 0 3.70649e-04 -1.84021e-03 1.85476e-03 -1.34732e-03 -3.39319e-03 2.69593e-03 3.07639e-03 -3.80129e-03 -2.16802e-04 -9.58368e-03 -1.24718e-02 -1.76578e-03 6.09224e-03 5.54475e-03 7.94846e-03 -5.83582e-03 9.53051e-03 -4.14610e-03 3.04934e-03 -4.63618e-04 1.20232e-04 4.99607e-03 5.00421e-03 -1.44044e-03 2.43284e-03 5.40879e-03 -1.34750e-04 1.58386e-02 2.50644e-02 1.15182e-02 2.60344e-02 -2.75808e-02 4.12241e-03 -1.76987e-02 1.22709e-02 -1.74248e-02 -7.20897e-03 -2.56044e-03 -1.60346e-03 -6.35441e-03 1.33703e-02 1.83811e-03 -1.10469e-02 1.09789e-02 3.99907e-03
4.17557e-04 1.08835e-02 2.14077e-03 -5.81230e-04 1.33985e-02 1.79516e-03 -3.62050e-03 -9.42145e-03 1.62411e-02 -3.37009e-04 5.98421e-03 -1.91192e-02 6.26255e-03 0 -2.88576e-02 -7.02665e-03 -1.71703e-03 2.88156e-02 -1.00037e-03 -1.19786e-03 -1.00828e-02 4.53710e-03 -6.03436e-04 -5.90706e-03 1.83749e-03 8.83204e-03 4.03997e-03 1.23401e-03 -1.48664e-03 1.00529e-02 -4.26871e-03 -1.15616e-03 6.01198e-03 -2.31544e-03 8.89355e-03 -3.48505e-03 -4.55214e-04 -1.02531e-02 6.54705e-03 -1.40284e-02 1.01595e-02 1.04736e-02 2.12800e-02 -1.24372e-02 1.17681e-03 -2.22350e-03 6.64279e-03 -7.00374e-03 3.83809e-03 3.04954e-04 1.03392e-03 4.77292e-03 -1.14338e-03 2.37691e-03 -2.04408e-02 -1.45497e-02 -2.64998e-03 7.36134e-04 -9.45150e-03 -7.11398e-03 1.46237e-02 1.12183e-02 -9.11433e-03 1.93292e-03 6.75872e-03 7.39144e-03 -4.63025e-03 -1.80153e-03 -2.52809e-03 -3.78569e-03 -1.16128e-04 -1.05301e-03
-2.21017e-02 3.58401e-02 -7.30467e-02 -1.97268e-02 -1.49714e-02 -9.07480e-02 2.20763e-03 2.01157e-03 -1.42330e-02 -7.67097e-03 -2.19208e-03 -1.28840e-02 -6.20705e-03 -7.96702e-04 2.69836e-02 -6.87827e-03 -8.44170e-04 2.65713e-02 6.14369e-04 -8.44030e-04 -7.96008e-03 5.01502e-03 -2.12974e-04 -4.49508e-03 3.60769e-03 7.64446e-03 4.26787e-03 5.53082e-04 1.07898e-03 -8.09668e-03 4.91157e-03 5.91904e-04 -4.60973e-03 4.25836e-03 -7.92165e-03 3.79810e-03 1.52529e-03 8.97359e-03 -5.85398e-03 1.40114e-02 -8.79115e-03 -8.38986e-03 -1.64530e-02 1.15530e-02 -1.28886e-03 3.63313e-03 -6.01424e-03 6.15530e-03 -1.32159e-03 0 -8.56809e-04 -3.10901e-03 1.15677e-03 -1.54661e-03 -1.52848e-02 -1.27864e-02 -2.40361e-03 1.82010e-03 -8.35988e-03 -6.22937e-03 1.42451e-02 9.70957e-03 -7.19637e-03 3.20649e-03 6.13393e-03 6.44328e-03 -3.10053e-03 -1.62663e-03 -1.63057e-03 -1.49786e-03 0 -7.94007e-04
2.52693e-04 1.38683e-02 -4.15033e-03 -1.65121e-03 -1.35476e-03 -3.07599e-03 3.51271e-03 9.01219e-03 4.50040e-03 1.29764e-02 -1.17079e-02 -1.34643e-03 1.60025e-03 1.28668e-02 2.84017e-03 4.18995e-03 -2.80252e-02 6.66788e-03 -6.72069e-03 -4.07691e-03 -1.55687e-02 1.11956e-02 2.05501e-03 1.09663e-02 4.67548e-03 1.94445e-02 -2.59485e-03 -3.18050e-03 1.79070e-03 -6.44369e-03 5.29974e-03 -8.15969e-04 4.97161e-03 2.56070e-03 -8.92628e-03 -1.72825e-03 4.25319e-03 -9.24323e-03 5.91055e-03 -1.45593e-02 0 -1.34813e-03 -7.05833e-03 2.69942e-03 -1.18123e-03 4.60100e-04 1.99009e-03 -2.14332e-03 2.28276e-03 9.25695e-04 7.82027e-04 6.62591e-03 -2.29788e-03 -1.95009e-03 -1.34877e-02 -7.03797e-03 -4.42676e-03 8.89337e-03 1.98074e-02 1.52977e-02 -3.19020e-02 -2.80409e-03 -2.83178e-03 1.63874e-03 -3.17735e-03 -5.45476e-03 1.48853e-02 6.11993e-03 -4.12658e-03 3.92509e-03 -1.21978e-03 2.43616e-03
-1.99803e-03 -1.37283e-02 4.59290e-03 2.78502e-03 -1.34689e-02 -6.92999e-03 1.33960e-02 3.97820e-03 2.54127e-03 -8.11174e-03 -3.77655e-03 3.58683e-04 1.36497e-03 2.67528e-02 8.52590e-03 -6.18327e-04 1.16780e-02 -4.08297e-03 3.54349e-03 2.01745e-03 8.36095e-03 -4.37914e-03 -1.19256e-03 -4.43136e-03 -2.21006e-03 -7.50609e-03 1.23098e-03 -7.99279e-03 4.44499e-03 -1.65441e-02 1.08004e-02 -2.15650e-03 1.01559e-02 5.84444e-03 -1.76240e-02 -3.73836e-03 1.20888e-02 -2.00182e-02 1.57547e-02 -3.15357e-02 3.23363e-03 8.09195e-04 -1.19402e-02 7.06453e-03 -6.34939e-03 1.59196e-03 2.10166e-03 -6.57378e-03 1.93142e-03 4.43288e-04 3.40072e-03 1.60146e-02 -4.19635e-03 -5.60440e-03 3.86385e-03 3.57447e-03 4.23028e-03 -5.52433e-03 -8.77681e-03 -8.50532e-03 1.39705e-02 3.43804e-03 -9.86064e-04 -9.42876e-04 0 3.50941e-03 -7.55747e-03 -2.34896e-03 2.63755e-03 1.79309e-04 -2.15582e-04 -2.08796e-03
1.39327e-02 -2.08721e-03 5.33973e-03 1.32515e-02 2.08302e-03 8.14261e-03 1.06138e-02 -2.58280e-04 3.85983e-04 1.39985e-02 -5.22010e-04 8.61176e-04 7.83542e-03 7.49187e-03 -8.08960e-03 9.44561e-03 -7.37411e-03 -9.06013e-03 3.37469e-03 -6.00411e-04 1.11470e-02 5.94640e-03 -4.92641e-03 2.39634e-03 -1.63297e-03 6.69052e-03 1.77900e-04 2.97865e-03 3.03434e-04 9.64106e-03 4.96666e-03 4.53275e-03 2.31447e-03 -1.15069e-03 -5.89685e-03 -1.06560e-04 -1.23106e-02 -1.61378e-03 -1.14404e-02 -1.44151e-04 -1.33540e-02 -1.76057e-02 -1.19193e-02 -7.18424e-03 1.79603e-02 -1.48285e-03 1.07249e-02 8.28681e-03 1.20636e-02 6.36522e-03 -7.12913e-03 -5.38489e-03 -1.96385e-03 5.22610e-03 -1.45828e-02 6.58667e-03 2.08962e-02 -1.38457e-02 1.64804e-03 -1.33097e-02 -5.59004e-04 1.62929e-02 -1.97719e-02 -1.04131e-03 -1.30599e-02 8.98281e-03 -6.26607e-03 1.53045e-03 5.85785e-03 1.48168e-02 -6.07315e-03 -8.28614e-03
-7.13980e-04 7.08775e-03 -3.83205e-03 -2.41910e-03 2.99364e-03 1.89785e-03 -8.48441e-03 1.64958e-03 -4.74612e-03 7.81893e-03 -2.63422e-03 4.33171e-03 -7.46809e-03 -1.18400e-02 8.80363e-03 6.82967e-03 -8.34782e-03 -7.80142e-03 2.89214e-03 -1.00866e-03 8.33169e-03 6.11460e-03 -4.26578e-03 2.41885e-03 -6.19942e-04 6.79262e-03 -4.91113e-04 -3.05212e-03 -1.13598e-03 -9.12154e-03 -7.34486e-03 -5.22126e-03 -3.53080e-03 0 8.57837e-03 1.01679e-03 1.22063e-02 7.28924e-03 1.07095e-02 3.91132e-03 1.37749e-02 2.04177e-02 1.29475e-02 8.84366e-03 -2.14262e-02 6.45803e-04 -1.44636e-02 -8.67763e-03 -1.61765e-02 -8.06852e-03 8.07676e-03 1.69827e-03 2.29215e-03 -4.89994e-03 -1.14961e-02 6.57095e-03 1.90033e-02 -1.09297e-02 5.69297e-03 -9.50571e-03 -2.73536e-03 1.24923e-02 -1.73242e-02 0 -1.30545e-02 7.11440e-03 -1.80513e-03 1.47978e-03 4.25566e-03 1.47602e-02 -5.74674e-03 -7.12066e-03
-2.68655e-02 4.80450e-03 -4.46624e-03 -2.58016e-02 -5.59543e-03 -1.00022e-02 -1.86334e-02 5.09043e-03 3.09800e-03 -2.44462e-02 -4.11243e-03 -9.83359e-04 -1.16325e-02 -8.27542e-03 1.32545e-02 -1.51025e-02 8.75844e-03 1.73649e-02 -4.99405e-04 -1.41196e-03 -5.62430e-03 -5.93347e-03 -4.03352e-03 -1.35945e-02 -7.66796e-04 -5.21100e-03 -3.36566e-04 -2.60871e-04 1.16196e-03 -4.02210e-03 -5.09379e-03 3.36044e-03 -1.04477e-02 -7.70050e-04 3.90444e-03 -1.71883e-04 -1.81054e-03 -1.93952e-02 2.02944e-03 1.46327e-03 8.68680e-03 -7.50458e-03 8.38586e-03 -1.12923e-02 1.37927e-02 -4.39687e-04 1.36522e-02 2.32372e-03 5.39910e-03 3.20351e-03 -2.15965e-03 1.17578e-02 5.06855e-03 -6.78121e-03 8.97969e-03 1.37617e-02 1.72920e-02 -3.92706e-03 2.30648e-02 3.98689e-03 2.59012e-03 -1.05194e-02 -9.42849e-03 2.73833e-04 -1.64636e-02 1.98478e-03 1.50274e-02 -4.99028e-03 -8.61751e-03 5.86354e-03 -3.04441e-03 -2.42518e-03
-3.50729e-03 5.97986e-03 -3.20699e-03 -4.03241e-03 -5.72579e-04 1.04349e-03 -1.07499e-02 2.89257e-03 -4.77443e-03 9.02359e-03 -7.01155e-03 5.22336e-03 -1.24893e-02 -1.30590e-02 2.10736e-02 1.09567e-02 -9.03353e-03 -1.82519e-02 1.73519e-03 1.17599e-03 6.45235e-03 6.27644e-03 3.41139e-03 1.25330e-02 1.15000e-03 5.18853e-03 -4.55598e-04 -1.87717e-03 1.27273e-03 -7.10325e-03 -8.44276e-03 4.09950e-03 -1.48258e-02 -1.76894e-03 6.10612e-03 7.30779e-04 -2.33904e-03 -2.27888e-02 3.67276e-03 1.53036e-03 1.26856e-02 -8.19522e-03 9.80466e-03 -1.31874e-02 1.50612e-02 -2.17229e-03 1.51730e-02 2.33783e-03 2.02479e-03 2.37230e-03 -1.53485e-03 1.30407e-02 6.95501e-03 -9.88033e-03 -6.81934e-03 -1.06128e-02 -1.25716e-02 3.28571e-03 -1.79406e-02 -4.19029e-03 -1.74473e-03 1.01413e-02 7.09942e-03 1.09715e-03 1.22061e-02 -1.24611e-03 -1.11945e-02 4.66056e-03 8.27926e-03 -9.67668e-04 1.51719e-03 1.09176e-03
-8.62431e-02 3.26473e-02 1.02010e-02 -8.65830e-02 -3.31580e-02 -4.53080e-03 -5.72663e-02 4.48536e-02 2.79566e-02 -5.29350e-02 -5.59328e-02 2.33545e-03 -1.57957e-02 8.47444e-03 -1.28236e-02 -1.53010e-02 -8.49738e-03 -1.26049e-02 2.83652e-03 9.76764e-04 5.35811e-03 1.06592e-04 3.45980e-03 5.70371e-03 0 2.74684e-03 -2.74991e-03 2.94818e-03 -7.82813e-04 5.35251e-03 1.05531e-03 -3.51887e-03 6.01070e-03 0 -2.70965e-03 -3.10299e-03 4.81460e-03 3.49771e-03 -3.42275e-03 4.42044e-03 -7.79942e-03 4.99920e-03 3.34586e-03 3.03405e-03 -2.41818e-03 3.41062e-03 -1.13689e-03 -1.56638e-04 1.08782e-02 3.60026e-03 -2.80067e-03 1.14719e-03 -4.06413e-03 5.17722e-03 3.83526e-03 -2.61129e-03 -2.21982e-03 5.19181e-03 -2.64016e-03 -3.41599e-03 4.02688e-03 7.59876e-03 5.45773e-03 3.11217e-03 1.15055e-03 0 7.48701e-04 3.84362e-03 5.13436e-03 1.11794e-02 -2.73026e-03 -2.74975e-03
6.18337e-04 -2.38993e-03 -1.44067e-03 1.47526e-03 5.65777e-04 1.42857e-03 -6.88089e-03 -4.98856e-03 -4.41438e-03 5.86625e-03 -8.51184e-04 1.55787e-03 -1.32211e-02 6.08509e-03 -3.24784e-03 1.09793e-02 6.60791e-03 3.39013e-03 3.13692e-03 2.06101e-03 1.05074e-02 6.62434e-03 -4.15827e-03 4.53401e-04 3.31689e-04 9.08778e-03 -1.00411e-03 -4.45137e-03 2.91691e-03 -1.18225e-02 -6.55018e-03 -4.90978e-03 0 -6.66316e-04 8.82655e-03 1.52351e-03 3.39286e-03 -5.12378e-03 -1.99891e-02 -5.75452e-03 -2.39517e-02 1.52532e-02 1.59330e-02 1.79646e-02 1.04686e-02 2.27748e-03 1.25907e-03 1.14261e-02 1.73403e-03 2.79338e-03 -9.41774e-04 6.65126e-03 -5.45463e-03 -1.75777e-03 -1.47954e-02 1.57287e-02 -9.31004e-03 -3.54230e-03 -6.31091e-03 1.90079e-02 7.10924e-03 -2.06500e-02 -1.56771e-02 -1.59288e-03 1.45852e-03 -1.03918e-02 -5.75463e-03 -5.98802e-03 1.45474e-03 -1.73812e-03 2.26099e-03 1.13522e-03
-1.21756e-02 7.95217e-03 2.08903e-03 -1.18325e-02 -8.48383e-03 -2.72308e-03 -4.63484e-03 1.14964e-02 6.58856e-03 -5.47911e-03 -1.26429e-02 0 4.04570e-03 -1.50720e-03 1.92396e-03 3.33848e-03 1.74285e-03 2.51556e-03 3.69988e-03 2.59862e-03 1.41597e-02 3.59376e-03 -3.69890e-03 1.31291e-03 -7.65109e-04 1.18204e-02 -2.50006e-03 4.17355e-03 -2.83073e-03 1.30453e-02 3.34436e-03 3.64661e-03 1.14249e-03 -2.00299e-04 -1.01633e-02 -2.78159e-03 0 4.95543e-03 1.99465e-02 9.47842e-03 1.98098e-02 -1.19427e-02 -1.35417e-02 -1.78410e-02 -1.21268e-02 -2.96588e-03 0 -1.13026e-02 3.49783e-03 -3.43824e-04 -1.87945e-03 -6.30159e-03 3.70954e-03 2.88951e-03 -1.51603e-02 1.89955e-02 -1.28529e-02 0 -6.62499e-03 2.22234e-02 1.24566e-02 -1.99577e-02 -1.39253e-02 -2.99131e-03 1.66218e-04 -1.23424e-02 -6.77970e-03 -4.81107e-03 2.85469e-03 4.17968e-03 4.97866e-04 -2.07165e-03
4.77163e-03 -1.02396e-02 -2.77517e-03 3.97218e-03 1.13776e-02 5.27088e-03 -8.51529e-03 -1.73697e-02 -9.75630e-03 -2.78719e-03 1.62063e-02 7.07774e-04 -1.01435e-02 -9.05139e-03 -9.44282e-03 -4.71952e-03 7.91605e-03 -7.34386e-03 -8.98103e-03 -4.27775e-03 -1.10502e-02 3.97556e-04 1.47068e-03 6.31753e-03 3.67806e-03 1.43191e-02 -6.07822e-04 -1.30510e-02 5.26505e-03 -1.27558e-02 -1.00859e-03 -2.61497e-03 9.01055e-03 6.26898e-03 -2.19081e-02 -2.48750e-03 -1.22486e-02 1.11732e-02 2.43978e-02 4.72452e-03 -1.01905e-02 -1.72674e-02 2.08778e-02 7.58079e-03 -6.65771e-04 4.09832e-03 5.13493e-03 2.98652e-03 2.15688e-03 5.40516e-03 2.97410e-03 -7.71414e-04 1.14398e-02 4.81705e-03 1.56530e-02 -6.15655e-03 1.33045e-03 -9.88893e-03 -9.28666e-03 1.45357e-02 5.44806e-04 8.57277e-03 -1.18063e-02 3.98067e-03 -2.85896e-03 3.08498e-03 7.63983e-04 -8.42260e-03 2.60562e-03 -4.88335e-04 -3.20611e-03 3.30749e-03
1.14849e-03 5.55047e-03 -4.12074e-03 -1.76905e-03 1.12916e-03 4.80937e-03 -9.82069e-03 -4.50998e-03 -3.66124e-03 1.11111e-02 -8.27217e-03 8.73895e-04 -8.37341e-03 -5.13226e-03 -6.56219e-03 1.01833e-02 -8.26508e-03 1.00187e-02 1.27461e-02 5.35509e-03 1.39506e-02 3.09978e-03 -2.70070e-03 -8.59169e-03 -4.58463e-03 -2.23588e-02 1.60827e-03 -9.11870e-03 3.33249e-03 -8.44029e-03 -2.41464e-03 -2.30994e-03 6.04477e-03 4.07085e-03 -1.58602e-02 -2.09590e-03 -7.75534e-03 7.77471e-03 1.77831e-02 4.86589e-03 -7.86324e-03 -1.10831e-02 1.50404e-02 4.79582e-03 -1.23388e-03 1.95866e-03 4.23813e-03 1.95770e-03 2.83187e-03 4.49950e-03 1.05202e-03 -8.51960e-04 7.54104e-03 3.34711e-03 -2.26418e-02 6.61030e-03 3.75664e-04 1.20242e-02 1.32938e-02 -2.35070e-02 -4.86008e-03 -1.30299e-02 1.52133e-02 -3.67201e-03 5.63069e-03 -3.38358e-03 0 1.12449e-02 -3.93554e-03 -2.88162e-03 5.88136e-03 -2.23288e-03
-2.20451e-03 -4.80474e-03 4.43923e-04 1.88716e-03 -3.31508e-03 -1.59836e-03 -7.73922e-03 -2.08072e-03 -3.99195e-03 6.60328e-03 -2.60707e-03 2.69516e-03 -2.08222e-02 1.65122e-02 3.44993e-03 1.94760e-02 1.68366e-02 -1.15452e-03 -3.93959e-04 0 -8.98206e-03 1.21502e-02 4.72803e-04 -1.31269e-03 3.77610e-03 -5.67509e-03 4.10824e-03 2.13380e-03 -8.83202e-04 1.12806e-02 -1.15821e-02 0 1.13466e-03 -4.18255e-03 -4.20336e-03 -4.16227e-03 1.41233e-02 -2.27880e-03 6.29075e-03 1.65367e-02 -3.69324e-03 1.03978e-02 -4.00693e-03 -1.15462e-02 -1.26323e-02 -7.45762e-03 5.37177e-03 -5.10378e-03 1.66457e-02 6.86173e-03 -1.26081e-02 -2.99047e-03 -5.86829e-03 2.33091e-03 1.57128e-03 -1.02670e-02 1.14377e-02 -1.22695e-02 -1.96560e-03 -8.41199e-03 -1.57513e-02 -6.39736e-03 -1.01606e-02 6.67619e-03 6.21411e-03 4.61614e-03 3.46757e-03 -4.50232e-03 -2.40741e-03 -1.69002e-02 5.77533e-03 1.20957e-02
-3.47509e-02 2.07923e-02 6.75755e-03 -3.40990e-02 -2.22309e-02 -5.06186e-03 -1.80051e-02 2.88007e-02 1.67268e-02 -1.84565e-02 -3.26654e-02 6.37262e-04 1.34867e-02 -1.40044e-02 -5.53617e-03 1.20102e-02 1.53409e-02 -3.78609e-03 2.78244e-03 2.69947e-03 -2.36487e-03 1.55370e-02 1.96152e-03 -1.38077e-04 2.60611e-03 -3.69290e-03 3.12185e-03 2.37915e-03 -1.95234e-03 -3.30197e-03 1.49769e-02 -8.27703e-04 -4.15135e-04 2.33600e-03 3.59751e-03 2.74630e-03 -1.13223e-02 3.26984e-03 -6.66500e-03 -1.41968e-02 1.30824e-02 -1.28027e-02 -1.62168e-03 7.08009e-03 1.06079e-02 8.69248e-03 -8.55626e-03 4.57697e-04 -1.25158e-02 -7.28724e-03 1.28318e-02 2.63430e-03 4.05001e-03 1.49024e-04 -2.10802e-03 -7.59294e-03 1.04856e-02 -1.06634e-02 -3.56620e-03 -7.81386e-03 -1.30578e-02 -1.53126e-02 -1.48583e-02 8.24696e-03 9.72235e-03 8.16332e-04 2.96490e-03 -3.77458e-03 2.86698e-04 -1.34504e-02 6.44629e-03 1.33674e-02
-3.07365e-03 6.85237e-03 3.72111e-03 -3.24574e-03 -6.70213e-03 -3.91961e-03 1.08341e-02 1.39344e-02 9.09520e-03 -5.99522e-03 -6.43293e-03 -1.45908e-03 1.95377e-02 -5.26272e-03 5.88689e-03 -7.70992e-03 -6.35362e-03 -4.72930e-03 8.81179e-04 7.90312e-03 2.45659e-04 0 4.61536e-03 4.76945e-03 -3.69832e-03 7.43570e-03 3.08519e-03 -3.04780e-03 7.24098e-03 -2.92619e-03 -6.89173e-03 3.22951e-03 -9.65462e-03 5.82456e-03 7.02933e-03 -3.19908e-03 -1.55285e-02 8.22468e-03 1.53535e-02 -3.36915e-03 -2.60934e-02 1.98575e-02 -7.25541e-03 -1.37009e-02 -1.00878e-02 3.25202e-03 1.11161e-02 1.60189e-03 -1.09273e-03 2.96458e-03 -7.47951e-03 8.83502e-03 3.48705e-03 -1.04046e-02 9.88935e-03 -1.29845e-02 1.01664e-02 1.12013e-02 7.86142e-03 -8.23371e-03 6.88419e-03 -1.89164e-02 -1.54957e-02 -7.21387e-03 6.76510e-03 -3.76887e-04 -1.08325e-02 2.47654e-03 5.67581e-03 0 1.24130e-03 4.81175e-03
1.47132e-02 -1.47438e-02 -4.62952e-03 1.35538e-02 1.66258e-02 5.46383e-03 1.64634e-03 -2.19403e-02 -1.21173e-02 3.64569e-03 2.31753e-02 0 -1.31646e-02 5.26395e-03 -3.00580e-03 -1.32754e-02 -8.93548e-03 -5.80120e-03 1.03537e-03 7.64410e-03 6.89463e-04 7.56970e-04 2.09704e-03 1.03503e-02 -6.74478e-03 8.64929e-03 3.84693e-03 1.62576e-03 -4.79813e-03 1.33358e-03 2.60722e-03 -1.14450e-03 8.06491e-03 -4.67800e-03 -5.71336e-03 2.75955e-03 1.44306e-02 -8.28921e-03 -1.12178e-02 4.61174e-03 1.73335e-02 -1.35712e-02 6.06577e-03 9.86567e-03 5.70595e-03 -5.16857e-03 -6.30759e-03 -2.51059e-04 8.73441e-04 -1.65612e-03 3.69622e-03 -8.24640e-03 -2.66956e-03 7.83948e-03 1.13547e-02 -1.47662e-02 8.65265e-03 1.91353e-02 1.39147e-02 -1.28108e-02 9.79568e-03 -2.18459e-02 -1.92019e-02 -9.94412e-03 6.95403e-03 2.50607e-04 -1.38823e-02 2.52960e-03 9.74522e-03 4.59138e-04 1.47817e-03 4.54197e-03
-1.02255e-02 2.59107e-02 6.18020e-03 -9.97795e-03 -2.58434e-02 -5.55975e-03 6.76897e-03 3.44325e-02 1.84456e-02 1.19744e-02 -4.19525e-02 0 1.75418e-02 9.85169e-03 2.11155e-04 2.42559e-02 -6.96746e-03 4.21790e-03 -2.00907e-03 7.95104e-03 -6.28863e-03 -1.50725e-02 7.68286e-03 -1.32003e-02 5.97880e-03 6.27602e-03 1.59542e-03 -1.20493e-03 -9.04405e-03 -6.29388e-03 -1.30699e-02 -7.85893e-03 -7.52910e-03 2.96378e-03 -8.50333e-03 1.56382e-03 3.92731e-03 -3.27522e-03 5.49212e-03 9.21642e-03 6.78873e-03 -1.50604e-03 1.20307e-02 1.17164e-02 1.30347e-02 -1.49308e-02 0 2.71126e-04 -1.68571e-03 2.31450e-03 -2.01252e-03 -1.57700e-02 -4.69724e-03 -5.43086e-03 9.20763e-03 -7.65494e-03 1.24688e-02 -2.39624e-03 -9.62622e-04 1.08224e-02 7.35346e-03 -6.48690e-04 5.17885e-03 -1.31146e-02 -2.95296e-03 -7.04586e-04 -1.34654e-02 4.04233e-03 -1.04437e-02 -1.74101e-03 -2.80146e-03 -4.08355e-03
-2.21341e-03 -6.56385e-03 8.17801e-03 2.09232e-03 -3.58161e-03 -9.98530e-03 2.32807e-02 1.32131e-02 1.01349e-02 -2.24761e-02 1.30261e-02 -2.47278e-03 2.39627e-02 1.12572e-02 2.81843e-03 -2.32155e-02 8.48918e-03 -4.16163e-03 1.42191e-03 -6.87735e-03 5.67608e-03 1.30564e-02 -5.96162e-03 1.21886e-02 -5.90965e-03 -5.43998e-03 -7.80450e-04 -1.32270e-03 -7.70052e-03 -7.10036e-03 -1.47029e-02 -6.15076e-03 -9.95177e-03 4.98015e-03 -7.02720e-03 1.00066e-03 3.98476e-03 -3.91050e-03 8.79277e-03 9.79777e-03 2.38833e-03 4.04234e-03 9.90248e-03 9.70920e-03 1.34172e-02 -1.65818e-02 1.82193e-03 -6.86001e-04 -2.20671e-03 3.40032e-03 -5.04990e-03 -1.80552e-02 -5.30310e-03 -8.60886e-03 -7.43672e-03 7.47409e-03 -1.35656e-02 0 -8.01613e-04 -1.04039e-02 -7.37460e-03 6.76566e-04 -6.68002e-03 1.30290e-02 1.97900e-03 2.33215e-03 1.54232e-02 -4.66185e-03 1.04155e-02 1.24322e-03 3.36299e-03 5.17201e-03
9.75279e-04 3.72642e-04 9.54732e-04 -3.62551e-04 1.50550e-03 -7.69669e-04 7.72884e-03 2.49905e-03 2.93901e-03 -7.60367e-03 4.59147e-03 -1.44185e-03 1.37781e-02 -7.68767e-03 4.13185e-04 -1.40931e-02 -6.77571e-03 -1.74469e-03 8.93301e-04 2.79506e-03 6.20427e-03 5.78757e-03 1.08933e-02 -1.22481e-02 4.43622e-03 -8.61430e-04 -5.41003e-03 -1.21105e-03 4.01266e-03 -6.54931e-03 -5.77050e-03 1.22599e-02 1.70951e-02 -6.19487e-03 -1.41794e-03 6.25524e-03 1.54049e-02 -1.56622e-02 -9.86404e-03 5.73089e-03 -7.16790e-03 -8.54934e-03 3.61566e-03 -1.87178e-03 -2.23630e-02 -1.24127e-02 1.38495e-02 1.42525e-02 -9.86150e-03 -4.90593e-03 -1.51109e-03 -2.30546e-03 7.94900e-03 1.00695e-02 -3.52112e-03 -2.46006e-03 1.79996e-02 -1.14783e-02 -1.42426e-02 6.15574e-03 -4.99429e-03 -7.11854e-03 5.64079e-03 1.08827e-02 1.35996e-02 -1.11682e-02 2.43853e-03 6.77859e-03 -6.85942e-03 8.85011e-03 -3.49967e-03 1.85197e-03
-1.35153e-02 1.54416e-02 4.07447e-03 -1.29422e-02 -1.61027e-02 -3.62036e-03 -4.54916e-03 1.99308e-02 1.06938e-02 -7.01801e-04 -2.44146e-02 3.32486e-04 1.15326e-02 -8.33047e-03 -7.43718e-04 1.70819e-02 9.98059e-03 1.81233e-03 -9.22689e-04 -3.18489e-03 -6.78970e-03 -6.32891e-03 -1.19515e-02 1.35833e-02 -4.78972e-03 2.79061e-04 6.67003e-03 -8.52191e-04 3.26490e-03 -5.01827e-03 -3.91071e-03 9.51830e-03 1.39799e-02 -5.26563e-03 -5.75857e-04 5.21323e-03 9.72838e-03 -1.10612e-02 -8.36564e-03 3.14418e-03 -6.26938e-03 -7.88809e-03 2.54660e-03 -2.45864e-03 -2.01975e-02 -8.33983e-03 1.17599e-02 1.27080e-02 -8.59077e-03 -4.91834e-03 0 1.22485e-03 7.46552e-03 8.67455e-03 3.36339e-03 4.11033e-03 -2.28728e-02 1.02038e-02 1.42985e-02 -7.29884e-03 4.16845e-03 8.71369e-03 -7.12856e-03 -1.08755e-02 -1.63775e-02 1.41662e-02 5.32389e-04 -8.54423e-03 8.01599e-03 -1.09778e-02 5.08819e-03 -9.36709e-04
7.56364e-03 3.95788e-03 -3.04249e-03 4.58708e-03 1.83567e-03 4.07341e-03 1.55466e-03 -2.71013e-03 -1.88394e-03 1.22304e-02 -5.06856e-03 0 -2.96617e-03 2.22485e-03 0 8.66568e-04 -1.77045e-02 0 -1.03655e-02 8.74262e-03 1.18531e-02 -1.76565e-02 1.78400e-02 -1.21095e-02 1.71475e-03 4.58295e-03 1.41510e-02 -1.33421e-03 -9.44169e-04 2.02134e-03 -1.40170e-03 -2.45368e-03 -1.29623e-03 -1.44961e-04 -5.48821e-04 1.43800e-03 -2.03779e-03 2.52140e-03 -1.60534e-03 -3.77657e-04 2.30895e-03 -1.65760e-03 4.42062e-04 0 -2.05880e-03 6.93105e-04 0 2.02092e-03 1.62145e-03 -1.65413e-03 7.38631e-04 4.59037e-03 -1.40029e-03 5.58881e-04 5.60044e-03 0 -1.89738e-02 -1.48554e-02 -1.75729e-02 -1.12222e-02 6.68860e-04 -1.47606e-02 -1.26542e-02 -2.92136e-03 -8.43991e-03 2.06009e-02 3.03528e-02 1.20062e-02 2.77982e-03 4.83463e-03 1.58693e-02 5.30957e-03
2.22695e-03 -3.45466e-03 3.38693e-03 5.22512e-03 -2.50768e-03 -4.40388e-03 1.05311e-02 5.25880e-03 3.13535e-03 -1.72084e-03 3.11446e-03 -3.67890e-04 1.60762e-03 1.77128e-02 3.61760e-04 -2.85525e-03 1.99035e-03 -1.80809e-04 1.20305e-03 -1.32907e-03 -9.57797e-04 2.78215e-03 -1.96972e-03 1.78935e-03 -7.14395e-04 -6.46564e-04 -2.08316e-03 -9.89162e-03 -9.90713e-03 1.13000e-02 -1.70077e-02 -1.81387e-02 -1.22923e-02 2.69405e-03 -5.20520e-03 1.41011e-02 -1.60534e-02 1.64677e-02 -9.98601e-03 -4.22596e-04 1.54140e-02 -1.20224e-02 5.36102e-03 1.63176e-03 -1.92361e-02 -3.57803e-03 7.95298e-03 2.17642e-02 5.35660e-03 -1.60395e-02 4.03949e-03 3.07214e-02 -1.02819e-02 1.25409e-03 -8.31824e-04 0 2.60663e-03 1.81918e-03 1.76198e-03 1.01852e-03 -3.29078e-04 1.47334e-03 1.33586e-03 1.29997e-03 1.95308e-03 -3.06386e-03 -3.06927e-03 -1.37401e-03 0 2.52796e-04 -2.23316e-03 -4.05933e-04
3.71824e-03 -3.57359e-04 3.85128e-03 7.29622e-03 -5.15390e-03 -6.23695e-03 1.30406e-02 9.25891e-03 4.78872e-03 2.56348e-03 -8.93747e-04 -3.73547e-04 3.17020e-03 9.78864e-03 1.28603e-02 -6.18601e-04 -1.46382e-03 2.20267e-03 3.43610e-03 2.35726e-03 -2.15748e-03 1.05898e-03 1.33490e-03 6.08369e-04 -6.22620e-03 -1.95447e-04 -1.73968e-03 2.34025e-02 -1.52438e-02 -1.63532e-02 8.14272e-03 -7.99873e-03 1.50565e-03 -3.56198e-02 -7.46491e-04 -1.03959e-02 -1.84633e-02 2.00536e-03 -4.46962e-03 7.06006e-04 -4.31544e-03 8.64151e-04 1.27620e-02 -7.67598e-03 -1.09079e-02 -7.63104e-03 -4.89416e-03 -4.75203e-03 7.79002e-03 2.25224e-02 2.36372e-02 3.43892e-03 5.58687e-03 7.50541e-03 2.03425e-03 1.52498e-03 -1.44748e-03 -2.61804e-03 -4.90194e-04 -9.81501e-04 0 7.71188e-04 0 -9.76767e-04 1.70461e-03 -1.12476e-03 9.93379e-04 -1.24809e-03 1.23034e-03 1.96118e-03 -4.15593e-03 3.58873e-03
-5.06668e-03 -7.13764e-03 3.88504e-03 -1.05712e-03 2.62700e-04 -4.57838e-03 1.55272e-03 1.56446e-03 1.17458e-03 -1.09663e-02 9.19493e-03 1.82064e-04 1.63512e-03 1.86529e-03 2.03264e-03 -4.58907e-03 1.01047e-02 -1.30414e-02 -2.34283e-02 -1.82908e-02 1.55963e-02 -8.11324e-03 -8.58613e-03 -2.15393e-03 3.47792e-02 1.61894e-03 1.10183e-02 4.16126e-03 -2.98167e-03 -3.04237e-03 1.56051e-03 -1.32286e-03 0 -5.29803e-03 0 -1.74949e-03 -3.32394e-03 2.46895e-04 -5.09623e-04 2.64714e-04 -6.38213e-04 3.96652e-04 2.03143e-03 -1.17785e-03 -1.97069e-03 -1.62812e-03 1.45932e-04 -3.73988e-04 7.54311e-04 3.21689e-03 3.91902e-03 0 5.70431e-04 1.16173e-03 -1.22790e-02 -8.89265e-03 1.02702e-02 1.83753e-02 2.65526e-03 4.49802e-03 -5.81905e-04 -4.43428e-03 -1.31724e-03 8.35056e-03 -3.63682e-03 4.48806e-03 -2.74487e-03 5.78647e-03 -6.93507e-03 -8.03168e-03 2.27153e-02 -2.25581e-02
3.16381e-04 3.20847e-03 8.59346e-04 1.80041e-04 -3.00759e-03 -2.14629e-04 1.06889e-03 3.55784e-03 1.87919e-03 1.89713e-03 -4.60114e-03 0 3.01419e-03 -8.72592e-04 -2.56034e-03 3.35558e-03 1.27055e-03 -2.36692e-03 3.44703e-03 -1.76261e-02 1.40180e-03 -1.56372e-02 -1.47170e-02 -1.92959e-02 4.68899e-04 1.22168e-02 7.46026e-03 1.49524e-03 1.60721e-02 2.24030e-03 -1.53491e-02 1.30233e-02 -1.64327e-02 1.65285e-03 -1.12432e-02 6.23618e-03 4.30754e-03 -2.97412e-03 -4.33087e-03 -9.90092e-03 -6.82055e-04 -7.62488e-04 2.24099e-03 -4.76253e-03 -2.80778e-03 1.68190e-03 -2.36977e-02 5.01559e-03 1.27207e-02 5.40946e-03 7.71190e-03 -1.97890e-03 9.19478e-03 5.54758e-03 2.30797e-03 5.70834e-03 -2.88351e-03 4.39086e-03 3.89689e-03 -4.60633e-03 -1.09445e-02 2.24069e-04 -1.06499e-03 -2.12822e-04 2.61750e-02 6.52205e-03 -1.66412e-03 -1.07898e-02 5.84899e-03 1.42824e-02 -5.64717e-03 9.04760e-03
-1.26361e-04 0 3.38439e-04 -4.50558e-04 2.10231e-04 -2.64481e-04 1.94114e-03 7.70842e-04 7.76601e-04 -2.66645e-03 1.27269e-03 -2.91067e-04 3.34270e-03 -2.50198e-04 -2.81671e-03 -3.16530e-03 -6.13187e-04 2.08173e-03 -3.68455e-03 1.52336e-02 0 1.35344e-02 1.35280e-02 1.84035e-02 -8.40831e-04 -1.11159e-02 -6.02842e-03 2.84727e-03 1.70538e-02 0 -1.63004e-02 1.54599e-02 -2.05601e-02 3.18353e-03 -1.26534e-02 5.62819e-03 3.46562e-03 -3.60711e-03 -4.81835e-03 -1.10886e-02 1.25073e-04 5.16418e-04 2.38360e-03 -5.78132e-03 -4.23430e-03 2.12104e-03 -2.39524e-02 6.76906e-03 1.47351e-02 5.03622e-03 1.06971e-02 -4.51054e-03 8.21712e-03 8.94855e-03 -2.11001e-03 -5.36376e-03 3.15435e-03 -3.18410e-03 -3.53576e-03 4.17138e-03 9.79952e-03 2.85916e-04 2.91245e-04 1.46513e-04 -2.23108e-02 -6.37420e-03 2.62760e-03 8.74104e-03 -6.57924e-03 -1.31292e-02 4.73439e-03 -9.20758e-03
-1.16053e-03 -3.40710e-03 -1.74529e-03 -1.80097e-03 4.33007e-03 2.14013e-03 -4.89317e-03 -6.24567e-03 -3.33835e-03 -1.69999e-03 4.53610e-03 2.72496e-04 -5.46240e-03 1.81636e-03 -2.83024e-03 -2.45690e-03 -1.32653e-03 -2.11499e-03 3.46485e-03 1.65819e-03 -1.08774e-02 2.20440e-03 -5.74529e-03 -1.23408e-02 9.44569e-03 2.21013e-03 -5.82561e-03 5.23387e-03 -4.21319e-03 -1.90971e-02 5.28476e-03 8.87845e-03 -1.76248e-02 1.62541e-02 -1.64246e-04 -1.12408e-02 -7.56373e-03 -2.77772e-03 2.45528e-04 -7.57772e-04 7.85272e-03 1.05789e-02 -3.36502e-03 -3.05547e-03 -6.83882e-03 6.38585e-03 2.08624e-02 8.89081e-03 4.16162e-03 -1.15358e-02 1.44526e-02 -1.96643e-02 -1.70410e-02 2.45041e-02 -1.67331e-03 2.37349e-03 -4.29209e-03 -4.30823e-03 1.61445e-03 -3.74715e-04 -1.30164e-03 -4.89535e-03 5.91198e-03 4.34902e-03 -9.75578e-03 5.37480e-03 -1.26080e-02 7.54351e-03 1.50781e-02 3.28573e-03 5.88004e-03 9.83832e-03
3.88727e-04 2.25048e-03 -1.40224e-03 -4.07361e-04 -6.55981e-04 1.78303e-03 -4.10562e-03 -1.42177e-03 -1.19260e-03 4.93314e-03 -4.36827e-03 3.04394e-04 -4.11342e-03 5.76508e-04 -1.83137e-03 6.40887e-03 1.59203e-03 3.60508e-03 -4.28542e-03 -5.31201e-03 1.84377e-02 -6.27761e-03 7.26945e-03 1.71923e-02 -1.69999e-02 -1.33062e-03 1.13218e-02 2.32675e-03 -3.07882e-03 -1.09278e-02 3.84101e-03 4.41315e-03 -8.99099e-03 9.86194e-03 7.36226e-04 -6.94800e-03 -4.20503e-03 -1.44650e-03 4.13626e-04 1.57768e-04 4.65159e-03 6.05570e-03 -2.38258e-03 -1.37025e-03 -3.47733e-03 4.16053e-03 1.35766e-02 4.66028e-03 1.59861e-03 -7.37314e-03 7.51294e-03 -1.12716e-02 -1.04656e-02 1.40524e-02 3.82905e-03 -2.85651e-03 6.28574e-03 7.36667e-03 -2.15487e-03 -2.07581e-04 2.58928e-04 8.45648e-03 -1.00454e-02 -8.53655e-03 2.13106e-02 -7.62317e-03 2.12142e-02 -1.47718e-02 -2.50467e-02 -2.98116e-03 -1.16397e-02 -1.45712e-02
-4.27218e-03 -5.60656e-03 -2.92056e-04 -3.35439e-03 4.04887e-03 -4.00762e-04 -3.88925e-03 -4.61037e-03 -2.24636e-03 -6.95952e-03 7.74942e-03 1.90884e-04 -1.96945e-03 -1.40551e-03 3.94940e-04 -3.56294e-03 3.39141e-03 6.07376e-04 9.46372e-03 1.57419e-03 1.96360e-02 2.31632e-02 -2.06292e-02 -1.41720e-02 -1.35093e-02 2.34486e-02 -5.78531e-03 7.33603e-03 -1.89805e-03 1.16883e-02 1.24227e-02 1.26048e-02 -8.37905e-03 -6.70409e-03 -1.38300e-02 -3.39124e-03 -2.01568e-03 1.73482e-04 1.70221e-03 -3.56188e-03 0 6.55161e-03 7.07150e-03 7.50832e-03 -2.60520e-03 -6.66885e-03 2.84064e-03 8.89299e-03 -5.34411e-03 -3.61407e-03 -4.60126e-03 3.12918e-04 -1.71514e-03 -9.94188e-03 1.29470e-02 -1.20844e-02 -4.18385e-03 -3.62491e-03 -1.37518e-03 1.96963e-03 -5.49351e-03 -1.66358e-03 1.15188e-02 -1.18631e-02 -6.34869e-03 1.33508e-02 1.64331e-03 6.97699e-03 -1.52271e-02 -7.97910e-03 5.70612e-03 -7.64407e-03
5.54683e-04 2.03838e-03 -3.31596e-03 -2.07562e-03 2.28143e-03 4.20864e-03 -6.15137e-03 -5.00163e-03 -2.94683e-03 4.08071e-03 -2.73757e-03 2.53480e-04 -4.02807e-03 -4.54358e-03 1.03292e-03 2.72196e-03 -2.74524e-03 -5.56388e-04 -4.53706e-03 -4.12396e-04 -1.15321e-02 -1.36380e-02 1.27176e-02 8.07545e-03 8.13598e-03 -1.42029e-02 3.93924e-03 9.36741e-03 -1.80070e-03 1.94641e-02 2.15042e-02 2.31253e-02 -1.34361e-02 -1.23656e-02 -2.42141e-02 -6.89939e-03 -3.51183e-03 1.09458e-03 1.95550e-03 -5.09976e-03 8.29083e-04 1.18600e-02 1.19824e-02 1.33211e-02 -3.62505e-03 -1.15320e-02 5.21432e-03 1.31722e-02 -7.81586e-03 -5.84444e-03 -7.90769e-03 2.05844e-03 -6.52241e-03 -1.51664e-02 -7.55046e-03 7.30457e-03 2.08229e-03 2.05241e-03 1.04871e-03 -6.59839e-04 2.82154e-03 1.18714e-03 -7.04421e-03 6.75762e-03 4.07125e-03 -6.80044e-03 -1.47188e-03 -5.19367e-03 8.15567e-03 4.52625e-03 -3.35059e-03 4.26814e-03
2.99268e-03 2.70235e-03 -2.28293e-03 0 1.69251e-03 3.18915e-03 8.50638e-04 -1.75642e-03 -7.78132e-04 2.55562e-03 -1.87848e-03 -2.58087e-04 1.15979e-03 -2.60183e-03 4.62210e-04 -4.01145e-03 -9.57525e-03 -1.00772e-03 1.05527e-02 2.48951e-03 1.76645e-02 -1.51008e-02 -1.07346e-03 -4.53961e-03 1.25087e-02 2.19980e-02 -5.49454e-03 -3.35447e-03 1.09051e-03 -3.85460e-03 3.53575e-03 7.10945e-04 1.19328e-03 -3.54296e-03 4.01346e-03 1.16964e-03 -9.16626e-04 6.23716e-04 2.83337e-03 -7.63910e-04 3.10146e-03 -1.55262e-04 2.43414e-04 5.59874e-04 -1.12436e-03 -1.65365e-03 -3.64084e-03 5.01886e-03 6.16206e-03 1.41826e-03 -5.72586e-03 -8.33297e-04 -5.22016e-03 2.96717e-04 -8.91477e-04 1.33923e-03 6.52463e-03 3.45568e-03 2.30178e-03 -1.47786e-02 4.68404e-03 1.30591e-02 3.17077e-03 6.91698e-03 -1.56543e-02 -2.77974e-02 8.51538e-03 -1.68565e-02 -3.85583e-04 -2.74583e-02 2.02777e-03 2.65788e-02
-9.15978e-04 1.50985e-03 -7.15933e-04 -2.07063e-03 1.97711e-04 1.10278e-03 -1.83801e-03 -4.77598e-04 -1.51960e-04 -1.31446e-03 -8.72420e-04 0 3.24186e-03 -8.05130e-03 1.85106e-04 4.84384e-04 1.56136e-03 0 -1.18796e-03 2.15512e-04 -3.40825e-03 3.38005e-03 8.14938e-04 5.56415e-04 -2.39192e-03 -5.07254e-03 1.31028e-03 -8.41900e-03 6.19051e-04 -1.64558e-02 1.54499e-02 -1.79005e-03 3.30258e-03 -1.34228e-02 2.17962e-02 6.50600e-03 -2.79389e-03 3.93781e-04 1.64880e-02 -6.97675e-03 1.20957e-02 -3.10930e-03 7.25887e-04 1.65554e-03 -7.07873e-03 -3.36117e-03 -1.73548e-02 2.96594e-02 2.55136e-02 4.24345e-03 -2.82408e-02 -9.40194e-03 -1.36736e-02 -1.15538e-03 2.53766e-04 -2.63408e-04 -1.75831e-03 -5.94771e-04 -1.34352e-04 3.81583e-03 -1.63069e-03 -2.54922e-03 -9.50323e-04 -9.62970e-04 3.43691e-03 7.24817e-03 -2.59968e-03 2.09916e-03 -5.54888e-04 5.45562e-03 0 -6.18753e-03
6.57199e-04 4.27234e-03 1.24473e-04 -1.01770e-03 -1.83385e-03 1.87342e-04 2.74388e-03 3.52371e-03 2.17488e-03 -1.76973e-03 -2.80665e-03 -4.57616e-04 1.02787e-02 -1.57783e-02 4.49498e-03 -1.73009e-03 -7.14278e-04 -7.07456e-04 2.66464e-03 2.20436e-03 1.00151e-03 2.32862e-03 9.82218e-04 -1.57450e-03 -5.31449e-04 -1.34253e-03 1.37028e-04 -2.50813e-02 1.64054e-02 -6.05918e-03 2.70112e-04 1.68881e-02 9.06506e-03 -8.00483e-03 -9.22112e-03 -3.25618e-03 -4.44981e-03 8.22283e-03 -1.14419e-02 1.18354e-02 7.33731e-03 6.79607e-03 1.36861e-04 2.46920e-03 7.21545e-03 -1.40223e-02 3.15447e-04 -2.30156e-02 1.03130e-02 7.61789e-03 6.01219e-03 1.90445e-02 -3.48099e-02 9.86309e-03 7.63640e-04 -5.92733e-04 -1.55480e-03 2.08339e-04 8.53985e-04 2.80459e-03 -2.34274e-03 -1.63770e-04 -4.60085e-04 1.10661e-03 6.91333e-04 5.87893e-03 -2.76274e-03 -3.13042e-03 -2.15521e-03 0 1.37818e-03 -3.37946e-03
2.84448e-03 -6.01788e-04 -2.44021e-03 0 4.49511e-03 3.36725e-03 1.64999e-03 -4.10800e-03 -1.82480e-03 2.39277e-04 2.70886e-03 -2.46321e-04 -1.13605e-03 2.99122e-03 -4.02440e-04 -9.78005e-03 -1.49715e-02 -5.64504e-03 2.25872e-02 1.74208e-02 6.78210e-03 3.17782e-04 1.68913e-02 -8.27924e-03 7.33248e-03 -9.81921e-03 2.87799e-03 3.52465e-03 -2.15549e-03 7.50306e-04 -1.37441e-03 -3.04577e-03 -8.93549e-04 1.99067e-03 1.04336e-03 6.54863e-04 6.83667e-04 -1.10442e-03 6.52067e-04 -9.79319e-04 -1.54288e-03 -1.11653e-03 -4.11345e-04 -9.70498e-04 -6.07318e-04 2.01206e-03 5.27962e-04 1.22295e-03 -2.18439e-03 -7.70591e-04 9.43875e-04 -2.09199e-03 5.32615e-03 -9.82000e-04 1.77379e-04 2.20982e-03 -7.59982e-03 3.77365e-03 7.95413e-03 1.31029e-02 -1.27488e-02 5.80962e-03 -6.87067e-03 1.37231e-02 1.14676e-03 2.58938e-02 -1.72696e-02 -3.44773e-02 -1.17938e-02 -8.89505e-03 7.40402e-03 -8.37532e-03
6.89704e-03 5.84016e-03 5.61677e-03 1.05863e-02 -1.05789e-02 -7.27172e-03 1.41567e-02 1.46894e-02 7.40742e-03 6.86639e-03 -8.13787e-03 -5.82753e-04 7.30928e-03 -2.36248e-03 1.04214e-02 3.20309e-03 1.57622e-03 6.26324e-03 -9.56060e-03 6.91638e-03 5.79426e-03 -4.24941e-03 -1.66907e-03 -3.92423e-03 -1.00719e-02 1.38240e-03 -1.39909e-02 -1.63341e-02 -1.42797e-02 1.06032e-02 -9.40605e-03 2.39709e-03 -6.72635e-03 -1.87777e-02 -2.32770e-03 -2.65790e-02 8.53091e-03 6.16359e-04 7.48401e-04 -6.13777e-03 4.66533e-04 -2.67396e-04 3.90237e-03 1.00192e-02 4.54672e-03 2.59141e-02 7.84314e-04 -1.37218e-03 0 -5.80845e-03 -1.65791e-02 2.55540e-03 8.92239e-03 2.42795e-02 2.50003e-03 -5.23459e-03 2.11783e-03 4.55944e-03 0 5.24823e-04 -3.24842e-03 -5.11910e-04 0 1.37984e-02 4.03081e-04 -3.10511e-04 1.38081e-03 -5.02848e-03 1.25191e-02 0 3.13251e-03 -8.86548e-03
-4.13842e-03 -8.23151e-03 5.84416e-03 1.60839e-03 -1.53741e-04 -7.82414e-03 6.90452e-03 4.83423e-03 2.97088e-03 -1.02935e-02 1.07422e-02 0 5.32924e-03 -5.57444e-04 5.80520e-03 -9.29677e-03 -1.43171e-03 -1.20925e-02 1.33061e-02 -1.43805e-02 -8.48638e-03 1.22066e-02 7.31802e-03 4.49095e-03 1.72594e-02 -3.17998e-04 2.82652e-02 -7.08900e-03 -7.89063e-03 4.59855e-03 -6.49524e-03 2.52812e-03 -2.47691e-03 -9.46205e-03 -3.79266e-04 -1.44525e-02 3.44599e-03 4.61852e-04 9.61401e-04 -3.00210e-03 0 -5.37398e-04 1.74614e-03 5.83222e-03 2.98365e-03 1.19762e-02 -6.95587e-04 -1.50175e-03 5.68414e-04 -4.66011e-03 -9.07363e-03 2.60392e-03 4.84770e-03 1.33034e-02 -3.90175e-03 1.18391e-02 -5.64592e-03 -5.61874e-03 7.34776e-04 -2.72816e-03 5.61589e-03 0 1.24477e-03 -2.12267e-02 -3.68359e-03 2.44725e-03 -5.99570e-03 9.86609e-03 -2.50669e-02 -1.36879e-03 -1.12686e-02 1.75726e-02
0 -1.49352e-03 -1.22149e-04 -3.93646e-04 1.70901e-03 0 1.82648e-03 -6.47825e-04 0 -2.48161e-03 2.91998e-03 -1.35777e-04 1.08700e-03 2.13047e-04 1.25756e-03 -5.19091e-03 -4.95116e-03 -1.06465e-03 2.94939e-02 5.52421e-03 -9.66290e-03 -1.57592e-02 -2.34208e-02 1.52966e-02 1.03031e-02 -1.00093e-02 -9.88402e-03 -4.74471e-04 -1.75750e-03 5.43316e-04 -1.90088e-03 1.14800e-03 0 -1.62100e-03 2.92626e-04 -3.13071e-03 1.78184e-04 1.30276e-04 5.18399e-04 -5.28309e-04 -1.64558e-04 -2.75617e-04 2.10000e-04 1.48694e-03 8.53446e-04 1.66052e-03 -5.70769e-04 -5.68327e-04 3.94948e-04 -1.89027e-03 -1.95381e-03 1.02034e-03 1.10663e-03 2.75761e-03 -3.64070e-03 -1.17796e-02 7.59792e-03 -1.56432e-02 -2.68235e-03 1.05253e-02 1.56700e-03 4.40049e-03 -4.92897e-03 -2.24617e-02 1.19427e-02 -6.13803e-03 1.44408e-02 -1.69840e-03 2.29630e-03 6.86852e-03 3.25760e-02 -3.94024e-03
4.69855e-04 1.51292e-03 2.02340e-04 -2.31049e-04 -7.12278e-04 1.34166e-04 1.52323e-03 1.43932e-03 9.29882e-04 -1.18230e-03 -7.63031e-04 -1.94329e-04 4.08243e-03 -4.38634e-03 -9.10407e-04 -1.04811e-03 0 -8.56331e-04 2.13096e-03 -7.32227e-04 -9.41356e-04 1.69402e-04 -6.62843e-04 9.84246e-04 1.53062e-03 -4.31225e-04 1.33081e-03 -2.77380e-02 4.96374e-03 9.43425e-03 1.85389e-02 -2.24791e-02 -1.58979e-02 -6.75097e-03 -1.07293e-02 1.28231e-02 1.48683e-02 -1.17885e-03 -1.10534e-02 -9.50847e-04 4.07752e-03 5.20365e-03 3.73281e-03 -1.25707e-02 -8.90144e-03 1.86879e-02 1.33821e-02 6.79959e-03 -9.03909e-03 3.26613e-02 7.82721e-03 -1.53575e-02 -3.64967e-03 -5.51064e-03 -3.96477e-04 1.91372e-04 0 -1.04500e-03 0 3.11140e-04 4.13696e-04 1.68032e-04 -1.20008e-04 -2.29448e-03 2.76373e-04 0 2.37825e-04 6.32712e-04 -1.51654e-03 2.32956e-04 7.69718e-04 8.94185e-04
6.94127e-04 8.37833e-04 0 4.96858e-04 -5.03433e-04 3.48522e-04 0 3.39918e-04 1.19501e-04 1.20119e-03 -1.19913e-03 0 -1.87907e-04 0 0 4.55709e-04 -6.57553e-04 -4.17863e-03 -1.26626e-02 2.65167e-02 -5.82070e-03 -6.22165e-03 -2.68187e-02 5.54750e-03 -1.55591e-02 -7.47245e-04 2.57560e-02 0 0 0 0 1.47426e-04 0 0 0 1.92079e-04 0 0 0 0 0 0 0 0 0 0 0 0 1.29977e-04 -1.06114e-04 1.38355e-04 0 0 -2.60850e-04 -1.72335e-03 -2.61922e-03 -1.88597e-03 1.75283e-03 -3.33749e-03 -6.90166e-04 -3.66939e-04 2.46678e-03 1.86825e-03 2.41942e-02 -7.77730e-03 -1.02627e-02 -1.06310e-02 -1.26312e-03 -2.60695e-02 2.08370e-02 1.43982e-02 1.55321e-02
3.98344e-04 9.48009e-04 -4.38712e-04 -4.84767e-04 0 9.59489e-04 0 -1.50941e-04 0 -2.29033e-04 -7.10939e-04 0 8.02378e-04 1.13025e-03 -4.07440e-03 0 0 0 0 -2.05372e-04 0 0 1.33560e-04 0 1.09780e-04 0 -1.15544e-04 -1.12045e-02 -2.73192e-02 -6.83757e-03 -7.80890e-03 2.59511e-02 6.73330e-03 -1.49766e-02 -1.35453e-03 2.61890e-02 1.62808e-03 3.53807e-03 -5.46103e-04 -1.63904e-04 -2.63511e-03 1.82668e-03 -1.96709e-03 2.60475e-03 -1.74050e-03 2.32920e-02 9.85085e-03 -1.05469e-02 2.21152e-02 -1.36259e-02 1.42367e-02 -1.13813e-02 1.88766e-03 -2.54330e-02 0 0 0 0 0 0 0 0 0 -1.42894e-04 0 0 0 0 0 -1.22329e-04 0 0
7.05373e-04 -1.29703e-03 3.27138e-03 4.13178e-03 -2.96372e-03 -4.49421e-03 3.75355e-03 4.41276e-03 2.13396e-03 1.12832e-03 3.99011e-04 0 1.74399e-04 6.31316e-04 3.97726e-03 -3.34694e-04 -1.23090e-04 3.67118e-04 1.63392e-03 -1.08859e-03 2.18754e-04 -2.07770e-03 -5.71034e-04 1.83930e-03 0 4.34612e-04 -1.63663e-03 1.66974e-02 1.21183e-02 2.48563e-03 -2.50694e-02 5.37175e-03 2.23139e-02 0 -4.37454e-03 -1.89914e-02 -5.38343e-03 -1.07711e-03 -1.49878e-04 6.89723e-04 9.46855e-03 -7.13943e-03 2.89058e-03 -3.79555e-03 -2.61090e-03 2.94904e-02 -2.82024e-03 1.75962e-02 -1.34607e-02 1.24341e-02 3.37777e-03 -6.75969e-03 -2.85467e-02 -2.12310e-02 2.24617e-04 3.30274e-04 -2.12125e-04 -5.00438e-04 0 0 1.37296e-04 -7.67493e-04 -6.44577e-04 2.36176e-03 2.98755e-04 1.59491e-03 -7.13539e-04 2.45086e-03 -1.75776e-03 -1.04723e-03 -1.01911e-03 2.67845e-04
-2.84841e-03 -3.75539e-03 2.18669e-03 0 1.26131e-04 -2.97460e-03 -2.95338e-04 6.90951e-04 3.73150e-04 -2.75765e-03 3.70997e-03 1.93391e-04 3.28519e-04 0 3.47274e-04 -7.61488e-04 8.43105e-04 -4.45745e-03 -1.72022e-02 1.07975e-02 -2.33108e-03 2.52940e-02 8.01485e-03 -2.12567e-02 0 -5.21054e-03 1.90611e-02 1.29147e-03 8.81832e-04 1.94350e-04 -2.18944e-03 5.27782e-04 1.86648e-03 0 -3.77313e-04 -1.60280e-03 -4.27766e-04 0 0 0 8.07135e-04 -6.06516e-04 2.53117e-04 -3.32545e-04 -2.13828e-04 2.57120e-03 -2.73336e-04 1.47050e-03 -1.17989e-03 1.16421e-03 2.27256e-04 -5.35355e-04 -2.42427e-03 -1.71640e-03 -2.75170e-03 -4.09617e-03 2.38608e-03 5.46204e-03 -6.18145e-04 2.75997e-04 -1.42588e-03 9.16454e-03 7.61485e-03 -2.88937e-02 -4.15367e-03 -1.85632e-02 7.86887e-03 -2.90919e-02 1.94746e-02 1.28561e-02 1.38169e-02 -2.11887e-03
-3.77697e-03 -2.74727e-03 -3.24170e-03 -6.35974e-03 5.71209e-03 4.00482e-03 -4.70481e-03 -6.52177e-03 -3.08912e-03 -4.21918e-03 4.07496e-03 2.04312e-04 -1.69982e-03 3.24764e-03 -3.10003e-03 -2.33280e-03 -3.06944e-03 -4.10741e-03 -2.59651e-03 2.69112e-02 -4.24233e-03 -4.57389e-04 -1.83736e-02 -2.01226e-03 1.40527e-02 5.35074e-04 9.71056e-03 0 -2.48812e-02 -5.45082e-03 -2.23821e-03 1.71086e-02 -1.36562e-03 1.23645e-02 -4.92042e-04 9.87856e-03 -9.19526e-04 1.34591e-03 7.13396e-04 -1.17570e-03 3.81235e-04 -1.72066e-04 0 -5.30555e-03 1.08179e-04 9.36683e-04 -8.24835e-03 1.18777e-03 -1.61624e-02 2.21886e-02 -1.07306e-02 1.00658e-02 -4.59382e-03 9.36003e-03 -5.13284e-04 5.79940e-03 1.85505e-04 -6.98356e-04 -1.60708e-03 3.92438e-04 -1.18537e-03 -3.44848e-04 -2.11700e-04 -8.99722e-04 8.86981e-03 2.37277e-03 9.88964e-03 4.53754e-03 9.28347e-03 -1.43679e-02 -2.38272e-02 -1.13767e-02
-1.14861e-03 -3.52110e-03 4.54459e-03 3.44094e-03 -2.23616e-03 -6.04882e-03 4.08692e-03 4.72212e-03 2.45100e-03 -1.98970e-03 3.45701e-03 0 2.87224e-03 -3.11060e-03 3.58465e-03 -3.46470e-03 -2.83358e-03 -4.11111e-03 -1.94738e-03 2.54492e-02 -4.18153e-03 -1.68995e-04 -1.74795e-02 -2.02073e-03 1.34210e-02 5.80196e-04 9.86915e-03 -1.26089e-04 2.59725e-02 5.75626e-03 1.96725e-03 -1.79679e-02 1.48231e-03 -1.32134e-02 4.97784e-04 -1.06644e-02 9.97056e-04 -1.39877e-03 -7.89000e-04 1.21445e-03 -3.48779e-04 1.26504e-04 0 5.57018e-03 -1.03301e-04 -6.72888e-04 8.59810e-03 -1.21124e-03 1.68832e-02 -2.31211e-02 1.11975e-02 -1.05470e-02 4.73856e-03 -9.73415e-03 -5.07906e-04 5.49048e-03 1.92496e-04 -7.92717e-04 -1.50238e-03 4.95186e-04 -1.11555e-03 -3.09230e-04 -1.46584e-04 -9.08003e-04 8.34511e-03 2.07558e-03 9.47440e-03 4.41114e-03 8.99339e-03 -1.38776e-02 -2.25877e-02 -1.11060e-02
1.53187e-03 1.86454e-03 -1.16226e-03 -1.39861e-04 2.24590e-04 1.88657e-03 3.10188e-04 -4.92513e-04 -2.31019e-04 1.03747e-03 -1.63393e-03 0 -1.19123e-04 0 0 -7.07949e-04 -1.98059e-03 -4.03468e-03 2.60656e-02 -1.52856e-02 -1.02994e-02 -4.44920e-03 6.11789e-03 -8.37523e-03 -2.17116e-02 7.10525e-03 3.62401e-02 2.76512e-04 -1.02292e-04 -1.58543e-04 0 1.25046e-04 0 0 -1.06083e-04 4.68370e-04 0 0 0 0 0 0 0 0 0 1.78521e-04 0 -1.49669e-04 -3.25377e-04 1.92402e-04 -3.64035e-04 1.32655e-04 -1.57005e-04 2.71696e-04 1.50555e-03 -5.15294e-03 2.33852e-03 -6.50416e-03 1.91489e-03 6.75743e-03 0 -1.27161e-03 1.25856e-03 1.84582e-02 -6.82573e-03 -1.69464e-02 6.63702e-04 1.00967e-02 1.79601e-02 -1.36843e-02 5.48348e-03 -2.50278e-02
-3.64705e-04 -6.89253e-04 6.28408e-04 5.44630e-04 -3.09555e-04 -1.07717e-03 0 4.97243e-04 1.83087e-04 1.54260e-04 4.78041e-04 0 0 -2.24229e-03 3.46159e-03 0 0 0 2.73277e-04 -1.64757e-04 0 0 0 0 -2.36487e-04 0 3.39918e-04 -2.45650e-02 -1.94793e-02 9.65495e-03 4.26912e-03 7.56801e-03 8.55814e-03 2.14672e-02 1.02483e-02 -3.56415e-02 6.05358e-03 2.88475e-03 -6.62842e-03 0 -1.19937e-03 -1.29254e-03 -1.28004e-03 -5.47548e-03 -2.42348e-03 -1.76763e-02 -9.36323e-03 1.71162e-02 1.27058e-02 6.66380e-03 2.40676e-02 -1.02415e-03 1.03708e-02 -1.67892e-02 0 0 0 0 0 0 0 0 0 2.01065e-04 0 -1.68012e-04 0 0 1.71663e-04 -1.29841e-04 0 -2.39947e-04
6.38473e-02 1.05145e-01 -9.81849e-02 -6.26523e-02 4.11850e-02 1.36098e-01 1.24268e-02 -5.75034e-02 -2.49065e-02 -9.26709e-03 -6.48445e-02 -6.28351e-03 5.92255e-03 5.33075e-03 5.36400e-03 -6.09581e-03 7.19894e-03 -2.21648e-03 -8.16750e-04 -6.48693e-04 -1.98702e-04 2.60471e-03 -1.30205e-03 2.38993e-04 1.53813e-03 0 9.20636e-04 0 3.34339e-04 7.19603e-04 -2.33365e-03 -1.87034e-03 1.50430e-04 -2.21654e-03 0 -2.94824e-03 0 0 -2.31491e-04 0 1.18392e-04 -2.68063e-04 3.00129e-04 3.71534e-04 0 1.21595e-03 2.46001e-04 1.08227e-04 5.87619e-04 -8.16898e-04 5.02669e-04 -3.42741e-04 3.45932e-04 0 -2.26484e-04 1.91497e-04 0 1.21958e-04 0 0 0 0 2.85723e-04 -1.31733e-03 0 2.11046e-04 1.87423e-04 3.91050e-04 -3.31704e-04 1.44345e-04 -3.58233e-04 0
-8.85243e-02 -6.37675e-02 -2.02195e-02 -9.12977e-02 6.49070e-02 1.56729e-02 -4.94879e-02 -5.78476e-02 -2.62608e-02 -5.28907e-02 6.20128e-02 4.62823e-03 2.11943e-02 7.90048e-03 6.74097e-03 2.08275e-02 -8.81630e-03 2.45220e-03 -8.64923e-04 2.38935e-04 0 -3.62450e-03 1.80903e-03 -5.97610e-04 -2.87958e-03 0 -1.36099e-03 -1.42782e-03 2.44102e-04 4.04659e-04 -3.52072e-03 -2.23337e-03 -3.73413e-04 -3.69886e-03 0 -2.78921e-03 1.84437e-04 0 -4.04599e-04 0 1.46314e-04 -2.50698e-04 3.19528e-04 4.54997e-04 0 1.29793e-03 1.90457e-04 -3.95892e-04 6.85153e-04 -5.21964e-04 2.24136e-04 -4.33672e-04 3.89594e-04 5.04389e-04 2.53656e-04 -3.32098e-04 0 1.15604e-04 0 -3.03816e-04 0 0 -2.86681e-04 1.22087e-03 0 -4.82479e-04 -4.74452e-04 -5.41012e-04 4.85171e-04 3.27401e-04 3.96153e-04 1.27427e-04
2.38138e-02 2.17742e-02 -1.43836e-02 -2.30470e-02 1.09613e-02 2.28747e-02 1.07531e-01 3.22924e-02 2.23198e-02 -1.08266e-01 3.68509e-02 -4.42465e-03 -1.57154e-02 -7.16189e-03 -5.05362e-03 1.54592e-02 -8.01423e-03 1.20838e-03 -2.60733e-04 3.98219e-04 0 -1.52977e-03 7.03682e-04 -3.54387e-04 -9.77132e-04 0 -3.73190e-04 4.60595e-04 2.38510e-04 0 1.49378e-03 8.19178e-04 2.86926e-04 1.34658e-03 0 8.83837e-04 0 0 1.43701e-04 0 0 0 0 0 0 -2.16226e-04 0 1.52426e-04 0 0 0 0 -1.41869e-04 -1.85857e-04 0 0 0 0 0 -1.19846e-04 0 0 0 1.81058e-04 0 -1.49782e-04 -1.51880e-04 -2.05425e-04 1.49027e-04 0 0 0
1.13415e-01 6.54781e-02 1.95464e-02 1.14686e-01 -6.47311e-02 -1.41338e-02 -8.50609e-02 -1.09679e-02 -1.32835e-02 -8.50901e-02 1.44277e-02 -6.68778e-03 6.60872e-03 4.11216e-03 2.89816e-03 6.54811e-03 -4.76861e-03 6.40237e-04 0 1.91979e-04 0 -4.84656e-04 2.35278e-04 -1.24910e-04 -2.58429e-04 0 0 0 -1.33371e-04 0 -4.69371e-04 -2.64518e-04 -1.04600e-04 -3.88189e-04 0 -2.67446e-04 0 0 0 0 0 0 0 0 0 0 0 0 0 0 0 0 0 0 0 0 0 0 0 0 0 0 0 0 0 0 0 0 0 0 0 0
-2.07195e-02 7.04003e-02 1.46022e-01 1.87892e-02 1.32711e-01 -9.34984e-02 2.49096e-02 -3.87078e-02 -4.24668e-02 -2.40206e-02 -5.48767e-02 1.82665e-02 -1.15455e-04 3.55056e-04 2.97329e-04 1.10876e-04 4.58669e-04 0 0 0 0 0 0 0 0 0 0 0 0 0 0 0 0 0 0 0 0 0 0 0 0 0 0 0 0 0 0 0 0 0 0 0 0 0 0 0 0 0 0 0 0 0 0 0 0 0 0 0 0 0 0 0
-5.87551e-02 1.16911e-01 1.00221e-01 -5.62030e-02 -1.51865e-01 3.07201e-02 2.63441e-02 -3.67738e-02 -4.09454e-02 2.54969e-02 5.24751e-02 -1.78670e-02 -1.37685e-04 2.42297e-04 2.02196e-04 -1.34254e-04 -3.13945e-04 0 0 0 0 0 0 0 0 0 0 0 0 0 0 0 0 0 0 0 0 0 0 0 0 0 0 0 0 0 0 0 0 0 0 0 0 0 0 0 0 0 0 0 0 0 0 0 0 0 0 0 0 0 0 0
1.74943e-01 -3.64484e-02 5.60497e-02 -1.74522e-01 -7.81929e-03 -6.74970e-02 -1.33339e-02 7.05163e-03 6.28396e-03 1.31770e-02 9.44983e-03 -2.01682e-03 0 2.13041e-04 1.46747e-04 0 2.57258e-04 0 0 0 0 0 0 0 0 0 0 0 0 0 0 0 0 0 0 0 0 0 0 0 0 0 0 0 0 0 0 0 0 0 0 0 0 0 0 0 0 0 0 0 0 0 0 0 0 0 0 0 0 0 0 0
13
14
15
16
17
18
19
20
21
22
23
24
