14
12.0107 12.0107 1.0079 1.0079 1.0079 12.0107 1.0079 1.0079 12.0107 1.0079 1.0079 1.0079 1.0079 1.0079
6.28318 6.28318
0.0 0.0
1.88365e-06 4.76803 7.68386 13.0007 17.223 17.3955 21.8773 40.4506 43.5206 72.6432 89.8618 157.254 176.912 177.374 186.841 190.985 205.576 206.248 222.779 227.948 248.96 254.404 267.443 267.486 270.462 272.193 273.333 278.714 278.999 291.382 299.971 321.631 533.039 533.058 540.093 542.081 553.373 553.97 554.539 554.633 554.995 556.072
0 0 0 0 0 0 -4.34462e-02 4.31176e-02 -1.05490e-01 -1.23877e-03 7.08005e-02 9.96831e-02 4.46739e-02 -1.13288e-01 6.69345e-03 1.68904e-03 -9.65352e-02 -1.35916e-01 4.33872e-02 -4.24459e-02 1.06252e-01 -4.46354e-02 1.13787e-01 -5.80750e-03 1.68903e-03 -9.65354e-02 -1.35916e-01 -4.16981e-02 -5.40893e-02 -2.42168e-01 4.63244e-02 -2.10322e-01 -1.30109e-01 -4.29849e-02 1.67529e-02 -1.42610e-01 2.92781e-03 -1.67336e-01 -2.35600e-01 4.51352e-02 -1.39653e-01 -3.04267e-02
-2.10320e-02 2.41428e-02 -1.74090e-02 1.66895e-02 -4.29456e-02 3.07098e-02 -5.88140e-02 3.00496e-02 -2.21011e-02 2.69145e-02 6.20602e-02 -4.37441e-02 -5.88145e-02 3.00753e-02 -2.20648e-02 -5.05550e-02 -9.73511e-02 6.85159e-02 5.52676e-02 -4.84234e-02 3.53248e-02 5.52716e-02 -4.86546e-02 3.49992e-02 -1.08423e-02 -1.68105e-01 1.19263e-01 -9.00651e-02 -9.19252e-02 6.42818e-02 -9.00633e-02 -9.20299e-02 6.41346e-02 2.87425e-02 -1.74342e-01 1.24149e-01 -6.13620e-02 -2.08067e-01 1.47018e-01 2.87419e-02 -1.74309e-01 1.24196e-01
-5.54785e-04 3.17079e-02 4.46430e-02 7.42221e-04 -4.24210e-02 -5.97263e-02 -2.77639e-02 -1.96830e-02 1.94598e-01 3.73747e-04 -2.13609e-02 -3.00750e-02 2.47747e-02 1.90530e-01 4.59455e-02 -6.52395e-04 3.72863e-02 5.24971e-02 2.51950e-02 1.28552e-02 -2.20383e-01 -2.17002e-02 -2.12594e-01 -6.08387e-02 1.52454e-03 -8.71341e-02 -1.22680e-01 -6.12718e-02 -3.06624e-02 2.58555e-01 5.73479e-02 2.54923e-01 5.71908e-02 -4.93290e-02 -3.27597e-01 -1.26198e-01 2.48809e-04 -1.42215e-02 -2.00230e-02 5.52470e-02 -1.06391e-02 -3.50020e-01
-1.25993e-01 1.77958e-02 -1.42053e-02 -1.27412e-01 1.86877e-02 -1.48564e-02 -1.25987e-01 1.78147e-02 -1.42618e-02 -1.26841e-01 1.71971e-02 -1.37906e-02 -1.25987e-01 1.78555e-02 -1.42044e-02 -1.30324e-01 1.83069e-02 -1.46221e-02 -1.27868e-01 1.86207e-02 -1.45410e-02 -1.27864e-01 1.83625e-02 -1.49045e-02 -1.31940e-01 1.94248e-02 -1.54362e-02 -1.30558e-01 1.84821e-02 -1.50451e-02 -1.30563e-01 1.87612e-02 -1.46521e-02 -1.32955e-01 1.95808e-02 -1.55600e-02 -1.31086e-01 2.01769e-02 -1.59598e-02 -1.32955e-01 1.95811e-02 -1.55595e-02
1.16986e-02 1.65207e-01 -1.17194e-01 4.72017e-02 1.02538e-01 -7.22415e-02 -2.42221e-02 1.71271e-01 -1.22527e-01 5.77136e-02 2.01763e-01 -1.42586e-01 -2.42316e-02 1.71818e-01 -1.21756e-01 -1.37546e-02 5.39647e-02 -3.84997e-02 8.30430e-02 9.77977e-02 -6.86768e-02 8.30388e-02 9.80314e-02 -6.83478e-02 2.31310e-02 -1.11168e-02 8.18325e-03 -5.01141e-02 5.90168e-02 -4.24256e-02 -5.01122e-02 5.89090e-02 -4.25774e-02 6.00102e-02 -1.69822e-02 1.27321e-02 -2.37219e-02 -4.81981e-02 3.39381e-02 6.00090e-02 -1.69111e-02 1.28323e-02
1.86720e-03 -1.06718e-01 -1.50253e-01 1.60357e-03 -9.16497e-02 -1.29038e-01 5.09034e-02 -1.38999e-01 -7.67886e-02 2.92111e-03 -1.66953e-01 -2.35060e-01 -4.79937e-02 -2.73006e-02 -1.57352e-01 6.00292e-04 -3.43096e-02 -4.83060e-02 -3.71848e-02 -6.96389e-02 -1.80102e-01 4.09693e-02 -1.46656e-01 -1.24429e-01 -1.11454e-04 6.37060e-03 8.96946e-03 5.82728e-02 -4.92501e-02 -2.27918e-02 -5.73066e-02 -5.97614e-03 -5.49637e-02 5.97070e-02 -2.49234e-02 1.65918e-02 -8.98027e-04 5.13254e-02 7.22633e-02 -5.96763e-02 2.31747e-02 -1.90537e-02
1.30380e-03 -7.45176e-02 -1.04917e-01 -9.96893e-04 5.69768e-02 8.02201e-02 5.09801e-02 1.48653e-02 -3.67121e-01 -2.49692e-04 1.42711e-02 2.00928e-02 -4.50798e-02 -3.52095e-01 -1.07679e-01 -8.54490e-04 4.88377e-02 6.87607e-02 -9.52723e-02 1.75326e-02 2.16783e-01 9.14661e-02 2.00007e-01 8.95001e-02 6.31946e-04 -3.61184e-02 -5.08526e-02 -6.56734e-02 2.98465e-02 1.40180e-01 6.29942e-02 1.23282e-01 7.54159e-02 -2.44184e-02 -2.24913e-01 -5.19155e-02 -4.80851e-04 2.74826e-02 3.86939e-02 2.79097e-02 2.53698e-02 -2.29030e-01
5.24320e-04 -2.99671e-02 -4.21920e-02 -4.98188e-04 2.84736e-02 4.00892e-02 1.67764e-01 -1.41283e-01 2.12910e-01 4.17709e-03 -2.38739e-01 -3.36130e-01 -1.69589e-01 2.45586e-01 -6.60575e-02 -5.74098e-04 3.28122e-02 4.61977e-02 -3.94212e-02 2.07513e-02 7.32371e-02 3.79599e-02 6.27693e-02 4.43551e-02 4.46084e-04 -2.54956e-02 -3.58964e-02 -3.67876e-02 2.23135e-02 8.64389e-02 3.50904e-02 7.46876e-02 5.01331e-02 -1.89394e-01 3.05307e-01 -6.27128e-02 4.68459e-03 -2.67744e-01 -3.76969e-01 1.86809e-01 -1.57568e-01 2.70722e-01
0 -7.41673e-04 -1.04423e-03 8.38789e-04 -4.79404e-02 -6.74973e-02 -1.67410e-01 1.24334e-01 -2.94930e-01 -3.91525e-03 2.23773e-01 3.15060e-01 1.70788e-01 -3.17441e-01 2.30459e-02 -6.35157e-04 3.63019e-02 5.11111e-02 1.02084e-02 -2.52411e-03 -1.97975e-01 -6.90643e-03 -1.86197e-01 -6.77332e-02 0 2.94998e-03 4.15341e-03 -3.48173e-04 -6.03664e-03 1.69974e-01 -2.38878e-03 1.62465e-01 5.02688e-02 -1.42658e-01 2.87105e-01 -1.61492e-02 3.36724e-03 -1.92452e-01 -2.70962e-01 1.39527e-01 -1.08159e-01 2.68096e-01
-4.29526e-02 7.67442e-02 -5.50418e-02 4.82727e-02 -9.22770e-02 6.61401e-02 -1.50551e-01 9.80523e-02 -7.80563e-02 9.95383e-02 1.91604e-01 -1.34851e-01 -1.50660e-01 1.04230e-01 -6.93589e-02 4.51622e-02 -9.48849e-02 6.79538e-02 9.97228e-02 -9.51833e-02 5.63566e-02 9.95165e-02 -8.33942e-02 7.29550e-02 -4.76225e-02 7.40965e-02 -5.32193e-02 9.49410e-02 -9.73450e-02 5.72630e-02 9.47253e-02 -8.50181e-02 7.46185e-02 -1.55527e-01 1.01222e-01 -6.75086e-02 9.46381e-02 1.88795e-01 -1.32917e-01 -1.55423e-01 9.52577e-02 -7.59067e-02
1.58513e-01 -1.04452e-02 9.38857e-03 7.72469e-02 3.05573e-02 -2.07435e-02 2.16208e-01 -1.93320e-02 1.72515e-02 1.15823e-01 -4.83517e-02 3.57814e-02 2.16221e-01 -2.01194e-02 1.61429e-02 -7.35364e-02 -2.72063e-02 1.84096e-02 9.10280e-02 2.25056e-02 5.17071e-04 9.12819e-02 7.99421e-03 -1.99142e-02 -1.52462e-01 8.54484e-03 -7.96367e-03 -8.81950e-02 -1.90331e-02 -2.69970e-03 -8.84448e-02 -4.75634e-03 1.74012e-02 -2.05524e-01 1.70172e-02 -1.41221e-02 -1.14366e-01 4.26162e-02 -3.16896e-02 -2.05515e-01 1.65277e-02 -1.48113e-02
0 1.42180e-03 2.00182e-03 5.94499e-04 -3.39782e-02 -4.78393e-02 -1.12585e-01 -2.47587e-02 1.09079e-01 -9.18239e-04 5.24813e-02 7.38906e-02 1.11051e-01 1.12459e-01 1.43983e-02 5.97911e-04 -3.41732e-02 -4.81139e-02 -3.77829e-02 -1.94692e-01 3.96078e-01 3.35167e-02 4.38522e-01 -5.27797e-02 0 1.45262e-03 2.04521e-03 -3.85362e-02 -1.96139e-01 3.99419e-01 3.42317e-02 4.42161e-01 -5.30337e-02 1.11870e-01 1.13307e-01 1.45357e-02 -9.25964e-04 5.29228e-02 7.45123e-02 -1.13417e-01 -2.49179e-02 1.09911e-01
3.17358e-04 -1.81383e-02 -2.55377e-02 8.02420e-04 -4.58618e-02 -6.45708e-02 -2.32381e-01 -6.70063e-02 1.70025e-01 -1.83265e-03 1.04744e-01 1.47474e-01 2.30310e-01 1.85323e-01 -3.44277e-03 -7.90886e-04 4.52024e-02 6.36425e-02 -1.21358e-01 -1.56456e-01 2.52462e-01 1.18998e-01 2.91317e-01 -6.25847e-02 -3.12455e-04 1.78582e-02 2.51433e-02 1.21322e-01 1.54706e-01 -2.50696e-01 -1.18971e-01 -2.89074e-01 6.15142e-02 -2.28817e-01 -1.84452e-01 3.16386e-03 1.82819e-03 -1.04489e-01 -1.47114e-01 2.30882e-01 6.64388e-02 -1.69320e-01
3.17560e-02 -3.50427e-02 2.52839e-02 3.65350e-02 -8.74995e-02 6.26011e-02 -2.02473e-01 2.30532e-02 -7.17818e-02 3.22727e-01 1.87242e-01 -1.28979e-01 -2.03346e-01 7.29887e-02 -1.47556e-03 -3.52095e-02 8.69311e-02 -6.21809e-02 8.40660e-02 -1.14189e-01 1.01394e-01 8.43839e-02 -1.32359e-01 7.58113e-02 -3.24061e-02 3.44285e-02 -2.48557e-02 -8.10715e-02 1.13299e-01 -1.00647e-01 -8.13881e-02 1.31396e-01 -7.51679e-02 2.02291e-01 -7.44276e-02 1.92905e-03 -3.23879e-01 -1.88265e-01 1.29691e-01 2.01409e-01 -2.39678e-02 7.29736e-02
9.24626e-02 1.78857e-02 -1.15544e-02 -9.22578e-02 -3.39131e-02 2.29405e-02 1.05335e-01 4.65942e-02 -8.49973e-02 2.42513e-01 1.28474e-01 -8.82359e-02 1.04456e-01 9.68322e-02 -1.42650e-02 -1.03945e-01 -3.55448e-02 2.39542e-02 -2.03614e-01 -4.07282e-02 5.87237e-02 -2.03080e-01 -7.12477e-02 1.57539e-02 9.87300e-02 2.18553e-02 -1.42960e-02 -2.39844e-01 -3.91535e-02 5.66662e-02 -2.39318e-01 -6.92115e-02 1.43462e-02 1.16825e-01 1.07473e-01 -1.68525e-02 2.58673e-01 1.40125e-01 -9.63103e-02 1.17784e-01 5.26878e-02 -9.39874e-02
-6.51958e-02 -3.01206e-02 2.05832e-02 1.03693e-01 1.98791e-02 -1.28306e-02 -1.05361e-01 -5.74455e-02 9.53997e-02 -1.98725e-01 -1.32449e-01 9.16028e-02 -1.04438e-01 -1.10228e-01 2.10844e-02 -9.32064e-02 -1.65491e-02 1.05959e-02 3.41689e-01 -7.96426e-03 9.27894e-03 3.41678e-01 -7.37525e-03 1.01082e-02 5.49560e-02 2.86463e-02 -1.96633e-02 -3.15622e-01 1.16198e-02 -1.52308e-02 -3.15672e-01 1.45045e-02 -1.11692e-02 9.48511e-02 9.79315e-02 -1.96382e-02 1.68243e-01 1.15984e-01 -8.02876e-02 9.56562e-02 5.19165e-02 -8.44248e-02
-7.83830e-04 4.47993e-02 6.30748e-02 4.59238e-04 -2.62475e-02 -3.69550e-02 2.84252e-01 1.18084e-01 -1.91501e-01 2.32901e-03 -1.33113e-01 -1.87416e-01 -2.82416e-01 -2.23034e-01 4.37381e-02 4.71611e-04 -2.69546e-02 -3.79505e-02 1.48168e-01 -9.42599e-02 9.10641e-02 -1.48536e-01 1.15289e-01 -6.14564e-02 -7.92051e-04 4.52691e-02 6.37363e-02 1.46725e-01 -9.62570e-02 9.35266e-02 -1.47110e-01 1.18289e-01 -6.25073e-02 -2.86025e-01 -2.26384e-01 4.41285e-02 2.36822e-03 -1.35354e-01 -1.90571e-01 2.87893e-01 1.19599e-01 -1.94475e-01
-1.23049e-02 7.08312e-02 -5.04612e-02 -2.46656e-02 -3.78373e-02 2.65677e-02 3.18296e-01 -5.63030e-03 8.58112e-02 -3.07334e-01 -1.47692e-01 1.01080e-01 3.19582e-01 -7.91350e-02 -1.76793e-02 -2.37886e-02 -3.89573e-02 2.73740e-02 5.01626e-02 -6.50645e-02 6.56167e-02 5.04729e-02 -8.27956e-02 4.06523e-02 -1.26408e-02 7.10120e-02 -5.05938e-02 5.39165e-02 -6.70019e-02 6.75183e-02 5.42346e-02 -8.51851e-02 4.19174e-02 3.21859e-01 -8.17820e-02 -1.74807e-02 -3.11374e-01 -1.50358e-01 1.02923e-01 3.20545e-01 -6.66311e-03 8.82825e-02
8.46923e-04 -4.84053e-02 -6.81519e-02 -9.80903e-04 5.60628e-02 7.89332e-02 -2.21142e-01 -1.17604e-01 1.45718e-01 -1.92014e-03 1.09744e-01 1.54513e-01 2.20070e-01 1.78911e-01 -5.94006e-02 9.69500e-04 -5.54111e-02 -7.80157e-02 1.00313e-01 1.44221e-01 -1.42997e-01 -9.96220e-02 -1.83694e-01 8.74216e-02 -8.33983e-04 4.76657e-02 6.71106e-02 -1.04997e-01 -1.41999e-01 1.41452e-01 1.04305e-01 1.81558e-01 -8.57555e-02 -2.16741e-01 -1.76685e-01 5.84927e-02 1.90036e-03 -1.08614e-01 -1.52922e-01 2.17803e-01 1.15974e-01 -1.43970e-01
1.38807e-02 -5.89707e-02 4.20568e-02 1.93060e-03 9.13361e-02 -6.48480e-02 -2.31826e-01 -4.42218e-04 -7.16895e-02 1.90104e-01 6.40930e-02 -4.31600e-02 -2.32967e-01 6.48166e-02 2.01912e-02 -1.39945e-03 -9.04404e-02 6.42184e-02 -4.70696e-02 1.57965e-01 -1.92428e-01 -4.83852e-02 2.33161e-01 -8.65572e-02 -1.36790e-02 5.79313e-02 -4.13160e-02 4.60861e-02 -1.56034e-01 1.89810e-01 4.73814e-02 -2.30064e-01 8.55797e-02 2.29111e-01 -6.50197e-02 -1.97827e-02 -1.87633e-01 -6.36174e-02 4.28529e-02 2.27975e-01 0 7.16831e-02
0 -5.43459e-03 -7.65159e-03 3.54589e-04 -2.02663e-02 -2.85338e-02 -9.06691e-02 1.36346e-02 -3.93547e-02 1.66363e-03 -9.50835e-02 -1.33872e-01 9.11406e-02 -4.05830e-02 1.41301e-03 -3.53536e-04 2.02061e-02 2.84490e-02 4.45727e-01 -1.12446e-01 7.91187e-02 -4.45623e-01 1.06512e-01 -8.74745e-02 0 5.34181e-03 7.52097e-03 -4.44192e-01 1.12126e-01 -7.89767e-02 4.44090e-01 -1.06290e-01 8.71928e-02 -9.07799e-02 4.06493e-02 -1.54074e-03 -1.66268e-03 9.50292e-02 1.33796e-01 9.03098e-02 -1.37813e-02 3.93693e-02
4.73098e-04 -2.70396e-02 -3.80702e-02 -3.75957e-04 2.14875e-02 3.02533e-02 -4.91293e-02 -6.37541e-02 4.34796e-02 -9.60439e-04 5.48931e-02 7.72864e-02 4.91490e-02 6.26291e-02 -4.50636e-02 -3.68905e-04 2.10845e-02 2.96858e-02 4.61307e-01 -1.46921e-02 3.00461e-02 -4.61536e-01 2.77946e-02 -1.15984e-02 4.67937e-04 -2.67446e-02 -3.76549e-02 4.62277e-01 -1.58491e-02 3.07874e-02 -4.62504e-01 2.88643e-02 -1.24628e-02 4.83885e-02 6.19711e-02 -4.45998e-02 -9.52126e-04 5.44182e-02 7.66177e-02 -4.83689e-02 -6.30906e-02 4.30236e-02
-1.01037e-02 1.81722e-02 -1.30325e-02 1.79549e-03 -4.42522e-03 3.16535e-03 1.04664e-02 -9.79856e-02 3.12870e-01 1.37282e-01 1.43917e-01 -1.00512e-01 1.44828e-02 -3.27540e-01 -1.03286e-02 1.14606e-03 6.53387e-03 -4.62648e-03 -1.06321e-02 2.34625e-02 -7.39148e-02 -1.15756e-02 7.73880e-02 2.00918e-03 1.53904e-02 -2.77940e-02 1.99321e-02 1.45721e-02 -3.88164e-02 1.22657e-01 1.61398e-02 -1.28417e-01 -3.49628e-03 -2.69177e-02 5.13335e-01 1.50999e-02 -2.21806e-01 -2.29404e-01 1.60179e-01 -2.06401e-02 1.54545e-01 -4.90057e-01
1.50336e-02 -2.68656e-02 1.92683e-02 7.05398e-03 5.91867e-03 -4.11611e-03 -2.76167e-02 1.54328e-01 -4.84953e-01 -2.29167e-01 -2.33589e-01 1.63060e-01 -3.38110e-02 5.08363e-01 1.35091e-02 7.18610e-03 3.42919e-03 -2.34630e-03 9.03366e-03 -4.06509e-02 1.30055e-01 1.07032e-02 -1.36071e-01 -4.29155e-03 9.21564e-03 -1.63968e-02 1.17604e-02 3.17279e-03 -2.69345e-02 8.66314e-02 4.28715e-03 -9.06250e-02 -3.04129e-03 -2.42846e-02 3.19898e-01 7.69608e-03 -1.49047e-01 -1.49865e-01 1.04590e-01 -2.03994e-02 9.78385e-02 -3.04951e-01
-2.51496e-04 1.43741e-02 2.02379e-02 -1.43812e-04 8.21951e-03 1.15726e-02 -3.37891e-01 1.00293e-01 -9.25069e-02 4.65857e-03 -2.66258e-01 -3.74876e-01 3.38173e-01 -1.16413e-01 6.98113e-02 -1.45686e-04 8.32658e-03 1.17234e-02 4.24655e-02 9.42197e-03 8.77109e-03 -4.27122e-02 4.67854e-03 1.10816e-02 -2.53529e-04 1.44903e-02 2.04015e-02 4.12232e-02 9.83837e-03 8.56993e-03 -4.14717e-02 4.36602e-03 1.14291e-02 3.42067e-01 -1.17668e-01 7.05197e-02 4.70995e-03 -2.69194e-01 -3.79010e-01 -3.41781e-01 1.01330e-01 -9.35231e-02
3.11631e-04 -1.78111e-02 -2.50770e-02 2.38094e-04 -1.36081e-02 -1.91594e-02 3.26376e-01 -1.04642e-01 8.79556e-02 -4.47706e-03 2.55883e-01 3.60268e-01 -3.26534e-01 1.13684e-01 -7.52248e-02 -2.35575e-04 1.34642e-02 1.89568e-02 1.27369e-01 -4.81084e-02 2.02823e-02 -1.27113e-01 3.35034e-02 -4.08454e-02 -3.06859e-04 1.75383e-02 2.46930e-02 -1.27632e-01 4.78784e-02 -2.03922e-02 1.27381e-01 -3.35282e-02 4.05964e-02 3.22845e-01 -1.12280e-01 7.42357e-02 4.42342e-03 -2.52817e-01 -3.55953e-01 -3.22688e-01 1.03288e-01 -8.68949e-02
2.90007e-02 3.30504e-02 -2.31138e-02 7.19571e-02 -7.04776e-03 5.89992e-03 -1.60702e-01 1.22907e-02 1.20239e-01 -1.84470e-01 -1.32022e-01 9.14770e-02 -1.58538e-01 -1.11354e-01 -5.38458e-02 7.25304e-02 -6.82655e-03 5.74993e-03 -3.47803e-01 6.62714e-03 8.71824e-02 -3.46214e-01 -8.42062e-02 -4.07059e-02 2.95517e-02 3.31571e-02 -2.31828e-02 -3.51656e-01 6.57877e-03 8.92521e-02 -3.50033e-01 -8.62215e-02 -4.14053e-02 -1.62081e-01 -1.11754e-01 -5.44529e-02 -1.87077e-01 -1.34534e-01 9.32285e-02 -1.64258e-01 1.26905e-02 1.20758e-01
-3.65398e-02 -1.58475e-02 1.08017e-02 -2.98884e-02 -4.42035e-02 3.10244e-02 1.94642e-01 1.01470e-03 -1.23359e-01 8.40551e-02 8.46343e-02 -5.90675e-02 1.92576e-01 1.19082e-01 4.28722e-02 2.47603e-02 5.67926e-02 -4.00296e-02 1.89556e-01 3.13843e-02 -2.80136e-01 1.85258e-01 2.77040e-01 6.57335e-02 3.69106e-02 1.51976e-02 -1.03355e-02 -1.62444e-01 -5.76873e-02 3.80087e-01 -1.56809e-01 -3.79752e-01 -7.33611e-02 -2.02854e-01 -1.41685e-01 -4.32745e-02 -6.63440e-02 -7.19378e-02 5.02698e-02 -2.05189e-01 -8.20211e-03 1.44662e-01
-7.88387e-03 -6.97122e-04 3.97162e-04 1.37755e-02 -5.96364e-02 4.25283e-02 7.56648e-02 2.92466e-02 -1.08971e-01 -5.65818e-02 -3.70416e-02 2.56058e-02 7.41923e-02 1.13403e-01 9.51604e-03 2.06543e-02 -4.77297e-02 3.41570e-02 -7.57333e-02 1.13531e-01 -4.61772e-01 -8.20136e-02 4.72474e-01 4.35988e-02 1.35710e-03 3.15898e-03 -2.22682e-03 -1.18958e-01 1.03908e-01 -3.85692e-01 -1.24086e-01 3.96969e-01 2.69207e-02 2.53482e-02 8.25538e-02 -1.18977e-03 -7.62566e-02 -5.74084e-02 3.98270e-02 2.62919e-02 2.86177e-02 -7.71287e-02
7.16890e-02 3.66073e-02 -2.51097e-02 2.07065e-02 -6.49052e-02 4.63566e-02 -2.05910e-01 4.99189e-02 6.59536e-02 -2.15792e-01 -1.99674e-01 1.39138e-01 -2.04193e-01 -4.82371e-02 -7.22445e-02 -1.87901e-02 6.43827e-02 -4.59617e-02 -8.02192e-02 2.57633e-02 -2.35275e-01 -8.37868e-02 2.29669e-01 5.18138e-02 -7.29215e-02 -3.66711e-02 2.51397e-02 7.42306e-02 -2.50003e-02 2.34061e-01 7.77883e-02 -2.28342e-01 -5.22334e-02 2.08350e-01 4.96448e-02 7.29874e-02 2.16687e-01 2.01697e-01 -1.40564e-01 2.10095e-01 -5.01078e-02 -6.74586e-02
9.99345e-02 2.82181e-02 -1.88002e-02 -7.84910e-02 -1.49889e-02 9.67054e-03 -2.45971e-01 4.00409e-02 9.72009e-02 -1.24892e-01 -1.74254e-01 1.22213e-01 -2.43845e-01 -8.14619e-02 -7.38683e-02 -8.05928e-02 -1.35920e-02 8.65225e-03 1.84631e-01 -1.80771e-02 -8.14212e-02 1.83036e-01 7.30806e-02 4.69236e-02 9.91828e-02 2.76653e-02 -1.84169e-02 1.90457e-01 -1.89172e-02 -7.73144e-02 1.88919e-01 6.89949e-02 4.64609e-02 -2.42155e-01 -8.14927e-02 -7.29701e-02 -1.21791e-01 -1.71740e-01 1.20466e-01 -2.44267e-01 3.92027e-02 9.69621e-02
6.11466e-02 1.42808e-02 -9.38313e-03 -1.47921e-01 1.99697e-02 -1.60218e-02 -9.55945e-02 1.75685e-02 5.83173e-02 2.07039e-03 -5.30336e-02 3.76932e-02 -9.44055e-02 -5.03911e-02 -3.73660e-02 1.46136e-01 -2.00026e-02 1.60230e-02 2.71652e-01 -4.49748e-02 4.67114e-02 2.71840e-01 -5.57300e-02 3.15687e-02 -5.97428e-02 -1.39402e-02 9.15866e-03 -2.68837e-01 4.45348e-02 -4.72142e-02 -2.69039e-01 5.60927e-02 -3.09413e-02 9.20842e-02 4.95767e-02 3.64705e-02 -2.63783e-03 5.13515e-02 -3.65055e-02 9.32494e-02 -1.70186e-02 -5.72920e-02
1.77314e-02 6.76460e-03 -4.58425e-03 -1.86998e-03 1.61588e-03 -1.17093e-03 -2.52897e-02 -1.84002e-01 -6.46501e-02 -1.37812e-01 1.10052e-01 -7.98780e-02 -2.85112e-02 1.20743e-04 1.94584e-01 4.11919e-03 -3.32940e-03 2.41591e-03 -1.48800e-03 -2.02021e-02 -6.76511e-03 -1.83646e-03 -2.86021e-04 2.12756e-02 -4.76567e-02 -1.81073e-02 1.22686e-02 3.77576e-03 5.18683e-02 1.76218e-02 4.67461e-03 4.95387e-04 -5.47084e-02 7.66654e-02 -3.98627e-04 -5.23433e-01 3.71904e-01 -2.96858e-01 2.15467e-01 6.79987e-02 4.94942e-01 1.73978e-01
-4.77407e-02 -1.81155e-02 1.22734e-02 3.84400e-03 -3.01711e-03 2.19069e-03 6.80012e-02 4.94817e-01 1.73946e-01 3.72213e-01 -2.97027e-01 2.15591e-01 7.66660e-02 -4.09682e-04 -5.23304e-01 1.08814e-03 -7.42534e-04 5.40912e-04 3.70784e-03 5.11841e-02 1.74721e-02 4.59620e-03 4.10486e-04 -5.40143e-02 -1.77169e-02 -6.69512e-03 4.53508e-03 1.29341e-03 1.80959e-02 6.27706e-03 1.60914e-03 0 -1.91296e-02 2.84644e-02 -1.79644e-04 -1.94367e-01 1.38692e-01 -1.10627e-01 8.02973e-02 2.52458e-02 1.83777e-01 6.46333e-02
-5.77602e-03 -1.54978e-03 1.02896e-03 1.06501e-02 4.01748e-02 -2.84020e-02 1.97290e-03 2.24974e-02 8.81590e-03 3.51493e-02 -2.23203e-02 1.62900e-02 2.38207e-03 -8.88286e-04 -2.41098e-02 1.07559e-02 4.07243e-02 -2.87910e-02 -4.48129e-02 -4.51101e-01 -1.49316e-01 -5.25626e-02 -8.16991e-03 4.74306e-01 -5.84892e-03 -1.54747e-03 1.02642e-03 -4.54634e-02 -4.57197e-01 -1.51377e-01 -5.33186e-02 -8.24002e-03 4.80729e-01 2.39101e-03 -9.04653e-04 -2.42596e-02 3.58092e-02 -2.27820e-02 1.66261e-02 1.97917e-03 2.26335e-02 8.88084e-03
-7.13697e-03 3.19767e-04 -3.15808e-04 9.20974e-03 4.57981e-02 -3.24139e-02 6.60693e-04 9.96173e-03 4.89032e-03 5.80286e-02 -4.08982e-02 2.97693e-02 8.58213e-04 -1.32735e-03 -1.10041e-02 -9.04956e-03 -4.51887e-02 3.19831e-02 -4.85672e-02 -4.51054e-01 -1.51371e-01 -5.63495e-02 -6.25851e-03 4.74876e-01 7.04186e-03 -3.48061e-04 3.34721e-04 4.79656e-02 4.44985e-01 1.49382e-01 5.56440e-02 6.13006e-03 -4.68502e-01 -8.17227e-04 1.31494e-03 1.06153e-02 -5.75373e-02 4.05971e-02 -2.95493e-02 -6.26284e-04 -9.59832e-03 -4.74993e-03
-3.43495e-04 1.96322e-02 2.76411e-02 -5.45319e-04 3.11673e-02 4.38819e-02 -2.90512e-02 -2.27865e-01 -8.52636e-02 0 -4.05124e-03 -5.70393e-03 3.31271e-02 -5.08745e-03 -2.42720e-01 -5.69493e-04 3.25489e-02 4.58271e-02 -3.39222e-02 -3.62059e-01 -1.32997e-01 4.03600e-02 -5.88591e-03 -3.85048e-01 -3.75230e-04 2.14458e-02 3.01945e-02 -3.59501e-02 -3.77877e-01 -1.39042e-01 4.26728e-02 -6.35735e-03 -4.01939e-01 3.59378e-02 -5.63056e-03 -2.64977e-01 0 -4.42042e-03 -6.22364e-03 -3.14873e-02 -2.48732e-01 -9.31509e-02
-5.90192e-04 3.37321e-02 4.74929e-02 -3.65802e-04 2.09072e-02 2.94361e-02 -4.36980e-02 -3.80350e-01 -1.44124e-01 1.19201e-04 -6.81356e-03 -9.59313e-03 5.05322e-02 -1.02505e-02 -4.05819e-01 3.25328e-04 -1.85939e-02 -2.61792e-02 -3.08196e-02 -2.34300e-01 -8.90562e-02 3.50332e-02 -6.52716e-03 -2.50015e-01 5.78799e-04 -3.30805e-02 -4.65754e-02 2.84732e-02 2.08032e-01 7.93498e-02 -3.22188e-02 6.04474e-03 2.22058e-01 -4.92515e-02 1.01491e-02 3.97903e-01 -1.16839e-04 6.67283e-03 9.39480e-03 4.25496e-02 3.72895e-01 1.41401e-01
2.09706e-02 -3.73531e-02 2.67908e-02 -1.26353e-03 7.98934e-04 -5.83148e-04 1.56155e-02 1.89898e-01 6.11593e-02 -2.76757e-01 2.37634e-01 -1.72220e-01 1.88505e-02 5.00390e-03 -1.99161e-01 -1.24155e-03 3.47143e-03 -2.48102e-03 3.03474e-03 -2.18707e-03 -1.55641e-03 2.98274e-03 7.84494e-04 2.62736e-03 3.37667e-02 -6.06228e-02 4.34773e-02 3.17354e-03 -1.75606e-02 -7.15194e-03 2.84874e-03 1.00410e-03 1.89859e-02 3.06403e-02 8.06283e-03 -3.23569e-01 -4.47884e-01 3.84920e-01 -2.78957e-01 2.53837e-02 3.08498e-01 9.94262e-02
-3.35295e-02 6.07844e-02 -4.35891e-02 2.59316e-04 -6.14652e-03 4.36883e-03 -2.53959e-02 -3.08720e-01 -9.95495e-02 4.46076e-01 -3.83815e-01 2.78150e-01 -3.06571e-02 -8.01989e-03 3.23819e-01 3.35276e-04 5.11457e-03 -3.62848e-03 -1.04668e-03 3.46670e-02 1.27991e-02 -4.28319e-04 -6.75005e-04 -3.69605e-02 2.04911e-02 -3.74426e-02 2.68485e-02 -4.25021e-04 -2.98920e-02 -1.07037e-02 -9.52431e-04 2.52547e-04 3.17381e-02 1.89129e-02 4.90450e-03 -1.99674e-01 -2.74001e-01 2.35972e-01 -1.71005e-01 1.56683e-02 1.90351e-01 6.14231e-02
5.86596e-04 -3.35264e-02 -4.72033e-02 -3.67249e-04 2.09899e-02 2.95526e-02 3.54894e-02 3.64820e-01 1.40635e-01 -1.13569e-04 6.49043e-03 9.13814e-03 -4.20854e-02 1.21684e-02 3.90143e-01 -3.95814e-04 2.26225e-02 3.18511e-02 -1.39877e-02 -2.28582e-01 -8.64691e-02 1.80950e-02 -6.16601e-03 -2.44043e-01 5.88580e-04 -3.36403e-02 -4.73636e-02 -1.59308e-02 -2.46328e-01 -9.33916e-02 2.03602e-02 -6.83252e-03 -2.63043e-01 -4.20001e-02 1.22937e-02 3.91564e-01 -1.13651e-04 6.50171e-03 9.15424e-03 3.53791e-02 3.66119e-01 1.41219e-01
-3.73775e-04 2.13629e-02 3.00777e-02 6.29921e-04 -3.60027e-02 -5.06897e-02 -1.85311e-02 -2.25953e-01 -8.84873e-02 0 -3.94897e-03 -5.55993e-03 2.26399e-02 -8.88421e-03 -2.42150e-01 -6.11219e-04 3.49338e-02 4.91848e-02 3.84124e-02 3.78095e-01 1.48764e-01 -4.52978e-02 1.54358e-02 4.05305e-01 3.54248e-04 -2.02468e-02 -2.85064e-02 -3.76342e-02 -3.66841e-01 -1.44523e-01 4.43177e-02 -1.51487e-02 -3.93297e-01 -2.13507e-02 8.46673e-03 2.29620e-01 0 3.73577e-03 5.25978e-03 1.74540e-02 2.14246e-01 8.39465e-02
1
9
