8
75.4
6.28318 6.28318
0.0 0.0
1.88365e-06 1.88365e-06 1.88365e-06 1.88365e-06 1.88365e-06 1.88365e-06 0.00125854 0.00248041 0.00870595 0.00893468 0.00910119 0.00985075 19.349 19.3492 19.3609 19.3613 20.0944 217.756 532.517 534.167 552.672 552.684 552.684 552.695
0 0 0 0 0 0 0 0 0 0 0 0 9.22477e-01 3.66688e-01 8.20895e-02 0 0 0 0 0 0 0 0 0
0 0 0 0 0 0 0 0 0 0 0 0 0 0 0 9.20380e-01 3.75379e-01 6.44466e-02 0 0 0 0 0 0
0 0 0 0 0 0 0 0 0 0 0 0 0 0 0 0 0 0 0 0 0 -9.30293e-01 3.50221e-01 -6.37321e-02
0 0 0 0 0 0 -9.30181e-01 3.50689e-01 -6.27909e-02 0 0 0 0 0 0 0 0 0 0 0 0 0 0 0
0 0 0 0 0 0 0 0 0 -6.32968e-01 -7.34944e-01 2.26651e-01 0 0 0 0 0 0 0 0 0 0 0 0
0 0 0 0 0 0 0 0 0 0 0 0 0 0 0 0 0 0 -8.77924e-01 -3.41758e-01 3.23440e-01 0 0 0
0 0 0 0 0 0 0 0 0 0 0 0 0 0 0 0 0 0 -3.15620e-01 9.35509e-01 1.31793e-01 0 0 0
0 0 0 0 0 0 0 0 0 6.84953e-01 -6.72184e-01 -2.66776e-01 0 0 0 0 0 0 0 0 0 0 0 0
0 0 0 0 0 0 0 0 0 0 0 0 1.11782e-01 -4.75540e-01 8.68060e-01 0 0 0 0 0 0 0 0 0
0 0 0 0 0 0 0 0 0 0 0 0 0 0 0 0 0 0 0 0 0 -1.06012e-01 -4.42815e-01 -8.85911e-01
0 0 0 0 0 0 -1.06999e-01 -4.42443e-01 -8.85978e-01 0 0 0 0 0 0 0 0 0 0 0 0 0 0 0
0 0 0 0 0 0 0 0 0 0 0 0 0 0 0 1.30102e-01 -4.68266e-01 8.69461e-01 0 0 0 0 0 0
2.25033e-03 -1.84920e-01 -4.51793e-02 -2.21639e-03 1.90294e-01 5.00085e-02 -4.47975e-02 -1.08181e-01 5.94339e-02 -1.37036e-02 5.35489e-04 -3.65334e-02 6.13803e-02 -1.35970e-01 -8.23908e-02 -6.36439e-02 1.41342e-01 8.56461e-02 1.52424e-02 -5.97210e-04 4.07419e-02 4.55675e-02 1.10040e-01 -6.04552e-02
-6.21712e-04 4.85212e-02 -1.83872e-01 5.12734e-04 -4.67731e-02 1.91338e-01 4.20153e-02 1.01462e-01 -5.57428e-02 -6.08445e-02 2.37760e-03 -1.62210e-01 1.80174e-02 -3.99121e-02 -2.41847e-02 -1.97993e-02 4.39708e-02 2.66441e-02 6.31565e-02 -2.47452e-03 1.68813e-01 -4.26907e-02 -1.03093e-01 5.66385e-02
2.18752e-03 -1.91331e-01 -4.55575e-02 2.12438e-03 -1.86033e-01 -4.07309e-02 -4.65507e-02 -1.12415e-01 6.17600e-02 -1.38049e-02 5.39450e-04 -3.68037e-02 6.32829e-02 -1.40184e-01 -8.49446e-02 6.07935e-02 -1.35012e-01 -8.18103e-02 -1.22259e-02 4.79021e-04 -3.26790e-02 -4.58134e-02 -1.10633e-01 6.07814e-02
4.98524e-04 -4.23436e-02 1.92453e-01 5.18809e-04 -4.40521e-02 1.84904e-01 -4.16180e-02 -1.00503e-01 5.52156e-02 6.36249e-02 -2.48624e-03 1.69623e-01 -2.13073e-02 4.72000e-02 2.86008e-02 -1.94603e-02 4.32179e-02 2.61878e-02 6.10302e-02 -2.39121e-03 1.63130e-01 -4.09294e-02 -9.88391e-02 5.43017e-02
2.00925e-01 2.35819e-03 0 2.00926e-01 2.23955e-03 0 2.40911e-02 5.81771e-02 -3.19622e-02 2.47873e-02 -9.68605e-04 6.60827e-02 2.54322e-02 -5.63373e-02 -3.41376e-02 2.53411e-02 -5.62783e-02 -3.41017e-02 2.46967e-02 -9.67638e-04 6.60127e-02 2.40479e-02 5.80725e-02 -3.19047e-02
1.99550e-01 2.37281e-03 0 -1.99572e-01 -2.36284e-03 0 2.88700e-02 6.97177e-02 -3.83025e-02 2.97191e-02 -1.16132e-03 7.92306e-02 3.04548e-02 -6.74635e-02 -4.08795e-02 -3.03242e-02 6.73448e-02 4.08075e-02 -2.95892e-02 1.15933e-03 -7.90900e-02 -2.88689e-02 -6.97148e-02 3.83009e-02
-3.50828e-02 -4.11927e-04 0 -3.57070e-02 -3.97825e-04 0 1.35545e-01 3.27326e-01 -1.79831e-01 1.39460e-01 -5.44962e-03 3.71797e-01 1.43087e-01 -3.16967e-01 -1.92066e-01 1.45113e-01 -3.22272e-01 -1.95280e-01 1.41423e-01 -5.54108e-03 3.78014e-01 1.37705e-01 3.32539e-01 -1.82695e-01
-4.27273e-02 -5.01075e-04 0 4.21041e-02 4.66286e-04 0 1.36818e-01 3.30400e-01 -1.81520e-01 1.40762e-01 -5.50052e-03 3.75270e-01 1.44441e-01 -3.19966e-01 -1.93883e-01 -1.41837e-01 3.14996e-01 1.90871e-01 -1.38214e-01 5.41534e-03 -3.69436e-01 -1.34554e-01 -3.24931e-01 1.78515e-01
0 -4.89379e-03 -9.09474e-02 0 0 1.51640e-04 -1.14670e-01 -2.76916e-01 1.52136e-01 2.70325e-01 -1.05634e-02 7.20681e-01 -1.56066e-01 3.45717e-01 2.09487e-01 1.50542e-04 -3.34328e-04 -2.02586e-04 -4.55645e-04 0 -1.21791e-03 2.90177e-04 7.00741e-04 -3.84983e-04
1.06702e-03 -9.09502e-02 4.89251e-03 0 7.49149e-04 -9.22879e-04 2.36939e-01 5.72181e-01 -3.14353e-01 -1.97043e-02 7.69980e-04 -5.25314e-02 -2.29950e-01 5.09386e-01 3.08662e-01 5.00020e-04 -1.11046e-03 -6.72881e-04 2.77863e-03 -1.08869e-04 7.42708e-03 -3.18712e-03 -7.69650e-03 4.22842e-03
0 1.16925e-03 -2.09190e-04 -5.20153e-04 4.78790e-02 -7.74895e-02 -3.24369e-03 -7.83315e-03 4.30349e-03 6.95344e-04 0 1.85378e-03 2.73309e-03 -6.05434e-03 -3.66862e-03 3.00587e-03 -6.67553e-03 -4.04502e-03 2.32643e-01 -9.11514e-03 6.21839e-01 -2.29405e-01 -5.53985e-01 3.04356e-01
0 1.54758e-04 0 -8.60109e-04 7.75032e-02 4.78955e-02 -3.21685e-04 -7.76833e-04 4.26788e-04 -1.13427e-04 0 -3.02394e-04 4.82705e-04 -1.06929e-03 -6.47934e-04 2.77259e-01 -6.15746e-01 -3.73110e-01 -1.37772e-01 5.39801e-03 -3.68254e-01 -1.29185e-01 -3.11965e-01 1.71392e-01
