14
12.0107 12.0107 12.0107 12.0107 12.0107 12.0107 12.0107 12.0107 12.0107 12.0107 12.0107 12.0107 32.0650 32.0650
6.28318 6.28318
0.0 0.0
1.88365e-06 1.88365e-06 1.88365e-06 0.000424746 0.0016222 4.43168 4.43168 12.8811 12.8811 25.8945 25.8945 34.7483 42.9757 42.9757 63.1469 63.1469 69.0478 84.1272 84.1272 103.309 120.07 120.07 138.168 140.458 140.458 162.038 162.038 173.208 181.011 181.011 195.689 195.689 204.949 204.949 206.441 233.544 317.188 333.892 353.644 371.305 384.769 393.122
5.08647e-02 -2.48381e-02 5.27289e-02 5.07397e-02 -2.59120e-02 4.88615e-02 5.05932e-02 -2.71703e-02 4.43300e-02 5.04682e-02 -2.82441e-02 4.04629e-02 5.03217e-02 -2.95023e-02 3.59316e-02 5.01967e-02 -3.05761e-02 3.20644e-02 5.00502e-02 -3.18344e-02 2.75331e-02 4.99252e-02 -3.29082e-02 2.36659e-02 4.97787e-02 -3.41664e-02 1.91346e-02 4.96537e-02 -3.52402e-02 1.52675e-02 4.95072e-02 -3.64985e-02 1.07360e-02 4.93821e-02 -3.75724e-02 6.86861e-03 5.10476e-02 -2.32669e-02 5.83872e-02 4.91992e-02 -3.91435e-02 1.21031e-03
6.10476e-03 4.87909e-03 6.49050e-02 5.01812e-03 9.29860e-03 5.37753e-02 3.74489e-03 1.44770e-02 4.07343e-02 2.65831e-03 1.88963e-02 2.96052e-02 1.38513e-03 2.40745e-02 1.65647e-02 2.98547e-04 2.84938e-02 5.43559e-03 -9.74637e-04 3.36720e-02 -7.60483e-03 -2.06122e-03 3.80913e-02 -1.87340e-02 -3.33440e-03 4.32695e-02 -3.17744e-02 -4.42098e-03 4.76888e-02 -4.29036e-02 -5.69422e-03 5.28673e-02 -5.59445e-02 -6.78086e-03 5.72868e-02 -6.70743e-02 7.69460e-03 -1.58704e-03 8.11888e-02 -8.37070e-03 6.37529e-02 -8.33580e-02
6.47501e-03 -9.71708e-02 -2.06076e-02 5.43204e-03 -8.49272e-02 -1.82090e-02 4.20997e-03 -7.05811e-02 -1.53986e-02 3.16706e-03 -5.83381e-02 -1.30001e-02 1.94504e-03 -4.39926e-02 -1.01898e-02 9.02126e-04 -3.17497e-02 -7.79135e-03 -3.19893e-04 -1.74042e-02 -4.98101e-03 -1.36280e-03 -5.16123e-03 -2.58258e-03 -2.58482e-03 9.18428e-03 2.27759e-04 -3.62774e-03 2.14273e-02 2.62620e-03 -4.84980e-03 3.57733e-02 5.43665e-03 -5.89277e-03 4.80169e-02 7.83521e-03 8.00096e-03 -1.15084e-01 -2.41169e-02 -7.41872e-03 6.59304e-02 1.13445e-02
-5.74272e-03 -2.08669e-02 -2.03425e-02 -5.75722e-03 -2.37401e-02 -2.52845e-02 -5.77420e-03 -2.71067e-02 -3.10751e-02 -5.78870e-03 -2.99798e-02 -3.60168e-02 -5.80568e-03 -3.33463e-02 -4.18072e-02 -5.82018e-03 -3.62193e-02 -4.67488e-02 -5.83716e-03 -3.95858e-02 -5.25392e-02 -5.85166e-03 -4.24589e-02 -5.74809e-02 -5.86864e-03 -4.58254e-02 -6.32713e-02 -5.88314e-03 -4.86985e-02 -6.82130e-02 -5.90013e-03 -5.20651e-02 -7.40036e-02 -5.91462e-03 -5.49383e-02 -7.89455e-02 -5.72152e-03 -1.66631e-02 -1.31120e-02 -5.93583e-03 -5.91421e-02 -8.61760e-02
-4.67250e-02 -2.42853e-02 5.75625e-02 -4.68538e-02 -2.50225e-02 5.41811e-02 -4.70048e-02 -2.58863e-02 5.02190e-02 -4.71336e-02 -2.66234e-02 4.68378e-02 -4.72846e-02 -2.74872e-02 4.28758e-02 -4.74134e-02 -2.82244e-02 3.94946e-02 -4.75644e-02 -2.90881e-02 3.55327e-02 -4.76932e-02 -2.98253e-02 3.21514e-02 -4.78442e-02 -3.06890e-02 2.81895e-02 -4.79730e-02 -3.14262e-02 2.48082e-02 -4.81240e-02 -3.22900e-02 2.08462e-02 -4.82528e-02 -3.30272e-02 1.74647e-02 -4.65365e-02 -2.32067e-02 6.25099e-02 -4.84413e-02 -3.41058e-02 1.25174e-02
3.57924e-03 -3.36639e-02 5.42466e-03 0 1.49765e-04 0 -3.76077e-03 3.53713e-02 -5.69979e-03 -6.35196e-03 5.97423e-02 -9.62698e-03 -8.50175e-03 7.99618e-02 -1.28852e-02 -9.44860e-03 8.88673e-02 -1.43202e-02 -9.44860e-03 8.88673e-02 -1.43202e-02 -8.50175e-03 7.99618e-02 -1.28852e-02 -6.35196e-03 5.97423e-02 -9.62698e-03 -3.76077e-03 3.53713e-02 -5.69979e-03 0 1.49765e-04 0 3.57924e-03 -3.36639e-02 5.42466e-03 9.17697e-03 -8.63125e-02 1.39085e-02 9.17697e-03 -8.63125e-02 1.39085e-02
-1.45860e-03 -5.60063e-03 -3.37935e-02 0 0 1.50345e-04 1.53259e-03 5.88469e-03 3.55075e-02 2.58855e-03 9.93927e-03 5.99724e-02 3.46463e-03 1.33032e-02 8.02697e-02 3.85049e-03 1.47848e-02 8.92095e-02 3.85049e-03 1.47848e-02 8.92095e-02 3.46463e-03 1.33032e-02 8.02697e-02 2.58854e-03 9.93927e-03 5.99724e-02 1.53258e-03 5.88469e-03 3.55075e-02 0 0 1.50346e-04 -1.45862e-03 -5.60063e-03 -3.37935e-02 -3.73977e-03 -1.43597e-02 -8.66448e-02 -3.73981e-03 -1.43597e-02 -8.66448e-02
2.65628e-03 -2.04475e-02 1.14407e-02 7.85253e-03 -6.04473e-02 3.38210e-02 1.11894e-02 -8.61339e-02 4.81930e-02 1.11530e-02 -8.58534e-02 4.80360e-02 7.88762e-03 -6.07174e-02 3.39722e-02 3.19680e-03 -2.46084e-02 1.37687e-02 -3.19681e-03 2.46084e-02 -1.37687e-02 -7.88763e-03 6.07174e-02 -3.39722e-02 -1.11530e-02 8.58534e-02 -4.80360e-02 -1.11894e-02 8.61339e-02 -4.81930e-02 -7.85253e-03 6.04473e-02 -3.38210e-02 -2.65628e-03 2.04475e-02 -1.14407e-02 -7.17675e-03 5.52453e-02 -3.09104e-02 7.17676e-03 -5.52453e-02 3.09104e-02
1.02624e-04 1.15240e-02 2.05726e-02 3.03373e-04 3.40673e-02 6.08171e-02 4.32288e-04 4.85440e-02 8.66608e-02 4.30880e-04 4.83859e-02 8.63787e-02 3.04727e-04 3.42196e-02 6.10889e-02 1.23502e-04 1.38690e-02 2.47590e-02 -1.23512e-04 -1.38690e-02 -2.47590e-02 -3.04740e-04 -3.42196e-02 -6.10889e-02 -4.30895e-04 -4.83859e-02 -8.63787e-02 -4.32303e-04 -4.85440e-02 -8.66608e-02 -3.03382e-04 -3.40673e-02 -6.08171e-02 -1.02624e-04 -1.15240e-02 -2.05726e-02 -2.77260e-04 -3.11356e-02 -5.55833e-02 2.77279e-04 3.11356e-02 5.55833e-02
-6.83888e-03 6.44294e-02 -1.01893e-02 -1.06582e-02 1.00411e-01 -1.58797e-02 -8.80646e-03 8.29661e-02 -1.31208e-02 -2.92977e-03 2.76016e-02 -4.36508e-03 5.68588e-03 -5.35670e-02 8.47141e-03 1.04789e-02 -9.87218e-02 1.56125e-02 1.04789e-02 -9.87218e-02 1.56125e-02 5.68588e-03 -5.35670e-02 8.47141e-03 -2.92978e-03 2.76016e-02 -4.36508e-03 -8.80646e-03 8.29661e-02 -1.31208e-02 -1.06582e-02 1.00411e-01 -1.58797e-02 -6.83888e-03 6.44294e-02 -1.01893e-02 4.89514e-03 -4.61174e-02 7.29329e-03 4.89514e-03 -4.61174e-02 7.29329e-03
2.81018e-03 1.05266e-02 6.46764e-02 4.37959e-03 1.64054e-02 1.00796e-01 3.61868e-03 1.35552e-02 8.32841e-02 1.20388e-03 4.50960e-03 2.77074e-02 -2.33641e-03 -8.75188e-03 -5.37723e-02 -4.30591e-03 -1.61294e-02 -9.91002e-02 -4.30591e-03 -1.61294e-02 -9.91002e-02 -2.33641e-03 -8.75188e-03 -5.37723e-02 1.20389e-03 4.50960e-03 2.77074e-02 3.61871e-03 1.35552e-02 8.32841e-02 4.37962e-03 1.64054e-02 1.00796e-01 2.81020e-03 1.05266e-02 6.46764e-02 -2.01148e-03 -7.53475e-03 -4.62942e-02 -2.01148e-03 -7.53476e-03 -4.62942e-02
8.03032e-02 7.77196e-03 -4.75412e-03 7.20075e-02 6.96908e-03 -4.26300e-03 5.57770e-02 5.39825e-03 -3.30212e-03 4.42839e-02 4.28591e-03 -2.62171e-03 2.40293e-02 2.32561e-03 -1.42260e-03 1.08279e-02 1.04795e-03 -6.41052e-04 -1.08279e-02 -1.04795e-03 6.41014e-04 -2.40293e-02 -2.32562e-03 1.42257e-03 -4.42839e-02 -4.28591e-03 2.62169e-03 -5.57770e-02 -5.39825e-03 3.30212e-03 -7.20075e-02 -6.96908e-03 4.26301e-03 -8.03032e-02 -7.77196e-03 4.75413e-03 9.42200e-02 9.11887e-03 -5.57802e-03 -9.42200e-02 -9.11886e-03 5.57804e-03
6.43591e-03 -9.85281e-03 9.26036e-02 6.81273e-03 -1.04297e-02 9.80255e-02 8.55458e-04 -1.30964e-03 1.23089e-02 -4.97963e-03 7.62337e-03 -7.16497e-02 -7.39618e-03 1.13229e-02 -1.06420e-01 -3.80845e-03 5.83040e-03 -5.47981e-02 3.80846e-03 -5.83040e-03 5.47981e-02 7.39619e-03 -1.13229e-02 1.06420e-01 4.97964e-03 -7.62337e-03 7.16497e-02 -8.55464e-04 1.30963e-03 -1.23089e-02 -6.81275e-03 1.04297e-02 -9.80255e-02 -6.43593e-03 9.85281e-03 -9.26036e-02 -2.39490e-03 3.66639e-03 -3.44593e-02 2.39491e-03 -3.66639e-03 3.44593e-02
-8.32571e-03 9.23919e-02 1.04089e-02 -8.81318e-03 9.78014e-02 1.10184e-02 -1.10665e-03 1.22807e-02 1.38355e-03 6.44181e-03 -7.14859e-02 -8.05365e-03 9.56794e-03 -1.06177e-01 -1.19620e-02 4.92673e-03 -5.46729e-02 -6.15948e-03 -4.92673e-03 5.46729e-02 6.15948e-03 -9.56794e-03 1.06177e-01 1.19620e-02 -6.44181e-03 7.14859e-02 8.05365e-03 1.10665e-03 -1.22807e-02 -1.38355e-03 8.81317e-03 -9.78014e-02 -1.10184e-02 8.32570e-03 -9.23919e-02 -1.04089e-02 3.09813e-03 -3.43805e-02 -3.87333e-03 -3.09813e-03 3.43805e-02 3.87333e-03
7.31617e-03 -1.10643e-02 1.05492e-01 4.58250e-03 -6.93014e-03 6.60751e-02 -4.84656e-03 7.32948e-03 -6.98825e-02 -7.49218e-03 1.13305e-02 -1.08030e-01 -7.36274e-04 1.11348e-03 -1.06164e-02 5.85137e-03 -8.84905e-03 8.43708e-02 5.85137e-03 -8.84905e-03 8.43708e-02 -7.36281e-04 1.11347e-03 -1.06164e-02 -7.49219e-03 1.13305e-02 -1.08030e-01 -4.84657e-03 7.32948e-03 -6.98825e-02 4.58252e-03 -6.93014e-03 6.60751e-02 7.31619e-03 -1.10643e-02 1.05492e-01 -1.75114e-03 2.64826e-03 -2.52497e-02 -1.75115e-03 2.64826e-03 -2.52497e-02
-9.49385e-03 1.05250e-01 1.16973e-02 -5.94650e-03 6.59235e-02 7.32665e-03 6.28915e-03 -6.97222e-02 -7.74883e-03 9.72224e-03 -1.07782e-01 -1.19787e-02 9.55432e-04 -1.05920e-02 -1.17718e-03 -7.59304e-03 8.41772e-02 9.35534e-03 -7.59304e-03 8.41772e-02 9.35534e-03 9.55430e-04 -1.05920e-02 -1.17718e-03 9.72224e-03 -1.07782e-01 -1.19787e-02 6.28915e-03 -6.97222e-02 -7.74883e-03 -5.94649e-03 6.59235e-02 7.32665e-03 -9.49385e-03 1.05250e-01 1.16973e-02 2.27237e-03 -2.51918e-02 -2.79978e-03 2.27237e-03 -2.51918e-02 -2.79978e-03
-3.52675e-02 -3.41329e-03 2.08791e-03 -9.49317e-03 -9.18774e-04 5.62018e-04 3.34488e-02 3.23727e-03 -1.98024e-03 5.68652e-02 5.50357e-03 -3.36653e-03 8.54816e-02 8.27314e-03 -5.06069e-03 9.48451e-02 9.17937e-03 -5.61503e-03 9.48451e-02 9.17936e-03 -5.61504e-03 8.54816e-02 8.27314e-03 -5.06071e-03 5.68652e-02 5.50356e-03 -3.36655e-03 3.34488e-02 3.23727e-03 -1.98025e-03 -9.49317e-03 -9.18775e-04 5.62014e-04 -3.52675e-02 -3.41329e-03 2.08792e-03 -8.46087e-02 -8.18866e-03 5.00901e-03 -8.46087e-02 -8.18866e-03 5.00903e-03
-6.04366e-03 3.70935e-03 -9.60213e-02 -1.32101e-03 8.10781e-04 -2.09881e-02 6.61692e-03 -4.06118e-03 1.05129e-01 3.49383e-03 -2.14437e-03 5.55098e-02 -6.29418e-03 3.86310e-03 -1.00001e-01 -5.21112e-03 3.19836e-03 -8.27939e-02 5.21113e-03 -3.19836e-03 8.27939e-02 6.29419e-03 -3.86310e-03 1.00001e-01 -3.49385e-03 2.14437e-03 -5.55098e-02 -6.61694e-03 4.06118e-03 -1.05129e-01 1.32102e-03 -8.10780e-04 2.09881e-02 6.04368e-03 -3.70934e-03 9.60213e-02 1.05815e-03 -6.49447e-04 1.68118e-02 -1.05815e-03 6.49447e-04 -1.68118e-02
9.01576e-03 -9.57648e-02 -4.26689e-03 1.97065e-03 -2.09320e-02 -9.32648e-04 -9.87092e-03 1.04848e-01 4.67162e-03 -5.21200e-03 5.53615e-02 2.46669e-03 9.38947e-03 -9.97343e-02 -4.44376e-03 7.77379e-03 -8.25726e-02 -3.67911e-03 -7.77379e-03 8.25726e-02 3.67911e-03 -9.38947e-03 9.97343e-02 4.44376e-03 5.21200e-03 -5.53615e-02 -2.46669e-03 9.87092e-03 -1.04848e-01 -4.67162e-03 -1.97064e-03 2.09320e-02 9.32648e-04 -9.01576e-03 9.57648e-02 4.26689e-03 -1.57852e-03 1.67669e-02 7.47065e-04 1.57852e-03 -1.67669e-02 -7.47065e-04
-2.12529e-02 -2.05692e-03 1.25822e-03 -5.76063e-02 -5.57529e-03 3.41041e-03 -9.55893e-02 -9.25139e-03 5.65908e-03 -9.81023e-02 -9.49461e-03 5.80787e-03 -6.72966e-02 -6.51314e-03 3.98411e-03 -3.32617e-02 -3.21916e-03 1.96917e-03 3.32617e-02 3.21916e-03 -1.96916e-03 6.72966e-02 6.51314e-03 -3.98410e-03 9.81023e-02 9.49461e-03 -5.80788e-03 9.55893e-02 9.25139e-03 -5.65910e-03 5.76063e-02 5.57529e-03 -3.41043e-03 2.12529e-02 2.05692e-03 -1.25822e-03 6.96036e-02 6.73642e-03 -4.12067e-03 -6.96036e-02 -6.73642e-03 4.12069e-03
-5.90223e-03 1.76372e-03 -9.68131e-02 2.65427e-03 -7.93155e-04 4.35374e-02 6.04315e-03 -1.80583e-03 9.91245e-02 -3.98774e-03 1.19163e-03 -6.54100e-02 -5.74556e-03 1.71690e-03 -9.42431e-02 5.04433e-03 -1.50736e-03 8.27410e-02 5.04433e-03 -1.50736e-03 8.27410e-02 -5.74557e-03 1.71690e-03 -9.42431e-02 -3.98775e-03 1.19163e-03 -6.54100e-02 6.04317e-03 -1.80583e-03 9.91245e-02 2.65428e-03 -7.93154e-04 4.35374e-02 -5.90226e-03 1.76372e-03 -9.68131e-02 7.09363e-04 -2.11974e-04 1.16355e-02 7.09366e-04 -2.11973e-04 1.16355e-02
9.20636e-03 -9.65432e-02 -2.32007e-03 -4.14015e-03 4.34160e-02 1.04335e-03 -9.42615e-03 9.88481e-02 2.37546e-03 6.22011e-03 -6.52277e-02 -1.56751e-03 8.96196e-03 -9.39803e-02 -2.25848e-03 -7.86818e-03 8.25103e-02 1.98284e-03 -7.86818e-03 8.25103e-02 1.98284e-03 8.96196e-03 -9.39803e-02 -2.25848e-03 6.22011e-03 -6.52277e-02 -1.56751e-03 -9.42615e-03 9.88481e-02 2.37546e-03 -4.14015e-03 4.34160e-02 1.04335e-03 9.20635e-03 -9.65432e-02 -2.32007e-03 -1.10647e-03 1.16031e-02 2.78839e-04 -1.10647e-03 1.16031e-02 2.78839e-04
7.02604e-02 6.79999e-03 -4.15956e-03 9.80246e-02 9.48709e-03 -5.80326e-03 8.03976e-02 7.78110e-03 -4.75971e-03 3.76659e-02 3.64541e-03 -2.22990e-03 -5.49499e-02 -5.31820e-03 3.25315e-03 -9.08520e-02 -8.79291e-03 5.37863e-03 -9.08520e-02 -8.79290e-03 5.37865e-03 -5.49499e-02 -5.31820e-03 3.25316e-03 3.76659e-02 3.64541e-03 -2.22991e-03 8.03976e-02 7.78110e-03 -4.75972e-03 9.80246e-02 9.48709e-03 -5.80328e-03 7.02604e-02 6.79999e-03 -4.15958e-03 -5.26450e-02 -5.09513e-03 3.11670e-03 -5.26450e-02 -5.09513e-03 3.11671e-03
6.28123e-03 -7.69411e-04 1.04840e-01 -5.16200e-03 6.32311e-04 -8.61591e-02 -3.42678e-03 4.19758e-04 -5.71965e-02 6.62979e-03 -8.12106e-04 1.10658e-01 -1.02292e-03 1.25301e-04 -1.70736e-02 -4.99453e-03 6.11797e-04 -8.33638e-02 4.99454e-03 -6.11796e-04 8.33638e-02 1.02292e-03 -1.25301e-04 1.70736e-02 -6.62981e-03 8.12105e-04 -1.10658e-01 3.42679e-03 -4.19757e-04 5.71965e-02 5.16201e-03 -6.32310e-04 8.61591e-02 -6.28126e-03 7.69408e-04 -1.04840e-01 -6.41273e-04 0 -1.07035e-02 6.41279e-04 0 1.07035e-02
-1.00368e-02 1.04542e-01 1.36855e-03 8.24836e-03 -8.59135e-02 -1.12469e-03 5.47565e-03 -5.70335e-02 -7.46621e-04 -1.05937e-02 1.10343e-01 1.44449e-03 1.63452e-03 -1.70249e-02 -2.22872e-04 7.98076e-03 -8.31263e-02 -1.08820e-03 -7.98076e-03 8.31263e-02 1.08820e-03 -1.63452e-03 1.70249e-02 2.22872e-04 1.05937e-02 -1.10343e-01 -1.44449e-03 -5.47565e-03 5.70335e-02 7.46621e-04 -8.24836e-03 8.59135e-02 1.12469e-03 1.00368e-02 -1.04542e-01 -1.36855e-03 1.02469e-03 -1.06730e-02 -1.39720e-04 -1.02469e-03 1.06730e-02 1.39720e-04
-5.39307e-03 2.64677e-04 -9.06634e-02 6.54195e-03 -3.21060e-04 1.09977e-01 -1.62572e-03 0 -2.73301e-02 -3.90845e-03 1.91815e-04 -6.57052e-02 6.63401e-03 -3.25577e-04 1.11525e-01 -3.51689e-03 1.72598e-04 -5.91225e-02 -3.51689e-03 1.72598e-04 -5.91225e-02 6.63402e-03 -3.25576e-04 1.11525e-01 -3.90846e-03 1.91814e-04 -6.57052e-02 -1.62572e-03 0 -2.73301e-02 6.54197e-03 -3.21058e-04 1.09977e-01 -5.39310e-03 2.64675e-04 -9.06634e-02 4.75024e-04 0 7.98567e-03 4.75027e-04 0 7.98567e-03
-8.70315e-03 9.04027e-02 7.81619e-04 1.05572e-02 -1.09661e-01 -9.48125e-04 -2.62353e-03 2.72515e-02 2.35616e-04 -6.30731e-03 6.55163e-02 5.66452e-04 1.07057e-02 -1.11204e-01 -9.61466e-04 -5.67541e-03 5.89525e-02 5.09702e-04 -5.67541e-03 5.89525e-02 5.09702e-04 1.07057e-02 -1.11204e-01 -9.61466e-04 -6.30731e-03 6.55163e-02 5.66452e-04 -2.62353e-03 2.72515e-02 2.35616e-04 1.05572e-02 -1.09661e-01 -9.48125e-04 -8.70314e-03 9.04027e-02 7.81619e-04 7.66577e-04 -7.96271e-03 0 7.66577e-04 -7.96271e-03 0
-9.96056e-02 -9.64010e-03 5.89686e-03 -9.96229e-02 -9.64178e-03 5.89789e-03 -2.26260e-04 0 0 6.17468e-02 5.97603e-03 -3.65554e-03 9.97370e-02 9.65282e-03 -5.90464e-03 6.14417e-02 5.94650e-03 -3.63749e-03 -6.14417e-02 -5.94650e-03 3.63748e-03 -9.97370e-02 -9.65282e-03 5.90466e-03 -6.17468e-02 -5.97602e-03 3.65555e-03 2.26260e-04 0 0 9.96229e-02 9.64177e-03 -5.89790e-03 9.96056e-02 9.64010e-03 -5.89689e-03 3.73245e-02 3.61237e-03 -2.20969e-03 -3.73245e-02 -3.61237e-03 2.20970e-03
4.23472e-03 -2.46695e-04 7.11267e-02 -6.58733e-03 3.83747e-04 -1.10641e-01 5.65048e-03 -3.29170e-04 9.49057e-02 -2.11868e-03 1.23424e-04 -3.55855e-02 -3.21660e-03 1.87384e-04 -5.40262e-02 6.21760e-03 -3.62207e-04 1.04431e-01 -6.21760e-03 3.62206e-04 -1.04431e-01 3.21661e-03 -1.87383e-04 5.40262e-02 2.11868e-03 -1.23424e-04 3.55855e-02 -5.65049e-03 3.29168e-04 -9.49057e-02 6.58735e-03 -3.83744e-04 1.10641e-01 -4.23474e-03 2.46694e-04 -7.11267e-02 -3.32865e-04 0 -5.59081e-03 3.32865e-04 0 5.59081e-03
-6.82544e-03 7.09224e-02 6.52358e-04 1.06173e-02 -1.10323e-01 -1.01478e-03 -9.10732e-03 9.46331e-02 8.70454e-04 3.41484e-03 -3.54833e-02 -3.26382e-04 5.18445e-03 -5.38710e-02 -4.95516e-04 -1.00214e-02 1.04131e-01 9.57818e-04 1.00214e-02 -1.04131e-01 -9.57818e-04 -5.18445e-03 5.38710e-02 4.95516e-04 -3.41484e-03 3.54833e-02 3.26382e-04 9.10732e-03 -9.46331e-02 -8.70454e-04 -1.06173e-02 1.10323e-01 1.01478e-03 6.82544e-03 -7.09224e-02 -6.52358e-04 5.36504e-04 -5.57475e-03 0 -5.36504e-04 5.57475e-03 0
2.91306e-03 -2.70683e-04 4.87628e-02 -5.30141e-03 4.92609e-04 -8.87424e-02 6.75218e-03 -6.27415e-04 1.13027e-01 -6.49223e-03 6.03260e-04 -1.08676e-01 4.50530e-03 -4.18633e-04 7.54159e-02 -1.81255e-03 1.68422e-04 -3.03409e-02 -1.81255e-03 1.68422e-04 -3.03409e-02 4.50530e-03 -4.18633e-04 7.54159e-02 -6.49224e-03 6.03258e-04 -1.08676e-01 6.75220e-03 -6.27413e-04 1.13027e-01 -5.30143e-03 4.92608e-04 -8.87424e-02 2.91307e-03 -2.70682e-04 4.87628e-02 -2.11392e-04 0 -3.53857e-03 -2.11393e-04 0 -3.53857e-03
-4.67339e-03 4.86234e-02 5.49094e-04 8.50500e-03 -8.84886e-02 -9.99284e-04 -1.08325e-02 1.12704e-01 1.27275e-03 1.04154e-02 -1.08365e-01 -1.22374e-03 -7.22780e-03 7.52002e-02 8.49220e-04 2.90785e-03 -3.02541e-02 -3.41654e-04 2.90785e-03 -3.02541e-02 -3.41654e-04 -7.22780e-03 7.52002e-02 8.49220e-04 1.04154e-02 -1.08365e-01 -1.22374e-03 -1.08325e-02 1.12704e-01 1.27274e-03 8.50500e-03 -8.84886e-02 -9.99283e-04 -4.67339e-03 4.86234e-02 5.49094e-04 3.39134e-04 -3.52845e-03 0 3.39134e-04 -3.52845e-03 0
1.47706e-03 -1.13769e-04 2.47635e-02 -2.93409e-03 2.25995e-04 -4.91911e-02 4.46259e-03 -3.43725e-04 7.48169e-02 -5.51343e-03 4.24665e-04 -9.24347e-02 6.38123e-03 -4.91505e-04 1.06984e-01 -6.76223e-03 5.20851e-04 -1.13371e-01 6.76223e-03 -5.20850e-04 1.13371e-01 -6.38124e-03 4.91504e-04 -1.06984e-01 5.51344e-03 -4.24664e-04 9.24347e-02 -4.46260e-03 3.43724e-04 -7.48170e-02 2.93410e-03 -2.25994e-04 4.91911e-02 -1.47707e-03 1.13768e-04 -2.47635e-02 -1.02233e-04 0 -1.71398e-03 1.02234e-04 0 1.71398e-03
2.37471e-03 -2.46925e-02 -2.55087e-04 -4.71721e-03 4.90502e-02 5.06713e-04 7.17461e-03 -7.46025e-02 -7.70682e-04 -8.86407e-03 9.21698e-02 9.52161e-04 1.02592e-02 -1.06677e-01 -1.10203e-03 -1.08718e-02 1.13046e-01 1.16783e-03 1.08718e-02 -1.13046e-01 -1.16783e-03 -1.02592e-02 1.06677e-01 1.10203e-03 8.86407e-03 -9.21698e-02 -9.52161e-04 -7.17461e-03 7.46025e-02 7.70682e-04 4.71721e-03 -4.90502e-02 -5.06713e-04 -2.37471e-03 2.46925e-02 2.55087e-04 -1.64363e-04 1.70907e-03 0 1.64363e-04 -1.70907e-03 0
-1.04461e-01 -1.01100e-02 6.18429e-03 -7.07314e-02 -6.84558e-03 4.18745e-03 8.37570e-02 8.10623e-03 -4.95859e-03 1.05994e-01 1.02584e-02 -6.27510e-03 -8.52850e-03 -8.25412e-04 5.04903e-04 -7.22511e-02 -6.99265e-03 4.27742e-03 -7.22511e-02 -6.99265e-03 4.27742e-03 -8.52850e-03 -8.25411e-04 5.04909e-04 1.05994e-01 1.02584e-02 -6.27511e-03 8.37570e-02 8.10622e-03 -4.95860e-03 -7.07314e-02 -6.84558e-03 4.18746e-03 -1.04461e-01 -1.01100e-02 6.18431e-03 2.48044e-02 2.40063e-03 -1.46847e-03 2.48044e-02 2.40063e-03 -1.46848e-03
7.62851e-02 7.38307e-03 -4.51623e-03 3.07257e-02 2.97371e-03 -1.81902e-03 -9.82530e-02 -9.50919e-03 5.81678e-03 -6.75944e-02 -6.54197e-03 4.00173e-03 1.04327e-01 1.00970e-02 -6.17638e-03 9.35252e-02 9.05162e-03 -5.53690e-03 -9.35252e-02 -9.05162e-03 5.53689e-03 -1.04327e-01 -1.00970e-02 6.17639e-03 6.75944e-02 6.54197e-03 -4.00174e-03 9.82530e-02 9.50919e-03 -5.81680e-03 -3.07257e-02 -2.97371e-03 1.81903e-03 -7.62851e-02 -7.38307e-03 4.51625e-03 -1.34547e-02 -1.30219e-03 7.96548e-04 1.34547e-02 1.30218e-03 -7.96551e-04
8.08297e-02 7.82291e-03 -4.78528e-03 -4.77048e-02 -4.61700e-03 2.82422e-03 -9.46719e-02 -9.16260e-03 5.60478e-03 7.32098e-02 7.08545e-03 -4.33418e-03 9.80661e-02 9.49110e-03 -5.80572e-03 -9.06389e-02 -8.77228e-03 5.36602e-03 -9.06389e-02 -8.77228e-03 5.36603e-03 9.80661e-02 9.49110e-03 -5.80573e-03 7.32098e-02 7.08545e-03 -4.33419e-03 -9.46719e-02 -9.16260e-03 5.60479e-03 -4.77048e-02 -4.61700e-03 2.82423e-03 8.08297e-02 7.82291e-03 -4.78530e-03 -7.15060e-03 -6.92055e-04 4.23330e-04 -7.15060e-03 -6.92054e-04 4.23332e-04
1.07003e-01 1.03560e-02 -6.33479e-03 -8.76865e-02 -8.48654e-03 5.19122e-03 -7.54667e-02 -7.30387e-03 4.46779e-03 1.06239e-01 1.02821e-02 -6.28956e-03 4.33988e-03 4.20025e-04 -2.56931e-04 -6.90634e-02 -6.68414e-03 4.08870e-03 6.90634e-02 6.68414e-03 -4.08871e-03 -4.33988e-03 -4.20025e-04 2.56929e-04 -1.06239e-01 -1.02821e-02 6.28957e-03 7.54667e-02 7.30387e-03 -4.46780e-03 8.76865e-02 8.48653e-03 -5.19124e-03 -1.07003e-01 -1.03560e-02 6.33481e-03 -8.46952e-03 -8.19703e-04 5.01413e-04 8.46952e-03 8.19703e-04 -5.01415e-04
-9.88052e-02 -9.56264e-03 5.84947e-03 1.09147e-01 1.05636e-02 -6.46175e-03 -1.06476e-02 -1.03050e-03 6.30358e-04 -5.76173e-02 -5.57636e-03 3.41107e-03 1.06583e-01 1.03154e-02 -6.30994e-03 -6.71140e-02 -6.49548e-03 3.97329e-03 -6.71140e-02 -6.49547e-03 3.97330e-03 1.06583e-01 1.03154e-02 -6.30995e-03 -5.76173e-02 -5.57636e-03 3.41107e-03 -1.06476e-02 -1.03050e-03 6.30361e-04 1.09147e-01 1.05636e-02 -6.46177e-03 -9.88052e-02 -9.56263e-03 5.84950e-03 6.91231e-03 6.68992e-04 -4.09223e-04 6.91231e-03 6.68992e-04 -4.09225e-04
-7.89910e-02 -7.64496e-03 4.67643e-03 1.08433e-01 1.04944e-02 -6.41944e-03 -8.75681e-02 -8.47507e-03 5.18421e-03 4.03300e-02 3.90324e-03 -2.38762e-03 6.09622e-02 5.90009e-03 -3.60910e-03 -1.00130e-01 -9.69085e-03 5.92791e-03 1.00130e-01 9.69084e-03 -5.92791e-03 -6.09622e-02 -5.90009e-03 3.60910e-03 -4.03300e-02 -3.90324e-03 2.38763e-03 8.75681e-02 8.47507e-03 -5.18423e-03 -1.08433e-01 -1.04944e-02 6.41946e-03 7.89910e-02 7.64496e-03 -4.67645e-03 4.98093e-03 4.82068e-04 -2.94882e-04 -4.98093e-03 -4.82068e-04 2.94883e-04
-5.45119e-02 -5.27581e-03 3.22722e-03 8.64237e-02 8.36432e-03 -5.11646e-03 -1.12631e-01 -1.09008e-02 6.66802e-03 1.08596e-01 1.05103e-02 -6.42914e-03 -7.05944e-02 -6.83232e-03 4.17934e-03 3.42081e-02 3.31075e-03 -2.02519e-03 3.42081e-02 3.31075e-03 -2.02520e-03 -7.05944e-02 -6.83232e-03 4.17935e-03 1.08596e-01 1.05103e-02 -6.42915e-03 -1.12631e-01 -1.09008e-02 6.66804e-03 8.64237e-02 8.36432e-03 -5.11648e-03 -5.45119e-02 -5.27581e-03 3.22723e-03 3.18744e-03 3.08489e-04 -1.88703e-04 3.18744e-03 3.08489e-04 -1.88704e-04
2.77550e-02 2.68621e-03 -1.64315e-03 -4.77661e-02 -4.62293e-03 2.82785e-03 7.63874e-02 7.39298e-03 -4.52230e-03 -9.06672e-02 -8.77501e-03 5.36769e-03 1.06899e-01 1.03460e-02 -6.32867e-03 -1.12067e-01 -1.08462e-02 6.63464e-03 1.12067e-01 1.08462e-02 -6.63464e-03 -1.06899e-01 -1.03460e-02 6.32867e-03 9.06672e-02 8.77501e-03 -5.36770e-03 -7.63874e-02 -7.39298e-03 4.52231e-03 4.77661e-02 4.62293e-03 -2.82786e-03 -2.77550e-02 -2.68621e-03 1.64316e-03 -1.55095e-03 -1.50105e-04 0 1.55095e-03 1.50105e-04 0
13
14
