10
12.0107 12.0107 32.0650 1.0079 1.0079 32.0650 1.0079 1.0079 196.9664 196.9664 
6.28318 6.28318
0.0 0.0
0.00103585 2.70656 2.73828 4.52444 4.79545 5.02451 5.1972 5.2257 9.5208 14.6171 33.1762 47.8136 68.8455 84.3369 99.0231 147.406 148.093 181.902 183.355 195.93 240.218 243.042 272.125 278.144 284.768 299.24 540.359 540.92 554.23 555.01
1.36004e-02 3.41821e-02 -5.54156e-02 1.55971e-02 -1.92938e-02 -6.17152e-02 -2.27530e-02 -5.63777e-02 9.26830e-02 8.64054e-03 1.56023e-01 -3.94216e-02 3.94678e-02 5.66775e-03 -1.57878e-01 -2.60341e-02 3.15002e-02 1.03035e-01 3.84083e-02 3.40427e-02 -1.54536e-01 1.97509e-02 -1.41546e-01 -7.44756e-02 0 0 0 0 0 0
1.52422e-02 8.41884e-02 -1.88153e-02 -2.12303e-02 7.61685e-02 3.77096e-02 -4.38343e-03 8.79222e-02 -6.27528e-02 6.22052e-02 8.37612e-02 -7.84555e-03 4.83630e-03 8.67187e-02 -4.42448e-02 -1.55235e-03 7.10369e-02 8.14799e-02 -1.08188e-02 7.34863e-02 6.31227e-02 -6.81280e-02 7.48475e-02 2.65339e-02 2.64759e-04 7.84094e-03 -1.30015e-03 -8.29545e-04 7.28385e-03 3.08210e-03
-2.97108e-02 -4.40588e-02 1.46911e-01 -3.15963e-02 6.45410e-03 1.52860e-01 -2.62397e-02 -1.52902e-03 5.30164e-02 -2.60687e-02 -1.15788e-01 1.37669e-01 -3.31370e-02 -3.37175e-02 2.09419e-01 -2.58207e-02 -1.27517e-02 5.16924e-02 -3.37112e-02 -1.83336e-02 2.11230e-01 -3.33189e-02 7.84385e-02 1.60548e-01 -2.68599e-03 -1.31477e-03 8.14572e-03 -2.70472e-03 -8.12816e-04 8.20479e-03
-4.23454e-02 -2.50862e-04 -1.51990e-02 -4.23793e-02 6.55844e-04 -1.50922e-02 -4.44125e-02 -2.39975e-03 -1.38712e-02 -4.24405e-02 1.26990e-03 -1.50076e-02 -4.10046e-02 -1.16968e-03 -1.63302e-02 -4.45872e-02 2.27992e-03 -1.33199e-02 -4.11195e-02 1.90815e-03 -1.59677e-02 -4.23606e-02 -8.70587e-04 -1.52597e-02 -4.25173e-02 -5.25231e-03 -1.43543e-02 -4.29112e-02 5.29817e-03 -1.31114e-02
1.01282e-02 -1.87748e-02 -1.69686e-02 -8.57244e-03 -2.28927e-02 1.20601e-02 5.19349e-03 -1.03885e-02 -4.55072e-02 3.47528e-02 -2.42450e-02 -1.19565e-02 1.77533e-03 -1.51916e-02 -2.57913e-02 -4.02085e-03 -2.10184e-02 4.18075e-02 -4.29637e-04 -2.08503e-02 2.15455e-02 -3.27705e-02 -2.88464e-02 5.70224e-03 7.69493e-03 -3.61051e-02 -2.75099e-02 -4.77987e-03 -4.19689e-02 1.83126e-02
-1.31865e-02 1.35012e-02 -9.65462e-03 -1.22409e-02 -1.18244e-02 -1.26380e-02 4.85423e-03 1.97905e-02 7.91206e-03 -1.34464e-02 2.25167e-02 -8.44676e-03 -2.48797e-02 1.88477e-02 -1.95572e-02 6.36507e-03 -2.06742e-02 3.14525e-03 -2.35945e-02 -1.55722e-02 -2.36119e-02 -1.18266e-02 -2.08682e-02 -1.35576e-02 -1.09422e-02 4.55018e-02 1.52426e-02 -7.43339e-03 -4.84750e-02 4.17197e-03
-2.74831e-03 -6.65429e-03 3.90014e-03 3.19640e-03 -5.34691e-03 -5.31390e-03 0 -7.91502e-03 1.18677e-02 -1.01078e-02 -5.62058e-03 2.31766e-03 -7.30100e-04 -7.34179e-03 7.36882e-03 4.24285e-04 -4.92695e-03 -1.33805e-02 1.20425e-03 -5.35723e-03 -8.86478e-03 1.04734e-02 -4.17022e-03 -3.47103e-03 9.47499e-03 2.97305e-02 -3.90684e-02 -1.12972e-02 1.90730e-02 4.48176e-02
2.15704e-03 9.49864e-03 -2.58660e-02 2.62564e-03 -3.05180e-03 -2.73444e-02 4.54776e-03 3.51928e-03 -7.52100e-03 1.13185e-03 2.24360e-02 -2.42875e-02 7.46612e-04 8.73247e-03 -3.75859e-02 4.72895e-03 -1.33359e-03 -8.09268e-03 1.06118e-03 3.07296e-04 -3.85784e-02 2.56849e-03 -1.60416e-02 -2.88202e-02 -1.25190e-02 -1.86065e-02 4.42852e-02 -1.34694e-02 6.84919e-03 4.72839e-02
0 8.75390e-02 4.29611e-03 -6.50931e-03 8.59000e-02 1.61353e-02 -6.44560e-02 1.25768e-02 6.69845e-02 5.77901e-03 1.52094e-01 1.47343e-02 3.36398e-02 6.07536e-02 -5.25743e-02 6.27736e-02 3.24837e-02 -6.16763e-02 -3.75604e-02 4.42513e-02 6.49440e-02 -1.70775e-02 1.50513e-01 2.09133e-02 -1.31157e-02 -1.32372e-02 -1.14820e-02 1.41528e-02 -1.45388e-02 8.20996e-03
3.17217e-03 -2.94386e-02 -1.22429e-02 -8.92147e-04 -3.16274e-02 5.04924e-03 -5.86266e-03 -2.02528e-02 -3.84869e-02 1.68178e-02 -3.86626e-02 -1.03440e-02 -1.46985e-03 -2.69937e-02 -1.36159e-02 7.66963e-03 -2.81435e-02 3.27858e-02 3.56920e-03 -2.92332e-02 6.99226e-03 -1.38383e-02 -4.11369e-02 9.43536e-04 -4.53489e-02 6.24555e-03 -7.24838e-03 4.48278e-02 7.71106e-03 8.89249e-03
-9.55998e-02 5.25731e-02 -2.57539e-02 -9.16936e-02 -5.20465e-02 -3.80783e-02 -4.75112e-02 7.28668e-02 1.84526e-02 -9.36744e-02 8.43248e-02 -2.08737e-02 -1.41802e-01 7.30774e-02 -6.95276e-02 -4.18614e-02 -7.84514e-02 6.27064e-04 -1.36640e-01 -6.51742e-02 -8.58138e-02 -8.73958e-02 -8.38340e-02 -4.06831e-02 1.47151e-02 -5.46400e-03 2.76542e-04 1.42752e-02 6.31775e-03 1.66445e-03
7.01424e-02 4.29756e-02 -9.55824e-02 -7.22825e-02 1.43429e-02 1.02335e-01 1.02622e-02 -5.17134e-02 -6.69799e-03 2.32865e-01 2.14863e-01 -3.41446e-02 7.65844e-02 1.16780e-02 -3.07411e-01 -6.37242e-03 -5.24668e-02 -5.57460e-03 -7.45695e-02 -6.56437e-02 3.01053e-01 -2.47733e-01 1.83348e-01 8.10544e-02 4.63892e-03 5.63123e-03 4.66586e-03 -5.08079e-03 6.20339e-03 -3.27173e-03
-7.74266e-02 -5.77236e-02 -3.44643e-02 -8.17582e-02 5.82901e-02 -2.07978e-02 -5.20278e-02 -6.60585e-02 -4.02061e-02 -1.04781e-01 -1.06111e-01 -4.78474e-02 -4.89525e-02 -6.56115e-02 4.05986e-02 -5.70919e-02 6.95747e-02 -2.42283e-02 -5.32921e-02 5.06159e-02 5.42904e-02 -1.12713e-01 1.06316e-01 -2.28232e-02 1.43620e-02 6.96097e-03 7.75617e-03 1.49018e-02 -7.49512e-03 6.05322e-03
-1.89899e-02 -1.78411e-02 3.83045e-03 2.02168e-02 -1.50188e-02 -7.70140e-03 -1.01730e-01 -3.18757e-02 -4.90290e-02 -3.52826e-02 -4.79648e-02 -3.95198e-03 4.36865e-03 -2.97987e-02 1.98599e-02 1.04220e-01 -3.48121e-02 4.11731e-02 -2.33700e-03 -2.46149e-02 -2.62699e-02 3.87478e-02 -4.48439e-02 -6.98103e-03 1.18054e-02 6.56562e-03 6.88106e-03 -1.23155e-02 7.09662e-03 -5.27162e-03
1.04994e-01 3.39173e-02 3.83208e-02 1.07532e-01 -3.40673e-02 3.03121e-02 -8.17308e-02 7.86765e-03 -2.95665e-02 1.81747e-01 1.12285e-01 6.77142e-02 1.51446e-01 -6.56562e-03 -9.02155e-02 -8.11838e-02 -6.78116e-03 -3.12922e-02 1.49765e-01 3.84424e-02 -8.49135e-02 1.90093e-01 -1.11253e-01 4.13811e-02 4.92606e-03 3.74348e-03 3.49881e-03 5.21818e-03 -4.08048e-03 2.57714e-03
2.28234e-03 -1.26313e-01 -5.80065e-02 7.51700e-03 -1.36142e-01 2.70888e-02 -2.53227e-02 5.71510e-02 2.69254e-02 1.38817e-01 -3.39417e-02 -1.64243e-02 -1.84581e-02 -1.53199e-01 -2.71659e-01 2.08163e-02 6.35425e-02 -1.27075e-02 3.20291e-02 -2.10273e-01 2.28841e-01 -1.35797e-01 -4.69422e-02 6.89610e-03 0 -6.52000e-04 -4.03868e-04 1.36171e-04 -7.19859e-04 2.42261e-04
-6.29201e-02 3.62781e-02 8.04119e-02 -5.93823e-02 -5.84749e-02 6.92499e-02 2.51111e-02 -3.28018e-02 -2.81028e-02 9.78144e-02 3.65205e-01 1.72293e-01 -1.44823e-01 3.28983e-02 -2.86454e-01 2.23861e-02 4.01835e-02 -1.95050e-02 -1.44488e-01 2.39137e-02 -2.87512e-01 1.25900e-01 -3.87007e-01 8.36812e-02 0 1.91198e-04 1.49945e-04 0 -2.18552e-04 1.01676e-04
2.27425e-02 1.30160e-01 1.91178e-02 3.24190e-02 -1.29008e-01 -1.14125e-02 -3.53304e-04 -3.32520e-02 -1.38636e-02 -1.65613e-01 -7.05185e-02 -5.40072e-02 -1.66282e-01 2.95432e-01 3.03428e-01 -2.91817e-03 3.54429e-02 -5.77123e-03 -1.41467e-01 -3.69188e-01 2.25135e-01 -1.70813e-01 6.87489e-02 -3.76013e-02 2.15208e-04 4.50898e-04 3.01004e-04 2.50389e-04 -4.91355e-04 1.90005e-04
1.06517e-01 9.92535e-03 -3.54952e-02 -1.06647e-01 -6.44465e-03 3.59052e-02 -1.23076e-02 7.55113e-03 1.46899e-02 1.98116e-01 -3.88083e-01 -7.86527e-02 1.94974e-01 1.64684e-02 3.11216e-01 1.15912e-02 1.16381e-02 -1.24294e-02 -1.98347e-01 7.38529e-02 -3.00576e-01 -1.68347e-01 -4.09232e-01 -1.52723e-02 0 1.34691e-04 0 0 1.47143e-04 0
-5.12840e-02 2.42159e-02 -1.29178e-01 5.04813e-02 -2.71753e-03 1.31710e-01 8.75863e-04 -2.97214e-03 8.82105e-03 -2.45911e-01 -1.98437e-01 -2.25801e-01 -2.72618e-01 1.73665e-01 2.81973e-02 -7.31284e-04 -9.00138e-04 -9.27721e-03 2.58852e-01 1.95035e-01 1.52361e-02 2.61787e-01 -2.26780e-01 1.75710e-01 0 -1.82617e-04 -1.19049e-04 0 -2.08985e-04 0
1.36167e-03 4.72033e-03 1.70600e-02 1.85294e-03 -8.43712e-03 1.55101e-02 3.43969e-03 4.08303e-03 -7.68276e-03 -4.69646e-01 3.31677e-01 -4.32560e-02 3.34755e-01 -1.69977e-01 1.27037e-01 3.66399e-03 -1.92435e-03 -8.39044e-03 3.22435e-01 1.60005e-01 1.65909e-01 -4.44336e-01 -3.46204e-01 -1.23112e-01 0 0 0 0 0 0
1.10726e-03 4.07410e-03 -3.91748e-02 -1.06445e-03 -5.22078e-03 3.90397e-02 4.45365e-03 6.75154e-03 -2.66305e-03 -4.06318e-01 8.97079e-02 -1.33753e-01 4.68479e-01 -2.54489e-01 1.77435e-03 -4.91493e-03 5.60288e-03 4.11842e-03 -4.48490e-01 -2.80879e-01 -6.48415e-02 3.99763e-01 8.58558e-02 1.54434e-01 0 0 0 0 0 0
4.93262e-02 -4.58712e-03 4.33395e-02 4.92288e-02 -1.98021e-03 4.36466e-02 -1.83750e-03 8.91176e-04 -5.40980e-04 -3.86440e-01 -2.64353e-01 -8.36581e-02 -1.29974e-01 3.85195e-02 -4.46896e-01 -1.77159e-03 -8.73977e-04 -7.48918e-04 -1.30656e-01 5.67859e-02 -4.44744e-01 -4.05547e-01 2.47391e-01 -2.33738e-02 0 0 0 0 0 0
2.00688e-02 -5.64147e-02 -5.42003e-02 -1.53947e-02 -6.87713e-02 3.94532e-02 -5.60229e-03 6.02261e-03 6.70087e-04 3.25685e-02 4.54097e-01 6.84724e-04 -8.07595e-02 5.36011e-02 4.46678e-01 5.13813e-03 6.40899e-03 7.94374e-04 7.27251e-02 1.61584e-01 -4.21329e-01 -6.58843e-02 4.38200e-01 1.04429e-01 0 0 0 0 0 0
-6.77892e-02 9.83155e-02 2.09903e-02 -6.01900e-02 -1.05215e-01 -2.98590e-03 8.95855e-03 -8.22644e-03 -2.85762e-03 1.09467e-01 -3.16233e-01 1.38865e-02 4.02502e-01 -1.65306e-01 -1.20021e-01 8.30412e-03 9.30101e-03 -7.92858e-04 3.88199e-01 2.17790e-01 -7.48920e-02 8.60274e-02 3.11549e-01 8.78402e-02 0 0 0 0 0 0
-1.42954e-01 3.13928e-02 -4.57209e-02 1.40648e-01 3.03528e-02 5.29946e-02 7.68609e-03 -4.39013e-03 5.44362e-04 3.53597e-01 -4.51164e-02 5.21357e-02 1.97856e-01 -1.59830e-01 1.37552e-01 -7.34680e-03 -4.69705e-03 -1.61485e-03 -1.86749e-01 -1.37654e-01 -1.72596e-01 -3.49760e-01 -5.76680e-02 -6.42438e-02 0 -1.13848e-04 0 0 -1.23811e-04 0
-8.80855e-03 -3.29708e-02 -3.88222e-02 -1.15458e-02 4.03401e-02 -3.01861e-02 -2.49143e-04 8.02766e-04 5.57424e-04 -1.07656e-01 -5.86766e-02 4.87934e-01 2.20503e-01 4.00506e-01 -4.55051e-02 -1.84584e-04 -9.26297e-04 3.53738e-04 2.48961e-01 -3.61680e-01 -1.35292e-01 -1.07448e-01 -6.42362e-02 4.87279e-01 0 0 0 0 0 0
1.57922e-02 3.29848e-02 3.89777e-02 -1.85126e-02 3.98761e-02 -3.03946e-02 2.52670e-04 -7.25546e-04 -4.35023e-04 1.01665e-01 5.31393e-02 -4.48764e-01 -2.48135e-01 -4.28921e-01 4.38425e-02 -1.94843e-04 -8.23254e-04 2.52572e-04 2.78621e-01 -3.87593e-01 -1.40029e-01 -1.01406e-01 -6.00767e-02 4.47947e-01 0 0 0 0 0 0
2.91246e-02 4.41272e-02 -4.14065e-02 3.19315e-02 -3.10488e-02 -5.02623e-02 -2.30317e-04 -3.20038e-04 0 -1.00427e-01 -6.82243e-02 4.33167e-01 -2.39742e-01 -4.22281e-01 6.45083e-02 -2.53666e-04 3.05304e-04 0 -2.69584e-01 3.76974e-01 1.58662e-01 -1.01416e-01 -4.17351e-02 4.36288e-01 0 0 0 0 0 0
-3.04335e-02 -3.92091e-02 4.75368e-02 3.28220e-02 -2.47598e-02 -5.50725e-02 0 0 -2.96756e-04 1.20830e-01 7.14307e-02 -4.63601e-01 2.22815e-01 3.89583e-01 -6.11762e-02 0 0 3.07873e-04 -2.50327e-01 3.47279e-01 1.47980e-01 -1.21735e-01 -4.71883e-02 4.66457e-01 0 0 0 0 0 0
9
10
