8
75.4
6.28318 6.28318
0.0 0.0
1.88365e-06 2.83652 4.09681 4.20915 4.89589 4.98067 5.25655 5.51309 8.69067 13.2267 14.462 31.6101 37.0751 45.6838 51.5016 75.2044 82.0461 87.3083 87.5912 168.213 171.484 210.779 221.523 229.871
3.84673e-03 -6.91096e-02 4.21154e-02 3.11794e-03 -7.00517e-02 -7.00155e-03 3.39881e-03 -6.31543e-02 3.10801e-02 3.42362e-03 -7.95003e-02 -1.52524e-02 4.75585e-03 -1.02613e-01 1.74294e-03 4.99589e-03 -9.67181e-02 3.42885e-02 0 0 0 0 0 0
-1.30088e-02 -4.81828e-02 4.50261e-02 1.23379e-02 -1.51295e-02 2.05812e-02 -1.20818e-02 2.14186e-02 1.41416e-02 1.35258e-02 6.08800e-02 2.50767e-02 5.38556e-03 -1.13326e-01 9.79600e-04 -5.66414e-03 1.06485e-01 -3.87518e-02 -3.93242e-03 -6.80490e-03 1.57483e-03 3.93689e-03 6.91479e-03 -9.68158e-04
0 1.29588e-02 6.40854e-02 2.75588e-04 1.33121e-02 7.18189e-02 7.84555e-04 1.27226e-02 7.19219e-02 1.04754e-03 1.03403e-02 6.45512e-02 -6.77474e-03 1.01669e-02 4.68743e-02 7.46977e-03 6.90126e-03 4.73607e-02 1.71581e-02 7.52861e-03 3.34939e-02 -1.66585e-02 4.74104e-03 3.42482e-02
5.29670e-02 -2.24129e-03 -6.99792e-03 5.35213e-02 -1.57088e-03 1.24335e-03 5.35020e-02 -2.04561e-03 -1.37766e-03 5.30671e-02 2.18390e-04 6.58227e-03 5.46261e-02 4.02296e-03 4.52503e-03 5.45453e-02 2.03909e-03 -6.42819e-03 3.81401e-02 3.14401e-03 1.32194e-02 3.79392e-02 -1.79071e-03 -1.40257e-02
4.47224e-03 1.15820e-03 -1.94313e-02 6.56253e-03 3.88484e-03 -1.15690e-02 6.71701e-03 7.67857e-03 9.37664e-03 4.74628e-03 7.88804e-03 1.77249e-02 0 -5.09420e-03 -3.64407e-02 6.17072e-04 8.00971e-03 3.59075e-02 1.42111e-02 8.90263e-03 -4.46638e-02 1.48245e-02 2.39649e-02 3.84966e-02
1.78653e-03 -1.52106e-02 -2.31668e-02 2.79657e-03 -1.39177e-02 1.13433e-02 2.67028e-03 -1.70191e-02 -5.78025e-03 2.15654e-03 -6.12388e-03 2.70019e-02 -1.24084e-03 4.05545e-03 -5.20350e-03 -1.17689e-03 5.62602e-03 3.46780e-03 5.80735e-03 -4.87105e-02 -6.81028e-03 6.03000e-03 -4.32428e-02 2.33778e-02
-3.23509e-04 -9.96970e-04 1.59654e-02 7.53907e-04 3.49597e-04 7.87710e-03 -6.40427e-04 2.43723e-03 7.50927e-03 5.48904e-04 6.53222e-03 1.45953e-02 -3.58822e-03 -1.41961e-02 -7.51531e-03 3.44379e-03 1.06492e-02 -1.20672e-02 -5.28957e-03 4.85580e-02 -9.26672e-03 5.28227e-03 -4.87372e-02 8.27770e-03
-1.69618e-04 6.71950e-03 3.27888e-02 3.05343e-04 7.46080e-03 4.08423e-02 2.97273e-04 7.33820e-03 4.08646e-02 6.55251e-04 5.20664e-03 3.30567e-02 -1.12953e-02 -2.75075e-03 -2.61852e-03 1.12496e-02 1.62842e-03 -3.57797e-03 3.78971e-02 -3.05802e-03 -2.94539e-02 -3.83217e-02 -7.36831e-03 -2.81111e-02
-5.25567e-02 4.10871e-02 9.49142e-02 -5.93453e-02 3.25660e-02 -4.05156e-03 -5.93654e-02 3.20718e-02 -6.78028e-03 -5.40129e-02 5.32460e-03 -1.02534e-01 -4.97247e-02 -7.96333e-03 3.84588e-02 -5.02481e-02 -2.08172e-02 -3.25086e-02 2.43139e-02 -2.71375e-03 -1.36013e-03 2.43377e-02 -2.12723e-03 1.87812e-03
1.67524e-02 -2.18271e-03 -2.65249e-02 -1.08138e-03 -2.11800e-02 -1.32941e-01 -8.72109e-04 -2.67935e-02 -1.31926e-01 -1.71351e-02 -7.21547e-03 -2.53635e-02 4.28727e-02 -1.90638e-02 -8.22199e-04 -4.29293e-02 1.76753e-02 -6.84368e-03 2.46080e-02 6.90749e-03 1.29323e-02 -2.44029e-02 -1.86943e-03 1.48834e-02
-1.52216e-02 6.25751e-02 1.04043e-03 1.02710e-03 8.47758e-02 -1.26691e-01 2.61703e-03 1.23821e-01 8.88826e-02 -1.53967e-02 5.82746e-02 -2.27033e-02 3.58453e-02 -3.86232e-02 -1.82242e-02 3.62017e-02 -2.98708e-02 3.00987e-02 -5.57100e-03 -6.70484e-03 2.88395e-03 -5.59426e-03 -7.27598e-03 -2.69357e-04
-1.40409e-02 -4.65868e-02 -5.33950e-02 -4.29536e-02 -8.47292e-02 -1.26867e-01 -4.09181e-02 -3.47410e-02 1.49124e-01 -1.31564e-02 -2.48643e-02 6.65370e-02 -2.54597e-02 3.13940e-02 1.08045e-02 -2.56926e-02 2.56762e-02 -2.07640e-02 8.35886e-03 3.02083e-03 4.06682e-03 8.29208e-03 1.38099e-03 -4.98690e-03
-1.24207e-03 -5.41878e-02 -1.30197e-01 2.20502e-02 -5.42982e-03 9.21977e-02 -2.07452e-02 3.74776e-02 8.47418e-02 -7.57617e-04 5.07958e-03 -1.40935e-01 3.54165e-02 -5.05011e-03 -2.73432e-02 -3.58163e-02 -4.76893e-03 -2.68688e-02 9.11178e-03 3.78443e-03 7.41606e-03 -8.99512e-03 -9.19495e-04 8.40160e-03
-8.34850e-02 -1.45150e-02 -1.23116e-01 -4.49211e-02 4.57378e-02 4.84262e-02 -4.57262e-02 2.59645e-02 -6.07446e-02 -8.16804e-02 2.98026e-02 1.21566e-01 -1.09611e-02 -3.56410e-02 -1.61400e-02 -1.06373e-02 -2.76879e-02 2.77696e-02 1.10612e-02 3.83498e-03 9.19595e-03 1.09188e-02 3.37542e-04 -1.01138e-02
4.89121e-02 8.73542e-02 5.04164e-02 -6.21350e-03 3.85925e-02 3.64859e-02 6.83374e-03 -2.33607e-02 4.76108e-02 -4.79610e-02 -6.39965e-02 7.85439e-02 8.53103e-02 -3.99958e-03 -3.67963e-02 -8.58371e-02 -8.93907e-03 -3.46394e-02 -5.10195e-03 -2.37097e-03 -1.37142e-03 5.07569e-03 1.72617e-03 -2.18857e-03
6.99767e-02 -7.48263e-02 2.69600e-02 5.16471e-02 -6.10898e-02 6.56990e-03 -5.17058e-02 5.96470e-02 -1.45360e-02 -6.97779e-02 7.97095e-02 0 4.64387e-02 2.48460e-02 6.33477e-02 -4.54649e-02 -9.30226e-04 6.86942e-02 -6.26352e-03 -3.92698e-04 -1.17346e-02 6.09426e-03 -3.76404e-03 -1.12152e-02
1.63227e-02 2.86301e-02 4.24279e-02 -3.39646e-02 -3.30246e-02 7.53321e-03 -3.39832e-02 -3.34809e-02 5.01360e-03 1.56410e-02 1.18889e-02 -5.00025e-02 -2.38923e-02 5.70565e-03 -1.06759e-01 -2.23799e-02 4.28478e-02 9.83066e-02 5.16289e-03 -6.43794e-04 1.37392e-02 4.96779e-03 -5.43487e-03 -1.27129e-02
7.00680e-02 -4.92065e-02 5.90999e-02 4.41164e-02 -5.60638e-02 2.01351e-04 -4.42540e-02 5.26872e-02 -1.88442e-02 -6.93439e-02 6.69895e-02 3.90823e-02 -3.05467e-02 1.95223e-02 -8.15481e-02 2.94294e-02 -4.69618e-02 -6.99487e-02 3.25724e-03 -6.83066e-04 9.94723e-03 -3.11661e-03 4.13681e-03 9.12125e-03
1.83973e-02 -4.12088e-02 -1.02759e-02 1.22776e-01 5.57820e-02 -2.69126e-02 1.23004e-01 6.13597e-02 3.88287e-03 1.86488e-02 -3.50347e-02 2.38121e-02 -7.79274e-02 -7.39030e-03 -9.25049e-03 -7.77680e-02 -3.47493e-03 1.23667e-02 2.65712e-03 2.70966e-04 4.73887e-03 2.58846e-03 -1.41514e-03 -4.57032e-03
1.25570e-01 7.40607e-02 -5.91147e-02 5.18290e-02 2.19426e-02 6.30487e-04 -5.17578e-02 -2.01935e-02 9.02628e-03 -1.26209e-01 -8.97640e-02 -2.75853e-02 -4.34320e-02 -3.10038e-02 2.34110e-02 4.36815e-02 3.71327e-02 1.04274e-02 1.31683e-04 0 0 -1.31892e-04 0 0
8.17494e-02 1.25287e-01 -6.28830e-02 -2.17488e-03 -5.18212e-02 9.02417e-03 -2.16948e-03 -5.16886e-02 9.75586e-03 8.23147e-02 1.39172e-01 1.37734e-02 -3.55847e-02 -3.29076e-02 2.29395e-02 -3.58234e-02 -3.87705e-02 -9.43026e-03 1.31037e-04 0 -1.37468e-04 1.32756e-04 1.31253e-04 0
-1.24076e-01 6.68848e-02 8.46092e-03 9.56226e-02 -7.85006e-02 2.03782e-03 9.57864e-02 -7.44761e-02 2.42581e-02 -1.24357e-01 5.99896e-02 -2.96085e-02 1.22302e-02 4.92385e-03 -4.12253e-03 1.22750e-02 6.02529e-03 1.95865e-03 0 0 0 0 0 0
2.19898e-02 -8.40291e-02 1.63744e-02 3.32806e-02 1.60924e-01 -2.67154e-02 -3.32424e-02 -1.59985e-01 3.18992e-02 -2.19709e-02 8.44910e-02 -1.38242e-02 9.59488e-04 7.45905e-03 -3.44255e-03 -9.89257e-04 -8.19012e-03 -5.93753e-04 0 0 0 0 0 0
-8.23743e-02 4.48709e-02 6.61835e-03 1.63097e-01 -2.12996e-03 -1.06313e-02 -1.63237e-01 -1.31209e-03 -8.37264e-03 8.25763e-02 -3.99124e-02 2.07580e-02 5.55111e-03 4.21235e-03 -2.56318e-03 -5.57623e-03 -4.82937e-03 -8.43450e-04 0 0 0 0 0 0
