25
75.4
6.28318 6.28318
0.0 0.0
3.02985 3.21149 3.50708 3.83698 4.35751 4.48162 4.4904 4.88188 5.15947 5.31578 6.38629 7.64368 13.2626 13.5529 14.0235 15.7907 18.9141 20.1937 20.2997 20.6077 22.2928 22.973 25.0032 27.5674 29.6556 30.919 32.1835 34.1681 34.3015 34.7609 34.7763 35.7999 36.7802 40.1928 40.2346 41.2964 41.464 43.5733 43.7853 46.8825 47.0579 47.1954 47.5023 49.7523 50.1944 50.8817 50.903 50.9934 51.3882 51.6173 51.6446 53.0466 53.8343 53.918 55.5249 55.6238 56.4707 56.8732 58.9285 59.3289 59.7013 59.7232 61.6468 61.6941 69.1441 80.6255 83.1439 154.598 158.891 164.684 239.566 271.347 284.52 541.062 553.495
-4.24144e-04 2.39090e-02 -1.80491e-02 3.69388e-03 2.01483e-02 -8.89332e-03 4.44197e-03 3.43127e-02 -2.26997e-02 -5.15080e-03 2.10784e-02 -2.16921e-02 -1.09874e-03 2.28783e-02 -1.78579e-02 -6.04125e-04 1.56242e-02 -5.74585e-03 -6.25488e-04 2.43583e-02 -1.74314e-02 3.14789e-03 1.07125e-02 -6.02095e-03 8.38634e-04 1.20851e-02 -5.20918e-03 6.63570e-03 1.06074e-02 -7.98485e-03 7.33859e-03 1.77659e-02 -1.04854e-02 1.03687e-02 1.84093e-02 -1.01165e-02 -6.03730e-03 1.67176e-02 -1.37086e-02 -4.36028e-03 9.18719e-03 -9.37252e-04 8.88675e-03 3.39561e-03 -6.68375e-03 -2.41083e-03 7.98154e-03 -1.70066e-03 2.83307e-03 4.63068e-03 -3.58583e-03 -1.34393e-03 4.34982e-03 -1.14151e-03 4.80152e-03 3.23780e-03 -4.20421e-03 8.86515e-03 6.40950e-03 -1.77606e-03 3.99844e-03 1.14790e-02 -6.83801e-03 -1.24842e-02 1.05164e-02 -1.04060e-02 -4.45052e-03 5.17212e-03 -4.49282e-03 1.08217e-02 6.24889e-03 -1.26266e-03 -2.50747e-03 4.90467e-03 -4.07483e-03
2.19012e-03 1.32874e-02 2.37912e-02 5.54813e-03 1.01330e-02 2.95078e-02 6.40676e-03 1.59550e-02 2.06401e-02 -1.49032e-03 1.25952e-02 2.43585e-02 1.01604e-03 1.44844e-02 2.19013e-02 1.87467e-03 7.89839e-03 2.24335e-02 2.28509e-03 1.13129e-02 1.66258e-02 -5.62641e-03 7.32588e-03 1.93612e-02 7.46380e-03 4.85107e-03 1.44834e-02 2.73975e-03 5.90663e-03 1.66456e-02 1.12892e-02 9.43119e-03 1.36589e-02 3.21622e-03 8.32425e-03 1.24139e-02 8.30756e-03 9.72894e-03 1.39675e-02 3.83377e-03 3.07093e-03 8.96243e-03 -5.02494e-04 2.91201e-03 7.24014e-03 -9.30767e-03 6.25232e-03 1.42003e-02 3.68978e-03 1.67456e-03 4.74837e-03 -4.43779e-03 3.07478e-03 6.90592e-03 -8.51521e-03 4.38034e-03 9.32937e-03 1.53200e-02 4.61614e-03 7.67396e-03 -2.29044e-03 5.19651e-03 7.89819e-03 2.46895e-03 6.27185e-03 9.51673e-03 1.20032e-02 4.29110e-03 7.26074e-03 7.21233e-03 3.32093e-03 6.04424e-03 3.53777e-03 2.82471e-03 5.64367e-03
-4.80599e-03 -2.47378e-02 -1.11396e-02 2.28273e-04 -2.24093e-02 2.30556e-02 8.31913e-03 1.13271e-02 -2.52118e-02 -1.11659e-02 -3.49477e-02 -3.04421e-02 -9.86605e-03 -3.90788e-02 -4.79351e-03 1.60758e-03 -1.87374e-02 1.02485e-02 5.96130e-03 4.91859e-03 -1.64899e-02 -3.80936e-03 -8.13413e-03 1.23443e-02 2.31966e-03 -2.00406e-02 1.08513e-02 -4.29334e-03 -1.27713e-02 1.94145e-02 6.76794e-03 4.77734e-03 -1.70485e-02 1.25016e-02 9.70534e-04 -1.40722e-02 -1.25125e-04 5.63705e-03 -1.40589e-02 6.56201e-03 -1.73635e-02 -1.17939e-03 -7.83054e-03 -4.15603e-03 1.60963e-02 -3.43877e-04 -5.47758e-03 7.76298e-04 -6.37786e-04 -1.04063e-02 7.43996e-03 5.69648e-04 -6.20078e-03 -4.15106e-04 -6.39095e-03 -1.69125e-04 8.73535e-03 5.37336e-03 1.39460e-03 -9.82092e-03 1.14844e-02 -2.59575e-03 -6.55025e-03 -2.09870e-03 2.32521e-03 -6.95765e-03 -1.02959e-03 1.95936e-03 -7.09875e-03 1.07662e-02 -1.97112e-03 -6.79452e-03 4.18022e-03 -1.58322e-03 -3.65090e-03
1.70353e-02 -1.09664e-03 -4.94135e-04 1.59269e-02 -7.24113e-04 -5.22404e-03 1.48203e-02 -6.17986e-03 1.65556e-03 1.84153e-02 3.13223e-04 1.88246e-03 1.76913e-02 4.13662e-04 -1.05848e-03 1.60711e-02 -7.40827e-04 -3.85259e-03 1.56169e-02 -4.64362e-03 9.98231e-04 1.54161e-02 -2.09332e-03 -4.52489e-03 1.60968e-02 0 -4.91002e-03 1.61986e-02 -1.49541e-03 -6.10674e-03 1.37508e-02 -4.48245e-03 1.65718e-03 1.44125e-02 -3.51531e-03 1.46163e-03 1.51987e-02 -4.57887e-03 1.15754e-03 1.48908e-02 -4.45071e-04 -3.24443e-03 1.58517e-02 -2.72990e-03 -6.76653e-03 1.42308e-02 -2.48699e-03 -3.06473e-03 1.58877e-02 -1.85034e-03 -5.68913e-03 1.47933e-02 -2.61731e-03 -3.81831e-03 1.52918e-02 -3.58473e-03 -5.17209e-03 1.28036e-02 -3.17438e-03 1.77132e-03 1.49338e-02 -2.53907e-03 1.01155e-03 1.58945e-02 -3.59093e-03 7.26739e-04 1.45612e-02 -3.33116e-03 1.28394e-03 1.38166e-02 -2.50700e-03 1.61989e-03 1.51483e-02 -2.57815e-03 1.00812e-03
-1.80596e-03 7.38720e-04 -6.26550e-04 -4.24728e-03 5.67379e-03 2.78349e-03 3.38773e-03 -5.78142e-03 -2.78374e-03 2.91138e-04 2.50330e-03 2.13312e-03 -5.99644e-03 -1.63662e-04 -3.52822e-03 -1.70427e-03 9.23675e-03 -8.02906e-04 1.52118e-03 -7.12505e-03 -9.66837e-03 5.16571e-04 1.82468e-02 3.77243e-03 -3.85655e-03 6.74862e-03 6.16391e-03 -1.15419e-03 1.28950e-02 1.20256e-02 3.19604e-03 -1.34790e-02 4.99065e-04 3.60170e-03 -5.74216e-03 -3.19799e-03 2.68551e-03 -1.66949e-02 -8.30753e-03 -3.07687e-03 7.03620e-03 1.24228e-04 0 1.62799e-02 1.62568e-02 4.99054e-04 1.88312e-02 -3.22888e-03 -2.09279e-03 1.05607e-02 1.06427e-02 -6.67102e-04 1.49655e-02 2.28856e-03 1.67953e-03 2.05653e-02 8.21454e-03 3.33461e-03 -1.66854e-02 3.70073e-03 2.63483e-03 -4.17691e-03 -8.65764e-03 2.57964e-03 -1.49755e-02 -1.46309e-02 2.45280e-03 -1.89988e-02 -4.61023e-03 3.30301e-03 -9.52383e-03 -1.28953e-04 2.85017e-03 -1.16335e-02 -8.66843e-03
-2.55052e-03 2.00582e-03 -3.32097e-03 4.74699e-04 -1.50924e-03 1.49396e-03 1.39080e-03 5.43100e-03 -6.21361e-03 -6.14072e-03 1.11475e-03 -3.25409e-03 -3.32525e-03 3.06898e-03 -4.77140e-03 -2.26885e-03 -4.26759e-03 1.99232e-03 2.34849e-03 9.05558e-03 -1.20276e-02 -2.60679e-03 -7.49987e-03 5.90111e-04 -5.61310e-04 -5.28237e-03 -2.98695e-04 -7.16893e-04 -6.47775e-03 -1.68056e-03 -1.46912e-03 -5.26114e-03 1.85470e-02 4.56535e-03 1.69390e-02 9.90593e-03 -3.84659e-03 -1.28681e-02 -5.33345e-03 -1.96366e-03 -5.93050e-03 8.91042e-04 -9.52516e-04 -8.68046e-03 -3.46755e-03 -3.96014e-03 -8.14154e-03 2.35780e-03 -1.07609e-03 -7.44933e-03 -2.05983e-03 -2.93661e-03 -8.25325e-03 2.31031e-04 -2.96472e-03 -9.42608e-03 -1.13975e-03 -3.29959e-03 -1.27889e-02 3.20545e-02 5.10181e-03 2.26200e-02 -2.77007e-03 -1.83467e-03 -8.14446e-03 -1.82980e-02 -5.44522e-03 -1.88742e-02 9.66993e-03 2.25539e-03 7.23393e-03 2.31290e-02 1.89960e-04 1.44641e-03 -1.13801e-04
2.02246e-03 -1.06273e-03 -2.67021e-03 2.48382e-03 -3.02174e-03 -7.30298e-03 -3.62032e-03 9.87726e-04 4.71005e-04 2.10761e-03 -1.62112e-03 -3.97569e-03 5.24805e-03 -5.62620e-04 -2.92226e-04 2.12648e-04 -3.54153e-03 -1.68352e-02 -1.46440e-03 3.48013e-03 5.24053e-03 1.01121e-02 1.31607e-02 -6.85664e-03 -1.02332e-03 -1.62920e-02 -4.43128e-04 8.94989e-03 -3.19153e-04 1.30291e-02 -5.76515e-03 4.86888e-03 6.11443e-03 -3.04392e-03 5.13215e-03 6.72958e-03 -4.83124e-03 5.24788e-03 6.40705e-03 -3.99078e-03 -1.75759e-02 -1.46139e-02 1.29765e-02 3.63024e-03 2.46811e-02 5.76746e-03 1.32201e-02 -2.16487e-02 3.81441e-03 -1.10362e-02 1.14622e-02 4.14528e-03 5.26591e-04 -8.84683e-03 1.35956e-02 1.47868e-02 5.16018e-03 -7.18332e-03 6.78455e-03 7.76020e-03 -9.62424e-04 6.27571e-03 8.16944e-03 -2.82036e-03 6.17343e-03 8.33452e-03 -5.85964e-03 6.99817e-03 8.41191e-03 -4.27412e-03 6.86646e-03 8.65227e-03 -3.15015e-03 7.10356e-03 9.16166e-03
-8.42558e-04 -5.79368e-03 4.61242e-03 -2.20850e-04 -3.83103e-03 1.66260e-02 5.62164e-03 5.55655e-03 -6.93600e-04 -2.45954e-03 -8.88582e-03 -1.41138e-03 -3.62152e-03 -1.08324e-02 5.98906e-03 -3.61021e-03 -2.32542e-03 -3.11490e-03 4.12491e-03 1.03244e-03 3.01370e-03 -1.59351e-02 6.39784e-03 -4.52883e-03 1.21954e-03 -5.82926e-03 -1.02444e-02 -8.66580e-03 1.02959e-03 -1.30574e-03 8.35708e-03 5.82386e-04 1.30944e-03 7.99908e-03 -2.26224e-03 2.51660e-03 3.54429e-03 1.34928e-03 3.42307e-03 1.61958e-03 -5.36504e-03 -2.47096e-02 -1.42234e-02 5.46863e-03 -1.12686e-02 -1.67827e-02 7.56176e-03 -1.82002e-02 -4.63930e-03 -1.14108e-03 -2.15454e-02 -1.13391e-02 3.78914e-03 -2.63617e-02 -2.05578e-02 1.01960e-02 -1.62892e-02 9.50825e-03 -2.72729e-03 2.03300e-03 5.36924e-03 -5.49576e-03 4.88263e-03 2.95470e-04 -1.75518e-03 5.82564e-03 4.69880e-03 -2.45100e-03 4.10072e-03 8.84629e-03 -5.65606e-03 3.40019e-03 3.89694e-03 -5.47419e-03 5.51328e-03
-1.03684e-03 5.63075e-03 -1.17292e-02 2.44127e-03 3.46892e-03 -2.40342e-03 0 2.19694e-02 -1.52104e-02 -4.47591e-03 1.05546e-03 -2.00418e-02 0 1.48149e-03 -7.76869e-03 1.44925e-03 1.55535e-03 5.13568e-04 -8.34669e-03 4.31687e-03 -1.99981e-04 3.99685e-03 -1.76290e-03 2.53801e-04 1.76065e-03 8.33001e-04 9.11290e-04 5.04440e-03 -9.81772e-04 -1.57430e-03 4.95012e-03 1.75549e-03 -4.45347e-03 7.95112e-03 -8.91285e-03 1.18319e-03 -1.62466e-02 4.25658e-03 3.02912e-03 -4.58564e-04 -3.41386e-04 4.67074e-03 6.45388e-03 -4.76605e-03 -6.57042e-04 1.62881e-03 -3.07260e-03 3.81227e-03 3.11983e-03 -3.09967e-03 2.20736e-03 1.70518e-03 -4.09146e-03 4.48370e-03 5.12086e-03 -5.64630e-03 1.68680e-03 8.00828e-03 -1.22495e-02 3.77040e-03 -9.01139e-04 -2.16217e-02 1.32583e-02 -2.82453e-02 -8.03546e-03 1.51866e-02 -1.30723e-02 -1.13110e-02 1.12818e-02 9.73171e-03 -2.30101e-02 1.00140e-02 -1.16489e-02 -2.25285e-02 1.78259e-02
-6.04952e-04 -2.82408e-02 -1.30313e-02 -2.80017e-03 -1.93008e-02 4.98102e-03 1.20965e-03 -3.98859e-03 -1.84185e-02 1.65539e-03 -3.53369e-02 -3.03006e-02 -2.64175e-03 -4.30089e-02 -3.79221e-03 8.96922e-03 -8.83178e-03 4.85771e-03 4.93098e-03 -1.52239e-03 -6.85321e-03 1.22720e-03 -6.00410e-03 2.88842e-03 3.72994e-03 5.73733e-03 1.21150e-03 -1.14164e-02 1.43792e-03 0 -8.20458e-03 1.24096e-03 -3.66629e-03 6.78172e-03 5.41872e-04 0 -7.36643e-03 1.45822e-03 -1.96945e-03 1.90774e-02 1.36129e-02 1.07907e-03 -1.70025e-02 1.73920e-02 -2.99941e-03 1.79461e-02 0 4.05921e-03 -1.13449e-03 2.23418e-02 -2.04829e-03 1.34820e-02 1.66907e-02 3.85348e-04 -2.83478e-03 1.15524e-02 -4.97578e-04 -1.53202e-02 6.39506e-03 8.71427e-03 1.47038e-02 3.41286e-03 1.02343e-02 -7.63578e-04 4.38458e-03 7.02361e-03 -1.35021e-02 7.07383e-03 1.08787e-02 -1.40407e-04 6.44089e-03 1.28930e-02 1.71308e-03 7.24157e-03 1.54503e-02
0 1.32162e-03 -7.93530e-03 -7.37317e-03 9.67279e-03 -1.02551e-02 6.88803e-03 -1.11201e-02 -8.75987e-03 5.81337e-03 4.95535e-03 -3.08054e-03 -5.26018e-03 6.24763e-04 -1.19560e-02 -1.19479e-02 7.99326e-03 -5.81036e-03 1.29046e-02 -7.93743e-03 -5.30588e-03 -4.85919e-03 4.57602e-03 -3.74097e-03 -1.62729e-02 6.16044e-03 2.20280e-04 -2.98544e-03 3.31665e-03 -5.08313e-03 6.55674e-04 -3.18519e-03 -7.75630e-03 1.68284e-02 -7.91338e-03 -2.68905e-03 5.88944e-03 -2.76464e-03 -1.77851e-03 -2.45171e-02 2.09065e-03 9.78347e-03 3.57089e-03 -6.64196e-03 3.87993e-03 -1.20823e-02 1.25513e-03 1.74752e-03 -1.01528e-02 -5.45988e-03 8.79969e-03 -1.35805e-02 -5.40954e-03 1.06698e-02 7.34298e-04 -6.37879e-03 4.73839e-03 -7.34526e-03 6.46241e-03 1.74360e-03 2.67241e-02 -5.45791e-03 1.15423e-02 1.52654e-02 1.95357e-03 8.90190e-03 -2.31140e-03 8.40921e-03 8.86489e-03 8.40318e-03 3.12318e-03 7.98485e-03 1.49196e-02 5.73806e-03 1.56280e-02
1.20954e-03 1.99628e-03 2.89740e-04 3.91208e-03 5.83363e-03 1.18263e-02 1.96952e-03 -2.47142e-03 -2.35376e-03 8.62964e-04 2.54341e-03 1.72071e-03 -2.49170e-03 -1.57208e-04 -1.26461e-03 9.17334e-03 9.06639e-03 1.28307e-02 -4.09582e-03 -7.08009e-03 -6.82869e-03 -2.37927e-03 1.40804e-02 1.25202e-02 1.85259e-02 3.48346e-03 4.53159e-03 1.91967e-02 6.03825e-03 1.08510e-02 -1.49815e-02 -6.38759e-03 -8.38677e-03 -2.38665e-03 -7.83185e-03 -6.30923e-03 -6.51734e-03 -7.83799e-03 -6.31030e-03 1.19507e-02 -4.78800e-04 -1.36453e-03 1.45664e-02 -6.41201e-03 -8.65559e-03 -2.07454e-02 8.67914e-03 5.51798e-03 1.67936e-02 -9.68227e-03 -1.23192e-02 -7.51867e-03 -6.36587e-03 -8.24279e-03 -5.50201e-03 -2.46549e-03 -3.38854e-03 -2.27817e-02 2.43070e-03 -1.30067e-03 6.35081e-03 -3.50625e-03 2.26888e-03 1.72444e-03 -1.63187e-03 -4.04886e-03 -1.47130e-02 3.22432e-03 6.13721e-04 -1.05213e-02 3.64747e-03 1.07017e-03 -6.52037e-04 5.11254e-03 4.27911e-03
-3.84540e-03 -3.41610e-03 -2.32408e-02 -2.07711e-03 -2.02908e-03 -7.14487e-03 3.27576e-03 1.39192e-02 -2.99641e-02 -6.58660e-03 -8.32935e-03 -3.27264e-02 -6.53054e-03 -1.05128e-02 -2.02685e-02 -2.49842e-03 -1.65735e-03 -8.43086e-03 3.60836e-03 1.19656e-02 -2.47421e-02 1.62945e-03 4.19753e-03 -2.37569e-03 -3.13540e-03 -4.29404e-03 0 1.45456e-03 -2.46169e-04 4.97259e-03 -2.40264e-03 -7.07735e-03 1.68206e-02 4.37413e-03 1.50754e-02 3.75752e-03 -2.83384e-03 -1.21624e-02 -1.01439e-02 1.05610e-02 2.09478e-03 3.10463e-03 -3.20646e-03 3.60760e-04 -3.37960e-03 -7.47994e-03 1.17725e-03 6.47804e-03 5.00398e-04 2.36176e-03 1.17248e-03 -1.95562e-03 -1.42098e-03 -6.09078e-04 1.83096e-03 -2.56187e-03 2.23392e-03 3.66918e-03 5.34072e-03 -1.18862e-02 -3.07353e-02 -1.35062e-02 7.67677e-03 2.70192e-02 -1.37914e-03 2.15463e-02 -3.23687e-03 4.05508e-03 8.38157e-03 1.06514e-03 -8.68336e-03 2.41244e-03 1.86346e-03 3.47550e-03 -4.59551e-03
-1.94531e-03 1.82841e-02 7.16393e-03 6.67435e-03 1.12493e-02 2.03709e-02 4.99770e-03 2.24539e-02 6.32868e-04 -1.02377e-02 1.69954e-02 9.02879e-03 -4.15594e-03 2.12098e-02 3.11920e-03 6.14829e-03 7.31313e-03 2.71535e-02 -6.47223e-03 8.81469e-03 -6.38578e-03 -5.05745e-03 -1.38496e-02 8.72700e-03 1.14185e-02 1.18815e-02 9.26526e-04 -4.26091e-03 1.02073e-03 -1.32868e-02 -3.87725e-03 -2.31393e-03 3.78296e-03 2.88317e-03 1.37226e-03 -9.61304e-04 0 -7.37117e-03 -4.41508e-03 -3.03825e-02 -8.32795e-03 -1.16980e-02 9.65236e-03 -1.50728e-03 9.83144e-03 2.37112e-02 -5.26803e-03 -1.53560e-02 -1.36518e-03 -6.81210e-03 -3.45123e-03 7.63361e-03 5.43569e-03 8.71485e-04 -8.01973e-03 8.08036e-03 -6.54651e-03 -2.02024e-03 1.23570e-03 -4.06778e-03 -7.42713e-03 -1.17161e-02 7.61397e-03 1.16704e-02 -1.61729e-03 -2.97895e-03 -6.27292e-03 1.28781e-03 2.81363e-03 -4.00675e-03 -1.53606e-03 -6.74285e-04 3.87259e-03 4.88917e-03 1.06229e-03
2.90843e-03 -6.75072e-02 -1.15375e-02 -5.70340e-03 -4.28623e-02 2.15157e-02 2.59102e-03 -2.19691e-02 -1.94512e-02 1.29472e-02 -8.12726e-02 -4.82102e-02 -1.37821e-03 -1.01197e-01 9.80682e-03 1.87233e-02 -1.68625e-02 7.56946e-03 1.26117e-02 -7.90613e-03 -4.21182e-03 -4.98613e-03 3.89050e-03 5.52257e-03 3.00334e-04 1.40945e-02 3.77028e-04 1.47689e-03 -1.66036e-03 -7.25231e-03 1.65233e-03 -1.59722e-03 1.79356e-03 -3.68019e-03 5.65573e-03 2.27234e-03 -3.73473e-03 4.04740e-03 0 -1.22750e-02 1.37576e-02 1.79970e-02 2.76786e-03 1.20633e-03 3.34604e-03 -4.55364e-03 1.04331e-02 -2.80358e-02 5.84145e-03 -6.04195e-03 -7.40890e-03 -1.09240e-02 -7.28767e-03 8.17639e-03 6.37113e-03 -3.54863e-04 -2.76186e-03 -1.58901e-03 1.30561e-03 -1.67332e-04 -7.28790e-03 1.23779e-02 -9.98178e-03 -6.27411e-03 1.27919e-03 1.62470e-02 5.58057e-03 0 -8.43443e-04 4.59356e-03 -2.04028e-03 2.64509e-03 -7.61878e-03 -6.34346e-03 -5.62026e-03
-3.92042e-03 -7.96437e-03 4.02544e-03 3.45603e-03 -1.62784e-02 1.65884e-02 -4.23908e-03 2.99331e-02 -9.72618e-04 -1.19578e-02 -1.82605e-02 -1.44861e-02 1.46936e-03 -1.50928e-02 1.39208e-02 5.38712e-03 -1.22347e-02 -4.73594e-03 -1.47527e-02 1.17041e-02 8.07896e-03 1.23634e-03 2.99761e-03 -2.59372e-03 -3.51609e-03 3.06471e-04 -9.06934e-04 -5.40263e-04 -4.90487e-03 -1.11442e-03 -1.12272e-03 5.72990e-03 3.17985e-03 -1.02844e-04 -4.95998e-03 -4.71477e-04 3.04513e-03 -1.97265e-03 2.05685e-03 5.99075e-03 1.09823e-02 1.74108e-02 -1.02156e-02 5.79477e-03 2.76260e-04 -6.52925e-03 6.58759e-03 -1.90207e-02 4.35436e-03 -2.18201e-04 -4.22159e-03 -7.50361e-03 -9.14712e-03 6.05451e-03 1.20433e-02 -3.47357e-03 9.32577e-04 1.53968e-02 -5.84078e-03 2.30883e-03 2.44527e-03 -2.01219e-02 1.82139e-02 7.74659e-03 5.59566e-04 -2.99917e-02 -9.25290e-03 -1.95140e-03 1.26938e-03 -1.21264e-02 4.58808e-03 -7.62504e-03 9.65960e-03 1.42086e-02 7.40338e-03
-3.06647e-04 6.78285e-02 1.83379e-02 1.27630e-02 3.75392e-02 -1.25486e-02 3.13581e-03 1.56956e-02 2.42898e-02 -1.51900e-02 8.36449e-02 6.23500e-02 2.87668e-03 1.07818e-01 -8.58653e-03 -8.92119e-03 1.14559e-02 4.96132e-03 -6.87638e-03 5.82635e-03 -4.39281e-04 7.69286e-03 -6.07681e-03 -3.70024e-03 1.13787e-02 -3.78536e-03 7.58266e-04 -2.22100e-03 -7.44310e-03 3.07869e-03 -7.77987e-04 -4.58194e-03 -2.77210e-03 7.55308e-03 5.98260e-04 -1.07465e-03 5.35505e-03 -3.69991e-03 4.47489e-04 5.78042e-04 1.02412e-03 1.06408e-02 -3.12246e-02 1.83887e-02 7.86791e-03 -1.56670e-03 0 -1.56434e-02 1.01933e-02 -4.76540e-03 -1.20056e-02 -2.54806e-03 -1.50425e-02 4.40701e-03 1.44617e-02 -2.84250e-03 1.74734e-03 -2.20547e-02 8.12716e-03 -3.74386e-03 7.08464e-04 3.96967e-03 -6.66385e-03 -1.34891e-03 -3.23224e-03 7.01474e-03 6.85455e-03 1.65446e-03 -1.70514e-03 9.37898e-03 -4.08660e-03 6.27656e-03 -3.20050e-04 -9.67022e-03 -3.10535e-03
1.40909e-03 2.02912e-03 4.58700e-03 -2.39615e-03 2.75295e-03 -1.31289e-02 -3.32440e-03 -2.54096e-02 1.14976e-02 5.80568e-03 9.71677e-03 1.93497e-02 1.62353e-03 1.09535e-02 -1.85696e-03 -1.16602e-04 1.90911e-03 2.04570e-03 6.33895e-03 -3.65069e-03 -5.06840e-03 -1.10478e-04 -3.65798e-03 -2.50238e-03 2.37178e-03 3.02590e-03 -2.79036e-03 -1.71757e-03 -1.17575e-03 -3.12351e-03 -2.21939e-03 -4.44078e-03 1.47290e-02 -6.86090e-03 4.91204e-03 1.33248e-02 -5.12660e-03 -1.15053e-02 3.21688e-03 2.57498e-03 3.03707e-03 1.67592e-03 3.70010e-04 4.01420e-03 1.38393e-02 -2.70012e-03 -2.52248e-03 4.97708e-03 2.97050e-03 -4.19037e-03 -4.70256e-03 -2.11751e-03 -2.40262e-03 -4.58082e-03 -1.11626e-03 2.21532e-03 -1.18355e-03 1.93407e-02 1.47928e-02 -4.02516e-02 1.19448e-02 1.68079e-02 -1.89704e-03 -7.53048e-03 -4.51255e-03 -1.80292e-02 -1.37285e-02 3.67206e-03 9.24274e-03 2.84706e-03 -8.17020e-03 1.74529e-03 -4.05948e-03 -3.50117e-03 1.79056e-02
-2.52958e-03 -3.32592e-03 6.65249e-03 1.67874e-03 -5.67100e-03 1.92070e-02 2.16186e-03 1.28389e-02 1.18857e-03 -7.17504e-03 -7.79271e-03 -6.98163e-04 -3.21869e-03 -7.27582e-03 9.01088e-03 -3.51179e-04 -3.60355e-03 -3.73713e-03 -3.48612e-03 4.60011e-03 8.90015e-04 9.87025e-04 1.03481e-02 1.03269e-02 -2.73994e-03 -8.34809e-03 1.03265e-02 6.48769e-03 3.26719e-03 1.29515e-02 -1.44226e-03 -4.88351e-03 6.11437e-03 2.66065e-03 1.41452e-03 5.44518e-03 4.26902e-03 -5.49277e-03 5.15549e-03 -1.08497e-02 -1.05165e-02 -5.33497e-03 -5.39022e-03 -1.01261e-02 -4.31456e-02 9.02939e-03 8.12040e-03 -1.74601e-02 -6.15794e-03 1.10909e-02 1.13373e-02 6.82934e-03 6.00725e-03 1.48467e-02 2.83444e-03 -6.34465e-03 3.56364e-03 -8.41069e-03 1.10456e-02 -1.66256e-02 2.81574e-03 5.18684e-03 -1.64012e-03 -5.05229e-03 -3.18538e-03 -9.52540e-03 1.96254e-03 1.68112e-03 9.85510e-04 5.17187e-03 -4.90736e-03 3.49048e-03 0 -6.12224e-03 4.90315e-03
4.76094e-03 7.70758e-03 -3.27345e-03 -3.65253e-03 1.33757e-02 -3.08822e-02 -3.69036e-03 -4.24925e-02 8.74195e-03 1.47812e-02 2.15024e-02 2.19569e-02 3.35899e-03 2.07987e-02 -1.42028e-02 -2.35867e-03 8.99768e-03 2.14900e-03 1.16597e-02 -1.26715e-02 -5.58447e-03 6.68093e-03 2.14855e-03 4.91025e-03 1.28664e-02 -1.47875e-03 6.37992e-03 3.83835e-03 -1.25930e-03 1.16372e-02 1.18059e-03 7.26993e-03 -3.82548e-03 -1.09513e-02 -3.50735e-04 -3.33439e-03 -1.34981e-02 3.23235e-03 -9.92925e-03 -1.64642e-02 -8.75425e-03 -4.55282e-03 -2.23193e-02 7.13388e-03 -1.45580e-02 2.50961e-03 2.68466e-03 -4.18517e-03 5.50451e-03 -1.25204e-03 -4.56551e-03 4.41992e-03 -3.47147e-03 7.50492e-03 4.68335e-03 -3.83685e-03 2.54553e-03 3.03992e-02 -1.39838e-02 8.67875e-03 2.82964e-03 1.80512e-03 2.69292e-04 6.49327e-03 3.23659e-03 1.12911e-02 -1.42501e-02 -9.10283e-04 4.26985e-03 -9.43633e-03 5.21880e-03 -6.12047e-03 -3.52245e-03 1.01784e-02 8.70521e-04
-1.23576e-02 4.61838e-02 2.96968e-02 -2.33936e-03 2.09887e-02 -3.92013e-04 -6.55713e-03 -1.00603e-02 3.48036e-02 -2.46297e-02 6.32597e-02 7.50626e-02 -1.18969e-02 8.45737e-02 1.68586e-03 -1.59753e-02 3.22091e-03 6.86117e-03 -6.78522e-03 -4.19917e-04 -2.70110e-03 -1.15796e-02 -7.55205e-03 7.06327e-03 -1.30006e-02 -7.38457e-03 2.74544e-03 0 3.68664e-03 -1.36318e-03 5.07213e-04 3.87744e-03 -3.99643e-03 -3.08634e-03 -1.33815e-03 -3.65819e-03 -6.66309e-03 -3.70266e-03 -8.28004e-03 2.92392e-02 5.32140e-03 1.41161e-02 1.97418e-02 -1.01780e-02 -3.36010e-03 1.00102e-02 -2.82622e-03 -3.04075e-02 -3.80320e-03 5.66300e-03 4.77994e-03 -5.14289e-03 -9.93220e-04 1.22600e-03 -6.22234e-03 5.42853e-03 -2.65636e-03 1.07194e-02 -3.63864e-03 1.41449e-03 8.26930e-03 6.24555e-03 -7.16292e-03 9.18978e-03 -2.45190e-03 1.43318e-02 -7.98965e-03 1.20520e-03 3.59563e-03 4.80172e-04 9.44274e-04 4.00597e-04 -2.38812e-03 -2.30046e-04 -9.95216e-04
7.59945e-03 6.31730e-03 3.34150e-02 -1.30952e-03 4.95609e-03 -1.27716e-02 8.23882e-04 -6.58943e-02 4.87146e-02 1.63348e-02 2.71475e-02 7.52920e-02 7.04817e-03 3.29960e-02 1.31731e-02 -3.07136e-03 1.50034e-03 1.31571e-03 2.53599e-02 -7.41729e-03 -8.08684e-04 -2.51343e-03 -1.85243e-03 2.43986e-03 -1.82452e-03 -1.26737e-03 1.23658e-03 4.10746e-04 9.64699e-04 1.38375e-03 2.21345e-03 1.32921e-03 -1.09001e-02 1.14241e-02 1.61107e-02 9.68361e-04 3.76586e-03 9.03405e-03 -2.05189e-03 4.75493e-03 6.35341e-04 2.76545e-03 2.90344e-03 -1.83424e-03 -1.07931e-03 2.01962e-03 -6.95827e-04 -6.40547e-03 -4.26753e-04 7.28373e-04 3.96560e-04 -1.20173e-03 -2.31726e-04 4.28507e-04 -2.60922e-03 1.52588e-03 -4.92350e-04 -1.15738e-02 8.46730e-04 2.03779e-03 -2.84972e-02 -1.40815e-02 1.61300e-02 -1.15106e-02 8.03360e-03 -2.26145e-02 -5.45261e-03 -2.24183e-03 0 9.96364e-03 -7.84060e-03 4.75138e-03 3.52883e-03 5.51765e-03 2.03583e-03
-5.05563e-03 6.81060e-03 7.76006e-02 1.27110e-02 -1.86942e-02 6.87965e-02 -1.50368e-03 -1.32979e-02 7.51837e-02 -2.26611e-02 1.34752e-02 1.02900e-01 -2.22368e-03 3.22685e-02 6.12877e-02 1.15011e-02 -1.18976e-02 0 -1.02369e-02 4.64703e-03 5.46950e-03 5.71544e-03 7.39222e-03 -8.56486e-03 -1.59484e-03 1.52605e-03 -4.92384e-03 -3.67936e-03 -3.62043e-03 -1.06378e-02 1.07793e-03 7.58962e-03 -1.18550e-02 3.00661e-03 3.15344e-03 -5.19276e-03 -5.32179e-03 -5.36900e-03 -1.10908e-02 -6.17427e-03 -1.18723e-03 -9.78771e-03 -1.79158e-03 1.11852e-03 1.47616e-04 -9.90173e-03 6.77288e-03 1.37015e-02 -4.42338e-03 3.21533e-03 6.19064e-03 2.64118e-03 2.84975e-03 -1.65726e-03 1.30470e-02 -6.22482e-03 2.35949e-03 1.76155e-03 -3.67952e-04 -6.10293e-04 -1.64604e-03 5.33630e-03 -9.13261e-03 1.39484e-02 -4.68907e-03 6.56501e-03 -1.67011e-02 1.31155e-03 6.60688e-03 9.13294e-03 -5.06925e-03 6.33086e-03 -1.82871e-03 -1.88046e-03 -2.15019e-03
2.69825e-03 -2.08697e-03 1.98455e-03 4.37563e-03 1.52264e-02 5.31484e-02 2.73878e-02 6.73620e-03 -1.78485e-02 1.52133e-03 -5.70228e-03 -5.44859e-03 -1.62477e-02 -1.86203e-02 -1.88190e-03 -5.82285e-03 1.25788e-02 2.15059e-02 2.03426e-02 -2.89808e-03 -8.78028e-03 2.72591e-03 -1.96954e-03 -5.48658e-03 -1.38710e-03 -2.26756e-03 -7.38182e-04 -7.64160e-03 4.13402e-04 -2.03015e-02 -2.52427e-03 -6.43707e-03 8.64844e-03 -4.04144e-03 -7.64833e-04 1.53466e-03 -7.95288e-04 8.50982e-04 1.06089e-03 1.59405e-02 -1.24301e-02 -1.30136e-02 -9.68093e-04 3.47221e-03 1.06326e-04 -1.44719e-02 5.27530e-03 -6.88345e-03 -9.10580e-03 1.01845e-02 1.42120e-02 -6.57462e-04 -4.03064e-03 1.29591e-04 2.33585e-02 -9.07257e-03 5.43506e-03 8.70243e-04 -3.78039e-03 -1.30794e-03 2.94834e-03 -3.53231e-03 5.47304e-03 -1.45450e-02 2.69751e-03 2.99727e-03 5.18904e-03 -1.08441e-03 -4.55080e-03 -1.32241e-02 6.10163e-03 -7.79158e-03 -1.66159e-03 3.27175e-03 1.80751e-03
8.30814e-03 -3.06557e-02 -5.07318e-02 -1.04910e-02 5.11510e-03 -2.60511e-02 -1.54626e-03 2.06580e-02 -5.08357e-02 3.04818e-02 -4.71476e-02 -1.00574e-01 7.17404e-03 -7.57830e-02 -1.84103e-02 -1.85438e-03 1.01519e-02 1.12363e-02 -3.85532e-03 -1.19065e-02 2.08501e-02 -2.72482e-04 -4.61496e-03 1.74922e-03 2.04732e-03 1.72732e-03 2.34571e-03 -2.90458e-03 2.04482e-03 -7.30170e-03 3.50529e-03 7.06905e-03 -1.68567e-02 -9.80877e-04 -7.43099e-03 1.60945e-03 -2.26362e-04 4.80314e-03 7.47588e-03 8.81537e-03 -8.59861e-03 -6.95799e-03 -6.36862e-04 2.10861e-03 4.71483e-04 -8.47501e-03 6.70541e-04 -6.89861e-03 -3.86176e-03 4.82038e-03 6.76842e-03 -1.32317e-03 -2.57849e-03 8.53104e-04 7.44964e-03 -3.37273e-03 3.14402e-03 3.18323e-04 0 7.13022e-04 -1.88287e-02 1.33294e-02 -1.17798e-02 2.25059e-02 1.37719e-04 -1.40785e-02 -1.58408e-02 1.03862e-03 1.05969e-02 1.51320e-02 -1.14622e-02 1.12971e-02 7.19153e-04 2.20859e-04 8.36280e-04
-1.74513e-04 2.20728e-02 -1.17958e-02 0 -7.33765e-03 -9.34784e-02 -3.57888e-02 -2.79946e-02 2.00745e-02 -3.17745e-04 3.76195e-02 2.30577e-02 2.39361e-02 6.14712e-02 -2.05123e-02 2.28123e-02 -8.45131e-03 9.49961e-03 -1.99037e-02 3.22779e-03 -8.55418e-03 -1.00186e-03 -6.93018e-03 8.06730e-03 4.39372e-03 8.67128e-03 3.68734e-03 -5.16139e-03 -3.20975e-03 -8.19346e-03 1.51574e-04 -3.87254e-04 4.23512e-03 2.30190e-03 4.82485e-03 -4.28542e-04 9.76798e-04 -1.03633e-03 -2.84806e-03 4.71983e-03 -5.27784e-03 -1.30439e-02 -1.11923e-03 -6.43572e-03 2.29866e-03 -2.13377e-02 9.54961e-03 -7.13457e-03 -8.41019e-03 8.56806e-03 1.32221e-02 0 4.15444e-03 2.74179e-04 3.76590e-03 -4.15893e-03 5.21515e-03 1.62707e-03 6.08508e-03 2.80772e-03 7.94668e-03 -5.56628e-03 6.80605e-03 -2.34547e-03 1.12224e-03 2.01950e-03 1.10414e-02 4.41136e-04 -3.93927e-03 3.87074e-03 1.54322e-03 5.31577e-04 1.35660e-03 -2.63913e-03 -1.67024e-03
-4.47745e-02 -5.21909e-02 2.16274e-03 -5.88868e-02 -2.09205e-02 1.73208e-02 -4.13075e-02 -3.06043e-02 -1.61564e-03 -2.79550e-02 -5.96015e-02 -2.38725e-02 -5.25557e-02 -8.19120e-02 1.76305e-02 -3.41867e-02 -4.08509e-03 1.33707e-02 -2.38588e-02 -8.85361e-03 -1.00500e-02 1.08262e-03 2.35468e-03 7.42156e-04 9.02867e-04 2.23050e-03 -1.01779e-03 9.23519e-04 -1.99450e-03 -1.07930e-03 1.13558e-03 -2.57385e-03 5.25146e-04 8.05367e-04 3.39511e-03 1.30335e-03 1.23140e-04 1.60470e-03 -1.71434e-03 2.04588e-04 1.10415e-03 -9.22204e-03 8.27864e-03 1.00152e-02 -4.92633e-03 7.40138e-03 6.75923e-03 6.94012e-03 1.10835e-02 -4.20964e-03 -9.39084e-03 1.47731e-03 -3.22196e-03 3.12188e-04 1.49951e-02 -2.53277e-03 -1.12178e-04 5.00604e-03 7.08346e-03 4.09888e-03 1.78444e-03 -7.53692e-04 9.75882e-03 3.76868e-04 7.77855e-03 -3.05015e-03 1.22619e-02 1.09293e-03 -2.70729e-03 9.54960e-03 -1.24926e-03 4.28335e-03 1.92846e-03 -1.14165e-03 -8.40030e-04
9.07879e-03 -1.84655e-02 1.32391e-03 1.12009e-03 -6.18537e-03 -1.14525e-03 1.19533e-04 -9.69891e-03 5.09710e-03 1.94451e-02 -2.16745e-02 -1.16778e-02 1.09775e-02 -3.12983e-02 1.23962e-02 5.89815e-03 1.25466e-03 -3.18066e-03 3.32955e-03 1.22437e-03 9.47860e-04 -2.20004e-03 -6.31199e-03 5.00905e-04 -1.16682e-03 -6.31452e-03 1.94243e-03 3.26085e-03 6.57293e-03 -2.92263e-03 1.78536e-03 5.18654e-03 4.16802e-03 3.84021e-04 -3.93275e-03 -3.44411e-03 -7.29563e-04 -6.26136e-03 -3.51203e-03 -2.86481e-03 -1.72417e-02 8.54898e-03 1.61956e-02 3.79620e-02 -1.03029e-02 -6.59949e-03 -1.43622e-02 7.98358e-04 -3.43667e-03 2.74517e-03 1.28501e-03 -5.33773e-03 -6.37069e-03 3.11073e-03 -4.14493e-03 3.92159e-03 2.42022e-04 7.76548e-03 3.45587e-02 1.70464e-02 1.65494e-04 -1.32909e-02 -9.01417e-03 -3.31002e-03 -1.34389e-02 -3.13850e-03 -3.22700e-03 2.07475e-03 3.54730e-04 -3.30800e-03 2.34739e-03 1.26032e-04 -3.62552e-03 -6.06105e-03 -4.17818e-03
3.62471e-04 -2.99120e-03 -3.33050e-03 -4.30749e-03 5.56109e-03 3.60590e-03 5.80199e-03 -3.24627e-03 -6.07200e-03 4.58819e-03 -3.13514e-03 -6.07899e-03 -4.44913e-03 -8.94731e-03 -3.03017e-03 -6.99878e-03 3.44710e-03 3.01976e-03 7.76780e-03 -2.18292e-03 1.06312e-03 2.03069e-03 6.03730e-03 -1.28170e-03 9.62109e-04 5.87857e-03 -1.56719e-03 -2.45819e-03 -4.10899e-03 3.34225e-03 2.44217e-03 4.82948e-03 3.08212e-03 -4.78128e-04 -7.12572e-03 -3.15777e-03 -4.03600e-04 -6.08817e-03 -2.02873e-03 3.83435e-03 1.47862e-02 -7.90971e-03 -1.58367e-02 -3.43586e-02 9.85476e-03 7.03819e-03 9.74855e-03 -1.96352e-03 3.23019e-03 -2.55253e-03 -1.06066e-03 4.13968e-03 4.70763e-03 -2.82198e-03 3.89529e-03 -3.92798e-03 0 9.48830e-03 3.84669e-02 1.97656e-02 -3.04167e-03 -1.27665e-02 -1.12066e-02 -3.42516e-03 -1.34771e-02 -5.01842e-03 -4.71916e-03 2.65866e-03 1.51431e-03 -3.94948e-03 1.91563e-03 4.57823e-04 -3.85301e-03 -6.03818e-03 -3.46917e-03
8.49616e-04 3.94600e-04 3.20878e-03 6.04435e-04 1.84993e-04 5.67229e-04 -8.84529e-04 -1.55961e-03 4.26545e-03 1.33337e-03 9.83728e-04 4.26762e-03 1.60745e-03 1.30391e-03 3.19109e-03 6.69797e-04 2.90149e-04 0 -1.31811e-03 -2.72141e-03 5.44991e-03 1.63418e-04 -1.46680e-04 -2.76507e-04 -2.32168e-04 0 0 6.19247e-04 2.81672e-04 1.33079e-03 -4.35642e-03 -1.11156e-02 2.31498e-02 4.36713e-03 -5.93445e-04 -2.45965e-03 -3.53328e-03 3.12197e-03 -1.91699e-03 -4.46997e-04 1.67216e-03 -1.17635e-03 0 2.28652e-04 2.25043e-04 -5.97175e-04 -2.45845e-03 -9.12480e-04 0 6.51789e-04 6.11776e-04 -2.55795e-04 0 -4.46977e-04 0 -4.90496e-04 5.22475e-04 -1.08739e-03 -4.35582e-03 3.11463e-03 1.07274e-02 -2.30883e-02 -3.42349e-02 -3.24566e-03 4.33534e-02 -5.03603e-03 -6.05353e-03 5.03143e-03 1.26840e-02 2.82228e-03 -1.34225e-02 5.53959e-03 1.74912e-03 4.22879e-03 -7.71631e-03
1.67643e-04 -6.09233e-03 2.37958e-03 -1.67159e-03 -2.36754e-03 4.93444e-03 2.04395e-04 2.08537e-04 1.42669e-03 2.33645e-03 -8.04934e-03 -3.20511e-03 -1.57630e-04 -1.11153e-02 5.82616e-03 6.26410e-04 -3.19515e-04 6.36816e-03 8.94196e-04 1.80286e-03 5.27631e-04 1.98401e-03 -3.56149e-03 -2.30136e-03 -4.99369e-03 1.70214e-03 -1.63863e-03 1.06942e-02 2.11160e-03 2.37626e-02 0 9.90406e-04 -9.43898e-04 1.22684e-04 8.14214e-04 0 2.82837e-04 0 1.74011e-04 -8.72992e-03 3.37142e-02 -2.69247e-02 4.51669e-03 6.33031e-03 2.41644e-03 -9.22822e-03 -3.83299e-02 -1.36168e-02 2.65136e-03 1.08559e-02 7.80508e-03 -4.55961e-03 -2.04953e-03 -7.58672e-03 7.04299e-03 -9.87903e-03 1.01401e-02 -9.18825e-04 -1.53088e-03 -1.28467e-03 1.48188e-04 1.01414e-03 1.44657e-03 2.72812e-04 -3.10616e-03 9.18516e-04 -1.65041e-04 -5.68734e-04 -7.02901e-04 -6.35072e-04 8.80107e-04 -7.58191e-04 0 0 3.80224e-04
6.39320e-04 -1.75854e-03 8.57737e-03 1.03907e-02 4.78432e-03 4.31864e-02 5.05591e-03 2.07079e-03 -1.33050e-03 -3.95168e-03 -4.21949e-03 5.75097e-03 -7.63545e-03 -9.64178e-03 7.41460e-03 1.85307e-02 1.71921e-02 -8.98927e-03 -2.07186e-02 -2.23902e-02 -1.45435e-02 3.02910e-03 6.99053e-03 -8.37402e-03 2.57092e-03 1.01921e-03 -2.40383e-04 1.44152e-03 9.10663e-03 1.20138e-03 2.12689e-03 -9.92003e-03 -4.37456e-03 -4.70175e-03 -7.41633e-03 9.05138e-04 -3.28271e-03 -3.58631e-03 -6.93775e-03 3.51858e-03 -7.63362e-03 1.03631e-02 -1.13772e-02 -7.97788e-03 5.36603e-03 5.31502e-04 -1.85926e-02 -7.06785e-03 -5.77915e-03 8.38192e-04 6.11560e-03 0 -1.51065e-04 -1.80057e-03 -8.75412e-03 -1.47532e-04 -1.53416e-03 1.13510e-02 1.02597e-02 6.86949e-03 -7.37477e-03 1.01885e-02 1.72408e-02 -2.83920e-03 1.98001e-02 -4.71178e-03 1.12236e-02 3.30220e-03 -2.94088e-03 8.91133e-03 -1.14706e-03 6.97909e-03 -9.72848e-04 -5.09375e-04 -2.44198e-04
-9.84683e-03 9.58431e-02 -3.05122e-03 3.71252e-02 1.65731e-02 -6.25135e-03 2.83171e-02 3.02176e-02 -1.65643e-02 -7.00388e-02 1.18945e-01 8.25830e-02 -1.37004e-02 1.80745e-01 -6.90727e-02 -2.98213e-03 -2.30386e-02 5.02437e-03 2.37805e-03 -1.64219e-02 -9.56451e-03 -1.37499e-03 -8.79752e-03 4.82121e-03 -4.96830e-03 -1.07077e-02 -2.09862e-03 -1.21411e-04 -1.27835e-02 1.33104e-03 2.67907e-03 -8.25453e-03 -6.16459e-03 -3.97210e-03 -1.49454e-02 9.81855e-04 1.09097e-03 -3.62161e-03 2.97294e-04 -1.06920e-02 1.59141e-02 -3.64519e-03 1.34880e-02 9.46994e-03 -6.76511e-03 -4.47356e-03 1.69841e-02 7.39993e-03 7.22550e-04 2.25595e-03 -2.59490e-03 1.44992e-03 1.89372e-03 -1.40629e-03 3.05774e-03 2.81467e-03 5.52717e-04 9.05561e-03 8.15835e-03 7.85085e-03 -1.30108e-02 1.04676e-02 3.75222e-03 -4.25098e-03 1.38194e-02 -4.32674e-03 1.60005e-03 3.87248e-03 1.81435e-03 2.34642e-04 -8.07806e-04 2.84703e-03 4.20040e-04 3.31431e-04 3.90026e-03
1.33828e-02 4.01288e-03 -2.16325e-03 1.20965e-02 5.58847e-03 -7.44086e-04 1.09737e-02 -1.07623e-03 -1.14873e-03 1.52081e-02 5.17809e-03 -6.14826e-04 1.29202e-02 3.63395e-03 -2.33877e-03 3.18602e-03 6.88708e-04 1.93424e-03 1.27784e-02 6.11787e-03 4.28150e-03 -2.98553e-03 -2.02285e-03 1.74779e-03 -6.54577e-03 -4.14451e-03 -7.53480e-04 1.92535e-03 0 1.18512e-04 5.51655e-03 1.00571e-02 5.68975e-03 -2.30618e-02 -1.34073e-03 2.69707e-03 -2.02784e-02 5.08038e-03 -8.22831e-03 2.96341e-04 3.27196e-03 -4.09258e-03 -7.39350e-04 1.00828e-03 -1.23333e-03 6.08770e-03 4.74026e-03 3.75439e-03 -5.81576e-04 -1.50393e-03 -1.98777e-03 -5.97622e-03 -3.34879e-03 3.75707e-04 2.91608e-03 8.14038e-04 9.42805e-04 -1.08138e-02 3.03120e-03 0 1.81941e-02 -6.68399e-03 2.07743e-02 2.51823e-02 9.62087e-03 -1.28333e-02 1.05727e-02 -1.34303e-03 -9.02397e-03 7.14232e-03 -1.00263e-02 7.38602e-03 -2.71359e-02 -1.52803e-02 -1.12457e-02
-1.10770e-02 -6.35320e-03 -9.92718e-04 -1.30221e-02 1.17441e-03 8.81533e-03 -4.48911e-03 -5.59415e-03 -4.77011e-03 -8.98396e-03 -6.93634e-03 -3.47263e-03 -1.65882e-02 -1.20829e-02 -1.40916e-03 -1.39977e-02 -2.61803e-03 7.80816e-03 3.06478e-03 1.88499e-03 -3.50161e-04 1.74928e-02 -4.58975e-03 -1.62811e-02 2.09515e-02 -4.87468e-03 -2.88872e-03 -6.78363e-03 -8.30019e-03 6.54388e-03 5.74363e-04 3.38253e-03 8.10285e-04 -4.75431e-03 1.98266e-03 1.83514e-03 -3.36788e-03 3.90181e-03 1.70297e-03 -1.24471e-02 3.81960e-03 2.62340e-02 8.35369e-03 -5.80092e-03 -3.43121e-03 -2.69578e-02 -1.67545e-03 -9.81908e-03 -2.88734e-03 8.17364e-03 1.08747e-02 2.85719e-02 1.07545e-02 -1.37962e-02 -1.02549e-02 6.22088e-03 -6.43175e-03 -3.15431e-03 0 2.85476e-04 4.53718e-03 -3.54493e-03 6.42554e-04 6.40706e-03 -1.56833e-03 -2.89960e-03 2.14557e-03 -6.70431e-04 -1.27923e-03 1.05388e-03 -2.80788e-03 3.61411e-04 -5.04245e-03 -2.26047e-03 -4.90691e-04
-2.36886e-02 2.01910e-02 1.42571e-02 -6.77268e-03 -5.62232e-03 1.44179e-02 -1.94829e-03 -8.59098e-03 5.82888e-03 -4.67608e-02 3.05936e-02 5.07081e-02 -2.97232e-02 5.27272e-02 -1.47654e-02 -6.89945e-03 -5.02768e-03 -2.00178e-02 5.54860e-03 1.12870e-02 -2.46761e-02 -3.20325e-03 6.57249e-03 1.21179e-02 1.10406e-02 1.13900e-02 7.77385e-03 -4.21305e-03 2.87988e-04 -9.23585e-03 1.89798e-03 7.04776e-03 -1.09654e-02 -1.20573e-02 -8.30655e-03 1.11671e-02 4.43942e-03 2.04847e-03 1.82810e-02 4.64779e-03 -5.59094e-03 -8.71984e-03 1.96214e-03 2.01763e-03 9.44801e-03 -6.67335e-03 -9.81804e-03 -6.26565e-03 6.35184e-03 3.47948e-03 -4.20428e-03 5.00327e-03 5.12872e-03 1.51361e-02 -5.77579e-03 -9.17269e-03 1.29684e-03 -3.52843e-03 -4.97518e-03 1.08519e-02 -2.12619e-03 -1.35353e-03 -1.29883e-02 1.10466e-02 4.67529e-03 -7.63399e-03 6.98755e-03 8.44675e-03 2.58456e-03 -5.71920e-03 -8.89190e-03 -7.07656e-03 -5.37289e-03 -8.96118e-03 1.89464e-02
5.78462e-03 -2.68115e-03 1.36089e-03 2.42260e-03 1.74239e-03 9.72148e-03 1.07689e-02 1.69572e-02 -2.85073e-03 7.68110e-03 -8.11359e-03 -1.18914e-02 4.95470e-03 -1.24055e-02 7.84706e-03 -1.43105e-02 -3.42519e-03 -2.53736e-02 2.47381e-03 -7.01857e-03 2.03899e-02 -2.73427e-03 -2.28126e-03 1.66376e-02 1.61728e-02 4.80627e-03 1.05448e-02 -6.47120e-03 -3.38717e-03 -1.14972e-02 6.95417e-04 -5.07079e-03 8.90244e-03 6.14311e-03 6.15403e-04 -9.52883e-03 -5.43328e-03 -4.55978e-03 -1.71574e-02 1.63866e-03 1.96989e-03 -1.14446e-02 6.39920e-03 1.27777e-03 1.12169e-02 -1.29583e-02 -2.42105e-03 -7.30862e-03 8.19654e-03 8.09005e-03 -5.79393e-03 1.07665e-02 3.70373e-03 1.95256e-02 -8.70123e-03 -8.48695e-03 1.31345e-03 2.02630e-03 4.47348e-03 -7.94319e-03 1.35633e-03 3.43449e-03 1.48555e-02 -6.77468e-03 1.90925e-03 4.07844e-03 -5.21241e-03 -5.53769e-03 -2.64993e-03 3.92181e-03 6.40291e-03 6.90896e-03 2.54017e-04 2.99246e-03 -1.67686e-02
-9.42188e-03 2.28992e-02 -4.55325e-03 1.20867e-02 9.52020e-03 2.79241e-02 2.62731e-03 -1.95217e-03 -1.44242e-02 -2.96214e-02 2.97298e-02 2.20536e-02 -2.00049e-02 4.09376e-02 -2.68418e-02 6.95351e-03 5.82424e-03 -8.00090e-03 -1.17283e-02 -1.97768e-02 -5.78807e-03 3.82561e-04 -7.37182e-03 4.76360e-03 1.57947e-03 -1.47413e-02 3.54333e-03 6.69643e-04 1.16859e-03 -5.41582e-03 -3.77380e-03 -6.44343e-03 0 -5.61599e-03 2.36917e-02 6.05526e-03 -7.90001e-03 2.71979e-02 9.62113e-03 -3.06552e-03 9.78447e-03 -5.28979e-03 1.25077e-03 -1.12302e-03 3.33910e-03 -7.27197e-04 6.54892e-03 1.64303e-03 -1.04801e-03 6.42311e-03 -2.38046e-03 0 -8.60695e-03 6.61355e-03 -4.11875e-03 1.80706e-03 -1.01311e-03 -1.33972e-03 5.61151e-03 -9.85602e-04 9.34204e-03 -1.34202e-02 -1.10451e-02 6.04923e-03 -2.21463e-02 2.39316e-04 5.00629e-03 -1.23868e-02 -2.94770e-03 7.36091e-03 -7.99291e-03 -1.09592e-04 -6.59308e-04 2.27921e-02 5.10996e-03
3.77453e-02 -7.11371e-02 3.83095e-03 -4.13762e-03 1.37240e-03 8.17009e-03 -3.95304e-03 -1.36150e-02 1.71474e-02 9.67619e-02 -9.31650e-02 -7.85117e-02 4.35169e-02 -1.53175e-01 6.91658e-02 4.25997e-03 1.84114e-02 -8.22885e-03 -3.83307e-03 1.02709e-02 -5.32380e-03 2.96537e-03 -2.54428e-02 3.43339e-03 5.46501e-03 -2.60518e-02 3.66018e-03 6.25816e-04 4.76387e-03 -3.51217e-03 -2.40548e-04 4.19894e-03 -4.40930e-03 2.43831e-03 -5.30939e-03 2.23164e-03 5.03622e-03 -1.34387e-02 2.70629e-04 -6.61916e-03 1.80486e-02 -6.97465e-03 2.58499e-03 -5.72568e-03 1.83826e-03 -3.44598e-03 1.87628e-02 3.30192e-03 -1.61370e-03 1.22534e-02 -1.07473e-03 1.72873e-03 -2.13969e-02 6.56375e-03 -5.51988e-03 1.03686e-02 -7.48917e-04 9.86918e-04 -4.54537e-03 3.73203e-03 -3.85867e-03 3.76735e-03 -6.98968e-04 -2.00147e-03 9.00062e-03 -1.28313e-04 8.93358e-04 8.82121e-03 7.23291e-04 -3.38475e-03 1.72071e-03 -3.95338e-03 1.58301e-03 -1.03470e-02 5.09225e-03
-1.98177e-02 1.88746e-02 0 -4.77278e-03 -3.10590e-03 -1.41909e-03 -7.28372e-03 -1.11777e-02 -3.16015e-03 -3.94458e-02 2.91911e-02 3.41484e-02 -2.37749e-02 4.88918e-02 -2.54040e-02 3.69160e-03 -2.25535e-03 5.48721e-03 1.63167e-03 9.34377e-04 -7.65223e-03 1.73054e-02 1.55899e-02 -4.59595e-03 4.69249e-03 -4.55377e-03 4.82457e-03 -1.24905e-02 -4.49388e-04 0 -1.73125e-02 -4.11136e-03 2.70841e-03 7.06226e-03 -4.57742e-03 -1.02344e-02 1.93328e-02 2.46611e-02 1.09703e-02 1.22782e-03 2.62837e-03 -4.51238e-03 6.38993e-03 -1.92400e-03 1.17241e-03 5.47274e-03 -2.56999e-03 8.02204e-04 -9.80335e-03 7.41583e-03 -6.63832e-03 -6.71541e-03 -1.66853e-02 7.27710e-03 -7.88849e-03 2.44212e-03 -3.27871e-03 9.57964e-03 -3.13362e-04 -5.37906e-03 2.12326e-03 2.46823e-03 7.33237e-03 6.42537e-03 -1.08639e-03 -2.73340e-03 -1.06578e-02 -1.12179e-03 7.74740e-03 -1.29201e-02 5.73072e-03 1.59406e-02 -3.89076e-03 -2.17335e-02 -1.86016e-02
3.86047e-04 5.11559e-03 -4.98292e-03 4.61490e-04 -2.39066e-03 -1.60640e-02 -1.22203e-03 5.45905e-03 -1.83059e-03 -1.92777e-03 5.68188e-03 -2.50450e-03 4.64200e-03 1.13120e-02 -5.97318e-03 4.47107e-04 -4.80165e-03 9.77543e-03 1.33847e-03 1.17411e-03 6.31551e-03 2.50751e-02 2.47789e-02 -7.67914e-03 6.66699e-03 -1.10061e-03 6.41781e-03 -2.13101e-02 -4.78806e-03 2.92349e-03 1.45142e-02 5.14642e-03 9.88973e-04 -5.92727e-03 -1.91521e-03 3.98353e-03 -1.28328e-02 -1.70741e-02 -8.86591e-03 3.23160e-03 2.05962e-03 -6.08569e-03 1.12658e-02 -1.65138e-03 2.93276e-04 8.11134e-03 -4.19626e-03 1.98206e-04 -1.43732e-02 8.02050e-03 -1.04170e-02 -9.60823e-03 -2.06962e-02 9.88878e-03 -1.07093e-02 1.83372e-03 -3.06204e-03 -8.15553e-03 0 2.09295e-03 -2.75536e-03 -7.70855e-04 -4.30198e-03 -5.44436e-03 6.38651e-04 1.79994e-03 7.14269e-03 -4.57024e-04 -3.01554e-03 9.39174e-03 -2.75775e-03 -9.58268e-03 3.92599e-03 1.56356e-02 1.14695e-02
1.70032e-02 -8.04350e-03 -1.27991e-02 7.52557e-03 8.03730e-03 -1.19843e-02 4.91989e-04 -1.38669e-03 -5.41802e-03 3.21127e-02 -1.19363e-02 -3.01598e-02 1.99318e-02 -2.61457e-02 2.88271e-03 3.72368e-03 3.62139e-03 1.26125e-02 -3.08701e-03 -4.32485e-03 4.81378e-03 8.84788e-03 1.83808e-02 6.48404e-03 -2.29532e-02 -2.45264e-02 1.55329e-02 8.18557e-03 -2.97449e-03 -1.27557e-02 -7.29988e-03 -2.62378e-04 -6.44358e-03 9.48439e-03 1.45847e-02 1.10779e-02 -1.18488e-03 -9.03370e-03 1.84690e-03 -2.62929e-03 5.23487e-03 2.16659e-03 -2.19651e-03 6.00147e-03 9.99327e-03 -4.53995e-03 -5.13798e-03 -2.09864e-03 -9.46527e-04 -3.05254e-03 -1.51242e-02 1.33596e-02 1.99184e-02 3.22894e-03 -2.16398e-03 -1.77030e-02 -1.74320e-02 3.72891e-03 -2.64698e-03 4.08699e-03 3.00175e-03 -2.55267e-03 0 1.56674e-03 3.11018e-03 -2.67901e-04 -2.81619e-03 9.58149e-03 -6.93161e-03 -1.58835e-03 2.23594e-03 -6.73132e-03 -3.08176e-03 -1.08039e-02 -7.26578e-04
4.07708e-03 -1.63985e-02 6.15093e-03 -7.23331e-03 -1.99678e-03 -7.67400e-03 -8.68584e-03 -1.41619e-02 1.31863e-02 1.91836e-02 -1.79932e-02 -5.78430e-03 7.73660e-03 -2.92711e-02 1.87604e-02 2.99522e-03 4.13027e-03 5.53963e-03 1.33693e-03 1.16225e-02 -1.06316e-02 2.85333e-03 3.63397e-03 3.99538e-03 -1.28086e-02 -1.47333e-02 7.58593e-03 8.45684e-03 2.75074e-03 -7.42434e-03 1.40068e-02 5.69820e-03 1.33603e-02 -1.74630e-02 -2.95879e-02 -2.20966e-02 4.51680e-03 1.30797e-02 -4.24700e-03 -2.39810e-03 2.69385e-03 1.44560e-03 -3.66718e-03 1.88683e-03 5.58481e-03 -3.99859e-03 -1.26555e-03 -5.92700e-04 1.63043e-03 -6.51906e-04 -6.29998e-03 8.21959e-03 9.49942e-03 8.61963e-04 -1.44863e-04 -7.11410e-03 -9.96360e-03 -7.86797e-03 2.43109e-03 -8.18806e-03 -6.94019e-03 4.64984e-03 -8.28739e-04 -4.48227e-03 -5.22812e-03 3.73781e-04 6.59990e-03 -1.52274e-02 1.54925e-02 3.53000e-03 -1.90636e-03 1.26831e-02 7.81081e-03 1.75935e-02 2.15388e-03
7.00740e-02 -5.31678e-02 6.10422e-03 2.08727e-02 1.51441e-02 -9.54778e-03 1.59891e-02 6.26932e-03 2.58184e-02 1.38003e-01 -7.63667e-02 -8.38129e-02 8.57694e-02 -1.37606e-01 8.14070e-02 -5.27165e-04 1.17523e-02 -2.10633e-03 -2.83494e-03 1.06058e-02 -2.83360e-03 -3.34862e-03 3.38924e-03 -4.00854e-03 -4.13309e-04 9.08829e-03 1.70946e-03 -1.49015e-02 -2.33636e-02 9.77984e-03 -7.47345e-03 -1.82309e-02 -8.93894e-03 -5.31830e-03 2.99086e-03 -5.51607e-03 2.07158e-03 7.99413e-03 3.26661e-03 6.18112e-03 6.34591e-03 -1.78705e-03 1.06280e-02 1.05233e-02 -5.21292e-03 4.49047e-03 8.48501e-03 -4.39119e-03 -9.38574e-03 -1.70383e-02 -2.33743e-03 6.54145e-03 6.51635e-03 -1.79176e-03 -5.22973e-03 -1.58176e-02 1.12529e-02 6.16258e-03 8.99668e-03 4.40903e-03 2.57406e-03 6.80069e-03 1.88797e-03 3.29822e-03 5.03470e-03 3.87738e-03 -3.04999e-04 -1.21264e-02 -7.06044e-03 -6.54654e-03 -1.58012e-02 1.64326e-03 3.13883e-03 4.67081e-03 5.20762e-03
-5.85124e-03 -2.96043e-04 6.52810e-03 -6.10056e-03 -1.18378e-02 -1.23335e-02 -4.68825e-03 1.18603e-02 8.10214e-03 -9.99434e-03 -2.30191e-03 4.44201e-03 1.51699e-03 6.22251e-03 8.06859e-03 -4.35595e-03 -1.02650e-02 5.94655e-03 6.04106e-03 1.40436e-02 6.61875e-03 6.28764e-03 -3.25825e-03 -1.33981e-03 -4.07748e-03 -4.05054e-03 -1.21532e-03 7.03222e-03 1.67560e-02 -2.60010e-03 -1.90016e-03 -2.12284e-02 -9.95043e-03 -3.27405e-03 4.86843e-03 -1.11881e-03 -2.73456e-03 3.97072e-03 2.26559e-03 -3.96390e-03 -9.45634e-03 3.63336e-04 -5.28806e-03 -1.08287e-02 3.76636e-03 -6.67048e-03 -8.14861e-03 2.83526e-03 1.09780e-02 1.49443e-02 -5.63911e-03 -6.23713e-03 -3.44002e-04 7.74858e-03 5.83730e-03 1.53765e-02 -9.11303e-03 3.09395e-03 1.52620e-02 7.55789e-03 4.22157e-03 1.27746e-02 5.76944e-03 4.44055e-03 1.22467e-02 7.05763e-03 -8.30986e-03 -2.09727e-02 -1.32969e-02 -1.03280e-02 -2.31276e-02 -9.19321e-03 1.13551e-02 1.42325e-03 3.78058e-03
1.44297e-02 -5.53594e-03 6.02678e-03 8.08051e-03 1.24318e-03 8.04309e-04 6.77584e-03 1.32815e-03 8.25820e-03 2.28661e-02 -8.04456e-03 -4.23451e-03 1.77186e-02 -1.44564e-02 1.53626e-02 1.81513e-03 -2.24100e-04 6.46198e-03 -2.02769e-03 -5.28321e-03 5.85137e-03 3.72951e-03 -9.35008e-03 -1.56455e-02 -1.36846e-02 6.20395e-03 -8.11593e-03 -1.62929e-03 1.26777e-03 1.26959e-02 -5.97947e-03 -6.18002e-03 1.21661e-02 1.65659e-02 -8.30346e-04 -1.79636e-02 -1.02522e-02 1.19743e-02 -1.22967e-02 3.29783e-03 -9.47640e-03 -5.70998e-03 3.16526e-03 -4.08868e-03 1.01185e-03 -8.87622e-03 1.85361e-03 -1.73504e-03 1.03825e-02 2.26656e-03 -1.31845e-02 4.00947e-03 5.69376e-03 2.29084e-02 -4.04224e-03 5.84873e-03 1.10754e-03 2.39864e-03 -5.19114e-03 7.68376e-04 -9.58495e-03 3.65844e-03 -6.74956e-03 8.98855e-03 -6.95082e-03 -7.94889e-03 1.69231e-02 1.02618e-02 -8.00083e-04 -6.30473e-03 6.32936e-03 -4.76815e-04 -1.23219e-02 -7.72502e-03 2.59035e-02
-9.39419e-03 4.01417e-03 0 -6.33201e-03 -8.95658e-04 -3.50675e-03 -7.86804e-03 -4.65069e-03 1.02080e-03 -1.36823e-02 7.07445e-03 9.32007e-03 -9.73614e-03 1.21662e-02 -6.15162e-03 -2.68395e-03 -4.37619e-04 -7.14584e-03 -8.44556e-04 -2.62722e-03 8.07047e-03 -4.22238e-03 1.04099e-02 1.74525e-02 1.58390e-02 -7.79206e-03 1.02786e-02 1.91457e-04 -1.17736e-03 -1.40755e-02 2.50253e-03 -4.89068e-03 1.33976e-02 1.52105e-02 1.40857e-04 -1.26788e-02 -1.04053e-02 1.38720e-02 -1.35823e-02 -4.55578e-03 9.33333e-03 7.08385e-03 -2.92591e-03 2.67872e-03 -1.26183e-03 9.34590e-03 -3.88646e-03 2.41800e-03 -1.00941e-02 -4.46760e-04 1.27280e-02 -6.98816e-03 -4.33166e-03 -2.55992e-02 7.39749e-03 -4.32466e-03 -1.39837e-03 -3.37709e-03 2.23649e-03 3.18554e-03 -7.19754e-03 1.04006e-02 -2.35333e-03 1.02673e-02 7.28365e-04 -4.06301e-03 6.45727e-03 -3.09955e-03 -2.47759e-03 -1.25297e-02 -2.16203e-03 -1.27449e-02 1.49295e-03 -1.41331e-02 2.31355e-02
4.09036e-02 -2.05566e-02 -9.59277e-04 1.95007e-02 6.59929e-03 -1.08002e-02 1.25180e-02 2.21219e-03 1.02514e-02 7.11338e-02 -3.00076e-02 -3.90234e-02 5.02200e-02 -5.57136e-02 3.26292e-02 -2.50174e-03 0 -4.01111e-03 -1.17910e-03 2.63984e-03 -2.65762e-03 -5.90590e-03 2.14553e-03 3.57393e-03 1.05101e-02 -1.02305e-02 1.49852e-02 -1.90053e-02 -4.40963e-03 -8.72136e-04 -1.00988e-02 -3.57811e-03 -5.27285e-03 -3.19778e-03 -7.95187e-04 -4.93841e-03 2.39284e-03 -4.25334e-03 3.89326e-03 -8.11405e-03 -5.08461e-03 8.43383e-03 7.57246e-03 -1.28654e-02 -3.06843e-03 -5.76984e-04 -1.41651e-02 3.99733e-03 7.70207e-03 1.32991e-02 -1.42463e-02 -2.16036e-02 1.83356e-02 -9.51439e-03 2.73315e-02 1.28980e-02 2.51200e-03 7.01320e-03 -5.05803e-03 -1.50747e-03 -5.00202e-04 -5.76073e-03 -2.83666e-03 -2.81029e-03 -5.33688e-03 -1.54449e-03 8.39494e-03 9.77957e-03 0 6.81303e-03 3.57638e-03 1.33384e-02 -1.03604e-02 9.22433e-03 -1.64170e-04
-1.46484e-03 -1.96043e-03 4.18221e-03 -4.03850e-03 -6.47978e-03 -7.98506e-03 -1.15441e-03 7.49747e-03 5.43518e-03 -1.52556e-03 -3.88912e-03 0 3.08198e-03 -8.97394e-04 7.30673e-03 -7.62750e-03 -8.48916e-03 2.44893e-03 8.50392e-03 1.30247e-02 6.50507e-03 5.54946e-03 5.57659e-03 8.46629e-03 1.67123e-03 3.04094e-03 -6.11689e-03 1.58992e-02 8.61983e-03 -9.11110e-03 -2.16728e-02 -1.66842e-02 -1.07399e-02 -1.89079e-03 -1.43993e-03 -1.51352e-02 -2.48457e-03 -1.03573e-02 6.61162e-03 1.19142e-03 3.51616e-03 -1.07038e-03 -9.08160e-03 5.02327e-03 2.77453e-03 3.20559e-03 2.14134e-03 0 -5.93236e-03 -1.54923e-03 1.52818e-02 5.55147e-03 -1.43833e-02 -5.29563e-03 -1.11210e-02 -3.13143e-03 -6.85348e-03 1.50736e-02 -4.79106e-03 1.22339e-03 -1.86130e-03 -3.70185e-03 -3.28484e-03 -2.59360e-03 -5.70481e-03 -1.52406e-03 1.50914e-02 1.40220e-02 -8.81638e-03 1.01391e-02 -1.77747e-03 1.95583e-02 -1.66553e-02 1.70882e-02 5.33243e-03
-1.29694e-03 1.24583e-03 -1.42552e-03 0 3.35593e-04 9.15770e-04 -1.36939e-04 5.84462e-04 -2.06570e-03 -2.75340e-03 1.44278e-03 -1.89932e-04 -2.01336e-03 2.21056e-03 -2.74770e-03 4.60496e-04 3.54785e-04 -1.03214e-04 -2.70789e-04 -3.30850e-04 -6.02690e-04 -5.97598e-04 -3.18879e-04 -5.37512e-04 0 0 -2.19774e-04 -3.71333e-04 -3.12834e-04 8.47045e-04 -2.91916e-03 -8.84978e-03 2.05010e-02 -1.34427e-02 1.31156e-03 -1.22828e-02 1.64029e-02 7.34778e-03 -4.77901e-03 -1.04825e-04 -3.70648e-04 1.33936e-04 4.86603e-04 -1.10622e-04 2.66642e-04 0 2.58026e-04 0 0 6.64034e-04 -8.06614e-04 -1.60424e-04 4.91119e-04 3.19625e-04 3.65758e-04 -6.18543e-04 0 -3.63920e-03 -7.98128e-03 1.77713e-02 4.42255e-03 1.04453e-02 1.11868e-02 -6.00303e-03 -1.43044e-02 -2.07221e-03 -1.69854e-02 3.41578e-02 -1.52782e-03 2.05413e-02 -2.34520e-02 -2.31278e-02 1.88485e-03 1.46174e-03 -4.74394e-03
2.47931e-03 -1.33179e-03 -8.27457e-04 1.38159e-03 0 -1.83322e-03 0 -5.69424e-04 3.53000e-04 4.27164e-03 -1.77603e-03 -2.82685e-03 3.32161e-03 -3.15885e-03 1.21028e-03 -8.45372e-04 -1.01658e-03 1.54644e-04 -1.93778e-04 2.09599e-04 0 -1.62159e-02 -1.39821e-03 -3.20824e-03 1.09213e-02 0 -1.59497e-02 9.65808e-03 2.13250e-03 2.10400e-02 0 1.87597e-04 -4.32295e-04 1.48351e-04 0 1.18396e-04 -2.51073e-04 -1.10007e-04 0 -5.67109e-03 -1.23836e-02 8.21616e-03 6.82602e-03 1.23700e-03 1.85749e-02 9.79315e-03 1.22537e-02 6.43313e-04 -1.55865e-02 3.44930e-02 -1.16885e-02 -3.89940e-03 -9.82195e-04 -3.34145e-03 4.69687e-03 -3.42280e-02 -1.41043e-02 0 2.28107e-04 -3.28127e-04 0 -1.21941e-04 -2.13981e-04 1.17654e-04 3.57128e-04 0 3.85720e-04 -8.33136e-04 0 -4.86228e-04 2.91114e-04 4.71389e-04 1.83539e-04 0 1.97637e-04
1.01617e-01 -4.76235e-02 1.86561e-03 5.30711e-02 1.12764e-02 -1.92636e-02 4.07614e-02 1.03161e-02 2.35353e-02 1.70330e-01 -7.11279e-02 -8.89670e-02 1.23614e-01 -1.29411e-01 8.01737e-02 -2.11925e-02 -1.68395e-02 7.00361e-03 -1.30132e-02 -1.16270e-02 -1.13429e-02 7.36210e-03 8.23673e-03 4.45263e-03 4.78451e-03 5.40955e-03 -1.09476e-02 1.58177e-02 6.47978e-04 -8.54628e-03 1.09905e-02 4.07807e-03 2.09604e-03 -2.11497e-03 4.18370e-03 6.85673e-03 9.19558e-03 8.40293e-03 -4.57838e-03 7.42559e-04 -2.66894e-03 -9.35693e-04 -7.38791e-03 -1.68001e-04 2.22581e-03 1.11378e-03 -4.17744e-03 7.30100e-04 1.86753e-03 5.93337e-03 1.21141e-02 -8.29942e-03 -2.50494e-03 4.04317e-03 -7.79622e-03 6.47040e-03 -6.68744e-03 -4.93203e-03 -1.15876e-03 -1.54422e-03 1.79511e-03 -2.94309e-03 -5.35296e-04 4.93432e-04 -1.83037e-03 -9.16244e-04 -3.29334e-03 0 9.64561e-03 -4.61253e-03 4.04870e-03 -2.91498e-03 -4.81355e-03 -3.15193e-03 -8.53336e-04
-3.12891e-03 -1.21707e-03 3.37323e-03 -4.61663e-03 -3.11530e-03 -3.86545e-03 -7.54420e-04 2.97959e-03 3.10371e-03 -3.34055e-03 -1.79008e-03 2.25121e-03 -1.55223e-03 1.44050e-04 3.76001e-03 2.11942e-03 1.45008e-03 -1.17410e-03 -2.88091e-03 -2.77279e-03 -2.40776e-03 7.61835e-04 1.33189e-03 1.14545e-02 -6.35450e-03 2.26207e-04 -6.63709e-03 -9.08190e-03 9.41000e-03 2.61313e-03 2.60652e-02 -1.51961e-02 -3.36066e-03 1.01188e-02 9.73624e-03 -2.02242e-02 5.77194e-03 -1.05660e-02 2.20885e-02 -1.43173e-03 -1.23494e-03 2.45905e-03 1.47490e-03 -1.57549e-03 -3.21866e-04 -2.22620e-03 -1.29802e-03 -3.43329e-04 -2.40936e-03 -1.00964e-03 -8.13596e-03 1.22607e-02 -6.74056e-03 -6.25960e-03 5.37273e-03 -5.96604e-04 6.35042e-03 -3.96108e-03 2.63581e-03 3.64256e-04 3.36546e-03 1.90787e-03 5.40553e-03 3.93393e-03 5.10834e-03 -5.29064e-04 -6.81362e-03 -6.99180e-03 1.74765e-02 -1.14026e-03 8.23161e-03 -1.63509e-02 -3.40798e-02 8.10601e-03 -2.60154e-03
-2.09920e-02 3.46775e-03 2.32311e-04 -1.40542e-02 -2.05464e-03 6.20003e-03 -1.00713e-02 -3.46760e-03 -4.07173e-03 -3.03761e-02 6.28359e-03 1.17765e-02 -2.60053e-02 1.28294e-02 -1.07792e-02 5.43637e-04 1.98962e-03 2.34772e-04 9.78909e-04 1.32813e-03 9.95372e-04 -1.48004e-03 -7.75202e-03 -2.79071e-02 1.26852e-02 -1.21097e-04 2.45757e-02 1.76039e-02 -2.07289e-02 -2.86046e-03 8.99353e-03 -6.67625e-03 -1.48535e-03 4.80472e-03 3.41050e-03 -1.08620e-02 2.90246e-04 -6.51978e-03 1.12954e-02 3.31176e-03 3.77501e-03 -5.67222e-03 -1.70391e-03 4.13496e-03 4.41438e-04 5.05008e-03 5.29218e-03 7.34058e-04 3.07441e-03 2.02173e-04 1.60635e-02 -2.65327e-02 1.52477e-02 1.06059e-02 -9.56159e-03 -1.50610e-03 -1.72995e-02 -9.87233e-04 1.48946e-03 4.58687e-04 1.07294e-03 1.61931e-03 2.62904e-03 1.66206e-03 2.82397e-03 0 -2.39650e-03 -3.61443e-03 6.12278e-03 7.29396e-04 2.88905e-03 -7.21985e-03 -1.29857e-02 3.62032e-03 -1.15072e-03
-9.04028e-04 -3.89217e-03 1.35535e-02 -3.87552e-03 -5.07380e-03 9.88136e-03 1.03444e-02 1.39329e-02 6.59228e-03 -1.73647e-03 -7.81204e-03 5.46034e-03 -7.35780e-04 -6.81995e-03 1.60030e-02 -3.50474e-03 -5.99634e-04 -9.80602e-03 -4.90668e-04 -3.18482e-03 -1.43271e-03 2.40825e-02 -2.24483e-02 1.13158e-02 -1.33837e-02 2.55353e-02 2.79124e-02 2.96940e-03 4.74115e-03 1.41701e-02 4.96383e-03 -1.91817e-03 -7.01467e-04 3.41186e-04 -1.46867e-03 9.13295e-03 5.72828e-03 4.81096e-03 -8.29922e-03 3.08465e-03 -4.36067e-03 -1.89845e-03 2.64258e-04 0 4.98315e-04 -4.67331e-03 4.51955e-03 4.79782e-04 -1.94836e-02 -4.91825e-03 -7.53066e-03 -6.92862e-04 -3.89260e-03 -1.38711e-02 1.08465e-02 1.64965e-03 -2.44612e-02 -4.15572e-04 -1.06234e-03 -5.16922e-04 4.59739e-04 -1.51876e-03 -1.46465e-03 -4.10512e-04 -1.99678e-03 0 -1.63917e-03 3.69222e-03 -2.90444e-03 -4.53435e-03 -1.05291e-03 4.73216e-03 -4.67720e-03 2.35222e-03 6.74292e-04
1.89869e-02 -1.28715e-02 1.18119e-02 6.47222e-03 1.03530e-03 -2.94639e-03 4.02256e-03 -9.85300e-03 1.76519e-02 3.63687e-02 -1.48915e-02 -2.18117e-03 2.42817e-02 -2.73958e-02 2.69638e-02 -2.40732e-03 -6.95670e-04 0 -3.28331e-04 5.99626e-03 -1.08349e-02 2.60587e-03 -4.79795e-04 2.25993e-03 -3.61318e-04 1.40470e-03 -9.01364e-04 1.19607e-03 -4.55010e-04 0 -1.67958e-03 -7.21952e-03 1.36166e-02 2.36207e-02 -2.77956e-02 1.41036e-02 -2.86030e-02 1.00539e-02 2.30472e-02 1.99859e-04 -5.14027e-04 1.48817e-04 -2.65652e-04 -1.65228e-04 1.22190e-04 -3.04990e-04 -2.45380e-04 0 -1.64050e-03 1.47532e-04 -6.13178e-04 -9.29971e-04 5.73216e-04 -4.57932e-04 2.34103e-04 6.84518e-04 -3.73547e-04 0 -1.16670e-04 7.73713e-04 -4.84113e-03 4.31387e-03 0 5.60244e-03 -2.77620e-03 -1.28572e-03 -1.39470e-02 2.69627e-04 -2.16383e-02 1.85798e-02 1.27507e-02 -9.49074e-03 1.16589e-04 6.88441e-03 -1.21030e-02
8.56010e-03 7.40065e-04 -5.22644e-03 1.17833e-02 8.44388e-03 1.59789e-02 3.85620e-03 -9.41164e-03 -6.16276e-03 1.03804e-02 1.91452e-03 -3.65689e-03 3.07026e-03 -5.10459e-03 -5.70248e-03 -4.13277e-03 -9.06693e-04 -2.94730e-03 1.15808e-03 0 7.37540e-04 1.85287e-02 -7.97556e-03 1.29661e-02 -2.28941e-04 5.31809e-03 -8.43278e-03 1.09131e-02 -5.44801e-03 6.84686e-04 -1.95343e-02 7.07219e-03 -4.58450e-04 -1.12255e-02 1.06473e-02 -2.18386e-02 -1.71614e-02 -8.08116e-03 1.72103e-02 2.08761e-03 -2.00391e-03 8.09759e-04 -9.32156e-04 -1.24559e-03 3.90709e-04 -2.59113e-03 -6.32142e-04 -1.24796e-03 -1.67998e-02 -1.99034e-03 -9.35108e-03 -9.04634e-03 9.86857e-03 6.50191e-04 1.14825e-03 4.83758e-03 5.09874e-03 8.49301e-04 2.03340e-03 9.23248e-04 -1.02494e-03 1.63846e-04 3.20305e-03 0 3.06241e-03 -1.91302e-03 9.03438e-03 -8.33250e-03 1.89672e-02 1.48840e-02 7.96276e-03 -1.45768e-02 2.10944e-02 -1.42388e-02 -2.10008e-03
2.72310e-02 9.83449e-04 0 2.16810e-02 1.72019e-03 -7.94670e-03 1.48964e-02 2.81073e-03 4.80445e-03 3.45458e-02 -1.09336e-04 -6.58971e-03 3.35660e-02 -3.33515e-03 8.27420e-03 -2.87695e-04 -3.29521e-03 3.92729e-04 -5.78703e-04 -1.35481e-03 -1.64499e-03 -2.03041e-02 6.36128e-03 -1.10265e-02 -9.05153e-03 8.50784e-03 2.10010e-02 -1.75584e-02 7.43406e-03 6.83586e-03 -1.08490e-02 1.89347e-03 -4.30776e-04 -6.95946e-03 5.09062e-03 -8.74496e-03 -1.09941e-02 -1.37738e-03 8.60087e-03 -2.09384e-03 -8.21714e-04 -2.50330e-03 1.12264e-03 1.52506e-03 -4.75449e-04 8.45805e-04 4.61557e-04 3.17234e-03 2.17947e-02 3.69245e-03 1.50667e-02 1.67306e-02 -2.19201e-02 -5.88314e-03 4.46242e-03 -2.57313e-03 -2.50921e-02 3.56044e-04 8.85687e-04 4.17733e-04 -7.99954e-04 -7.90872e-04 1.35381e-03 1.91105e-04 6.85496e-04 -1.62627e-03 4.65328e-03 -3.76335e-03 1.17599e-02 9.70789e-03 7.08900e-03 -8.88909e-03 1.21916e-02 -8.70002e-03 -1.89182e-03
-5.61866e-03 -3.84098e-03 1.19048e-02 -9.43234e-03 -1.26793e-02 -1.20897e-02 -3.03547e-03 1.96186e-02 1.19049e-02 -6.65529e-03 -8.88999e-03 1.36317e-03 3.56015e-03 -2.49436e-03 1.89061e-02 -1.34103e-03 -4.87422e-03 2.08599e-03 3.70592e-03 9.19925e-03 3.55645e-03 2.73790e-03 -4.83062e-03 -1.06307e-02 6.67684e-03 -5.91461e-03 7.44832e-03 -1.01185e-03 2.00261e-02 -3.45382e-03 8.47700e-03 -3.34725e-02 -1.32471e-02 -1.45453e-02 -4.13316e-04 1.57594e-02 -9.01408e-03 1.40958e-02 -1.29934e-02 2.78156e-04 2.24611e-03 3.62454e-04 -1.60039e-04 3.18558e-04 2.22737e-04 2.67556e-03 4.26604e-03 -2.24898e-03 -1.46595e-03 -5.70144e-03 -4.61884e-03 -3.31736e-03 5.93990e-03 -2.87755e-03 -4.87448e-03 -1.05349e-02 1.41921e-02 6.55582e-04 -3.59040e-04 -1.20403e-04 -1.73999e-03 -6.67245e-03 -2.03646e-03 -9.45207e-04 -5.09526e-03 -4.11174e-03 1.42904e-03 8.55584e-03 2.01553e-02 7.67236e-03 2.24126e-02 -5.43420e-03 6.54438e-03 -9.98970e-03 -2.73055e-03
-1.86765e-02 -3.46890e-03 5.84137e-04 -2.27917e-02 9.05421e-03 4.85864e-03 -1.62952e-02 1.42410e-03 0 -1.25781e-02 -5.52942e-03 -7.60537e-03 -2.28418e-02 -1.41392e-02 5.14606e-03 6.85164e-03 1.35597e-02 -2.65879e-03 2.62106e-03 7.62172e-03 3.72450e-03 -4.70978e-03 9.85653e-03 1.82518e-02 -9.80249e-03 4.40851e-03 -1.66194e-02 4.95206e-03 -3.99142e-02 2.47080e-03 8.03389e-03 -2.01823e-02 -7.62044e-03 -6.89939e-03 -1.24424e-03 9.22676e-03 -3.25455e-03 7.17277e-03 -8.33915e-03 -1.18239e-03 -3.36493e-03 2.96540e-04 2.96141e-04 -6.72979e-04 -2.70359e-04 -3.77617e-03 -7.22571e-03 3.32561e-03 2.51226e-03 1.18587e-02 6.21136e-03 3.58433e-03 -7.50767e-03 5.32923e-03 5.83544e-03 1.79392e-02 -1.74349e-02 3.38715e-04 -3.31273e-04 -1.42296e-04 -9.38892e-04 -3.40715e-03 -1.33034e-03 -6.17468e-04 -2.70398e-03 -1.87270e-03 -3.46231e-04 5.74067e-03 8.59418e-03 2.23414e-03 1.13468e-02 -9.49297e-04 2.02276e-03 -4.21783e-03 -1.00529e-03
-1.39536e-03 1.71883e-03 -3.72705e-03 5.51353e-04 -2.33980e-04 -1.78101e-04 2.55791e-04 2.42690e-03 -4.28326e-03 -3.86940e-03 1.52606e-03 -2.84251e-03 -2.04297e-03 2.98615e-03 -5.23797e-03 0 -5.94017e-04 1.71623e-04 -1.31963e-04 -8.66531e-04 5.39601e-04 -2.57068e-03 4.62557e-04 -6.54552e-04 2.50475e-03 -9.43236e-04 -6.11362e-04 2.06533e-04 1.66886e-03 9.93271e-04 -1.67627e-03 -2.53663e-03 8.45123e-03 -1.90197e-02 4.26342e-03 -7.05032e-03 2.20169e-02 -5.82371e-04 -2.24433e-03 8.72984e-04 1.41041e-03 -4.33034e-04 0 0 0 -7.41497e-04 -9.91070e-04 5.01007e-04 -4.14626e-03 -3.07039e-03 -3.01288e-04 1.34684e-03 4.18938e-04 3.06407e-03 2.61369e-03 1.63517e-03 -2.52171e-03 1.40982e-04 2.59934e-04 -5.70667e-04 -4.63317e-03 -1.04955e-02 -5.07275e-03 4.72767e-03 1.02225e-02 6.62423e-03 -2.09969e-02 -1.71446e-02 -2.76523e-02 2.47218e-02 2.75446e-02 2.60368e-03 -5.13072e-03 -1.11543e-02 2.52389e-02
4.44560e-03 8.73640e-04 -2.06324e-03 5.05093e-03 -3.07343e-03 -7.47066e-03 -2.39201e-04 -9.55763e-04 9.29471e-04 3.81867e-03 1.45425e-03 -4.13937e-04 7.68698e-03 4.00146e-03 -1.69348e-03 -1.41201e-03 -3.92389e-03 1.68882e-03 -1.98114e-04 7.76237e-04 1.05721e-04 -2.10519e-02 4.64063e-03 -4.50879e-03 2.00193e-02 -7.88666e-03 -5.92374e-03 1.59704e-03 1.18316e-02 7.80512e-03 7.86375e-04 -1.02443e-03 -1.51255e-03 2.03275e-03 -7.03493e-04 1.50451e-03 -2.94411e-03 5.73194e-04 -2.17781e-04 6.90706e-03 1.12886e-02 -3.38721e-03 -3.04152e-04 0 -5.67864e-04 -5.95331e-03 -8.27617e-03 4.12042e-03 -3.27273e-02 -2.41105e-02 -1.85035e-03 1.08528e-02 3.17952e-03 2.48188e-02 2.10524e-02 1.35953e-02 -2.08631e-02 0 0 0 5.17837e-04 1.12946e-03 5.39607e-04 -6.08697e-04 -1.44005e-03 -9.21610e-04 2.55070e-03 2.48535e-03 3.91257e-03 -2.94951e-03 -2.73140e-03 -3.82997e-04 7.19444e-04 1.19335e-03 -3.20581e-03
-3.44977e-03 -7.11177e-04 3.03653e-03 -5.18064e-03 -2.86100e-03 -3.80820e-03 1.70463e-04 5.90831e-03 2.13158e-03 -3.97401e-03 -1.92138e-03 6.52940e-04 -1.91238e-03 0 3.84340e-03 -5.02167e-04 -5.80897e-04 6.97209e-04 2.57875e-03 2.26329e-03 1.56633e-03 -7.38565e-03 2.99504e-03 -5.99234e-03 -1.33197e-03 2.94428e-03 8.61357e-03 1.08257e-02 -6.21636e-03 -4.01628e-03 -3.04174e-02 7.49705e-03 -1.89455e-03 9.33768e-03 -1.25910e-02 1.75356e-02 1.53311e-02 3.35406e-03 -1.74420e-02 -5.35767e-04 -1.33787e-03 4.10100e-04 -8.34006e-04 -1.81819e-03 6.49811e-04 -5.18742e-04 -1.50090e-03 2.62803e-04 -6.70030e-03 5.11825e-03 -8.10908e-03 7.17987e-03 -5.79669e-03 -2.18078e-03 1.90929e-04 6.32542e-03 9.80617e-03 1.17400e-03 4.46653e-03 2.27855e-03 4.63590e-04 3.31541e-03 1.82141e-03 4.86871e-04 3.40436e-03 1.35679e-03 7.87409e-03 -2.03893e-02 1.84586e-02 1.51224e-02 -1.30228e-03 -2.41720e-02 -2.12653e-02 9.40583e-03 4.21574e-04
-6.62136e-03 0 1.42844e-04 -5.89061e-03 1.54926e-03 2.91720e-03 -3.98681e-03 1.61183e-04 -9.79778e-04 -7.43440e-03 0 5.61054e-04 -8.54270e-03 -4.39442e-04 -1.05471e-03 3.44160e-03 3.95393e-03 -1.65730e-03 1.30405e-03 1.74347e-03 1.19968e-03 1.74517e-02 -6.41374e-03 1.57374e-02 3.51045e-03 -8.80395e-03 -2.30762e-02 -2.56534e-02 1.17986e-02 9.41608e-03 -1.18384e-02 2.10038e-03 -1.13626e-03 3.75092e-03 -5.38612e-03 7.58699e-03 6.43395e-03 1.48534e-03 -7.67114e-03 1.19986e-03 3.49482e-03 -8.52259e-04 2.08370e-03 4.44056e-03 -1.60286e-03 1.12817e-03 3.18659e-03 -4.68213e-04 1.60588e-02 -1.19266e-02 2.00091e-02 -1.76816e-02 1.44149e-02 6.21175e-03 -2.40640e-04 -1.43497e-02 -2.42647e-02 4.96567e-04 1.82451e-03 9.29410e-04 1.55253e-04 1.29538e-03 6.89821e-04 1.54830e-04 1.33898e-03 5.45031e-04 3.12331e-03 -8.09860e-03 7.67868e-03 6.09377e-03 -2.44934e-04 -9.79702e-03 -8.85463e-03 3.86208e-03 1.95553e-04
-2.77743e-02 -2.29504e-02 8.01592e-02 -7.70076e-02 -3.16843e-02 -4.55706e-02 4.26813e-02 9.56596e-02 5.01848e-02 -1.15924e-02 -4.59196e-02 2.11752e-02 -6.73618e-03 -3.34596e-02 1.07442e-01 4.83557e-03 5.93785e-03 8.94976e-04 9.05536e-03 -1.88855e-02 -9.81357e-03 -6.03998e-04 1.29325e-03 1.04764e-03 1.70257e-03 -4.73296e-03 -2.85333e-03 8.96278e-04 -3.55815e-03 -1.14342e-03 -4.97496e-03 8.74505e-03 3.37456e-03 -2.24934e-03 4.41788e-03 -3.84168e-03 -3.81946e-03 4.62905e-04 5.81240e-03 -1.87129e-04 7.41547e-04 3.03557e-04 0 1.36396e-04 0 1.01678e-04 -2.76034e-04 0 -2.07650e-04 2.23277e-04 4.89379e-04 -6.20755e-04 8.89095e-04 1.05970e-03 0 3.94715e-04 0 -1.60264e-04 -3.49006e-04 -1.30825e-04 0 -7.17343e-04 3.37507e-04 2.62619e-04 -2.48419e-04 -7.08413e-04 4.77104e-04 -3.02820e-04 -1.32393e-03 3.14827e-04 -1.22042e-03 6.63030e-04 2.44305e-03 -1.57272e-03 -4.72525e-04
1.39070e-02 -1.66322e-03 -1.35133e-02 -5.39890e-02 1.28403e-01 2.09468e-02 -5.27107e-02 2.09160e-02 1.33354e-02 1.44803e-01 -3.08096e-02 -1.54722e-01 6.07955e-03 -1.67609e-01 1.02529e-01 1.16682e-02 -2.38775e-02 -2.63222e-03 7.14853e-03 -5.37357e-03 -2.93452e-03 -9.86746e-04 7.24534e-04 -1.53908e-03 -1.06201e-04 1.68391e-03 1.77567e-03 -6.13443e-04 4.81201e-03 0 -1.66731e-04 1.12845e-03 5.32996e-04 1.72301e-04 0 -2.92668e-04 -1.52606e-04 0 6.05055e-04 -3.13287e-04 -3.91586e-04 -3.31569e-04 -1.29641e-04 0 0 0 -2.13616e-04 4.86310e-04 -2.49513e-04 -2.86596e-04 -3.12956e-04 0 -6.80203e-04 0 0 -2.03468e-04 4.02289e-04 0 0 0 -1.05892e-04 -1.19982e-04 0 0 0 -1.87546e-04 0 0 -1.66752e-04 0 -1.16544e-04 0 0 -1.17381e-04 -1.45676e-04
-6.54457e-03 -4.53717e-03 1.87552e-02 -6.84199e-02 3.97771e-02 -5.86876e-03 1.27432e-01 -6.01565e-02 -2.74321e-02 1.18737e-02 2.66435e-02 7.89370e-02 -6.94780e-02 1.96249e-02 -5.23173e-02 6.62959e-03 -8.08782e-03 -1.00780e-03 -1.67213e-02 1.24085e-02 6.21780e-03 -2.85028e-04 3.35393e-04 -3.81759e-04 4.29131e-04 -5.10073e-04 1.30003e-04 1.68196e-04 1.06512e-03 -2.72752e-04 4.38761e-04 -2.36464e-03 -1.04520e-03 -1.75773e-04 0 5.75718e-04 2.64134e-04 0 -1.16989e-03 -1.62065e-04 0 0 0 0 0 0 0 1.93952e-04 -1.59611e-04 0 0 -1.51668e-04 -1.05775e-04 1.51229e-04 0 0 1.69451e-04 1.03608e-04 0 0 2.18212e-04 2.87806e-04 -1.61192e-04 0 0 3.97017e-04 1.23526e-04 0 3.17324e-04 1.82458e-04 2.26905e-04 -1.41766e-04 1.95487e-04 2.74986e-04 2.78950e-04
4.41051e-02 8.88936e-02 -1.91583e-01 -4.43487e-02 -3.88204e-02 2.64307e-02 2.15560e-02 6.24955e-04 6.61582e-02 1.07122e-01 6.27673e-02 -3.21605e-01 4.79093e-02 3.78224e-02 -1.65896e-01 2.55211e-04 1.14764e-03 0 -1.12944e-04 -5.16218e-04 -8.33793e-04 2.20555e-04 -2.33994e-04 0 1.22036e-04 -1.86471e-04 -1.22616e-04 2.15577e-04 -1.87199e-04 0 -1.58784e-04 0 0 0 0 0 -3.34584e-04 2.41542e-04 1.45615e-04 0 0 0 0 0 0 0 0 0 0 0 0 0 0 0 0 0 0 0 0 0 0 0 0 0 0 0 0 0 0 0 0 0 0 0 0
1.27208e-01 -9.70609e-02 -3.41567e-02 -3.37601e-02 1.22341e-02 1.18412e-02 -2.12606e-02 2.04083e-02 3.36053e-03 -1.26839e-01 5.75604e-02 4.86523e-01 1.52652e-01 3.97723e-01 -4.01981e-01 3.35635e-04 -9.57163e-04 0 6.58106e-04 -7.34308e-04 -7.64872e-04 0 0 0 0 0 0 0 0 0 0 0 0 0 0 0 0 0 0 0 0 0 0 0 0 0 0 0 0 0 0 0 0 0 0 0 0 0 0 0 0 0 0 0 0 0 0 0 0 0 0 0 0 0 0
1.19859e-01 1.09957e-01 8.16421e-02 -4.77319e-02 -4.05925e-02 1.37417e-02 -2.50869e-02 -1.20026e-02 -5.55088e-02 3.80262e-01 1.58215e-01 2.93269e-02 3.02619e-01 6.43468e-02 2.78038e-01 2.28492e-04 1.06121e-03 -1.45428e-04 0 3.77862e-04 6.16218e-04 1.63496e-04 -1.60201e-04 0 1.31230e-04 -2.03045e-04 -1.07160e-04 1.83473e-04 -1.62100e-04 0 1.61175e-04 0 0 0 0 0 2.68212e-04 -1.81342e-04 -1.13792e-04 0 0 0 0 0 0 0 0 0 0 0 0 0 0 0 0 0 0 0 0 0 0 0 0 0 0 0 0 0 0 0 0 0 0 0 0
1.12819e-03 8.27259e-04 -1.18856e-03 6.89914e-03 -1.24230e-02 -2.50997e-03 -7.18035e-03 1.20792e-02 2.61849e-03 5.67254e-01 2.78099e-01 2.95261e-01 -5.76332e-01 -2.85757e-01 -2.80831e-01 -1.15392e-04 1.88868e-04 0 1.54867e-04 -1.47889e-04 0 0 0 0 0 0 0 0 0 0 0 0 0 0 0 0 0 0 0 0 0 0 0 0 0 0 0 0 0 0 0 0 0 0 0 0 0 0 0 0 0 0 0 0 0 0 0 0 0 0 0 0 0 0 0
2.79960e-02 3.20464e-02 -8.47428e-02 -5.63129e-03 -3.23116e-03 -3.66557e-04 4.23090e-03 1.83296e-03 4.76445e-03 -3.74531e-01 2.14654e-01 5.07162e-01 9.01472e-02 -5.44658e-01 3.65951e-01 0 0 0 0 0 0 0 0 0 0 0 0 0 0 0 0 0 0 0 0 0 0 0 0 0 0 0 0 0 0 0 0 0 0 0 0 0 0 0 0 0 0 0 0 0 0 0 0 0 0 0 0 0 0 0 0 0 0 0 0
-1.45091e-01 -6.93202e-02 -7.29185e-02 1.41366e-02 7.62764e-03 3.52345e-03 1.23954e-02 4.76320e-03 9.35394e-03 4.54728e-01 2.17631e-01 2.26196e-01 4.50455e-01 2.08929e-01 2.27622e-01 0 0 0 0 0 0 0 0 0 0 0 0 0 0 0 0 0 0 0 0 0 0 0 0 0 0 0 0 0 0 0 0 0 0 0 0 0 0 0 0 0 0 0 0 0 0 0 0 0 0 0 0 0 0 0 0 0 0 0 0
2.11353e-02 2.51197e-02 -6.66148e-02 -8.42975e-04 -6.22759e-04 5.03069e-04 3.12471e-04 0 1.18187e-03 1.47838e-01 -6.03175e-01 2.81691e-01 -3.82400e-01 3.22968e-01 4.59112e-01 0 0 0 0 0 0 0 0 0 0 0 0 0 0 0 0 0 0 0 0 0 0 0 0 0 0 0 0 0 0 0 0 0 0 0 0 0 0 0 0 0 0 0 0 0 0 0 0 0 0 0 0 0 0 0 0 0 0 0 0
-4.60945e-02 8.02063e-02 1.57424e-02 1.18119e-04 -5.80162e-04 0 2.33897e-04 -4.00856e-04 -2.79346e-04 1.56453e-01 -5.93449e-01 2.55478e-01 3.77380e-01 -3.35433e-01 -4.36291e-01 0 0 0 0 0 0 0 0 0 0 0 0 0 0 0 0 0 0 0 0 0 0 0 0 0 0 0 0 0 0 0 0 0 0 0 0 0 0 0 0 0 0 0 0 0 0 0 0 0 0 0 0 0 0 0 0 0 0 0 0
